801016839
801027644
800095187
801049211
800110730
800114357
801065870
801085976
800095187
800110730
800114357
800173129
800187984
800283320
800295457
800296301
800366464
800368961
800421854
800447980
800460210
800462434
800473003
800486938
800495981
800497606
800498980
800514695
800531213
800551341
800556492
800565968
800569958
800583994
800586417
800593209
800629458
800633856
800636823
800681206
800699944
800704536
800716112
800845218
800851454
800852059
800867948
800874815
800925028
800931968
800933365
800980200
801016839
801027644
801049211
801065870
801085976
801113480
801131006
801190018
801193078
801194063
801197920
801220273
801223843
801256870
801305346
801317153
801320058
801373105
801384508
801416333
801434734
801445049
801449835
801466646
801495313
801511267
801514804
801534354
801537470
801538668
801569613
801576416
801612910
801616763
801617265
801642462
801658595
801750542
801764148
801764853
