710011385
710022856
710034778
710045271
710054848
710069909
710077060
710095196
710099455
710099992
710101853
710107423
710116131
710119475
710125316
710128594
710139962
710143736
710158712
710163889
710198031
710210067
710214476
710227000
710246825
710282560
710305307
710314423
710332551
710335996
710400981
710405228
710428399
710434759
710450567
710454567
710480971
710490272
710490926
710525670
710549932
710567926
710582677
710598502
710606222
710610306
710633427
710659031
710674525
710713080
710717048
710772251
710782535
710784316
710840747
710856072
710907963
710912200
710933387
710955964
710971179
711021402
711031512
711034071
711047597
711060831
711094563
711110100
711133187
711139182
711139348
711187563
711194761
711258058
711261159
711272754
711277631
711325382
711337779
711355587
711370874
711382772
711415857
711466327
711466906
711499195
711524288
711532341
711541419
711565208
711567817
711590986
711591494
711601629
711621903
711627407
711629789
711662236
711682877
711694534
711710119
711713578
711713744
711730329
711749988
711753301
711753216
711823235
711824650
711835442
711845106
711850795
711863263
711863440
711881263
711926673
711934255
711966336
711969543
711974865
711995839
711998265
712009322
712023865
712036331
712040818
712050120
712076581
712083637
712086021
712087191
712119126
712121992
712129219
712148503
712164034
712175558
712177827
712179462
712232262
712234958
712243510
712257465
712270910
712271518
712275821
712296675
712307151
712314049
712330992
712368812
712369555
712382716
712403348
712410815
712414732
712435677
712457744
712473929
712479060
712547520
712565713
712578893
712581065
712582892
712584237
712592280
712592898
712625953
712634021
712637418
712646137
712653138
712659347
712678183
712738539
712738945
712739477
712744443
712797676
712816090
712870572
712873731
712909663
712935705
712937095
712946326
712966678
712977127
713082115
713083580
713087590
713092606
713101291
713101540
713103646
713106882
713112649
713160217
713166006
713179908
713192004
713194665
713220511
713224067
713243563
713244014
713257019
713257946
713258527
713283901
713293957
713305026
713309006
713312363
713326439
713350982
713355222
713355588
713363541
713379133
713379792
713402042
713410770
713424334
713431004
713458421
713515493
713517414
713527345
713531562
713531637
