800063780
801026125
800107873
801075616
800063780
800107873
800210394
800250074
800284602
800285938
800311610
800449047
800480034
800523997
800665087
800740098
800793899
800824150
800835525
800895204
800895293
800988856
801026125
801075616
801226389
801240711
801248741
801358880
801489956
801546974
801571112
801615928
801682338
801769728
