710071408
710104891
710208572
710238613
710275192
710312986
710388777
710474813
710546201
710605400
710657903
710711887
710721460
710768398
710791170
710856983
710918962
710984874
711021793
711032405
711209569
711228215
711285066
711420108
711426941
711489912
711509030
711521721
711571756
711656586
711664224
711724350
711759699
711982334
712005923
712017876
712101750
712114229
712121110
712163194
712206035
712261727
712278632
712434470
712440323
712573705
712644869
712677384
712728581
712879732
712972212
713002678
713079679
713128622
713189027
713226004
713227903
713228082
713261211
713276870
713293709
713341986
