801004374
801004374
800051614
801011728
800072954
800079881
800081577
800084714
800087960
801034777
801036044
801043955
800108257
801050908
800112905
801060407
800117014
801061420
801061452
801064723
801074710
800153272
800159438
800051614
800072954
800079881
800081577
800084714
800087960
800108257
800112905
800117014
800153272
800159438
800183969
800189397
800194552
800209434
800242359
800251926
800257224
800298154
800303891
800326943
800357753
800360986
800361166
800399439
800407726
800410634
800485843
800514292
800543029
800584208
800593929
800603223
800604811
800614740
800630562
800640154
800642034
800662038
800698098
800711308
800735587
800740302
800745207
800749626
800765273
800796343
800803243
800834908
800835789
800867034
800890097
800895281
800905613
800910974
800911816
800938490
800947715
800964516
800975777
800982858
800987831
801004374
801011728
801034777
801036044
801043955
801050908
801060407
801061420
801061452
801064723
801074710
801119062
801137270
801142740
801147944
801153580
801162642
801225929
801234124
801243638
801322201
801325736
801350691
801392074
801397933
801408951
801412978
801413097
801418771
801418743
801425314
801434553
801459010
801468671
801505277
801554020
801590868
801596618
801636230
801641685
801646851
801657119
801674311
801681108
801693070
801726170
801730228
801730668
801757091
801782532
801783596
801795203
801809146
801815898
