610001314
610016162
610043886
610070648
610090516
610099395
610099596
610101776
610112778
610116431
610124734
610130813
610146906
610152133
610154040
610172689
610183644
610193371
610199018
610205716
610208090
610210198
610210192
610211781
610215171
610216052
610232688
610266237
610276728
610288822
610289747
610292270
610304664
610305277
610326354
610330338
610336882
610344559
610360111
610375124
610384377
610395414
610397534
610413504
610462770
610485920
610506337
610595579
610596485
610605340
610621585
610630626
610640104
610650039
610669378
610680676
610681338
610684421
610684692
610691545
610699657
610704563
610705352
610722287
