731980413
1600287057
1600409645
1600942593
1600998219
1601085338
1601323359
1601332717
1601381338
1601425941
1601535917
1603110079
1603172600
1603454269
1603675212
1604118478
1604144892
1604306100
1604625791
1604945942
1605209872
1605226663
1605307102
1605860525
1605941509
1605995019
1606230226
1606249082
1607080463
1607157614
1607385648
1607713082
1607849662
1608037729
1608216996
1608433277
1608466239
1608616989
1608778605
1608924192
1608959786
1609100627
1609159697
1609359187
1609407265
1609472717
1609579373
1609682705
