710021173
710048958
710169162
710365274
710382633
710500257
710697630
710819752
710923414
711127947
711644958
711706492
711737890
711775207
712081812
712304959
712350860
712651833
713217241
713275027
713367166
713372212
713398872
