711001509
710000012
710000622
710000772
710001313
710001435
710002369
710002473
710002427
710002115
710003080
710003250
710005959
710005937
710006094
710004950
710006948
710006938
710007129
710007077
710007260
710007540
710007834
710007934
710007916
710008552
710009046
710009068
710009653
710008976
710009946
710010403
710010121
710011664
710012525
710012940
710013051
710013807
710014087
710014224
710014346
710014355
710014527
710015426
710015605
710015660
710015678
710016600
710017393
710017661
710017604
710018002
710017737
710018166
710018309
710018945
710019036
710019165
710020062
710020392
710021366
710021622
710023055
710023495
710023584
710023600
710023913
710023707
710024085
710024051
710024553
710024507
710025007
710025351
710025608
710026279
710026944
710028030
710027748
710028058
710028269
710028354
710028055
710028654
710028707
710029099
710029816
710029804
710030795
710030840
710030750
710031742
710031929
710032490
710032668
710033640
710033768
710033734
710034255
710034689
710035023
710035381
710035698
710036232
710036771
710036932
710037662
710037759
710037954
710039417
710039987
710039892
710040914
710041052
710041853
710041870
710042391
710042495
710041298
710042858
710042826
710043372
710043439
710043356
710043721
710044107
710044138
710044200
710044267
710044908
710044990
710045529
710046400
710046655
710046903
710046952
710047265
710047286
710047338
710047418
710046758
710047829
710048078
710048101
710048390
710048555
710048998
710050188
710050454
710050568
710051540
710051168
710051627
710051668
710051968
710052454
710053375
710053698
710053576
710055657
710056514
710056533
710056809
710057545
710057635
710056878
710057915
710058097
710057252
710059268
710060831
710061031
710061601
710062459
710062811
710062825
710062954
710063264
710064143
710064358
710064228
710066000
710066259
710066617
710067058
710067139
710066497
710068199
710067201
710068445
710068550
710068806
710069153
710069356
710069533
710069539
710069669
710069206
710070192
710070430
710070271
710070909
710071342
710071198
710071577
710071229
710072166
710073079
710073536
710073800
710073556
710074105
710074659
710074808
710075219
710076232
710076277
710076702
710077769
710078674
710078911
710079091
710079364
710079564
710079718
710080001
710080106
710081408
710082159
710081822
710082296
710082245
710082989
710083082
710084008
710084112
710084577
710084883
710087016
710087094
710086892
710087317
710087951
710087873
710088383
710088758
710090101
710090374
710090486
710090939
710092652
710092587
710093163
710093313
710093761
710094048
710094182
710094327
710094891
710095552
710095975
710096093
710096433
710096683
710096652
710098117
710098245
710098172
710098568
710099499
710100072
710100131
710100198
710100297
710100929
710101602
710101818
710102114
710102955
710103246
710103253
710103219
710103251
710103618
710104152
710102913
710105230
710106280
710106524
710106926
710107188
710107616
710108020
710107435
710108405
710109263
710109180
710110925
710110966
710110959
710111745
710112433
710113187
710113582
710114061
710114043
710114089
710114517
710115434
710115850
710115815
710116059
710116778
710117177
710117180
710117657
710117737
710117833
710117916
710119421
710119165
710119469
710119346
710119527
710120970
710121271
710121420
710121440
710121297
710122638
710123526
710124091
710124412
710124627
710124703
710124711
710125066
710126104
710127458
710127952
710128157
710128616
710128804
710130310
710130295
710130703
710131082
710131789
710132070
710132232
710132077
710132686
710132754
710133063
710133501
710133362
710133609
710133256
710134593
710134640
710134579
710134785
710134923
710136190
710137518
710137937
710138080
710138209
710138434
710138679
710138745
710138603
710139211
710139447
710139949
710140183
710140522
710140674
710140801
710141332
710141709
710141909
710142365
710142656
710142345
710144608
710145491
710145639
710146932
710146989
710147036
710148091
710148458
710148773
710149236
710149810
710150088
710150361
710151117
710151127
710151307
710150671
710151388
710152243
710152069
710153165
710153797
710153746
710154145
710154087
710154159
710154357
710154763
710154878
710154890
710155571
710155765
710156806
710155909
710156775
710157029
710157247
710157110
710157195
710157518
710157363
710157796
710158785
710158524
710158836
710159386
710159494
710161467
710160569
710162136
710162352
710162933
710162941
710163493
710163800
710163846
710163106
710164738
710164724
710165273
710166380
710166585
710166555
710166887
710167707
710169389
710169724
710169857
710169583
710170089
710170825
710170923
710171108
710171168
710171187
710171240
710171977
710171968
710172088
710172219
710173666
710173798
710174088
710174096
710174340
710174575
710175064
710175125
710175292
710175356
710176017
710176742
710177364
710178073
710177807
710178585
710179312
710178952
710180314
710181078
710181591
710182642
710182504
710183093
710183377
710183542
710183571
710183938
710183974
710183907
710184475
710184424
710184914
710185025
710185215
710186151
710186325
710186570
710186884
710187245
710188815
710189267
710189567
710190167
710190601
710191253
710191213
710191253
710191606
710191580
710192982
710193169
710193621
710193704
710194178
710194187
710194482
710194450
710194483
710195300
710195610
710195856
710195913
710196005
710196340
710197037
710197548
710197647
710197761
710197760
710197770
710198487
710199541
710199855
710200119
710200956
710200971
710201051
710201434
710201874
710202294
710202222
710202529
710202459
710202552
710203196
710204048
710204945
710205276
710205585
710206158
710206289
710206404
710206473
710207187
710206857
710207783
710208169
710207916
710208455
710209337
710209860
710210029
710211083
710211477
710211777
710212001
710212015
710212910
710212848
710213571
710213721
710214575
710215443
710215656
710215855
710216536
710217019
710217233
710218060
710218558
710218836
710219901
710221200
710222470
710222565
710222525
710223008
710222872
710223968
710223975
710223881
710224299
710224307
710225469
710224839
710225528
710226033
710226328
710226483
710226533
710226641
710226748
710226842
710227254
710227819
710227811
710227258
710228091
710228929
710229318
710229070
710229790
710223143
710230376
710229964
710230552
710232288
710233004
710234204
710234302
710235201
710235625
710236481
710236995
710237877
710237457
710238240
710238651
710238378
710238667
710239347
710238639
710239452
710240089
710240430
710237649
710241481
710241904
710242072
710242188
710242464
710242509
710242466
710242201
710243026
710243721
710243801
710244220
710245410
710245909
710246089
710246740
710246914
710247150
710247214
710247729
710247617
710248213
710248492
710248448
710249056
710249213
710250558
710250584
710251313
710251494
710251591
710252772
710252778
710253036
710252650
710253135
710252998
710253973
710253939
710254176
710253779
710254375
710254939
710255189
710255498
710255621
710255776
710255284
710256406
710256493
710257159
710256907
710257377
710257592
710257871
710257935
710258055
710258264
710258251
710258960
710259742
710259530
710260210
710260782
710261209
710262465
710262339
710262633
710262522
710262801
710262567
710263081
710263118
710263698
710264495
710264800
710264883
710264876
710265404
710265535
710265534
710265528
710266001
710266448
710267148
710267437
710267818
710268265
710267428
710268596
710268714
710269097
710270657
710271311
710271461
710271708
710271718
710271667
710272261
710272307
710272839
710273056
710273524
710274249
710274116
710274231
710275487
710275741
710276176
710276509
710277376
710277595
710277686
710277615
710278113
710277706
710278631
710278847
710279100
710280600
710280506
710281128
710281582
710281437
710282129
710282543
710282775
710283250
710283107
710283456
710283568
710283766
710284094
710284237
710283633
710284549
710285533
710285561
710285279
710286657
710287080
710287002
710287277
710287556
710287696
710287910
710288020
710287571
710288382
710288421
710288500
710288709
710288901
710288971
710289248
710289690
710289368
710289913
710291095
710291107
710291997
710292572
710293379
710293269
710293544
710293759
710293392
710295054
710295472
710295494
710297316
710297679
710297845
710298564
710298390
710298569
710298686
710299314
710299448
710300179
710300219
710300318
710300424
710300592
710300836
710300979
710301028
710301433
710301733
710302001
710302732
710302889
710302989
710303199
710303459
710304307
710305148
710305220
710305394
710305633
710305657
710306122
710306283
710308065
710308220
710308819
710309313
710309854
710310114
710310228
710310454
710310757
710311588
710311793
710311538
710312294
710312690
710312672
710313236
710313670
710313855
710313794
710314628
710315037
710315192
710315642
710315658
710316203
710316836
710317206
710317277
710317629
710317420
710317988
710318434
710319024
710319417
710319494
710319705
710319850
710319980
710320117
710320081
710320561
710321087
710322473
710322529
710322863
710323144
710324188
710324235
710324357
710324796
710325393
710325405
710325358
710326048
710326260
710325761
710327191
710327329
710327812
710327887
710328413
710328527
710329221
710329314
710330134
710330589
710330601
710330664
710331136
710331699
710331884
710331821
710332277
710332400
710332942
710334441
710335208
710335556
710335970
710338053
710338070
710338939
710338308
710338489
710339124
710339423
710339458
710339292
710340146
710340446
710340664
710340490
710341316
710341114
710341628
710342133
710342985
710343249
710343326
710343077
710343808
710344702
710344860
710344975
710345779
710346041
710347050
710347286
710347831
710348025
710348240
710348608
710349393
710349656
710349625
710350537
710350409
710351539
710351542
710352005
710352130
710352190
710352371
710352829
710352940
710353899
710354305
710354499
710354474
710354665
710354980
710355190
710355108
710355413
710355346
710355713
710355541
710356318
710357235
710357739
710358243
710357605
710358628
710359292
710359907
710360971
710361168
710361290
710362471
710362585
710362079
710363461
710363539
710363628
710363605
710363918
710363987
710364535
710364722
710365151
710365629
710366635
710367201
710367699
710368039
710368066
710368316
710368358
710368901
710369030
710369414
710369714
710370657
710370745
710371235
710370691
710371711
710371579
710371786
710372339
710372627
710373011
710374368
710374388
710374776
710374854
710375223
710375944
710376909
710377182
710377265
710377304
710377756
710378244
710378510
710378533
710378865
710379997
710379867
710380145
710380205
710380328
710380116
710380728
710380489
710380861
710381124
710381405
710381624
710381910
710383033
710383425
710383064
710383913
710384666
710385160
710385114
710385778
710386394
710387244
710387450
710387675
710388052
710388522
710387980
710389096
710389236
710389662
710389607
710390203
710390348
710390668
710391137
710391446
710391070
710392400
710391863
710393240
710393313
710392944
710393749
710395750
710396318
710396473
710396713
710396781
710396922
710397308
710397334
710397547
710397243
710398314
710399321
710399081
710399571
710400768
710400849
710400874
710401097
710400149
710401659
710401764
710401794
710400000
710403697
710403922
710405019
710405160
710405381
710406310
710405745
710406786
710407069
710407693
710409121
710409059
710409243
710410245
710410419
710410944
710411729
710411789
710412232
710412831
710413176
710413480
710413783
710413429
710414332
710414660
710414678
710414476
710414966
710415118
710415292
710415212
710415745
710416267
710416997
710417074
710417474
710417627
710417998
710417969
710418585
710418567
710417857
710420924
710420877
710421293
710421591
710421872
710422073
710422896
710424190
710425695
710425944
710425874
710426011
710426019
710426115
710426393
710425375
710426624
710426892
710427072
710428011
710428417
710428418
710428692
710429159
710429271
710430565
710430695
710430740
710430936
710431150
710431405
710431664
710432680
710432214
710433620
710434161
710434502
710435125
710435026
710435192
710435346
710435700
710436447
710436460
710436670
710436625
710437436
710438589
710438617
710438847
710437942
710438946
710439957
710440986
710441244
710441538
710442238
710442242
710442439
710442499
710442882
710443239
710443534
710443773
710443795
710444444
710444529
710444876
710444922
710445576
710445776
710445822
710446538
710447270
710447291
710447344
710446974
710446908
710447510
710447365
710448272
710448316
710448751
710448913
710449011
710449107
710449381
710449244
710450303
710451052
710451946
710452282
710452070
710452847
710452855
710452525
710453197
710453682
710455317
710455402
710455648
710456091
710456303
710456631
710456870
710457405
710457890
710458745
710458899
710458972
710459605
710460639
710462725
710462729
710462883
710464451
710465428
710465557
710465826
710465941
710466358
710466658
710468644
710468392
710469540
710469781
710470346
710471600
710471769
710472637
710473070
710472961
710473368
710473376
710473589
710473640
710473439
710473858
710473971
710474656
710474712
710474893
710474934
710474992
710474973
710475218
710474903
710475853
710476383
710477761
710478205
710478434
710478497
710478255
710478798
710479454
710479875
710480015
710480814
710480701
710480944
710481236
710481024
710481474
710481846
710482205
710482717
710482967
710483238
710483533
710484042
710484236
710484625
710484507
710484677
710485262
710485082
710485544
710485541
710485600
710485671
710485938
710485384
710486485
710486566
710487291
710487343
710488262
710488414
710488273
710489129
710489042
710489261
710489498
710489939
710490160
710490639
710491029
710491053
710492629
710492479
710493053
710493709
710493823
710493865
710494124
710494892
710495105
710496278
710496594
710496776
710496525
710498181
710497593
710498614
710498515
710499238
710499103
710499899
710499881
710501199
710501528
710501191
710501648
710501933
710502649
710503067
710503501
710503775
710503479
710503853
710504285
710504934
710505124
710505149
710506259
710506361
710507440
710507646
710508676
710508800
710509841
710510066
710510274
710510391
710510678
710511016
710511571
710511603
710511835
710512427
710512432
710512498
710512255
710512622
710512437
710512946
710513257
710513344
710513221
710513979
710496129
710514229
710514169
710514496
710514932
710515468
710516670
710516820
710516930
710516897
710517319
710518102
710518234
710518896
710520327
710521045
710521567
710522629
710522652
710522935
710523140
710523363
710522840
710523455
710522587
710523750
710523851
710524832
710524861
710525139
710524507
710525398
710526731
710526816
710527642
710527807
710527966
710528195
710528422
710529023
710529253
710530707
710531249
710531194
710531293
710531367
710531539
710531596
710532089
710532658
710533029
710533118
710533475
710533574
710533568
710533530
710534304
710534283
710533374
710534669
710535473
710535836
710535932
710536508
710536968
710537021
710537172
710537629
710537700
710537592
710537762
710537509
710538077
710537954
710538183
710538732
710539153
710539321
710539184
710540171
710540458
710541087
710541312
710541311
710541589
710541647
710541815
710542461
710542902
710543427
710543315
710544144
710544466
710543999
710544677
710544760
710545061
710545110
710545137
710545779
710545712
710546712
710547009
710547286
710548491
710548946
710549070
710549833
710549981
710550259
710550399
710550348
710550501
710549925
710551631
710551921
710552954
710553379
710553637
710554498
710554402
710554568
710554917
710555058
710555190
710555686
710555610
710554660
710555887
710556801
710557393
710557623
710558091
710558375
710558380
710558479
710558589
710558672
710559564
710559748
710559938
710562042
710562117
710562500
710562844
710562337
710563567
710563627
710563616
710563517
710563680
710563860
710564314
710564654
710564295
710564991
710565480
710565850
710565821
710566160
710566356
710567021
710567244
710567349
710567702
710567980
710568138
710568234
710568616
710569572
710569378
710569705
710570168
710570613
710570441
710570946
710571054
710571116
710571696
710571701
710571929
710572095
710572409
710572896
710573256
710573556
710573874
710573809
710574393
710573698
710574620
710574806
710574902
710575798
710576099
710576315
710576353
710576092
710576555
710577296
710577366
710577733
710578393
710578958
710579420
710579370
710580067
710580216
710580482
710580884
710581240
710581519
710581597
710582667
710583125
710583127
710582853
710583391
710583725
710583807
710583995
710584763
710584686
710585411
710586540
710586769
710587163
710587041
710587936
710587694
710588260
710588426
710588332
710589254
710589606
710590232
710590279
710590566
710590828
710591453
710591598
710591603
710591724
710591837
710591873
710592080
710592008
710593912
710594067
710594270
710594186
710596945
710597345
710597090
710598072
710598449
710598476
710598850
710598915
710598993
710598977
710599734
710600854
710600982
710601902
710602016
710602487
710602735
710602958
710603278
710603520
710603749
710603914
710604310
710604283
710604487
710604560
710605889
710605519
710606330
710606763
710607062
710607146
710607073
710607029
710607295
710607923
710608261
710608313
710608938
710609183
710608636
710609333
710610224
710611615
710611646
710612315
710612590
710612803
710614677
710615037
710615580
710616008
710615799
710617104
710617350
710616873
710617468
710617697
710617289
710617947
710617782
710618035
710617715
710618267
710618316
710617803
710618556
710619758
710619831
710619700
710620349
710620148
710621008
710622043
710622336
710622526
710622975
710623158
710623800
710624487
710624674
710625599
710625392
710625586
710627640
710628194
710628261
710628478
710628644
710629469
710629747
710629795
710629823
710630298
710630545
710630586
710630273
710630917
710631770
710632141
710632099
710632326
710632445
710632673
710633480
710633567
710635026
710636123
710635243
710636631
710636929
710636943
710636996
710636476
710637744
710637712
710636952
710637368
710638332
710638875
710638975
710639289
710639410
710639369
710639962
710641521
710641917
710642393
710642501
710643425
710643716
710644100
710644482
710644616
710644759
710644880
710644957
710645198
710645443
710645806
710646565
710646438
710647879
710648202
710649060
710649505
710649447
710649770
710650280
710651574
710651644
710651213
710652885
710653451
710653494
710653811
710654383
710655367
710655428
710656610
710656650
710657348
710657491
710658144
710658267
710658493
710658718
710658864
710659177
710660374
710660885
710661162
710661274
710661235
710661885
710661922
710661393
710662556
710663000
710662665
710663682
710663951
710663090
710664058
710664502
710664604
710664459
710664627
710664858
710665117
710665537
710666016
710666018
710666029
710666125
710666354
710666462
710666724
710667735
710667864
710668080
710668097
710668885
710669253
710669672
710670302
710670789
710670866
710671041
710671252
710672215
710671798
710672551
710672894
710673100
710674150
710672987
710674852
710674963
710675500
710675434
710675873
710675948
710676038
710671745
710677818
710677847
710677712
710678226
710678109
710678286
710678856
710679305
710680216
710678980
710680691
710680292
710682049
710681717
710682807
710682711
710682898
710683297
710683400
710683972
710684389
710684937
710685968
710686230
710686149
710686420
710686410
710686820
710686965
710687673
710687852
710687938
710688059
710688422
710689387
710690631
710690631
710692121
710692346
710692496
710692892
710693201
710693609
710695148
710695287
710696488
710696572
710696528
710696627
710697094
710697086
710697115
710697231
710698628
710698800
710698836
710700003
710700097
710699290
710700187
710701112
710701521
710701695
710701861
710702129
710702400
710702686
710703204
710703604
710704046
710704052
710704545
710706559
710707598
710708026
710708029
710707695
710709012
710708933
710709065
710709161
710709632
710711420
710711680
710711666
710711749
710712668
710713352
710713905
710714513
710714920
710715069
710715478
710716019
710716202
710716035
710717335
710717773
710718302
710719268
710719299
710718034
710720230
710720722
710720841
710721105
710721415
710721982
710722537
710722557
710722567
710722852
710723072
710723597
710723174
710724379
710724798
710724974
710724525
710726646
710725902
710727223
710727642
710727894
710727532
710728208
710728340
710728485
710728671
710728633
710729488
710730618
710730969
710731230
710731523
710732154
710732366
710732968
710733201
710734624
710734801
710735175
710731940
710735520
710735784
710736272
710736427
710736350
710737583
710737685
710737013
710736780
710738385
710739392
710739402
710740023
710740332
710740507
710740652
710741045
710741921
710741770
710743160
710743022
710743538
710743718
710744208
710744404
710744453
710744831
710745013
710745609
710746088
710746461
710746577
710746600
710746653
710747522
710747675
710747839
710747980
710748957
710749178
710749126
710749618
710749390
710751050
710751347
710752512
710752249
710753161
710752921
710753228
710754141
710755226
710755781
710756033
710756410
710756670
710757117
710756938
710757042
710757731
710757947
710758398
710760024
710760033
710759978
710759503
710761027
710761373
710761382
710761476
710761450
710762402
710762733
710762837
710763399
710764136
710765045
710764916
710765118
710765960
710763925
710766229
710766635
710767207
710767918
710768079
710768793
710768935
710769578
710769574
710769982
710770076
710770351
710771746
710771892
710771932
710772099
710774004
710773942
710774579
710774685
710774942
710775584
710775394
710777098
710777441
710777996
710778156
710777803
710778956
710780321
710780453
710780651
710780706
710780999
710781123
710780496
710782048
710782447
710782460
710782615
710783081
710783167
710783766
710783811
710784032
710783994
710784492
710784674
710784792
710784978
710785422
710785542
710785502
710785783
710787518
710788004
710788025
710788296
710788513
710788919
710789124
710788851
710789225
710789378
710789334
710789653
710789640
710790010
710790245
710790392
710790515
710790393
710790709
710790770
710790952
710773038
710791513
710792008
710792430
710792498
710792481
710792548
710793756
710794152
710794321
710793326
710794336
710794874
710795452
710795858
710796224
710796426
710796706
710796415
710797295
710797422
710797464
710797512
710797441
710797972
710798034
710798335
710799196
710799174
710799208
710799273
710799271
710799848
710800117
710800524
710800539
710800991
710801057
710801809
710802304
710803300
710803904
710804409
710804613
710806113
710806664
710806708
710807801
710808655
710808999
710809109
710809564
710809243
710809659
710809927
710810470
710810381
710812347
710813900
710813943
710813769
710814497
710815132
710815164
710815359
710817072
710817037
710817594
710817653
710817696
710818186
710818505
710818746
710818411
710819119
710818997
710818532
710819875
710821093
710821202
710823378
710823408
710823501
710823746
710824384
710824529
710824755
710824850
710825237
710825080
710825908
710824767
710826568
710826770
710827489
710828497
710828828
710829580
710829600
710829834
710830569
710830695
710831899
710831898
710831903
710831653
710832363
710833308
710833295
710833158
710833318
710833579
710833873
710833923
710833961
710833740
710835016
710836857
710836785
710837803
710837976
710838023
710838158
710838236
710838556
710838700
710838558
710838926
710839571
710839630
710839886
710840846
710841079
710841050
710841271
710841515
710841738
710842167
710842116
710842164
710842812
710842879
710842864
710842789
710843243
710843358
710843341
710843524
710843684
710844140
710843857
710844328
710844406
710845218
710845281
710845350
710845569
710846420
710847170
710847462
710847368
710847880
710848615
710848606
710849237
710850009
710850163
710850658
710851138
710851017
710851410
710851750
710851894
710852032
710851654
710852423
710853291
710853232
710853426
710853657
710854019
710854383
710853354
710854020
710854672
710855781
710855401
710857046
710857318
710858063
710858800
710858712
710858395
710858803
710859119
710859254
710859452
710860530
710861189
710861330
710861107
710861657
710861579
710861843
710862047
710861693
710862474
710862543
710863280
710863688
710864037
710864488
710864711
710864944
710865142
710865156
710865201
710865271
710865852
710865676
710867202
710867239
710867201
710867462
710867856
710868937
710869167
710869591
710869851
710871093
710871304
710871492
710871693
710873633
710873129
710874232
710874848
710874971
710874966
710874895
710875732
710875658
710876244
710876507
710876663
710877162
710877246
710877272
710877743
710877954
710878328
710879317
710879442
710879554
710880804
710881091
710881126
710882050
710882286
710881426
710881822
710882525
710884615
710885348
710886781
710886984
710887470
710888634
710888979
710889515
710890027
710890340
710890588
710890439
710890507
710890771
710890814
710891664
710892040
710892091
710892294
710893111
710893284
710892530
710893483
710892902
710894272
710894080
710894719
710895119
710895561
710895719
710896209
710896157
710895013
710896339
710896672
710897137
710897444
710897734
710898310
710897775
710898627
710898512
710898386
710899355
710900526
710900459
710900706
710900763
710901468
710901715
710902523
710902798
710902874
710903368
710902995
710904037
710904319
710903865
710905256
710905515
710905694
710906191
710907215
710907002
710908939
710910052
710910586
710911104
710911858
710912628
710913419
710913712
710914151
710914291
710913972
710913933
710915048
710915497
710915532
710915574
710915530
710915615
710916113
710917450
710917543
710917611
710917867
710918568
710918704
710918741
710918725
710918380
710918790
710918868
710919167
710919277
710919946
710919724
710920567
710920159
710921424
710921433
710922336
710922736
710923789
710923836
710924658
710924751
710924865
710924894
710925375
710925493
710909140
710926192
710926539
710928388
710929035
710929087
710928954
710929718
710930050
710930123
710929782
710930827
710930552
710931488
710931566
710931694
710931930
710931599
710933506
710933886
710934542
710934687
710934727
710934215
710935124
710936000
710936012
710936451
710936776
710937272
710937598
710938250
710939126
710938717
710940007
710939909
710940400
710940409
710940670
710940628
710940820
710940391
710941431
710942287
710942909
710942900
710943405
710943376
710943708
710943702
710944484
710944818
710944256
710945349
710945485
710946106
710946352
710946460
710946963
710947075
710947280
710947029
710946900
710948412
710949270
710949302
710949433
710950877
710950610
710951223
710951310
710951914
710952395
710952447
710953178
710953869
710954263
710954564
710954955
710955093
710955866
710956208
710956093
710956609
710957113
710957563
710957744
710958250
710958419
710958928
710959187
710959601
710959938
710960871
710962138
710962829
710963073
710964009
710964658
710965099
710965573
710965898
710965880
710966369
710966704
710966569
710967055
710967025
710967232
710967816
710969209
710969616
710969339
710969730
710971060
710971154
710971362
710971494
710971746
710972003
710971997
710972568
710972922
710972223
710973106
710973342
710974156
710973987
710974680
710975304
710975684
710976230
710976361
710976588
710976866
710976850
710977219
710977600
710977540
710977596
710978286
710978376
710978964
710978813
710979286
710979572
710979778
710979873
710979637
710981050
710981440
710981652
710981832
710982135
710982211
710982214
710983054
710983112
710984564
710984122
710984939
710984992
710984908
710985132
710984364
710985525
710985509
710987426
710987545
710987514
710987618
710988513
710989109
710989189
710989393
710989302
710989521
710989737
710991247
710992031
710993193
710990061
710993231
710992754
710993951
710994394
710994566
710994775
710994912
710995458
710995545
710996019
710996426
710997987
710997892
710998906
710999277
710999326
710999471
710999085
710999829
710999458
711000260
711000303
711000910
711001343
711001324
711001509
711001783
711002079
711003290
711003516
711003420
711003749
711004317
711003976
711004872
711004918
711005826
711006079
711006088
711006675
711006717
711007100
711007493
711008154
711008684
711008678
711009077
711009149
711009412
711009442
711009665
711009994
711010122
711010739
711011403
711011688
711011866
711011855
711011966
711012242
711012238
711012184
711012717
711013185
711013233
711013854
711015137
711015051
711016075
711016028
711016421
711017147
711017739
711018469
711019300
711019512
711019654
711020205
711020334
711020877
711021956
711021822
711022141
711022275
711022488
711022547
711021778
711023291
711023453
711024379
711024673
711025436
711026124
711027024
711027542
711027642
711027768
711028079
711028650
711029203
711029737
711030030
711030171
711030216
711030283
711030638
711031036
711031961
711032387
711032347
711033071
711033975
711034708
711034877
711035406
711035038
711035985
711038303
711038358
711039006
711039005
711039325
711039511
711040119
711041110
711041070
711042399
711042136
711042362
711043682
711044052
711044345
711045292
711044737
711045945
711045818
711046367
711046716
711046152
711047300
711047689
711047842
711048028
711048433
711048571
711048944
711049751
711050766
711051086
711051189
711051040
711051383
711051543
711051260
711051929
711051842
711051916
711053548
711053974
711054383
711054741
711054613
711055398
711055504
711055929
711055926
711056580
711056885
711057221
711057984
711058561
711058770
711058990
711058650
711059174
711059635
711060761
711060789
711062053
711062352
711063605
711064173
711064438
711065621
711065652
711065548
711065480
711065680
711066251
711066326
711066524
711067207
711067375
711067662
711067788
711067417
711066683
711068872
711069350
711069851
711069984
711070159
711070058
711070075
711070846
711071650
711071861
711071924
711072286
711072613
711073174
711073542
711074524
711074976
711074087
711076723
711077437
711077630
711078674
711078804
711079274
711079492
711080205
711080010
711080462
711080305
711080351
711081012
711080878
711081862
711081639
711082387
711082938
711082962
711083214
711083266
711083535
711083877
711084204
711084905
711084937
711085094
711085088
711085466
711085548
711086128
711086659
711086707
711086656
711086861
711086866
711086912
711088378
711088479
711088638
711089152
711089157
711089426
711090478
711089985
711090771
711091574
711092421
711092646
711092873
711093874
711094144
711094283
711094424
711094463
711094905
711095145
711096390
711096545
711097062
711096404
711097536
711098964
711099469
711098913
711099554
711099737
711099807
711100469
711099204
711101263
711101275
711101594
711101936
711102303
711103269
711103526
711106012
711107268
711107633
711107741
711108076
711109190
711109347
711110034
711110561
711110341
711110688
711111175
711111092
711111425
711111765
711111902
711112024
711112199
711112296
711112431
711112382
711111474
711112720
711112933
711113046
711113084
711114194
711114728
711114673
711114870
711115146
711115465
711115595
711115300
711115891
711116534
711116556
711117360
711117469
711118341
711118842
711118900
711119337
711119543
711119582
711119963
711119838
711121316
711121518
711121565
711121648
711122161
711122364
711122844
711122958
711123023
711123188
711123745
711123930
711123957
711124402
711124909
711125035
711125633
711125986
711126521
711126681
711127032
711127104
711127504
711127930
711128070
711129477
711129927
711130198
711130251
711130606
711130133
711130752
711130734
711130552
711131399
711131926
711132057
711132105
711132799
711133228
711134887
711134993
711135076
711135072
711135295
711136133
711136191
711136308
711136571
711136448
711138540
711138423
711138249
711139472
711139863
711140205
711140859
711140215
711140933
711129076
711142010
711142234
711142636
711142682
711142744
711142901
711143743
711144996
711145441
711145717
711147317
711147462
711148195
711148726
711148727
711149841
711151016
711151085
711151553
711151897
711152504
711152809
711152899
711153109
711154348
711153268
711154404
711154733
711154928
711155135
711155607
711155896
711156140
711156183
711156643
711157256
711156591
711157699
711158047
711158260
711158638
711160067
711160156
711159980
711160265
711160570
711160585
711160761
711161523
711161818
711161827
711161500
711162658
711162727
711162749
711162577
711162962
711162935
711163020
711163301
711164264
711164339
711164543
711164345
711165632
711166200
711166309
711166361
711166944
711167900
711168457
711168571
711168826
711169114
711169596
711169604
711169757
711171383
711171441
711171819
711171966
711172073
711172565
711172610
711172987
711173724
711174062
711174134
711174673
711175620
711176451
711177329
711177332
711177519
711177635
711178197
711178987
711179171
711180026
711179682
711179982
711180143
711181519
711181246
711181786
711182146
711182430
711183641
711183863
711183888
711183904
711184625
711184771
711184787
711185320
711186033
711186424
711186146
711186243
711187643
711184983
711188717
711189576
711190134
711190524
711190533
711191104
711191375
711191777
711191752
711191832
711192031
711192465
711191281
711192651
711192817
711192881
711193549
711194086
711194199
711194426
711194781
711195228
711195118
711196173
711195716
711198414
711198081
711198114
711198653
711198704
711199012
711199417
711199915
711200167
711200273
711200477
711201109
711201157
711201735
711201804
711202087
711202524
711203440
711203490
711203555
711204091
711204189
711203921
711204853
711204804
711204987
711205355
711205847
711205742
711206954
711207121
711206641
711206862
711208116
711208097
711208306
711208608
711208857
711208973
711209196
711209391
711209455
711209788
711210441
711211236
711211333
711211592
711211375
711212084
711212624
711212654
711213864
711214052
711214736
711214840
711214924
711214828
711214936
711215206
711215295
711215512
711216556
711216909
711217115
711217400
711217453
711218077
711218989
711219691
711219695
711220033
711220030
711220656
711221199
711221626
711221674
711221654
711223070
711223683
711223860
711223860
711224164
711224095
711225473
711226157
711226625
711226607
711226811
711226952
711227356
711227459
711227900
711227799
711229022
711229269
711229231
711229688
711229784
711230632
711231502
711231535
711232283
711232458
711232720
711233322
711233749
711235180
711235443
711235793
711236240
711236474
711236641
711236875
711237038
711237459
711237770
711237404
711237864
711238045
711238368
711238934
711238930
711239090
711239262
711238110
711239950
711240614
711240662
711240737
711240736
711241072
711241188
711242408
711242684
711242890
711243279
711244641
711245747
711245808
711245938
711246144
711246255
711246499
711246936
711247022
711247493
711248073
711248406
711248887
711249247
711249427
711249824
711250015
711250246
711250445
711250661
711250531
711251192
711252496
711253551
711253651
711253688
711254006
711254229
711254505
711254845
711255727
711255417
711256430
711256331
711256696
711256478
711257713
711257886
711257946
711257938
711259439
711259173
711259987
711259872
711260568
711261082
711261200
711261295
711261347
711261921
711262380
711262635
711262849
711262803
711265008
711265401
711265404
711265781
711266060
711266276
711266184
711266597
711267034
711267799
711268241
711268504
711268607
711268614
711268785
711268869
711269504
711269803
711269793
711270418
711273298
711273305
711273868
711274324
711274769
711275835
711275650
711276205
711276307
711276816
711276437
711276752
711276779
711277444
711277815
711278437
711278994
711279047
711279591
711281720
711282706
711282503
711283569
711283623
711283908
711283971
711285122
711285326
711285200
711286056
711286236
711286374
711286807
711286889
711286884
711286772
711287377
711288080
711288078
711288062
711289544
711289777
711290160
711290412
711290865
711292390
711292446
711292662
711292695
711292539
711292840
711292942
711292703
711293622
711293761
711294352
711294701
711294607
711293883
711295115
711296665
711297035
711297666
711297723
711299129
711299179
711300488
711301416
711301534
711302215
711302362
711302611
711303212
711303761
711304006
711304830
711305091
711305373
711306432
711306710
711306245
711298463
711307674
711307934
711308583
711308718
711309309
711309418
711310601
711310576
711310789
711310509
711310865
711311875
711311484
711312095
711312305
711312877
711312658
711313501
711313571
711314369
711314675
711314717
711314833
711314720
711314572
711315514
711315684
711315604
711316095
711316712
711317880
711318029
711318357
711318016
711318795
711318266
711319003
711320315
711320594
711320357
711321195
711321131
711321890
711321801
711322502
711322474
711322969
711323169
711323164
711323238
711323193
711323727
711323828
711323884
711324214
711323895
711324717
711325019
711325260
711325453
711325607
711325715
711327233
711327318
711328160
711328283
711328086
711328497
711329870
711329907
711329948
711329583
711330384
711330206
711330385
711330643
711330615
711330694
711332844
711333291
711333692
711333953
711333500
711334104
711334234
711334315
711334853
711334811
711334748
711335583
711336067
711337661
711338239
711338810
711338759
711338917
711338859
711339497
711339803
711340700
711341451
711341515
711341695
711341891
711341972
711342924
711344444
711345426
711345671
711345585
711345928
711345990
711346783
711346930
711347121
711347437
711347797
711348823
711349225
711349216
711349455
711350248
711350240
711350473
711351088
711351166
711351642
711351719
711351697
711352775
711352726
711352674
711353127
711353271
711353825
711353932
711354170
711354255
711354320
711356136
711356242
711357205
711351733
711357955
711357994
711358058
711358179
711358667
711358710
711358963
711359299
711359327
711359928
711360154
711360209
711361172
711361048
711361559
711361862
711362465
711362676
711363109
711363884
711364023
711364230
711364119
711364936
711364926
711365388
711364933
711365760
711367037
711367152
711366990
711367349
711367484
711367241
711367656
711368757
711369368
711369543
711369705
711370076
711370147
711370722
711370736
711370851
711370929
711371018
711371470
711371554
711371451
711372172
711373117
711373907
711374029
711374210
711375692
711375839
711376361
711377579
711377856
711378056
711378088
711378891
711378975
711379330
711379875
711380835
711380999
711381261
711381264
711381511
711381323
711381911
711382270
711382600
711382147
711383105
711383144
711383751
711383867
711384087
711384538
711384812
711384762
711386706
711387162
711387364
711387758
711387923
711388599
711384922
711388839
711389255
711389141
711389506
711390047
711390769
711391056
711391340
711391389
711391393
711392433
711392467
711392617
711393053
711393379
711393325
711392041
711393573
711394417
711394368
711394684
711382556
711395017
711395937
711395895
711396447
711396633
711396918
711396948
711397071
711397061
711397070
711397060
711397403
711397966
711398587
711398325
711398778
711398951
711399695
711399876
711400657
711400959
711401031
711401559
711401939
711401910
711402573
711403596
711403741
711403806
711403975
711404967
711405119
711394885
711406418
711407927
711408203
711408688
711408785
711409372
711409838
711410433
711411669
711411800
711411953
711412778
711412892
711413149
711413136
711414819
711415072
711415461
711415688
711415910
711416309
711416674
711417671
711417919
711418189
711417954
711417667
711419024
711419122
711419416
711419888
711419914
711419732
711420650
711420796
711421198
711421417
711421709
711421701
711422016
711422210
711421727
711422277
711422731
711423137
711423368
711423922
711424482
711424570
711424678
711425072
711425512
711425311
711425628
711425572
711425683
711426522
711426668
711427172
711427156
711427247
711427740
711427963
711427886
711428572
711428340
711428957
711429013
711429240
711429338
711429453
711430022
711430141
711430405
711430458
711430814
711431043
711431062
711431596
711431839
711432002
711432468
711432940
711433337
711433669
711433816
711433900
711434187
711434355
711434641
711435138
711435521
711435779
711436088
711436457
711436778
711436942
711437245
711437560
711437646
711438080
711438135
711437898
711438932
711439110
711439770
711438885
711440025
711439982
711441563
711441668
711442238
711442321
711442656
711442931
711444273
711444481
711444612
711444853
711444865
711444910
711447548
711447807
711448175
711448574
711448514
711449368
711449498
711450100
711450366
711450791
711450622
711451889
711452316
711452786
711453049
711453530
711455232
711455434
711455547
711455338
711455764
711455803
711455822
711455600
711456716
711457041
711457370
711457663
711457959
711458882
711459040
711459372
711459588
711459798
711459937
711460499
711460936
711461528
711461603
711461683
711461657
711462763
711462565
711463699
711464236
711464259
711464764
711465656
711466365
711466856
711466938
711467063
711467104
711467558
711468380
711468355
711468648
711469844
711469988
711470891
711470838
711471166
711471621
711471911
711472203
711472318
711472831
711472757
711473229
711473196
711473624
711473747
711473829
711474411
711474479
711474730
711474986
711475302
711475634
711476619
711477459
711477882
711477965
711479136
711479235
711479305
711479453
711479516
711479145
711480134
711479970
711480554
711480830
711480823
711481401
711481734
711482023
711482467
711483179
711483204
711483675
711483731
711484261
711484684
711484777
711483591
711485533
711485651
711486067
711487229
711488043
711488276
711488357
711488545
711489333
711489283
711489330
711491369
711491541
711491892
711492497
711493244
711493328
711493719
711494250
711494325
711494403
711494386
711494348
711494908
711496675
711497223
711497333
711498673
711499260
711499325
711499515
711499321
711499901
711500154
711500536
711500643
711500792
711500821
711500812
711500975
711501163
711500943
711501466
711502263
711502304
711502851
711503324
711503372
711503588
711503926
711503926
711503948
711505779
711506008
711506486
711507288
711507799
711508339
711508271
711507476
711509317
711509627
711509778
711510143
711510343
711510511
711510868
711511287
711511492
711511447
711511532
711511761
711512259
711512878
711513457
711513520
711516182
711515974
711516608
711516812
711517002
711517294
711517708
711517590
711517854
711518161
711518331
711518342
711518277
711518146
711518540
711519460
711520474
711520536
711520697
711520559
711520805
711521175
711521876
711521550
711522964
711522631
711522862
711523898
711523532
711524439
711525397
711526779
711526784
711526952
711529647
711530578
711530709
711530682
711530927
711530940
711531658
711532160
711533034
711532924
711533358
711533513
711533671
711533951
711534844
711536157
711536403
711536634
711536644
711537420
711538301
711539054
711539198
711539706
711539605
711539882
711539818
711540273
711540241
711540615
711541473
711541847
711542379
711542732
711542903
711543451
711543459
711543545
711543406
711543536
711543578
711543544
711543738
711544534
711544582
711544780
711544858
711545082
711545369
711545405
711546399
711545831
711546697
711546930
711546108
711546984
711547104
711547809
711547926
711548402
711548528
711548653
711550016
711550406
711550493
711550742
711550671
711550725
711551734
711551555
711552610
711552255
711553561
711553812
711555012
711555178
711555069
711555158
711555467
711555330
711555987
711555971
711556057
711557144
711557427
711558132
711558137
711558103
711558340
711558732
711559063
711559352
711559570
711559849
711559816
711560278
711561096
711561313
711561330
711561893
711561667
711562212
711562272
711563232
711563804
711563317
711564443
711564445
711564761
711564965
711565226
711565366
711566361
711566949
711567265
711567156
711567594
711568218
711568770
711568797
711569110
711569139
711569479
711570305
711570653
711570775
711571054
711571372
711571737
711572248
711572818
711572999
711574509
711574815
711574446
711574847
711575267
711574734
711575610
711576053
711576618
711576449
711577042
711577258
711577425
711578155
711578505
711578673
711578953
711579246
711579709
711580141
711580463
711580672
711580689
711580930
711581551
711581667
711583445
711583646
711583852
711584134
711585632
711585846
711585759
711585970
711585884
711586367
711587142
711587415
711588321
711589002
711588987
711589575
711589568
711589643
711590076
711590375
711590421
711590558
711591096
711591388
711591589
711592397
711592628
711592894
711594535
711595067
711595053
711594868
711595072
711596445
711596631
711596677
711596805
711597074
711597158
711597999
711598070
711598728
711599169
711599613
711599777
711600381
711600614
711601180
711601511
711602065
711602802
711604994
711605570
711605937
711605970
711607200
711606878
711607576
711607575
711607992
711608313
711608998
711609867
711609944
711610917
711611238
711611859
711612411
711612457
711612996
711613025
711613203
711613352
711612680
711613737
711614214
711614150
711614271
711615167
711616931
711617204
711616968
711618302
711618315
711618623
711620176
711620407
711621208
711621281
711621594
711621573
711621909
711621308
711621875
711622480
711621993
711623301
711623464
711624423
711624365
711624371
711624978
711624996
711625333
711626228
711625992
711626421
711626459
711626629
711626726
711626907
711627000
711627086
711627751
711628278
711628943
711629520
711629655
711630039
711630115
711630197
711630622
711631645
711631823
711631831
711632142
711632445
711632404
711633055
711633720
711633970
711633965
711634613
711635173
711635262
711635301
711635351
711636352
711636876
711637441
711637394
711637846
711638531
711638676
711638647
711639520
711640006
711640648
711641103
711641677
711641941
711642029
711642360
711643584
711643611
711643614
711644035
711643894
711644762
711645012
711645309
711645840
711646236
711646169
711646659
711646533
711647017
711647343
711647503
711647639
711648474
711649010
711649145
711649699
711649892
711649547
711650437
711650223
711650707
711650861
711650991
711651624
711652512
711652427
711653379
711654247
711654326
711654835
711654793
711655100
711655348
711655608
711655848
711655901
711656004
711656761
711657453
711657517
711657777
711657861
711657985
711658481
711658491
711659050
711659307
711659620
711661006
711661469
711662020
711662440
711663980
711664119
711664163
711665192
711666240
711666731
711666963
711666813
711667846
711669470
711669953
711669974
711670010
711670630
711670789
711670976
711671502
711671228
711671963
711672484
711672535
711672887
711673888
711673180
711674743
711675196
711675963
711676008
711677031
711677303
711677588
711677685
711678709
711678793
711679058
711679186
711679357
711680035
711681257
711681411
711681671
711682637
711683954
711684232
711684319
711684795
711684835
711685586
711686009
711686134
711686239
711686450
711686777
711687428
711687427
711687809
711687016
711688402
711689021
711689623
711689606
711689598
711690083
711690388
711690765
711691461
711691808
711692771
711693894
711694132
711694276
711694925
711695344
711695815
711695968
711696352
711696625
711697051
711697628
711698472
711698586
711699165
711699573
711699945
711700856
711700868
711701568
711702055
711702236
711702945
711703018
711703064
711703135
711703346
711704433
711704878
711704947
711705407
711705729
711705867
711706170
711706944
711707274
711706853
711707166
711707299
711707727
711708886
711708968
711708722
711709601
711709905
711710336
711710258
711711216
711711405
711711735
711712113
711713076
711714290
711714347
711714315
711714341
711714452
711714541
711714824
711715210
711715351
711715668
711716035
711716655
711716749
711716909
711717256
711717572
711717671
711717929
711718248
711717933
711718741
711719104
711719725
711719870
711720219
711720224
711720559
711720942
711721210
711721298
711722537
711723636
711723888
711723905
711724071
711724322
711724649
711724779
711725122
711725408
711725955
711726779
711726852
711726843
711726875
711728008
711728492
711728452
711729317
711730184
711731260
711731932
711732586
711732682
711732714
711732960
711732984
711734958
711734981
711734952
711735383
711736518
711737166
711737413
711737486
711737946
711738668
711738799
711739478
711739490
711739445
711739613
711740341
711740555
711741492
711741623
711741761
711741853
711742281
711742586
711743250
711743463
711743974
711744032
711744367
711744784
711744902
711745525
711746228
711746207
711746368
711746695
711746992
711747790
711748314
711748482
711748921
711749401
711749707
711749804
711749911
711750225
711750526
711751068
711751335
711751610
711752954
711753206
711752122
711753256
711754586
711754526
711754686
711754459
711755544
711755709
711756120
711756014
711756698
711757667
711757611
711757921
711758199
711759821
711759873
711760299
711760930
711761594
711761749
711763604
711763767
711765546
711765446
711765837
711766157
711766177
711766171
711766618
711767039
711767313
711768199
711769023
711769092
711769813
711769931
711769961
711769877
711770444
711770744
711771281
711771200
711771448
711771579
711771836
711771910
711771885
711771942
711772706
711773004
711772988
711773121
711773483
711773423
711773929
711774098
711773823
711776490
711776798
711777247
711777404
711778016
711778912
711779158
711778863
711779070
711779286
711779759
711779786
711780102
711780574
711781061
711781211
711781899
711782154
711782252
711782553
711782760
711783016
711783804
711784085
711784273
711784689
711785625
711785352
711785969
711786466
711786540
711786557
711786451
711787605
711787721
711787955
711788053
711788006
711788773
711788929
711788863
711789494
711789404
711789719
711790036
711790093
711790255
711789946
711790281
711790819
711791330
711791257
711791229
711791311
711791702
711792222
711794824
711795361
711795427
711796409
711796619
711797437
711798158
711797994
711798370
711798109
711799054
711799028
711799624
711799847
711800492
711800686
711800776
711800731
711801230
711801912
711802292
711802323
711802562
711802864
711803177
711803598
711804748
711804683
711803565
711804845
711805119
711805236
711805580
711806024
711806071
711805864
711807573
711807560
711807869
711809192
711809231
711809353
711809740
711810490
711811121
711811727
711812195
711812714
711813200
711813674
711813979
711814072
711814179
711815584
711815867
711817139
711817419
711817603
711818423
711818725
711818889
711819436
711819827
711819439
711820322
711820267
711821091
711823133
711824123
711824209
711824401
711825046
711825288
711826663
711827490
711827548
711827777
711827842
711827992
711828390
711829024
711829265
711829025
711829575
711829800
711829642
711830019
711830147
711830304
711830603
711831774
711832137
711832464
711832632
711832626
711832836
711833870
711834129
711835017
711834870
711835230
711835487
711835462
711835669
711835750
711835977
711836155
711836042
711836462
711836445
711836771
711836757
711837538
711837669
711837906
711838275
711838552
711838645
711838873
711838916
711839521
711841047
711841302
711841583
711841828
711842104
711842330
711842463
711842183
711843516
711843550
711844239
711844448
711844891
711845054
711844881
711845524
711845452
711844744
711845595
711846592
711847254
711847643
711848277
711848936
711849240
711849291
711849612
711849965
711850285
711850699
711851002
711850854
711850676
711852734
711852553
711853201
711853046
711853334
711853441
711853647
711853830
711855149
711855241
711855200
711855880
711856102
711856241
711856625
711856847
711857171
711857392
711857662
711857945
711858072
711859401
711859922
711860255
711860320
711860473
711861094
711861244
711861790
711862814
711863387
711864031
711864075
711864159
711864524
711864675
711864696
711865128
711865931
711866035
711866104
711866075
711866259
711866691
711867554
711869434
711870357
711870948
711870574
711871087
711871593
711871317
711872033
711872782
711872436
711872869
711873057
711872812
711873392
711873735
711874638
711875140
711875265
711875718
711875709
711875867
711876865
711878187
711878610
711878997
711879126
711880003
711880423
711881355
711881395
711881776
711882107
711881668
711882410
711882389
711882670
711882440
711882894
711883322
711883806
711884343
711885073
711885335
711885824
711886128
711886448
711886446
711886913
711886928
711887267
711887636
711888295
711889203
711888589
711889378
711890683
711890689
711890996
711891146
711891643
711891834
711891966
711891912
711891832
711892339
711893197
711893124
711893229
711893645
711893890
711894300
711894342
711894138
711895131
711895467
711894562
711895677
711896023
711896157
711895745
711897444
711898346
711898329
711899109
711899469
711899039
711899605
711901235
711901167
711901503
711901615
711902253
711902311
711902580
711903441
711903830
711904343
711904027
711905211
711906454
711906377
711910392
711911118
711911522
711912316
711912481
711912461
711912724
711913314
711913300
711913936
711914202
711914695
711915007
711915410
711915644
711915774
711916028
711916102
711916122
711917210
711917209
711917771
711918682
711918584
711919910
711920192
711920191
711920441
711920620
711921288
711921301
711921851
711922111
711922546
711922798
711923287
711923588
711923760
711923927
711923919
711924095
711924728
711925962
711925587
711926100
711926110
711926121
711926023
711926175
711927127
711928151
711927939
711928843
711929326
711929348
711929782
711929939
711931344
711932185
711932443
711932553
711932596
711932776
711932927
711932990
711933121
711933447
711933792
711933851
711934311
711934485
711935207
711935749
711936187
711936431
711936823
711936766
711936743
711937031
711936992
711937821
711937833
711938510
711938905
711939643
711940935
711940790
711941143
711941134
711941306
711941643
711942003
711942543
711943111
711943192
711943865
711943871
711944256
711943948
711944615
711944652
711944259
711945320
711945215
711945384
711944645
711945985
711946481
711946829
711946692
711947187
711947043
711947105
711947705
711947771
711947796
711948070
711947978
711949302
711949884
711950036
711950120
711951189
711951118
711951623
711951652
711952477
711952627
711952826
711953391
711953620
711954310
711954376
711955324
711954983
711955557
711955667
711955247
711955909
711956495
711956943
711957000
711957196
711956876
711958073
711958875
711958986
711959375
711959548
711959834
711960052
711959833
711959737
711960358
711960761
711961038
711961232
711962226
711963130
711963205
711962429
711963157
711963707
711963631
711963332
711964057
711964372
711964767
711964939
711965191
711965381
711965489
711965621
711966063
711966849
711966869
711966943
711967565
711967518
711968021
711968444
711969095
711968342
711970273
711970631
711970834
711971344
711971815
711972465
711972654
711972916
711973422
711973463
711973778
711973820
711973867
711974087
711974354
711974480
711974846
711974963
711975084
711975856
711976166
711977021
711977096
711977345
711977660
711977760
711980505
711981447
711981544
711981655
711984836
711985664
711985988
711986171
711986008
711986467
711986429
711986784
711986897
711987109
711987496
711987614
711987735
711988069
711988258
711988291
711988712
711989635
711990149
711991198
711991391
711991585
711991706
711992296
711993049
711993243
711992556
711993231
711993850
711994533
711994737
711994909
711995123
711995364
711995819
711995942
711996017
711996058
711996895
711996832
711997221
711997331
711997539
711998157
711998259
711998455
711999213
711999415
711999354
712000034
712000962
712000664
712001177
712001216
712001624
712001780
712002635
712002500
712002865
712003441
712003712
712003520
712004410
712003972
712005572
712005725
712006404
712006859
712007033
712007483
712007689
712008140
712008529
712008654
712008811
712008598
712009048
712009539
712010209
712010424
712011037
712011446
712011191
712011880
712011914
712012191
712012305
712012002
712012680
712012015
712013457
712013618
712014103
712013939
712014558
712014818
712014825
712015179
712015009
712015397
712015828
712015838
712016591
712016477
712016840
712017144
712017657
712018024
712017991
712018547
712018277
712020108
712020349
712020608
712020664
712020879
712020922
712021273
712021400
712021494
712021482
712021735
712021858
712022625
712023138
712023396
712023672
712023829
712024045
712024530
712025042
712025519
712025526
712026201
712026933
712026929
712026983
712027154
712027698
712027907
712028243
712028206
712028679
712029563
712029562
712029585
712029780
712031157
712030980
712031402
712031330
712031937
712031943
712032037
712032323
712032778
712033039
712033130
712033474
712033870
712033651
712035300
712035417
712035376
712035762
712035735
712036229
712036364
712036706
712037079
712037648
712037388
712037736
712037057
712038212
712038756
712039415
712039656
712039881
712039803
712040927
712041395
712041624
712041811
712041581
712042356
712041891
712043312
712042967
712043560
712043595
712044782
712045049
712045370
712045388
712045282
712045861
712046674
712046695
712047510
712047041
712047700
712047693
712048051
712042498
712048480
712048504
712048678
712048767
712048704
712049207
712049607
712050029
712050181
712050569
712051561
712051635
712052604
712054018
712054195
712054497
712054815
712055093
712055403
712055703
712055841
712055947
712056162
712056062
712056929
712057208
712057259
712057496
712057594
712057947
712058226
712058525
712058976
712060514
712060382
712061123
712061117
712061213
712061187
712060957
712063243
712063226
712063465
712063592
712064106
712064528
712065131
712065502
712065718
712065873
712065993
712066107
712065543
712068522
712068790
712068738
712068629
712069247
712069190
712069676
712070267
712070602
712070946
712071031
712070908
712071067
712071426
712071207
712071372
712073277
712075023
712075113
712075517
712075417
712075901
712076498
712076944
712077437
712077592
712077542
712077741
712077719
712078159
712078316
712078382
712078705
712078880
712079226
712080158
712080500
712080505
712081794
712081805
712081946
712082292
712082967
712083924
712084870
712085219
712085867
712087035
712087211
712087591
712088632
712088766
712088935
712089433
712089397
712089978
712090577
712090803
712091117
712091282
712090618
712091450
712091769
712092085
712092158
712092737
712093617
712095080
712095406
712096082
712096066
712096322
712096427
712096594
712097466
712097881
712097949
712098249
712099300
712100267
712100208
712100620
712100876
712101507
712101831
712102376
712102827
712101988
712103567
712103677
712104009
712104886
712106996
712107325
712107493
712107531
712107229
712109984
712110325
712111297
712111445
712111731
712111923
712112090
712112123
712112796
712112965
712113268
712113427
712113876
712113707
712114176
712114552
712115201
712115191
712115592
712115913
712116663
712116736
712117203
712117386
712117752
712117839
712118780
712119231
712119844
712119858
712121026
712121116
712121671
712122215
712122480
712122498
712122553
712122901
712123318
712123292
712124256
712124398
712124849
712124879
712125053
712125179
712125174
712125495
712125559
712126161
712126871
712127040
712127336
712127425
712127507
712127749
712127991
712128001
712128670
712128743
712129293
712129734
712130054
712130816
712130809
712131082
712131836
712132286
712132114
712133308
712133830
712133765
712134384
712134324
712134776
712135100
712135328
712135739
712135770
712136180
712136711
712136750
712136841
712137084
712137226
712137510
712137931
712138728
712138857
712138924
712139162
712139825
712140392
712140742
712141717
712141837
712141998
712142518
712143302
712143647
712144062
712144585
712144091
712144742
712145057
712145578
712145844
712145984
712145939
712146509
712147534
712147632
712147158
712147732
712148314
712148584
712148865
712148890
712148556
712149348
712149424
712149724
712150268
712150839
712150794
712150487
712151160
712151783
712152502
712153111
712154080
712154109
712154546
712155007
712155633
712155779
712156042
712156216
712156705
712156908
712157821
712158321
712158421
712158446
712160557
712161101
712161306
712161419
712162155
712161942
712162306
712162527
712162463
712162727
712163526
712164009
712165199
712165196
712165166
712165793
712166825
712166694
712167578
712167808
712166816
712168813
712169965
712171502
712172751
712173052
712173479
712173184
712173669
712173818
712173850
712174241
712174851
712176429
712177386
712177496
712177826
712178233
712178478
712178433
712178880
712179109
712179455
712179250
712179782
712181035
712181266
712182384
712182540
712183405
712184038
712184261
712184315
712185155
712185172
712185675
712185776
712185894
712186057
712186144
712186560
712187226
712187626
712187597
712188009
712188821
712189378
712189453
712190944
712192826
712192894
712193176
712193536
712193796
712194457
712194767
712195169
712195586
712195782
712195889
712196848
712197273
712197471
712197494
712197964
712198475
712199663
712200254
712200316
712200990
712200998
712201109
712201325
712201790
712202214
712202747
712202938
712202955
712203067
712203222
712203905
712204237
712204258
712204089
712204888
712204825
712205065
712205242
712206321
712206446
712206571
712206753
712206958
712207547
712207880
712208125
712208317
712208410
712209489
712209173
712209717
712209751
712209966
712210761
712211565
712211709
712212013
712213376
712213807
712214007
712213882
712214163
712213601
712214544
712215175
712215813
712216093
712216659
712216798
712217255
712217262
712217735
712218055
712218530
712218430
712218836
712219463
712220424
712220796
712221013
712221096
712220985
712221203
712221488
712221337
712221989
712222610
712222697
712222862
712223239
712223317
712223343
712223921
712224205
712224354
712224411
712224541
712225065
712225208
712225170
712225014
712225683
712226483
712226597
712227242
712228188
712228373
712229754
712229803
712230550
712231487
712231768
712231966
712232123
712232318
712232104
712232459
712232619
712232711
712233423
712233018
712234612
712234678
712235124
712236017
712236342
712236547
712237098
712236897
712237779
712238007
712239507
712240335
712240409
712240961
712242696
712242443
712243399
712243398
712244700
712245751
712246676
712247253
712247481
712247413
712248038
712248258
712249125
712249358
712249630
712250630
712250926
712250786
712251017
712251091
712251208
712252111
712252801
712252980
712253130
712253122
712253119
712253833
712254220
712254455
712254349
712255072
712255195
712254734
712255339
712255269
712255867
712255983
712256622
712257087
712257235
712258143
712258242
712259031
712259988
712260841
712260890
712261185
712261583
712261503
712261841
712262196
712261973
712262463
712262469
712263642
712263599
712263800
712263957
712264252
712265357
712266263
712266322
712266368
712267028
712267202
712268031
712268972
712269140
712269134
712269662
712269752
712270046
712270723
712270770
712270938
712271472
712272122
712273391
712274120
712275115
712275334
712275653
712275681
712275834
712276032
712276280
712276322
712276936
712276890
712277067
712277370
712277161
712277919
712278120
712278332
712278911
712278964
712279437
712280805
712281118
712281678
712282226
712282973
712283753
712283885
712284115
712284509
712284950
712285523
712285870
712286470
712286505
712286880
712286947
712286534
712287252
712287432
712287695
712287584
712288325
712288336
712288364
712289069
712288993
712289390
712290827
712290480
712290978
712290453
712291561
712291880
712292903
712293310
712294086
712294171
712294564
712294528
712294857
712295308
712295096
712295613
712295906
712296759
712296863
712297359
712297554
712298025
712298192
712298708
712299426
712299246
712299886
712300205
712302342
712303408
712303530
712303948
712304063
712304179
712304233
712304744
712305112
712305459
712305644
712305853
712305943
712305880
712306943
712307014
712306982
712307543
712307768
712307958
712308293
712308590
712308820
712309281
712309769
712309610
712310203
712310387
712310527
712310751
712311525
712311138
712312106
712313228
712313219
712313266
712313380
712313756
712313993
712314234
712314463
712314390
712315301
712315521
712315898
712316361
712316707
712317493
712317712
712317923
712318027
712318138
712318325
712318338
712318501
712318938
712319156
712319459
712320305
712321689
712322177
712322842
712323157
712323281
712323786
712323829
712323912
712324623
712325155
712325528
712325578
712325593
712325823
712326498
712326377
712326742
712327136
712328011
712328271
712328720
712328691
712328751
712328576
712329362
712330409
712329216
712330705
712331146
712331339
712331379
712332758
712333113
712333322
712333445
712334052
712334207
712334155
712335589
712335785
712336057
712336162
712336894
712336706
712337288
712325202
712338336
712338636
712338315
712338992
712339402
712339120
712339429
712339465
712339593
712340459
712340685
712340883
712340803
712340977
712341143
712341242
712341242
712341708
712341981
712341987
712342373
712343219
712343703
712344224
712344958
712345531
712345623
712345556
712345853
712346154
712346424
712346518
712347142
712347084
712347503
712347677
712348064
712348162
712349201
712350171
712350637
712350994
712351381
712351984
712353071
712352679
712353722
712354064
712354455
712354317
712354958
712354666
712355071
712354937
712355582
712355605
712355624
712356574
712356974
712356898
712357685
712357353
712358154
712358044
712358352
712358317
712358537
712358364
712358770
712359370
712359321
712359488
712359824
712360206
712360564
712361464
712361683
712361460
712363207
712363493
712363458
712363956
712364440
712364970
712365046
712365324
712366120
712366214
712366512
712366249
712366821
712366881
712367431
712367741
712367266
712368684
712369163
712369757
712369882
712370343
712370847
712370886
712371307
712371122
712372197
712371756
712372753
712372762
712373003
712373406
712373418
712373457
712373956
712374355
712374441
712374803
712375321
712375348
712375365
712375702
712375768
712375835
712377170
712377195
712377473
712378353
712378535
712379084
712380096
712381043
712381110
712381084
712382083
712382331
712382574
712382755
712383281
712383481
712383958
712384413
712384366
712385213
712385333
712384578
712386201
712386358
712387215
712388081
712387855
712388623
712388909
712388922
712388912
712388970
712389053
712389311
712389571
712389898
712390181
712390797
712391164
712391214
712392725
712393114
712393436
712393342
712393703
712393793
712394024
712393602
712394280
712394694
712395219
712395850
712395824
712395881
712396088
712396541
712396193
712396739
712396499
712397996
712398236
712398754
712398840
712399203
712399131
712399524
712399116
712400047
712400090
712400549
712401112
712402015
712402668
712403879
712404602
712404895
712404905
712405291
712405831
712406430
712406526
712407573
712407589
712408183
712408234
712408167
712408188
712409636
712409698
712411125
712411652
712411896
712412770
712413012
712413108
712413328
712413402
712413536
712413728
712414507
712415047
712415070
712416027
712414984
712416244
712416198
712416754
712417263
712417321
712417719
712417672
712417580
712418968
712419047
712419229
712419678
712419959
712419931
712420695
712421808
712422196
712422498
712421983
712422873
712423001
712423113
712423240
712423355
712423368
712423650
712423522
712424778
712425266
712425000
712426315
712426501
712425672
712426901
712428145
712428792
712428535
712429612
712430204
712430424
712431025
712431109
712431268
712431321
712431391
712431469
712431312
712431383
712432046
712432082
712432339
712432541
712433327
712433445
712433610
712433773
712433811
712434402
712433916
712433931
712435397
712435854
712435998
712436882
712438813
712438670
712438827
712439767
712439640
712440238
712440835
712441031
712441401
712441179
712441749
712442226
712442368
712443112
712443125
712443206
712443551
712444120
712444356
712444821
712444892
712445156
712445862
712446610
712447190
712448311
712448492
712448559
712448643
712449536
712449890
712450359
712450664
712450702
712451351
712451939
712452179
712452563
712452466
712452806
712452966
712453152
712453077
712453321
712453708
712453740
712455074
712456078
712456770
712457156
712458287
712458895
712459417
712459689
712460761
712460843
712461132
712461300
712461482
712462500
712462549
712463252
712463583
712464181
712464645
712464693
712465272
712465491
712465543
712465575
712466213
712466354
712467638
712467616
712468568
712468740
712470015
712470807
712470945
712471216
712472031
712472491
712472532
712473102
712473185
712474329
712474256
712474932
712476208
712476300
712476426
712476375
712477083
712477250
712477435
712478314
712478163
712478908
712478094
712479528
712479967
712480186
712480615
712481759
712482427
712482340
712483118
712482954
712483180
712483671
712483605
712484575
712485437
712485304
712486166
712486320
712486584
712487025
712487645
712487797
712488292
712488353
712488648
712489910
712489687
712490238
712490389
712490804
712490843
712491004
712491555
712491635
712492673
712492721
712492918
712492057
712493110
712493316
712493443
712493496
712494258
712494058
712494349
712494546
712495176
712495921
712496781
712496859
712496625
712497180
712497506
712497713
712497825
712498101
712498394
712498740
712498856
712498762
712498845
712499128
712499419
712499671
712499792
712500064
712499819
712500583
712500602
712500535
712500659
712500719
712500860
712500632
712501440
712501743
712502510
712503425
712503328
712504299
712504544
712504746
712504263
712504791
712504464
712505027
712505186
712505818
712506436
712507614
712507583
712508201
712508257
712508657
712509308
712509568
712509434
712509759
712509780
712510260
712510389
712510586
712510765
712510744
712511666
712511837
712512973
712512388
712513963
712514531
712514848
712515393
712515364
712515745
712515949
712515790
712516430
712516627
712517047
712517507
712518650
712518877
712518779
712518925
712520481
712520797
712520710
712520738
712521991
712522422
712522638
712522711
712523152
712523059
712524739
712524802
712525566
712525655
712525942
712526924
712526920
712527419
712527620
712527694
712528064
712528388
712528409
712528410
712527935
712528925
712529072
712529177
712529803
712530306
712530568
712530953
712530989
712531828
712532290
712532979
712533468
712533521
712533768
712533575
712534686
712534868
712535395
712536173
712536826
712537127
712537480
712538606
712539260
712540345
712540554
712540281
712541527
712541894
712541433
712542516
712542202
712543006
712543237
712543345
712544146
712545085
712545561
712545716
712546414
712546443
712546429
712546491
712546495
712547565
712548688
712548620
712548805
712548656
712549139
712549862
712550040
712550109
712550769
712550991
712551546
712551669
712551861
712551810
712550733
712552091
712552634
712553191
712552819
712553199
712554040
712554423
712554427
712554864
712555442
712555542
712555467
712556110
712556071
712556772
712557156
712557332
712557736
712559604
712559492
712560310
712560314
712560417
712560947
712561363
712561505
712561863
712562401
712562810
712563212
712562837
712563867
712563986
712563828
712564567
712564645
712565088
712564990
712565153
712565921
712565966
712566831
712567353
712567494
712568472
712569807
712569809
712569956
712570202
712570165
712570421
712570561
712570631
712572828
712573281
712573767
712573931
712573975
712574267
712574577
712575256
712575254
712575608
712576819
712577692
712577539
712577907
712578425
712578724
712579478
712579589
712579631
712581761
712582191
712582305
712582271
712583509
712583327
712583759
712583661
712583733
712584110
712583873
712584913
712584738
712585169
712585449
712586424
712587163
712588351
712588394
712588446
712589200
712590649
712591026
712591235
712591848
712592086
712593397
712594736
712595757
712595878
712596204
712596263
712596974
712597269
712597932
712598110
712598174
712598372
712598483
712598506
712598976
712599187
712600366
712602314
712603165
712603328
712603378
712603489
712603397
712603906
712604357
712604314
712604712
712605150
712605487
712605660
712605659
712606117
712606359
712605607
712607372
712607490
712607944
712608151
712608718
712608855
712608977
712609079
712609285
712609241
712609537
712610755
712611201
712611089
712611754
712611650
712611784
712612172
712612658
712612525
712612739
712612869
712613042
712613220
712613480
712613651
712613839
712613845
712614578
712614683
712614920
712615298
712615023
712615592
712615707
712616410
712618406
712619190
712619727
712620249
712620567
712621577
712621679
712621847
712622835
712623218
712623969
712624317
712624592
712624713
712625292
712625589
712625584
712626357
712626435
712626974
712628005
712628152
712628262
712629074
712630144
712630709
712628394
712630958
712631230
712631076
712631616
712631460
712631437
712632404
712632026
712633897
712634134
712634321
712634396
712635176
712635178
712635266
712635440
712629918
712635806
712636939
712636626
712637699
712637761
712638526
712638643
712638356
712639496
712640210
712640108
712639281
712640867
712640918
712641315
712641413
712642019
712642248
712642611
712644235
712643931
712645501
712645648
712645742
712645929
712646159
712646307
712646537
712646970
712646708
712647107
712647403
712647890
712647990
712647713
712648454
712648885
712648809
712648869
712649235
712649741
712650141
712650550
712650909
712652270
712652428
712652376
712651959
712653145
712653238
712653608
712654359
712654606
712655571
712656061
712656479
712656346
712656534
712657129
712657959
712658018
712657986
712659308
712659413
712659645
712660635
712660729
712660848
712660794
712661934
712662009
712662312
712662420
712662419
712662760
712662626
712663001
712663286
712664822
712664888
712664903
712665253
712665539
712665760
712666794
712666805
712667106
712667127
712667417
712667474
712668309
712668312
712668356
712668096
712668518
712669258
712669444
712670129
712670498
712670488
712670363
712671128
712671215
712671691
712672550
712672765
712673721
712673649
712675127
712675592
712675792
712676384
712677162
712678620
712679254
712679685
712679419
712679806
712680084
712680263
712681904
712682638
712682078
712683263
712682835
712683329
712684309
712685008
712685675
712686195
712686217
712685925
712686544
712672684
712687783
712689567
712689795
712689623
712690124
712690119
712690691
712691251
712691358
712691219
712691333
712691515
712691993
712692785
712693151
712693085
712693167
712693103
712693266
712693377
712693503
712694815
712695767
712696557
712697261
712697556
712697637
712697838
712697740
712698079
712697852
712698546
712698903
712699376
712699450
712699754
712700137
712700337
712700900
712701029
712701416
712701920
712703771
712703986
712704201
712704640
712705113
712705574
712705877
712705748
712705749
712707565
712707753
712707767
712707962
712708368
712708578
712708912
712709158
712709334
712709362
712709414
712709733
712710269
712710449
712710412
712710517
712710779
712710759
712711044
712711382
712711509
712711193
712712525
712712913
712712765
712713112
712713247
712713380
712713652
712713654
712713782
712714250
712714292
712714440
712714489
712714800
712714951
712716006
712715033
712715873
712716123
712716565
712716693
712716516
712717024
712717665
712718052
712717812
712718080
712718748
712719137
712719281
712719715
712719811
712721296
712721280
712721797
712722009
712722405
712722444
712722574
712723166
712723862
712724015
712724055
712723749
712724558
712724504
712724300
712725230
712725374
712726368
712726716
712727153
712727223
712727250
712727300
712727303
712729376
712730009
712730271
712731344
712731407
712731392
712731569
712731762
712731873
712732293
712732273
712732636
712732932
712732878
712732769
712733449
712733572
712734465
712734868
712734899
712735255
712734844
712735415
712735821
712735910
712736252
712736463
712736575
712736941
712737181
712737500
712737367
712737188
712738630
712738868
712738918
712739026
712739386
712739422
712739569
712740047
712740541
712740797
712741121
712741661
712742353
712741725
712742807
712742938
712743659
712743803
712744124
712744234
712744872
712745185
712745442
712745407
712746191
712747274
712747002
712747346
712747781
712747869
712748209
712748242
712749087
712749909
712749914
712749840
712750442
712752124
712752205
712753052
712753143
712753824
712754677
712754909
712755219
712755334
712755707
712756607
712757700
712757949
712757934
712758582
712758150
712759660
712759866
712760255
712760532
712760573
712761019
712761256
712761188
712761607
712761727
712762050
712762215
712762618
712762667
712762824
712762445
712762949
712763089
712763531
712764350
712764325
712764562
712764795
712764911
712765307
712766016
712766453
712766434
712766470
712766651
712767059
712767245
712767602
712767694
712767892
712769244
712769236
712769320
712769316
712769997
712770102
712770105
712770224
712770734
712771063
712771316
712771766
712771724
712771988
712774870
712774868
712775304
712775470
712776145
712776076
712776227
712776439
712777239
712777684
712777626
712777705
712778817
712778812
712778932
712779117
712779042
712779037
712779446
712779431
712779876
712780428
712780789
712780929
712780843
712781076
712781131
712781500
712781957
712782475
712782836
712783201
712783201
712783419
712783636
712784639
712784629
712784899
712784752
712785579
712786570
712786935
712787408
712788469
712788866
712789227
712789739
712790848
712792276
712793865
712793799
712794761
712794773
712795683
712794978
712795867
712796214
712795864
712796466
712796080
712797188
712796973
712797974
712798344
712798142
712799242
712799184
712800203
712801771
712800108
712801958
712801828
712802433
712802836
712802711
712803212
712803707
712803926
712804147
712804835
712804434
712804910
712805282
712805459
712806028
712806479
712806504
712806697
712807171
712807253
712807342
712807563
712808075
712808005
712808618
712808986
712809254
712809653
712810383
712810434
712810916
712812141
712812553
712813402
712813607
712813931
712814482
712815316
712815504
712816075
712815713
712816205
712816562
712817699
712817681
712817919
712817936
712818218
712818409
712818554
712818756
712818522
712819141
712820262
712820259
712820270
712820564
712820334
712821160
712822225
712822231
712823329
712823386
712823562
712823797
712823772
712824318
712824467
712824951
712824825
712825617
712825636
712826457
712826513
712827325
712827618
712828211
712829079
712828335
712829584
712829803
712829446
712830209
712830373
712830880
712831877
712832487
712832628
712832102
712833524
712834062
712834405
712834584
712834909
712835202
712835524
712835589
712836285
712836449
712836861
712836365
712838753
712838967
712839574
712839570
712839562
712840966
712841036
712841611
712842884
712843251
712843534
712843947
712844368
712844937
712845319
712845573
712845795
712846486
712846506
712848651
712848902
712849004
712849555
712849750
712849739
712850383
712850012
712850993
712851788
712852883
712853163
712852309
712853125
712853835
712853963
712854054
712854117
712854240
712854360
712854368
712854619
712854603
712854792
712855063
712855414
712855472
712855361
712856475
712856788
712857319
712857445
712857322
712857568
712857916
712858604
712859546
712859728
712860817
712861535
712861602
712861518
712862478
712862651
712863172
712863879
712864206
712865306
712864924
712866346
712867323
712868081
712867904
712868977
712869160
712869182
712871177
712871208
712871825
712871838
712871789
712872769
712872995
712871865
712872131
712873449
712873728
712874205
712874210
712875596
712875445
712876436
712877061
712877306
712878902
712878892
712879197
712879280
712880517
712880717
712880800
712881069
712881494
712882070
712881657
712882413
712883475
712884115
712884365
712885355
712884597
712885967
712886271
712886354
712886403
712886801
712886908
712886646
712886788
712888287
712889126
712889480
712890449
712891063
712891235
712890860
712891333
712891372
712893805
712894044
712894217
712895319
712895583
712895545
712895789
712895836
712896712
712896643
712897409
712897905
712898090
712898251
712898692
712899146
712899334
712899561
712899065
712899596
712899627
712900159
712899961
712900327
712900553
712900621
712901223
712901112
712901722
712902304
712902553
712903097
712903047
712903331
712903826
712903831
712903697
712903851
712904410
712904763
712904004
712904899
712904831
712905225
712905286
712906164
712906200
712903018
712907865
712908001
712908414
712908301
712909467
712909762
712909758
712910569
712910627
712910298
712911587
712911856
712912106
712912073
712912333
712912481
712912662
712912891
712913629
712913441
712914902
712915347
712915371
712915516
712915776
712915738
712916036
712916624
712916951
712917094
712917020
712917148
712917542
712917704
712918873
712919106
712918425
712917842
712919995
712920558
712920725
712920816
712921497
712921773
712921975
712922536
712922506
712922830
712922852
712923315
712923728
712923724
712924079
712924620
712924232
712924757
712925328
712925460
712925482
712926362
712926710
712926889
712927050
712927527
712927463
712928170
712928416
712928635
712929303
712928975
712929611
712929798
712930619
712931529
712932183
712932947
712934114
712934120
712934262
712934480
712934765
712934873
712935268
712934846
712935685
712935725
712935881
712935843
712936017
712936799
712937088
712937948
712938003
712938492
712938766
712939266
712939390
712939440
712939771
712940495
712940455
712940452
712940259
712941475
712941524
712941816
712941919
712941856
712941903
712942379
712942429
712942726
712942982
712943525
712943464
712944098
712944303
712944888
712944893
712944714
712945102
712945632
712945861
712946276
712946680
712946490
712947598
712947676
712948752
712949096
712949721
712949972
712950065
712949949
712950765
712950768
712951125
712950980
712951500
712952102
712952654
712953007
712954109
712954047
712954595
712954614
712954935
712954970
712955511
712956280
712957101
712957158
712957418
712957506
712958316
712958960
712959017
712960357
712961552
712961664
712962161
712962316
712962528
712963293
712963578
712964234
712964395
712964522
712964661
712964408
712965044
712965278
712965324
712965676
712965975
712966176
712966611
712966584
712966794
712967384
712967993
712962090
712968267
712969105
712969456
712969763
712970376
712970525
712970638
712970950
712971210
712971515
712972192
712972391
712972645
712973112
712973347
712973497
712973928
712974262
712974401
712974527
712974532
712974851
712975220
712975942
712976072
712976110
712976200
712976066
712975847
712976652
712976929
712977703
712977551
712977904
712977975
712978614
712979056
712979033
712979674
712980584
712981196
712982307
712982640
712983042
712983279
712983872
712983536
712984426
712984277
712984687
712985229
712985434
712985919
712985946
712986614
712986562
712987332
712988162
712989029
712989941
712990109
712990225
712990880
712991464
712991792
712992068
712991651
712993118
712993366
712994237
712994808
712995802
712996417
712996512
712996800
712997341
712997365
712996872
712997517
712997715
712998012
712998438
712998454
712998611
713000226
713000743
713001444
713001315
713001759
713001741
713003950
713004006
713004643
713005322
713005509
713005892
713006140
713006276
713006548
713007125
713007485
713008137
713008160
713008255
713008301
713008083
713009039
713008533
713009247
713009354
713009438
713009867
713010981
713010945
713011499
713012480
713013345
713013816
713014086
713014039
713014297
713014890
713015219
713015487
713014926
713016009
713016495
713016722
713017569
713017238
713017803
713018353
713018669
713019506
713019925
713020135
713020545
713021232
713021616
713022385
713022461
713022712
713022963
713023586
713024027
713024631
713024697
713025489
713025676
713025830
713026579
713026777
713026860
713027123
713027203
713028048
713028583
713028622
713029129
713029148
713028835
713029233
713029306
713029604
713029766
713030100
713030268
713030579
713031247
713031934
713032085
713033122
713033614
713033643
713033899
713034656
713035197
713035296
713035270
713035437
713035700
713036133
713036345
713037722
713039162
713039536
713040946
713041301
713041339
713041187
713041349
713041930
713042576
713042683
713043860
713044664
713044748
713045219
713045212
713045476
713045829
713046564
713047142
713047410
713047860
713047928
713048191
713048517
713049100
713050107
713049982
713050101
713050057
713050744
713050717
713050877
713051679
713052174
713053414
713054808
713054872
713054994
713055469
713055911
713056264
713056292
713057317
713057742
713057976
713058091
713058316
713058752
713058902
713059455
713059941
713060486
713060672
713061557
713061857
713062082
713062157
713062326
713062441
713062458
713063348
713063555
713063625
713063674
713063655
713063974
713064428
713064652
713065395
713065560
713065936
713066277
713066462
713066451
713067238
713067233
713067452
713067894
713067929
713068245
713068621
713069243
713069886
713071625
713071756
713071860
713072293
713072416
713072668
713073083
713073587
713073546
713075380
713075400
713076005
713075989
713076200
713076245
713075930
713076734
713077779
713078381
713078588
713079108
713079308
713079733
713080524
713080980
713080977
713081063
713082803
713082920
713083571
713083813
713083892
713083356
713084337
713083983
713085045
713084775
713085340
713085118
713085271
713085759
713085846
713086716
713086698
713087174
713087471
713087640
713087723
713088565
713088663
713089139
713089206
713089662
713089761
713089780
713090579
713090088
713091118
713091239
713091365
713091641
713090965
713091799
713092975
713093324
713094235
713094289
713095079
713095194
713094971
713095601
713096345
713096536
713096663
713096706
713096827
713096401
713097153
713097512
713097761
713097901
713098051
713098048
713098396
713098607
713098897
713098967
713099047
713099130
713099417
713099497
713099306
713099900
713100104
713100473
713101065
713101132
713100447
713101631
713103030
713103246
713103230
713104203
713104812
713105067
713105015
713105762
713105204
713105859
713106509
713106519
713107029
713107357
713107079
713108109
713108431
713108727
713109330
713109839
713109983
713110153
713110326
713111232
713111635
713111697
713111803
713112088
713112351
713112724
713113138
713113319
713114291
713114649
713115219
713115521
713115992
713116130
713116731
713116815
713117255
713117182
713116603
713117770
713117851
713119031
713119221
713119869
713119674
713120379
713120411
713120518
713120626
713120983
713121038
713121308
713121413
713121381
713122078
713122152
713122227
713122824
713123183
713123457
713123452
713123704
713124023
713124740
713124805
713125857
713125378
713125788
713126871
713127070
713127866
713127902
713129339
713129141
713129759
713129896
713129561
713130261
713130395
713130741
713130811
713131183
713131158
713131334
713132455
713133046
713133558
713134021
713133630
713133812
713134079
713135075
713135144
713135512
713135621
713135611
713135628
713136646
713136738
713136884
713137351
713137491
713138347
713138842
713138910
713138869
713138432
713139398
713139251
713139888
713140110
713139625
713140285
713140657
713140401
713141026
713140809
713141284
713141523
713141639
713142512
713142535
713142592
713142973
713144466
713144598
713145006
713145401
713146029
713146277
713146499
713147224
713147369
713147294
713147345
713147320
713148236
713148806
713149055
713150674
713151221
713151259
713152017
713152536
713152737
713153078
713153582
713154340
713154942
713155266
713155181
713155222
713155382
713155922
713156117
713156249
713156222
713156683
713156720
713156765
713157086
713158101
713158105
713158579
713158999
713159120
713159657
713159571
713159773
713160287
713160677
713160798
713160199
713161369
713161115
713162058
713162301
713163063
713162929
713164044
713164517
713164887
713165279
713165492
713165719
713167672
713168472
713167582
713169162
713169147
713169641
713169884
713169076
713170343
713172294
713172381
713172378
713172137
713172745
713172984
713174742
713176251
713176411
713176554
713176637
713176703
713176806
713175964
713176840
713176938
713176975
713176977
713177336
713177514
713176817
713177567
713178231
713177847
713178315
713178838
713178980
713179252
713180432
713180526
713180852
713180721
713182560
713183350
713183369
713184256
713185114
713185232
713185890
713186306
713186700
713187278
713187379
713187247
713187442
713187507
713187607
713187781
713187915
713188608
713188556
713188768
713189081
713189153
713189296
713189514
713189941
713190033
713190112
713190650
713191287
713191329
713191788
713191935
713192394
713192532
713192968
713193401
713193314
713193904
713193976
713194317
713194258
713194805
713195509
713195678
713195884
713196438
713196717
713196564
713196901
713196801
713197446
713197746
713199042
713199100
713199369
713199470
713199616
713199578
713200034
713199929
713200276
713200423
713200793
713201060
713201152
713201856
713201784
713202207
713202276
713202455
713203813
713203867
713203978
713204614
713204887
713204876
713204739
713205642
713205317
713205928
713205844
713207150
713207441
713207513
713207633
713208073
713208334
713208786
713208974
713209172
713209388
713209480
713209587
713210398
713210573
713210649
713211416
713211746
713211760
713212422
713212640
713212860
713213048
713213899
713214194
713213986
713213962
713214440
713214851
713215316
713215339
713215522
713215782
713216448
713216997
713217351
713217669
713217561
713217814
713218206
713218350
713217931
713218783
713218990
713219764
713220206
713219976
713220443
713220453
713220548
713221962
713221995
713222154
713223147
713223340
713223308
713223473
713223854
713224817
713224805
713225131
713225266
713226232
713227097
713227265
713227348
713227928
713228034
713228167
713228352
713229629
713229749
713230461
713230994
713231302
713231532
713231744
713231948
713232075
713232899
713233105
713233131
713233151
713233357
713232959
713233565
713234221
713234334
713234352
713235049
713235320
713235634
713236074
713236489
713236915
713236888
713236809
713237095
713237079
713237861
713238253
713238453
713238546
713239034
713239336
713239037
713239981
713240586
713240631
713241022
713241395
713241946
713242119
713242213
713241635
713242854
713243080
713243106
713243165
713243174
713244590
713243485
713245290
713245327
713246370
713246429
713246909
713247787
713248000
713248703
713248374
713248784
713249153
713249690
713249999
713250064
713251651
713251692
713253089
713254188
713254144
713254268
713252591
713254970
713255110
713255857
713256468
713256692
713256981
713257314
713257671
713257743
713257987
713257955
713258113
713258874
713258965
713259600
713259860
713260123
713259953
713260729
713261052
713260944
713261094
713261898
713262105
713262384
713263132
713262820
713263771
713263962
713264379
713264471
713264550
713264441
713264881
713265405
713264815
713266628
713267077
713267272
713267572
713268247
713268068
713268170
713268915
713269282
713269389
713269316
713269807
713270100
713270396
713271259
713271472
713271134
713271862
713272115
713271765
713272507
713272079
713272905
713272728
713272920
713273442
713273231
713273519
713275667
713275549
713276011
713276428
713276759
713277617
713278096
713278196
713278630
713278897
713279184
713279203
713279619
713279884
713280161
713280407
713280698
713280860
713280856
713280992
713281227
713281459
713281765
713281925
713281918
713282281
713282010
713283367
713283946
713284213
713284223
713283315
713284663
713284797
713284898
713284910
713285199
713285069
713285779
713285999
713286234
713286230
713286518
713286642
713286959
713287288
713287603
713287767
713288562
713288335
713289170
713289422
713289753
713289844
713289666
713290056
713290013
713290254
713289110
713290038
713290397
713290685
713290719
713290410
713290664
713291273
713291050
713291552
713292073
713292419
713292482
713293201
713293233
713294341
713295023
713296575
713297181
713297224
713297343
713297511
713298414
713299204
713299237
713299570
713299593
713299824
713300490
713300731
713300951
713301140
713300653
713301293
713301478
713302701
713302935
713302926
713303565
713304134
713304507
713304932
713305357
713305678
713305986
713306611
713307248
713307322
713306918
713307614
713307517
713307622
713307960
713308421
713308106
713309098
713309163
713309624
713309294
713309489
713310635
713310904
713312755
713312734
713313571
713314456
713314730
713315926
713317086
713317570
713318034
713317998
713319182
713319038
713319927
713319856
713320120
713320437
713321027
713321251
713321504
713322180
713322247
713322333
713323934
713324176
713324797
713324819
713325412
713325466
713325484
713325918
713325763
713326549
713327024
713327969
713328187
713328395
713329515
713330071
713330054
713330959
713330836
713331409
713331881
713331987
713332119
713332965
713333207
713333208
713333595
713333979
713334531
713334880
713334937
713335176
713335358
713335576
713336056
713336235
713336682
713337255
713337102
713337393
713338177
713338444
713338165
713338531
713339928
713340012
713341085
713341636
713342820
713343445
713343821
713343250
713344310
713344361
713344363
713344472
713344668
713345284
713344680
713345981
713345989
713346091
713345906
713346381
713346012
713346904
713347291
713348749
713348739
713349610
713349843
713350707
713350613
713350838
713351284
713351438
713351477
713351426
713353816
713354093
713354171
713354835
713354184
713354619
713355682
713355880
713356040
713356349
713356579
713356844
713356714
713357759
713357857
713358557
713359626
713359826
713360008
713360631
713360830
713361258
713361291
713361298
713361708
713361908
713362746
713362562
713362676
713364185
713363996
713365218
713365309
713366453
713366545
713367623
713367638
713367337
713367912
713368324
713368741
713369529
713369652
713369985
713370481
713370683
713370712
713370997
713370650
713370886
713371621
713371677
713372509
713373156
713373278
713373593
713375326
713375215
713375502
713375863
713375560
713375919
713376077
713375999
713376895
713377139
713377536
713377572
713377920
713377965
713378415
713378503
713379428
713380268
713380343
713380099
713380573
713380697
713381345
713381651
713382201
713382114
713382451
713382492
713383372
713384600
713384467
713384763
713385023
713385245
713385286
713385495
713387340
713387331
713388802
713388915
713389362
713390898
713390641
713391491
713392023
713392159
713393250
713393384
713394217
713395564
713395802
713396440
713397783
713398088
713399164
713399651
713400623
713402135
713402300
713403060
713403124
713403555
713403685
713404053
713403754
713404552
713404945
713405089
713405581
713405805
713405679
713405950
713406685
713406908
713407144
713408068
713408220
713408456
713408825
713408715
713408893
713409181
713409587
713409830
713410177
713410555
713410601
713411271
713411303
713411590
713411723
713412699
713412852
713413521
713414151
713414235
713414240
713414412
713414633
713414663
713414538
713415287
713415657
713415832
713416044
713416322
713416443
713416555
713416611
713416932
713417763
713418229
713418723
713418798
713419939
713420083
713420321
713420579
713420600
713420983
713421074
713421295
713421457
713421607
713422733
713423877
713424017
713424411
713424975
713424902
713425303
713425563
713425895
713426191
713426023
713425970
713426458
713426621
713426965
713427336
713427681
713427673
713427760
713427783
713427897
713428254
713428325
713428501
713428730
713428773
713428832
713429206
713429452
713429846
713430062
713430841
713430881
713430971
713431188
713431703
713431693
713432189
713432348
713432583
713432768
713432700
713433207
713434161
713434211
713434751
713434844
713434684
713435546
713435684
713435491
713436196
713436624
713437223
713437517
713437784
713437939
713439103
713439378
713439320
713439567
713439807
713439760
713440127
713440314
713440265
713440866
713440953
713441593
713442527
713443214
713443740
713443931
713443898
713444605
713444699
713445885
713445997
713445932
713445979
713446752
713446862
713447096
713447704
713447725
713448102
713448067
713448204
713448455
713448850
713449622
713449539
713449994
713450241
713450454
713451297
713451381
713452066
713452449
713452395
713453347
713454924
713456093
713456130
713456169
713456252
713456272
713457310
713457507
713457613
713457864
713457952
713458002
713458199
713458254
713458267
713458673
713459268
713459441
713459692
713459820
713459836
713459981
713460598
713460799
713461053
713461516
713461723
713461957
713462702
713463342
713463361
713464119
713464348
713464285
713465681
713465744
713465830
713465941
713466302
713466331
713467113
713467260
713467372
713467741
713467632
713468624
713469361
713469589
713469674
713470135
713470681
713470736
713470284
713471407
713471497
713471721
713471881
713472320
713472642
713472945
713473371
713473554
713473672
713474025
713473755
713473743
713474735
713474818
713475724
713476327
713477089
713477363
713477290
713477297
713478801
713479074
713480082
713480865
713480904
713481382
713481534
713481779
713481613
713481837
713481737
713482099
713482367
713482554
713482803
713482941
713484429
713484869
713485173
713485393
713486575
713486362
713486700
713486966
713487147
713487335
713487479
713487993
713487896
713488046
713488327
713488381
713489075
713489104
713489113
713489183
713489276
713489602
713492098
713492922
713493150
713493200
713493502
713493307
713494644
713494760
713495192
713495171
713495727
713495678
713496279
713496506
713496651
713496554
713497160
713497289
713497564
713498008
713498044
713498339
713498673
713498905
713499315
713499466
713499850
713500513
713501371
713502334
713501780
713502801
713502689
713503409
713503600
713503769
713504017
713505590
713506129
713506347
713506454
713506531
713506644
713506775
713506853
713506989
713507961
713508179
713507831
713508762
713508744
713508896
713509446
713509843
713510670
713511322
713511942
713512183
713512437
713512486
713513802
713513710
713514298
713514640
713514894
713515003
713515270
713515439
713515605
713515675
713515796
713515874
713515887
713515983
713516377
713516535
713516551
713516590
713516979
713516797
713517029
713517160
713517438
713520630
713521374
713521434
713521683
713521983
713522779
713522995
713523141
713523543
713523685
713523952
713524546
713525544
713525802
713525939
713526636
713526900
713526974
713527029
713528990
713529130
713529138
713529315
713529401
713529417
713529446
713531646
713532038
713532570
713532718
713533022
713533313
713533368
713533718
713533712
713533921
713534077
713534109
713534335
713535698
713535825
713535694
713535959
713536080
713536465
713537243
713537207
713537782
713538496
713538801
713538795
713540004
713540078
