710144242
710370849
710423707
710425184
710460878
710485572
710539282
710568660
710931179
711020289
711040010
711105259
711110904
711187893
711437396
711466071
711519051
711535413
711544067
711640412
711673693
711779353
711822849
711876668
711936045
711938074
712116829
712177936
712573970
712860361
712880074
712957096
713304397
