710127418
710249893
710502791
710543822
711313503
711365403
711516106
711696909
711711673
711809264
711861257
711966040
712152506
712201392
712222428
712305575
712458690
712489566
712684945
712759301
