1600001713
730031266
730046026
731087908
730152070
731107459
730217187
730244547
730289834
730291007
730304663
730312251
731551597
731595968
731656913
731680855
731712911
730548390
731782560
731817586
731873273
730701006
731968164
730709707
732027418
732052176
730769096
732095423
732098835
732122929
1600001713
1600021198
1600050400
1600058998
1600060312
1600063966
1600067471
1600077868
1600081912
1600092452
1600105354
1600112946
1600115281
1600117502
1600119728
1600122100
1600130372
1600132089
1600135302
1600137154
1600138235
1600154238
1600181594
1600188358
1600192380
1600212722
1600217092
1600218012
1600225298
1600229854
1600248555
1600252720
1600255004
1600255221
1600263702
1600275113
1600276394
1600282680
1600284476
1600292532
1600296757
1600299975
1600300130
1600302257
1600321797
1600327111
1600330787
1600336785
1600348970
1600353073
1600374482
1600379122
1600392650
1600394912
1600404822
1600418370
1600428329
1600447398
1600461914
1600466395
1600468215
1600472180
1600482366
1600492546
1600500339
1600503175
1600505570
1600508401
1600517301
1600518632
1600528398
1600548148
1600577046
1600598464
1600604000
1600607316
1600622961
1600627010
1600641945
1600643849
1600644016
1600651417
1600652370
1600660718
1600669976
1600674611
1600676392
1600676521
1600680375
1600698284
1600706588
1600709178
1600719948
1600723411
1600730336
1600733571
1600734329
1600742229
1600744639
1600755198
1600771644
1600772938
1600782992
1600786817
1600808807
1600817898
1600822933
1600834939
1600841185
1600844156
1600851254
1600864220
1600874452
1600891601
1600894308
1600902179
1600934536
1600943881
1600960563
1600974124
1600995789
1601010309
1601012193
1601035934
1601048069
1601050766
1601052249
1601089360
1601091521
1601099696
1601100517
1601123977
1601128480
1601139300
1601160686
1601167824
1601178784
1601179196
1601189571
1601213253
1601238713
1601238847
1601246616
1601254305
1601260830
1601280654
1601293594
1601295190
1601299269
1601314976
1601330471
1601359734
1601360413
1601364019
1601367102
1601385655
1601424979
1601425290
1601432824
1601434735
1601436840
1601439229
1601439606
1601447404
1601470317
1601480768
1601483181
1601484901
1601497211
1601505718
1601506917
1601517343
1601527563
1601543228
1601553284
1601567451
1601582144
1601584959
1601585681
1601595966
1601597519
1601603428
1601608580
1601609038
1601611087
1601632576
1601638603
1601646680
1601647547
1601662945
1601672175
1601672970
1601675677
1601676168
1601682097
1601687426
1601697326
1601698302
1601703987
1601707701
1601712441
1601726539
1600001713
1600021198
1600050400
1600058998
1600060312
1600063966
1600077868
1600105354
1600112946
1600117502
1600119728
1600122100
1603065381
1603072269
1603072901
1603084416
1603086194
1603090991
1603094708
1603100047
1603105764
1603122639
1603141431
1603160154
1603160328
1603169042
1603173873
1603176340
1603185548
1603188233
1603188571
1603197405
1603201376
1603226082
1603239134
1603246002
1603247824
1603251751
1603254191
1603273960
1603277963
1603282992
1603284475
1603326238
1603326455
1603337030
1603347799
1603351310
1603352973
1603381806
1603416009
1603426159
1603448984
1603452375
1603461398
1603465424
1603466839
1603473454
1603475765
1603485495
1603489448
1603494014
1603511240
1603519858
1603523857
1603524324
1603528131
1603529677
1603531432
1603533717
1603545227
1603558697
1603562072
1603593517
1603602086
1603607265
1603621960
1603623956
1603629163
1603631369
1603632497
1603644842
1603654280
1603665204
1603674411
1603690685
1603692793
1603694768
1603697738
1603717676
1603730864
1603743865
1603750608
1603751466
1603755013
1603767865
1603772430
1603772860
1603796552
1603825391
1603842733
1603848026
1603849739
1603857035
1603871209
1603875702
1603892471
1603905519
1603907506
1603923419
1603962513
1603969558
1603974437
1603984097
1604007680
1604029445
1604041132
1604054448
1604061730
1604062846
1604063191
1604067822
1604080148
1604080876
1604082714
1604084502
1604109071
1604118738
1604124588
1604152702
1604159854
1604204732
1604207986
1604220885
1604225994
1604226770
1604235779
1604243766
1604253376
1604285746
1604293298
1604293811
1604300980
1604301498
1604323032
1604343327
1604354065
1604359471
1604363378
1604385676
1604390750
1604412812
1604417502
1604418771
1604424516
1604425336
1604426483
1604434721
1604463244
1604465042
1604475023
1604478318
1604491026
1604491227
1604491554
1604509965
1604515442
1604538521
1604544764
1604547124
1604561314
1604578607
1604580291
1604583323
1604590050
1604595739
1604619315
1604635709
1604636473
1604661044
1604674210
1604689955
1604691767
1604696403
1604697834
1604702649
1604711003
1604721458
1604724277
1604730735
1604737610
1604749579
1604782162
1604799438
1604803770
1604803950
1604806649
1604812588
1604847664
1604848296
1604856614
1604860590
1604861447
1604865888
1604873269
1604880458
1604897240
1604899513
1604906226
1604910777
1604913325
1604915177
1604920660
1604927375
1604928068
1604933792
1604952718
1604953252
1604958284
1604967282
1604970811
1604971928
1604973440
1604981912
1604986001
1605001051
1605006911
1605007633
1605012420
1605016110
1605020330
1605024203
1605024017
1605025780
1605033055
1605034584
1605043902
1605072803
1605072793
1605074489
1605077052
1605080467
1605083402
1605085040
1605110057
1605110859
1605132094
1605141089
1605152463
1605152570
1605162612
1605168139
1605177046
1605180890
1605212664
1605215637
1605220723
1605234781
1605238847
1605267863
1605270917
1605274219
1605286873
1605303095
1605303829
1605307195
1605309752
1605310317
1605313276
1605321691
1605335922
1605364277
1605368251
1605373839
1605407538
1605428999
1605465406
1605482271
1605490307
1605522090
1605529252
1605539929
1605551507
1605553698
1605554878
1605555516
1605572715
1605573858
1605607379
1605615353
1605618659
1605633180
1605653531
1605678342
1605689328
1605691104
1605703583
1605713194
1605726203
1605750889
1605762650
1605772530
1605781619
1605783398
1605787284
1605803535
1605805922
1605816900
1605831751
1605854162
1605856676
1605904285
1605918276
1605924981
1605927936
1605928134
1605934460
1605941269
1605944072
1605949542
1605962269
1605971158
1605999051
1606008170
1606013608
1606039465
1606051462
1606056995
1606063182
1606077821
1606080221
1606082036
1606085732
1606094797
1606111494
1606176880
1606179476
1606180920
1606205419
1606211493
1606235787
1606285222
1606285606
1606319326
1606322699
1606339664
1606369856
1606394598
1606409833
1606410506
1606420251
1606421059
1606426643
1606432712
1606445869
1606453515
1606459158
1606478905
1606497162
1606500477
1606509137
1606519738
1606521553
1606522319
1606523969
1606526248
1606542537
1606550096
1606562166
1606566229
1606567936
1606590644
1606592545
1606592917
1606597458
1606599754
1606634997
1606641782
1606658694
1606660719
1606685647
1606689393
1606701203
1606732359
1606752779
1606761585
1606761791
1606785887
1606844646
1606849195
1606854434
1606857038
1606858706
1606868795
1606869287
1606882870
1606889092
1606905578
1606906349
1606912875
1606928619
1606952059
1606962701
1606965081
1606988255
1606990650
1606999329
1607001055
1607023902
1607041334
1607056226
1607061370
1607064492
1607073183
1607100812
1607100878
1607110737
1607116706
1607118945
1607124051
1607126240
1607130608
1607132361
1607143719
1607160617
1607161031
1607180524
1607194124
1607234604
1607239788
1607257440
1607263613
1607275084
1607299570
1607308281
1607330236
1607330376
1607346362
1607347910
1607355103
1607356789
1607361368
1607414947
1607449675
1607490355
1607495665
1607522793
1607535938
1607541648
1607548294
1607550239
1607550685
1607568556
1607570061
1607573052
1607580622
1607585449
1607600731
1607609353
1607651082
1607652038
1607663173
1607668775
1607688512
1607691406
1607696538
1607700436
1607721721
1607735443
1607747875
1607758916
1607772856
1607779105
1607782437
1607784379
1607787781
1607790653
1607800888
1607816014
1607844325
1607848664
1607848663
1607855939
1607873245
1607881430
1607891128
1607892844
1607906370
1607909918
1607930846
1607938430
1607943049
1607943371
1607958434
1607964993
1607972261
1607972348
1607981219
1608040467
1608041226
1608043105
1608057460
1608061742
1608068153
1608068937
1608094194
1608100202
1608112368
1608120644
1608143622
1608153129
1608166338
1608212871
1608223662
1608226691
1608231931
1608232155
1608239119
1608256893
1608262638
1608270726
1608275251
1608278818
1608280862
1608292520
1608314161
1608315207
1608335346
1608374642
1608388537
1608428888
1608446240
1608446169
1608454693
1608463008
1608486278
1608503356
1608516252
1608519164
1608522610
1608524772
1608554191
1608573985
1608584565
1608586814
1608598057
1608599768
1608621103
1608623732
1608627767
1608633787
1608637293
1608654356
1608655183
1608661868
1608666627
1608670840
1608676104
1608683409
1608691424
1608736980
1608768732
1608808948
1608816207
1608818272
1608836167
1608852939
1608860470
1608877013
1608882575
1608902009
1608902740
1608904645
1608910237
1608929577
1608931066
1608973575
1608983013
1608989424
1608991198
1608994494
1609003640
1609003822
1609006060
1609020108
1609038044
1609047855
1609063549
1609083433
1609093898
1609108674
1609183874
1609197855
1609215046
1609256471
1609256638
1609258313
1609259353
1609279983
1609284729
1609287505
1609292263
1609300205
1609300452
1609306606
1609311009
1609345779
1609351232
1609388066
1609409655
1609412748
1609434824
1609447588
1609460141
1609475708
1609480911
1609483828
1609487548
1609503861
1609535406
1609544346
1609619955
1609641586
1609641930
1609685406
1609703267
1609709187
1609713066
1609730115
1609730475
1609733380
1609737128
1609749182
1609762055
1609763921
1609801861
1609808391
1609816818
1609816989
1609820930
1609823930
1609831311
1609839636
1609844799
1609868755
1609879456
1609884074
1609892483
1609894139
1609902851
1609925961
1609947186
1609947863
1609959777
1609962871
1609966794
1609982125
1609986852
