801002296
801056540
800192842
800564951
800691170
800772151
800973152
801002296
801056540
801166463
801230591
801257206
801267617
801343109
801412642
801423978
801444492
801647385
801692140
801734917
801770381
