960032189
960135772
960152725
960163527
960208483
960264594
960268432
960320143
960353009
960433080
960502781
960573519
960622373
960642492
960650896
960659457
960735500
960789967
960892044
960924868
960968647
961017126
961045004
961160964
961192685
961207326
961239884
961246353
961253651
961257553
961267723
961275236
961309625
961316454
961394876
961439058
961472554
961611336
961617194
961651960
961661107
961700240
961722472
961815539
961879586
961970367
962011160
962025498
962098408
962108280
962198650
962376653
962500216
962569375
962613552
962628700
962665595
