730347879
730403835
730748028
732102521
1600011965
1600031243
1600101453
1600115088
1600152117
1600155711
1600195966
1600219462
1600282741
1600290396
1600431321
1600433057
1600468586
1600489758
1600556331
1600566064
1600580431
1600608048
1600633253
1600641096
1600724696
1600736311
1600742300
1600789044
1600797262
1600799423
1600811265
1600837955
1600845657
1600873990
1600928040
1600976971
1601048735
1601076543
1601092247
1601121407
1601145742
1601148887
1601223242
1601285332
1601301768
1601308738
1601316080
1601324684
1601400769
1601408056
1601425661
1601434357
1601486172
1601553708
1601639076
1601655413
1601690092
1603103462
1603106828
1603148783
1603150321
1603177413
1603189500
1603310462
1603384279
1603419642
1603423869
1603444270
1603452909
1603478328
1603499109
1603529362
1603543540
1603639913
1603659424
1603954727
1603958275
1603984136
1604120535
1604174411
1604184607
1604202497
1604232425
1604275322
1604330242
1604330693
1604486820
1604498796
1604505946
1604528017
1604565761
1604569545
1604587685
1604597580
1604614053
1604804432
1604846259
1604896178
1604922210
1604933381
1605002815
1605003801
1605068993
1605077633
1605113794
1605182286
1605814588
1606331112
1609648601
1609746380
