840011064
840028753
840029487
840048420
840055079
840062268
840063809
840094565
840105914
840129969
840155583
840173441
840179324
840182936
840214029
840215914
840236865
840291101
840343126
840374318
840383062
840430812
840447165
840466524
840473219
840476298
840485093
