710007130
710008175
710010657
710018811
710022686
710029174
710031837
710047397
710049030
710052241
710053580
710054941
710056683
710057189
710057747
710057682
710067818
710088283
710088648
710090274
710096507
710099772
710101732
710106505
710107789
710108219
710109278
710112947
710134072
710133702
710141682
710152412
710183647
710186436
710202206
710203013
710209684
710212266
710214480
710221338
710225402
710232781
710237150
710238436
710238498
710242240
710244342
710249783
710259928
710263131
710263513
710266497
710272846
710274787
710278789
710282863
710295636
710295931
710297426
710298517
710303449
710310216
710312232
710318133
710321298
710321672
710322180
710322219
710326705
710332906
710335302
710342394
710344930
710355258
710358626
710361519
710363888
710369454
710371000
710373837
710377054
710379877
710381690
710397579
710407304
710409067
710410597
710417191
710423434
710428438
710431625
710437988
710438788
710449835
710458928
710463080
710463205
710473393
710491210
710500044
710501944
710504460
710510115
710513487
710523151
710523777
710524523
710525989
710536534
710540604
710541725
710544745
710552918
710556633
710566201
710573578
710584470
710584925
710585474
710586895
710589019
710590653
710591027
710597597
710601984
710604672
710607536
710609638
710610514
710613620
710613937
710630879
710631966
710635424
710672009
710682242
710689010
710689269
710693074
710695866
710697125
710713318
710715413
710719687
710741922
710749765
710767028
710768200
710769275
710772826
710775111
710777618
710803359
710814121
710814546
710824948
710847467
710850574
710850130
710855937
710856718
710859563
710860800
710878286
710878567
710879807
710887165
710891473
710900349
710904882
710918655
710923116
710923892
710927403
710927987
710929206
710953056
710957018
710958535
710958784
710969514
710970676
710976417
710994304
711012633
711019766
711025338
711034475
711035686
711037176
711040744
711052939
711054776
711057338
711074538
711078948
711084227
711099568
711106187
711108330
711118087
711119419
711125654
711134393
711138531
711139197
711149497
711150768
711154760
711158008
711178350
711196363
711198068
711207118
711209946
711228037
711230094
711233180
711236097
711238771
711238853
711239373
711239429
711243190
711243600
711244135
711254117
711258453
711260822
711263635
711266378
711278889
711286698
711293063
711293952
711295896
711309695
711319315
711321921
711330032
711333985
711339705
711342724
711345262
711350953
711352337
711355817
711355978
711358591
711376569
711381146
711368929
711392403
711394776
711395798
711396275
711403111
711404900
711408437
711412760
711414192
711414618
711418776
711423286
711425567
711437518
711441088
711445226
711446568
711452694
711463398
711463963
711464408
711467419
711469349
711471757
711475286
711475492
711481824
711499064
711516076
711519237
711524433
711526042
711526436
711527895
711533308
711545965
711553684
711555057
711555983
711558524
711561509
711574110
711574876
711575500
711577744
711581493
711581409
711597370
711601985
711604037
711605222
711606317
711611929
711614933
711618121
711623383
711625198
711626258
711635726
711648971
711662954
711665205
711668268
711672391
711675529
711678127
711704347
711706965
711711150
711715352
711720288
711721329
711735227
711735676
711736661
711740251
711742666
711749246
711764227
711765810
711786131
711786559
711789149
711794570
711797729
711803121
711807372
711809893
711813275
711818373
711821487
711824046
711824445
711832075
711832074
711834840
711835135
711844750
711845329
711862488
711864766
711872821
711884210
711885759
711887361
711888069
711889043
711890641
711891998
711894796
711895309
711900584
711905384
711913463
711916820
711922161
711928079
711934764
711947036
711950228
711950720
711952372
711977629
711981262
711986445
711987155
711988494
711989577
711991883
712002131
712014675
712021342
712036329
712037409
712042070
712044393
712064507
712066116
712076154
712081648
712083201
712084446
712085928
712088385
712091973
712098661
712100717
712108392
712114956
712120766
712121901
712128766
712130335
712138146
712139447
712142264
712141632
712145143
712148658
712149620
712154100
712173666
712216230
712230604
712230376
712235463
712235338
712246527
712251772
712256108
712258166
712261820
712270730
712271795
712275134
712281863
712289011
712304986
712306507
712308085
712310378
712313661
712315629
712320815
712339621
712340738
712352697
712355178
712355155
712362256
712363080
712363653
712368319
712370474
712378614
712404822
712409546
712409895
712409975
712416276
712424243
712425356
712427638
712433682
712443728
712453072
712456050
712462763
712468738
712471051
712474082
712481634
712488015
712492828
712502070
712502823
712505383
712518963
712519161
712520047
712527115
712530050
712533545
712542592
712544262
712545108
712546809
712555821
712556435
712557715
712569535
712572997
712578402
712587405
712593656
712597540
712599825
712600088
712608487
712622770
712626939
712627931
712633090
712637601
712664651
712664973
712666690
712667449
712673091
712676727
712676956
712677209
712685811
712686010
712687851
712689023
712691518
712692897
712695111
712696109
712703598
712706294
712706698
712711968
712722697
712726947
712735160
712749502
712751487
712755935
712755056
712761224
712769733
712776779
712780878
712790101
712794472
712796730
712806372
712812329
712814935
712828034
712834473
712835899
712838614
712838822
712842899
712848361
712859627
712861459
712865121
712877543
712880171
712884215
712893908
712902582
712903733
712910672
712915454
712920408
712929831
712931085
712932246
712945549
712945717
712954539
712960229
712964385
712967513
712971887
712974380
712979052
712994108
713016598
713031951
713034185
713037198
713042932
713054214
713055904
713056172
713055599
713059744
713065603
713066496
713071985
713084711
713085548
713087826
713093737
713095823
713096553
713101144
713110912
713112562
713113355
713117513
713120958
713122851
713123887
713129565
713133114
713134747
713140295
713150863
713160890
713161439
713183409
713190523
713205224
713208897
713209031
713213629
713224314
713225142
713231212
713236909
713243837
713244994
713249549
713255077
713260670
713264271
713266724
713269529
713275289
713278117
713282936
713299525
713301285
713303420
713325031
713326392
713336530
713339066
713340188
713341587
713346463
713351075
713354708
713357309
713359885
713365957
713372432
713375603
713378889
713383289
713384043
713389233
713397084
713400531
713401628
713423283
713428560
713443106
713445257
713447344
713454945
713457012
713461672
713462602
713465528
713470508
713479884
713480015
713482996
713486049
713489706
713492710
713494755
713495369
713496786
713496890
713504833
713524749
713528559
713528933
713532619
713533226
713538729
