710007454
710008353
710008677
710012465
710013020
710015648
710030844
710046512
710049502
710059288
710062383
710073311
710078569
710085455
710092359
710095057
710104945
710106532
710114948
710117252
710125453
710129378
710131196
710139228
710146478
710146868
710146956
710150557
710153204
710157050
710166379
710169958
710170973
710180472
710182915
710183989
710186019
710186254
710195146
710206170
710208862
710209434
710211546
710212167
710214478
710218557
710219237
710220700
710227232
710228567
710234908
710238933
710237453
710248219
710252000
710257613
710258654
710258745
710280856
710287540
710294549
710295517
710297144
710299156
710305159
710309834
710311083
710316094
710326876
710335478
710335539
710336413
710337239
710338275
710347480
710353182
710361053
710362367
710365232
710367455
710372539
710379460
710380197
710384463
710385329
710392308
710394935
710395576
710397650
710397740
710401314
710401417
710409174
710410440
710422509
710426006
710431330
710432034
710438501
710449631
710451679
710456671
710462388
710463005
710470302
710475545
710480447
710482280
710483450
710504483
710513321
710515580
710517933
710520108
710527000
710529474
710529872
710533443
710536864
710545817
710546306
710549116
710551664
710565957
710570286
710574626
710580681
710592499
710594652
710600389
710601098
710604647
710605020
710611029
710624172
710624520
710628733
710634329
710636426
710638495
710640125
710646278
710666149
710666902
710666804
710671516
710677408
710680289
710687522
710692389
710696231
710696438
710702046
710704302
710707364
710711920
710717889
710726211
710731081
710732316
710734824
710735144
710735203
710736401
710737788
710738843
710743709
710744053
710744615
710744920
710749845
710751952
710752172
710756814
710760744
710763345
710767000
710771113
710778385
710782232
710788972
710789605
710794320
710806138
710814243
710816977
710825393
710829866
710832233
710834401
710834175
710837239
710836871
710843471
710855759
710857620
710858827
710863798
710870362
710872519
710877797
710884308
710904448
710908902
710912397
710919044
710923182
710926690
710927099
710929751
710927097
710932276
710934233
710942416
710945428
710963753
710968818
710974696
710978757
710984646
710985281
710986686
711004988
711006944
711011135
711016809
711024870
711030253
711039205
711040038
711041512
711044755
711051920
711060079
711059744
711077960
711085908
711086572
711089014
711091732
711097173
711097607
711101601
711103493
711108572
711111472
711120880
711125147
711136963
711140352
711140780
711143330
711147624
711149887
711153997
711154280
711161277
711175041
711201399
711208166
711213782
711219782
711221965
711251185
711253055
711253582
711254155
711266897
711275240
711282901
711296025
711299383
711321272
711325006
711327379
711330109
711336812
711337940
711344637
711347281
711351876
711353951
711364973
711366430
711380757
711381183
711391263
711397327
711403364
711404043
711411926
711414065
711414429
711414732
711418483
711422605
711429720
711431807
711433698
711433818
711447881
711450800
711458002
711473276
711476604
711476920
711479663
711482527
711483656
711490867
711495177
711502104
711518896
711522785
711536391
711537501
711540275
711542216
711544936
711551003
711555803
711560894
711569345
711570551
711585323
711589929
711596012
711597957
711601518
711608666
711614008
711615722
711618891
711619567
711620551
711624042
711630887
711639314
711642484
711650710
711654097
711656883
711658529
711671900
711679769
711683284
711684990
711685130
711700774
711701373
711702844
711704452
711710232
711710291
711714923
711720127
711723385
711723506
711740889
711742140
711749398
711758068
711766694
711767962
711773477
711775856
711778928
711782013
711782040
711793177
711793694
711793694
711797154
711798841
711799776
711803770
711813689
711818823
711825358
711835057
711837625
711843012
711843401
711847575
711851402
711851556
711851691
711861890
711863750
711871373
711872280
711874450
711876566
711893069
711895929
711904789
711911169
711920370
711923186
711924951
711926418
711938724
711940014
711940655
711942274
711944242
711950304
711958640
711969006
711969283
711982586
711984582
711989926
711990471
712004045
712004077
712008669
712031276
712037286
712039192
712039921
712040969
712044554
712050117
712053959
712054948
712066548
712069250
712074253
712076233
712080323
712083980
712095070
712097384
712102203
712108427
712110089
712113445
712115483
712121107
712124002
712124246
712126536
712129410
712138781
712159235
712166588
712168773
712171636
712177093
712186613
712189361
712192954
712194964
712195207
712198314
712201494
712201844
712204584
712215874
712224417
712229775
712233039
712239225
712251944
712255135
712281719
712283784
712294020
712294174
712296453
712297458
712302818
712305129
712306778
712308456
712309739
712319952
712321555
712329686
712331804
712333429
712342186
712345322
712350002
712359189
712370232
712371397
712373045
712375467
712381209
712396404
712404777
712408244
712409403
712412690
712414327
712415822
712432432
712436976
712440404
712443170
712459586
712471958
712475023
712475715
712481632
712488840
712499380
712501757
712501881
712508565
712516726
712529590
712531612
712531658
712537015
712537406
712550071
712567507
712570068
712576263
712577136
712582964
712584446
712592302
712598450
712605647
712606641
712612240
712628701
712630092
712644288
712645160
712657648
712659791
712660619
712660369
712663994
712683818
712684362
712690716
712690817
712691739
712696248
712698684
712708814
712717969
712726140
712727617
712738641
712744654
712747651
712766164
712769678
712772402
712774924
712775216
712793245
712804371
712813898
712817181
712817741
712823360
712832347
712833381
712837384
712842734
712848156
712853804
712872260
712881070
712885523
712888749
712893356
712895226
712898541
712898989
712900062
712905670
712921781
712927533
712928367
712936060
712963666
712973507
712980029
712982359
712993536
712994028
712998408
713007666
713008343
713013497
713016921
713020774
713037551
713047714
713048649
713049871
713056865
713080895
713089571
713094589
713096187
713097172
713111459
713113470
713130933
713131269
713134356
713140696
713151376
713165403
713165243
713167931
713170275
713171713
713179358
713181485
713184079
713187012
713191771
713201966
713204184
713210585
713214114
713222395
713227358
713232036
713232160
713234953
713235290
713235410
713250235
713255803
713257449
713278234
713280700
713288504
713292484
713299985
713309888
713316154
713323906
713324479
713331697
713340961
713347576
713353854
713359944
713367451
713369643
713374854
713382863
713384104
713390433
713398150
713412669
713420447
713424042
713424991
713431832
713432956
713435651
713439996
713452872
713458724
713460084
713465947
713475400
713477252
713479389
713482250
713486323
713495229
713496682
713501673
713506460
713510903
713511232
713514424
713515102
713517976
713520690
713522988
713523599
713529139
713534739
713538606
713538705
713539064
