800011322
800012795
800014850
800020254
800025949
800026311
801006247
801009002
800035479
800035744
800045337
800045646
800060052
800063784
800071606
800072203
801023814
800085147
801027606
801033971
801041686
801045941
801047049
800109664
800112654
800113270
800118278
801064936
800121135
801066157
800125770
800125942
801070439
801071651
800133875
801079003
800137319
801083042
801087265
800152375
801096945
800153397
801098667
802006040
800011322
800012795
800014850
800020254
800026311
800025949
800035744
800035479
800045337
800045646
800060052
800063784
800071606
800072203
800085147
800109664
800112654
800113270
800118278
800121135
800125942
800125770
800133875
800137319
800152375
800153397
800164287
800169588
800177935
800183486
800189777
800191743
800205413
800212093
800213122
800218269
800224977
800225840
800227485
800240358
800249102
800255820
800272613
800290501
800296590
800320265
800327288
800327385
800328085
800334719
800335012
800348565
800353005
800354454
800357737
800363481
800363661
800370204
800372468
800381326
800385163
800389704
800403122
800409759
800410625
800421271
800425822
800437677
800450312
800461920
800462167
800464373
800466896
800468894
800488222
800495788
800498551
800499486
800499706
800508365
800522063
800522421
800530838
800531302
800540411
800557536
800565837
800576184
800594885
800600762
800601396
800611610
800629291
800630003
800631158
800645661
800646213
800649006
800649205
800660552
800663813
800669300
800670671
800672096
800674884
800677103
800685991
800686577
800691497
800693246
800701913
800727798
800740707
800742785
800743873
800744902
800751656
800755400
800761588
800768503
800777515
800781351
800786548
800791347
800793463
800793101
800814064
800829255
800836091
800836788
800843574
800854736
800855046
800859501
800861339
800862330
800864988
800873680
800875911
800894754
800903121
800923549
800933184
800934790
800940606
800942141
800946821
800956853
800960322
800965682
800976526
800981869
800986166
801006247
801009002
801023814
801027606
801033971
801045941
801047049
801064936
801066157
801070439
801071651
801079003
801083042
801096945
801098667
801103246
801111078
801111591
801113954
801133412
801148930
801148952
801149168
801149649
801155820
801158771
801167930
801173784
801182029
801197595
801202904
801214577
801220895
801222690
801252498
801257889
801268527
801268922
801287007
801291297
801293271
801297294
801297833
801308887
801321021
801341083
801345544
801367406
801368037
801369811
801396043
801406052
801427771
801436750
801443161
801455515
801466631
801471855
801475284
801478668
801480715
801482804
801495865
801501362
801505259
801507291
801537742
801543668
801545141
801550801
801553614
801554383
801582377
801597423
801599095
801616885
801633739
801644412
801648809
801649381
801654317
801661245
801662557
801663523
801666974
801670523
801675947
801690075
801695992
801701681
801701853
801717996
801729468
801730443
801747720
801747897
801769072
801770286
801779375
801781621
801786706
801787426
801802051
801809283
801815654
