710057625
710057684
710101217
710127776
710133068
710137402
710184807
710186427
710254094
710268601
710342340
710348735
710402725
710419148
710446716
710488049
710523507
710538918
710545997
710595257
710619297
710632108
710643652
710656791
710681521
710686989
710700853
710789360
710791748
710803898
710839320
710862082
710901797
710920140
710928892
711031237
711039656
711086132
711087952
711096660
711100438
711131972
711204012
711251417
711316996
711319269
711324031
711455800
711504623
711516396
711536836
711546812
711548772
711613105
711648757
711735282
711779470
711800950
711922364
711977614
712069198
712135354
712141346
712231327
712363141
712507513
712529565
712574602
712578702
712622224
712624059
712661079
712681765
712688046
712698819
712710292
712822086
712830093
712877480
712893003
712904165
712924637
712926445
712950365
712966749
712979242
712988024
713009011
713019974
713027675
713029788
713062386
713239838
713250496
713260132
713265637
713305218
713385284
713389057
713471226
713500829
