840043794
840065116
840066654
840068081
840074519
840083066
840148253
840156020
840164468
840169311
840175370
840190013
840197545
840217610
840231903
840238582
840265685
840267417
840268468
840304739
840320845
840362711
840380203
840424740
840452713
840464837
840482706
