710005528
710144802
710367012
710402332
710406113
710411392
710417330
710459050
710511046
710555035
710567923
710571863
710587224
710616047
710640673
710675566
710679507
710696324
710740427
710795590
710801613
710839507
710902820
710937980
710977667
711005189
711064182
711071191
711077525
711082239
711196642
711222500
711316131
711335404
711342856
711366058
711423429
711427438
711509632
711515798
711519916
711537546
711612490
711612630
711630898
711687863
711747341
711758444
711780966
711789405
711866287
711869799
711946835
711977137
711979783
712008542
712010306
712010478
712115299
712123640
712173250
712182394
712257709
712262747
712298640
712391313
712435810
712441596
712467015
712469821
712495223
712525011
712542338
712621538
712626025
712685101
712716287
712734845
712819260
712862755
712862793
712882986
712910349
713000773
713036903
713050015
713050080
713176151
713193148
713193584
713231924
713266459
713282887
713354420
713357319
713391826
713396985
713457449
