1600000022
1600000605
730836028
1600000022
1600000605
1600048589
1600100190
1600353290
1600465994
1600473701
1600593827
1600663381
1600725521
1600771580
1600865631
1600941725
1600986166
1601340141
1601384380
1601732490
1603123216
1603437668
1603785909
1604204970
1604252608
1604798471
1605043079
1605088311
1607851463
1609725632
