840012367
840032300
840059771
840072136
840089225
840095671
840108542
840114587
840117758
840126300
840157194
840169774
840185262
840190167
840196086
840233080
840240952
840248090
840282574
840306531
840306947
840318868
840322438
840341730
840373804
840379184
840382694
840404120
840405500
840460350
840460612
840464539
840470330
840470721
