710250219
710293330
710463277
710507303
710541845
710800225
711215714
711225153
711238654
711366233
711477199
711667743
711746204
711789483
712151550
712152617
712185544
712339720
712350429
712609999
712643755
712764063
712840424
713253395
713273256
713304365
713374672
713392230
713427819
713518391
