840008604
840008705
840014966
840025990
840028223
840034757
840038134
840042316
840056227
840058215
840062338
840064121
840067045
840068716
840078747
840088356
840091988
840104551
840111628
840115237
840116858
840120991
840125597
840125962
840141404
840143696
840167252
840167876
840190063
840191280
840195886
840201586
840207688
840207802
840208608
840208674
840209410
840217735
840251752
840255004
840258535
840263151
840265657
840277142
840285311
840293875
840300275
840305672
840312931
840321187
840326558
840328189
840333557
840334115
840343348
840353930
840355017
840357851
840358941
840363530
840368948
840379442
840382334
840395007
840399739
840411386
840416185
840418472
840425608
840427810
840438191
840438610
840438656
840448265
840452834
840457315
840465290
840482105
840484127
