732107317
1600080316
1600318571
1600372680
1600381211
1600435143
1600766518
1600803033
1601055567
1601108121
1601272920
1601298256
1601401978
1601445273
1604191485
1604470805
1604497848
1604540823
1604680371
1604836159
1605003112
1605937339
