710000637
710002223
710013036
710024599
710073680
710079993
710089603
710107935
710115298
710116107
710120444
710121141
710137669
710155631
710181464
710217643
710225121
710227962
710228909
710250447
710252769
710272916
710285683
710298827
710303211
710307857
710318092
710363413
710375001
710388915
710389049
710390961
710396780
710419100
710419963
710443815
710444446
710448237
710458544
710483232
710491564
710505798
710507412
710511325
710524363
710540928
710551499
710592803
710593118
710599022
710600150
710602928
710625726
710626288
710641428
710667279
710675661
710675652
710678644
710682927
710696030
710697352
710751337
710761034
710767920
710777345
710785037
710792188
710796201
710804414
710818498
710835311
710859871
710877355
710882070
710907506
710909521
710924478
710930503
710931541
710946174
710958407
710961114
710962788
710970565
710975843
710976487
710993562
711015937
711027535
711034276
711043962
711053965
711060631
711063567
711079141
711088074
711096186
711106430
711117091
711118301
711161401
711165637
711183418
711184583
711190696
711192565
711193736
711198165
711198205
711198451
711207693
711216354
711226959
711232861
711232982
711233777
711239903
711245798
711250792
711255366
711263226
711264013
711264450
711265397
711265996
711267811
711283207
711287968
711295808
711302322
711317833
711329726
711340346
711369316
711391366
711396246
711423082
711443729
711445939
711451015
711452472
711453538
711456312
711495323
711513595
711521120
711554859
711560485
711560767
711564207
711571711
711582839
711582568
711584227
711600438
711606532
711609963
711620916
711622430
711673668
711674203
711680112
711683616
711686701
711693268
711716738
711716831
711741894
711778147
711778648
711783460
711794229
711797214
711817794
711828537
711831358
711846379
711864255
711868094
711875235
711893735
711900688
711911402
711912570
711971946
711975638
711979445
711985935
712011413
712023724
712024462
712026421
712035313
712066436
712068601
712069488
712070323
712078827
712085012
712091180
712106267
712127124
712129530
712160431
712162195
712172832
712181577
712189431
712209177
712218737
712225997
712237498
712249291
712265231
712265625
712282898
712284198
712307962
712321569
712329471
712330845
712337812
712377238
712384524
712397769
712407543
712410042
712425136
712443400
712448053
712453306
712491754
712497865
712508088
712552322
712554532
712570048
712571198
712571904
712571450
712591735
712591722
712609380
712613263
712618694
712621179
712634918
712672126
712703177
712703515
712719387
712719856
712734208
712741879
712744058
712763324
712788290
712814696
712818655
712819710
712822934
712854850
712861096
712917366
712933730
712937226
712947265
712952789
712958654
712966958
712979953
712988699
712992138
712994295
712995027
713007501
713012323
713020382
713024838
713035622
713038186
713052545
713069396
713081625
713118740
713120196
713129478
713135303
713142030
713159231
713163623
713173236
713173716
713175043
713177964
713178631
713183135
713199860
713209149
713211448
713216614
713224250
713238165
713259439
713265304
713270454
713275730
713285463
713303658
713324317
713341339
713350112
713372569
713385156
713389062
713395116
713412605
713413584
713421701
713424567
713432437
713437410
713442920
713443848
713450103
713458738
713467445
713471320
713475027
713526104
713533595
