730032492
730032492
731566961
1600309660
1600465216
1600655281
1600682267
1600719625
1600777790
1600882792
1600958654
1601217483
1601533501
1603285613
1603366887
1603514501
1603549631
1603645896
1604033626
1604168933
1604459738
1604661960
1604940856
1605184497
1605327876
