640001581
640004703
640000450
640000539
640001581
640004703
640006009
640006846
640007785
640008559
610040881
610103807
610105967
610111304
610124099
610151543
610154391
610157478
610216229
610273998
610277913
610299783
610351625
610378780
610380018
610414986
610444426
610459465
610517371
610517676
610522557
610535505
610596104
610650365
610655793
610661523
610677573
610682176
610752904
