800002344
800003745
800004106
800009010
801006857
800028953
800036760
800052077
800058812
800059946
800062340
801012729
801012645
801022381
800081487
801025516
800086673
801028771
800088411
801029939
800088757
800092558
800095544
801039911
801043377
801044874
801046275
800111680
801053575
801055621
801056465
800116588
801057504
801058791
801059497
800117087
801061295
801065402
801065252
800121677
800123284
801075454
800132166
800133097
801078762
800136265
801081342
801081518
801084405
801091289
800148141
801093846
800149933
800150450
801094345
801094479
801099695
802000737
802004287
800002344
800003745
800004106
800009010
800028953
800036760
800052077
800058812
800059946
800062340
800081487
800088411
800088757
800092558
800095544
800111680
800116588
800117087
800121677
800132166
800133097
800136265
800149933
800150450
800162291
800166178
800165744
800167956
800171175
800174509
800175608
800177854
800178959
800182498
800185044
800185863
800190716
800196274
800198067
800200136
800202196
800203788
800205599
800221776
800222817
800222912
800225372
800227921
800232342
800233077
800236352
800248056
800255303
800265865
800269342
800272403
800272977
800278686
800285807
800292891
800294506
800306052
800309740
800326093
800326362
800338550
800340006
800344428
800348605
800355167
800363200
800372662
800377667
800379877
800380213
800385083
800387649
800387734
800389037
800389052
800391589
800394321
800396444
800399459
800407183
800407725
800409032
800421956
800426794
800437420
800445960
800447084
800447784
800451184
800454131
800459508
800460718
800461155
800464048
800467228
800473571
800476253
800476984
800485995
800489997
800490607
800491131
800495161
800499481
800506819
800508489
800512433
800514071
800520066
800525761
800531645
800537746
800545119
800546510
800554485
800559257
800560016
800563317
800564377
800570159
800572121
800577289
800577663
800582183
800582923
800595243
800603309
800606450
800621230
800625474
800644351
800649772
800650225
800652161
800656670
800665804
800666065
800666460
800681764
800704072
800705291
800708369
800709060
800714129
800721343
800721159
800722367
800724232
800727027
800735694
800745745
800748003
800762672
800765867
800766026
800766120
800769135
800768192
800769526
800775804
800776338
800783499
800792192
800797200
800797110
800813182
800824977
800843678
800844292
800848448
800851466
800852751
800857740
800864401
800864910
800872372
800877347
800882153
800882051
800901911
800902423
800905005
800912364
800936185
800949819
800952907
800955470
800964798
800967531
800968645
800974956
800979401
800980343
800983827
800984342
800993093
800995032
800999299
800999287
801006857
801012645
801012729
801022381
801025516
801028771
801029939
801039911
801043377
801044874
801046275
801053575
801055621
801057504
801058791
801065402
801065252
801075454
801078762
801081342
801081518
801084405
801091289
801093846
801094345
801099695
801104785
801108040
801108401
801116253
801117994
801118697
801122306
801123399
801130366
801132095
801135307
801137114
801137322
801139662
801143202
801146737
801149924
801150369
801161976
801163101
801165873
801180089
801184476
801187967
801188506
801192419
801196009
801208748
801217162
801221130
801222634
801226746
801240834
801245982
801253692
801261577
801263570
801265936
801266871
801277611
801277889
801290863
801292704
801300153
801302468
801304135
801304143
801309622
801316663
801317110
801323008
801323654
801332208
801332905
801333638
801334861
801337515
801337270
801346838
801347557
801360530
801364034
801374528
801376969
801386782
801388660
801392545
801398312
801399413
801400257
801413496
801422039
801422342
801432264
801435784
801437052
801437359
801459518
801461303
801462043
801463880
801467257
801468809
801470295
801478420
801478789
801479739
801490625
801497870
801499786
801500151
801500671
801503547
801505228
801507162
801508002
801511429
801514157
801518084
801529945
801534850
801539083
801544527
801557030
801557137
801557507
801564968
801568730
801571494
801582598
801592465
801596951
801600309
801600487
801604801
801608265
801609636
801617248
801619350
801623207
801626004
801638305
801650137
801664807
801665313
801668884
801668963
801672705
801675281
801678028
801684300
801686598
801687892
801690563
801693000
801698197
801700397
801702146
801703236
801714852
801718444
801725719
801726516
801727299
801744129
801744818
801748541
801751672
801753417
801754866
801770845
801771451
801776001
801784057
801785468
801792141
801792581
801792956
801796314
801801598
801802970
801803191
801803954
801812767
801812802
801816074
