922004188
922004216
922019194
922025113
922025122
922027976
920000034
920000687
921000938
920002929
921002701
921005133
921008868
920007794
920000034
920000687
920002929
920007794
920016897
920017201
920018313
920018754
920023772
920030453
920032849
920035178
920036121
920042175
920046662
920051351
920053195
920064269
920067023
920067658
920082300
920085429
920088010
920095266
920097245
920110388
920111009
920121936
920123380
