960189582
960229897
960457361
960476611
960555590
960597645
960791105
960948335
960948668
960949592
961053161
961166029
961377002
961403934
961515160
961593367
961621190
961772090
961939925
961987549
962147333
962390232
962593789
