730041406
730041406
730066430
731039293
731085732
730155604
731093825
730161419
731100051
731108285
731229265
730432549
731603769
730520682
730522819
730544895
730600509
730631662
730649614
730692386
730719381
730816148
732114643
1600386493
1600590536
1600803232
1601274072
1603437482
1603514810
1603527021
1604897463
1605893405
1606329949
1606516527
