730029444
730029444
731570984
731954946
730759648
732094700
1600027037
1600165039
1600656890
1600680681
1600880223
1600964249
1601003705
1601097182
1601119543
1601140154
1601148147
1601416340
1601461468
1601474373
1601492992
1601610628
1601691573
1603128178
1603283245
1603364615
1603511212
1603632785
1603699875
1603854408
1603913195
1603970953
1604167690
1604198119
1604264517
1604493415
1604523058
1604527138
1604651597
1604762491
1604929232
1605131471
1606411139
1606527810
1606676298
1606997156
1607051924
1607835635
1607848628
1608314096
1608698161
1608775807
1609458993
1609511153
1609692186
