710006816
710026002
710069730
710074951
710095801
710097235
710100001
710125925
710157800
710175168
710189792
710231922
710233205
710253841
710315465
710327422
710327567
710336613
710355858
710362667
710386479
710393705
710432911
710473550
710508108
710509130
710550691
710558169
710558536
710569254
710614815
710642038
710652081
710662294
710667082
710683848
710764441
710812930
710837928
710860005
710920512
710934112
710954611
710974806
710975017
711021327
711027658
711045766
711069971
711078342
711098418
711105507
711121005
711123302
711136779
711187231
711193946
711201003
711207612
711211404
711281759
711302223
711310277
711328481
711340567
711366334
711366615
711384957
711392955
711420916
711443544
711462207
711466407
711520999
711534371
711546246
711573362
711593106
711615224
711629361
711648427
711653034
711707126
711715740
711736679
711785454
711785599
711846048
711846916
711897025
711901292
711911226
711944484
711959064
711969348
711982461
712022615
712028707
712042552
712148301
712152465
712157186
712185292
712189795
712255608
712346056
712354504
712361854
712382496
712388401
712421996
712453092
712463359
712464121
712466612
712484005
712496526
712548655
712586255
712592778
712639590
712657034
712683365
712711495
712716341
712735782
712737391
712761213
712765792
712806872
712855968
712856512
712881947
712919290
712959764
712984310
712989617
713029221
713033598
713057427
713091108
713112548
713130714
713157923
713202712
713210685
713231554
713276883
713286011
713305470
713323310
713356930
713404461
713434962
713469976
713476211
713482872
