1600002052
1600002060
1600004199
1600004725
1600004725
1600004725
1600006470
1600006703
730061148
731029191
730125832
731074341
731090238
730163517
731110604
730179476
731140110
730210661
730232210
731171024
731188713
730298482
730304022
731250944
731554601
731569297
731570601
730436727
730474322
731633288
730495765
730505556
730516353
731720821
730529910
731726945
730541275
731745221
730556772
731765911
731783424
730608495
731804409
731824848
731825116
731835868
731845411
731849049
730658754
730672957
731881671
731897817
731916175
731922807
731933689
731939025
731941282
731953949
731960007
731964664
731975536
731995000
732014392
730735399
730755953
730761997
730769854
732065194
732072833
732076351
732091370
730811348
732119381
1600002060
1600002052
1600004199
1600004725
1600006470
1600006703
1600009753
1600010657
1600010280
1600010737
1600010786
1600012906
1600013207
1600015593
1600018202
1600019310
1600023182
1600024393
1600025687
1600026090
1600028955
1600029570
1600030614
1600035198
1600037736
1600041011
1600040954
1600042815
1600043607
1600044622
1600047631
1600051898
1600051898
1600052638
1600053600
1600053535
1600055949
1600056806
1600057670
1600059226
1600060839
1600063249
1600065549
1600066400
1600067524
1600070790
1600072056
1600072942
1600073062
1600075149
1600075543
1600078131
1600078847
1600079572
1600079633
1600082199
1600082786
1600082868
1600084909
1600085150
1600088327
1600089225
1600089850
1600091103
1600091180
1600092532
1600093298
1600094643
1600098631
1600100437
1600100715
1600101529
1600101455
1600106632
1600108224
1600108224
1600108776
1600111075
1600112102
1600114108
1600114722
1600115192
1600115795
1600116367
1600119093
1600128976
1600129213
1600130046
1600130868
1600130978
1600132978
1600133435
1600135420
1600137543
1600138621
1600141841
1600142919
1600146496
1600148675
1600151633
1600153706
1600153981
1600154195
1600154443
1600155110
1600156013
1600160253
1600160381
1600161393
1600161746
1600161999
1600161898
1600165655
1600167332
1600168666
1600168909
1600168959
1600169292
1600170020
1600171315
1600174793
1600176973
1600180766
1600184711
1600186143
1600188587
1600188810
1600189981
1600190412
1600191300
1600191853
1600192383
1600192601
1600193017
1600195229
1600199695
1600203754
1600206701
1600210377
1600210510
1600210660
1600211415
1600214157
1600214566
1600213792
1600215484
1600217231
1600217958
1600219035
1600219898
1600221238
1600223151
1600223242
1600223527
1600225495
1600228044
1600228816
1600231744
1600231944
1600235597
1600236091
1600236431
1600237432
1600237572
1600239295
1600240968
1600245125
1600244844
1600246172
1600247386
1600248026
1600248939
1600249239
1600249920
1600250028
1600250969
1600254054
1600254150
1600255826
1600256695
1600256854
1600259999
1600260990
1600261844
1600262657
1600262664
1600263124
1600266597
1600268367
1600269110
1600269527
1600270940
1600271138
1600271456
1600271690
1600272137
1600272347
1600272719
1600273245
1600275397
1600276080
1600276360
1600277463
1600283868
1600287368
1600288073
1600288372
1600290650
1600290610
1600290639
1600291451
1600292165
1600293635
1600295434
1600297377
1600299527
1600300193
1600303180
1600304304
1600305184
1600306660
1600311110
1600311152
1600311179
1600311600
1600312206
1600316482
1600316950
1600317007
1600318578
1600318431
1600319372
1600319431
1600320852
1600323193
1600326088
1600327411
1600331971
1600334073
1600335732
1600338147
1600341410
1600341926
1600342256
1600342715
1600342958
1600343368
1600344042
1600349222
1600350933
1600351522
1600351872
1600352028
1600353963
1600354084
1600354365
1600355525
1600357214
1600357033
1600361715
1600362769
1600364287
1600364569
1600366226
1600367591
1600369423
1600373030
1600373607
1600374272
1600375320
1600376424
1600376595
1600379836
1600385006
1600387276
1600387956
1600387989
1600388478
1600389073
1600389823
1600390831
1600391753
1600398796
1600400861
1600401562
1600403613
1600404268
1600405055
1600405265
1600406256
1600406564
1600406832
1600407998
1600409386
1600409532
1600415329
1600415974
1600417028
1600417274
1600423904
1600425478
1600425758
1600426280
1600426356
1600426957
1600427741
1600431216
1600431449
1600435022
1600440021
1600441043
1600442262
1600442916
1600445785
1600446525
1600447757
1600448584
1600449754
1600450474
1600451229
1600451725
1600453390
1600453909
1600456851
1600457518
1600460783
1600463534
1600465411
1600465909
1600466700
1600467576
1600471123
1600475326
1600476168
1600476967
1600477720
1600478946
1600479164
1600479895
1600482028
1600482602
1600484697
1600485820
1600486573
1600486616
1600489101
1600490753
1600491158
1600491502
1600492999
1600495922
1600496294
1600497904
1600498465
1600499084
1600499859
1600500222
1600501190
1600501142
1600504553
1600504904
1600507512
1600508113
1600508277
1600509242
1600510217
1600514222
1600515975
1600515951
1600517055
1600519433
1600519713
1600520434
1600521808
1600525147
1600526237
1600531725
1600531701
1600532838
1600533013
1600533231
1600533455
1600535328
1600537536
1600537969
1600537833
1600545569
1600547194
1600547541
1600549493
1600549717
1600551449
1600551922
1600554224
1600554370
1600554904
1600557732
1600558725
1600559252
1600559889
1600559956
1600560958
1600562934
1600564388
1600564358
1600567100
1600568094
1600570337
1600572866
1600574464
1600574985
1600582410
1600582865
1600584958
1600585235
1600585990
1600586433
1600586950
1600588984
1600594340
1600595097
1600595645
1600595817
1600596942
1600597175
1600597808
1600598160
1600598523
1600602653
1600603282
1600604683
1600605586
1600606388
1600608024
1600609546
1600610018
1600612948
1600613013
1600615526
1600616833
1600617450
1600620721
1600623245
1600623957
1600624540
1600625082
1600625236
1600626138
1600626782
1600628195
1600628650
1600633127
1600634530
1600634472
1600635902
1600637854
1600639863
1600640154
1600640514
1600641285
1600642956
1600645245
1600648161
1600648188
1600648507
1600650175
1600650567
1600650938
1600650963
1600659422
1600660638
1600660722
1600660750
1600663610
1600664332
1600666274
1600667259
1600667913
1600667990
1600669288
1600674104
1600675822
1600676814
1600677370
1600681546
1600681853
1600682608
1600683831
1600683969
1600685539
1600685811
1600688279
1600688631
1600688529
1600690936
1600690973
1600693643
1600693759
1600694129
1600695925
1600696604
1600699859
1600699880
1600697631
1600701254
1600702986
1600703327
1600704038
1600704698
1600706823
1600707746
1600709200
1600709245
1600710287
1600710403
1600710933
1600711337
1600713144
1600713745
1600715620
1600717791
1600719054
1600721330
1600721335
1600722210
1600723367
1600725819
1600726992
1600728472
1600728746
1600730052
1600730151
1600731238
1600731295
1600733050
1600733345
1600735692
1600736241
1600738254
1600739186
1600740148
1600746934
1600747242
1600747483
1600747654
1600749411
1600755870
1600756201
1600756373
1600758105
1600757763
1600760615
1600761002
1600761479
1600762320
1600768379
1600768919
1600770209
1600771123
1600772586
1600773414
1600773872
1600775024
1600776326
1600779521
1600780273
1600781049
1600781535
1600783077
1600784351
1600787260
1600787383
1600787403
1600787606
1600787938
1600788430
1600788590
1600790629
1600792305
1600798745
1600801039
1600802249
1600802845
1600804413
1600804868
1600807757
1600808066
1600811079
1600815822
1600816652
1600816740
1600817646
1600817866
1600818265
1600818395
1600821993
1600822273
1600822408
1600822682
1600822835
1600825729
1600826230
1600831549
1600832746
1600834122
1600835094
1600835179
1600839921
1600839986
1600844801
1600845114
1600848367
1600848598
1600849301
1600850304
1600850677
1600849986
1600851665
1600852006
1600852591
1600853063
1600855237
1600856781
1600863149
1600863279
1600864026
1600864338
1600870182
1600870719
1600872335
1600872634
1600878854
1600878925
1600879256
1600880045
1600883892
1600886058
1600887461
1600889297
1600889460
1600891841
1600892896
1600893969
1600894112
1600894887
1600896555
1600897658
1600899120
1600900408
1600900658
1600902145
1600903456
1600904790
1600907176
1600907232
1600908643
1600909068
1600910275
1600913371
1600913785
1600914369
1600915288
1600916583
1600916590
1600917654
1600917862
1600918052
1600918635
1600919264
1600919611
1600919826
1600921244
1600922268
1600923150
1600927879
1600929543
1600931187
1600937081
1600937723
1600942607
1600943121
1600943248
1600948577
1600948842
1600949118
1600949778
1600950216
1600951460
1600951527
1600955234
1600956636
1600957122
1600957771
1600959968
1600961993
1600963541
1600971303
1600974116
1600976299
1600977830
1600978706
1600984724
1600985824
1600986739
1600987300
1600988620
1600990439
1600991383
1600993427
1600994581
1600996813
1600998876
1600999872
1601001878
1601002121
1601002336
1601003037
1601003347
1601004653
1601005002
1601005819
1601007863
1601008070
1601010660
1601014322
1601014742
1601015237
1601018236
1601018729
1601021036
1601021203
1601022605
1601025670
1601026009
1601026231
1601030437
1601031381
1601032077
1601034340
1601035670
1601035720
1601036075
1601038003
1601039522
1601039727
1601041898
1601044493
1601047688
1601048579
1601049485
1601050308
1601050565
1601051584
1601057640
1601058944
1601060498
1601063697
1601064102
1601064141
1601065597
1601068062
1601068866
1601070613
1601071043
1601071501
1601072718
1601073909
1601076375
1601076634
1601078933
1601079826
1601082773
1601083358
1601086137
1601086427
1601087365
1601087795
1601088726
1601091571
1601093270
1601094048
1601094117
1601096011
1601096962
1601097723
1601098513
1601099130
1601099397
1601099965
1601103237
1601104241
1601104505
1601104842
1601105575
1601108085
1601111878
1601113801
1601113825
1601114007
1601114715
1601115459
1601117763
1601118096
1601120065
1601120313
1601120974
1601121582
1601122534
1601122897
1601122980
1601122871
1601123228
1601124756
1601125284
1601126051
1601129292
1601129531
1601129697
1601130142
1601130441
1601130974
1601132050
1601133200
1601133324
1601134268
1601135357
1601136393
1601138626
1601138666
1601139847
1601140096
1601140914
1601141089
1601142640
1601143915
1601146046
1601146480
1601148310
1601151148
1601151530
1601151811
1601152007
1601152649
1601154482
1601154865
1601154986
1601156553
1601156661
1601156424
1601158259
1601159346
1601159632
1601159860
1601163916
1601165238
1601165321
1601167756
1601167977
1601168083
1601169336
1601169522
1601169620
1601170097
1601172772
1601173138
1601173911
1601174146
1601175317
1601176678
1601178200
1601178333
1601180662
1601182015
1601182641
1601184220
1601184388
1601188168
1601188274
1601194546
1601196228
1601197434
1601197959
1601200517
1601201708
1601202242
1601202877
1601204323
1601205981
1601206115
1601209168
1601211758
1601212817
1601216116
1601217714
1601219820
1601220210
1601220862
1601223395
1601223723
1601224536
1601224892
1601225910
1601226568
1601226983
1601229564
1601229528
1601230131
1601232940
1601236854
1601237804
1601238761
1601239710
1601245251
1601246183
1601248187
1601250979
1601251284
1601254382
1601254454
1601257267
1601258846
1601259212
1601260375
1601260700
1601261310
1601263002
1601267279
1601267857
1601270036
1601270157
1601272314
1601275247
1601276489
1601278261
1601280069
1601280927
1601286543
1601288377
1601288412
1601288579
1601289147
1601289782
1601290110
1601290436
1601295901
1601298101
1601299167
1601299895
1601300610
1601302251
1601305508
1601307304
1601308971
1601310200
1601310348
1601310885
1601314218
1601314790
1601317316
1601317429
1601317545
1601319333
1601320006
1601322622
1601323006
1601324370
1601326105
1601327321
1601328735
1601329564
1601330885
1601331017
1601334550
1601335422
1601335693
1601335721
1601336981
1601338086
1601338793
1601339215
1601340718
1601340842
1601342377
1601343656
1601345140
1601347195
1601347767
1601348064
1601348057
1601349904
1601350162
1601351650
1601352737
1601353266
1601353709
1601356021
1601358434
1601360916
1601363783
1601367605
1601368387
1601368615
1601368628
1601374094
1601375277
1601375734
1601375817
1601377377
1601377851
1601378700
1601378780
1601378730
1601380968
1601381085
1601382595
1601385354
1601385912
1601386260
1601388934
1601392508
1601393014
1601398970
1601401338
1601401893
1601402179
1601402370
1601404716
1601404967
1601406463
1601406809
1601407362
1601408936
1601410746
1601411198
1601412025
1601413152
1601415379
1601416465
1601416692
1601416871
1601417056
1601418129
1601419769
1601423397
1601426295
1601429066
1601430675
1601431293
1601431723
1601433421
1601433967
1601434206
1601434904
1601436273
1601436671
1601439456
1601441147
1601442141
1601443750
1601446093
1601446326
1601449392
1601450597
1601451386
1601451731
1601457474
1601457718
1601459768
1601460272
1601461836
1601463366
1601464003
1601464203
1601464409
1601464730
1601469497
1601471332
1601473000
1601473605
1601476282
1601479902
1601479922
1601479961
1601481290
1601484167
1601486022
1601486957
1601487687
1601487850
1601489110
1601489158
1601489166
1601490155
1601491855
1601492564
1601493398
1601493882
1601494258
1601495059
1601503054
1601503879
1601504007
1601504118
1601505377
1601506109
1601507235
1601510394
1601511046
1601512565
1601515391
1601515495
1601515844
1601517631
1601518970
1601519659
1601519661
1601519811
1601520450
1601522629
1601523983
1601524405
1601525252
1601526214
1601526589
1601526927
1601529551
1601530129
1601531551
1601531708
1601532075
1601533134
1601534206
1601534693
1601537599
1601541006
1601541106
1601541946
1601541952
1601542075
1601544642
1601546144
1601546558
1601547359
1601549574
1601553446
1601553923
1601556607
1601556998
1601558592
1601560056
1601560347
1601560971
1601565845
1601566897
1601567239
1601569209
1601569800
1601570683
1601570847
1601573497
1601574524
1601577626
1601577953
1601578235
1601580927
1601582346
1601584476
1601588038
1601591363
1601591650
1601592184
1601593682
1601594291
1601595888
1601598100
1601598450
1601598645
1601599377
1601599443
1601599690
1601601226
1601603771
1601605345
1601606066
1601606071
1601609191
1601609416
1601609741
1601610268
1601612321
1601615638
1601616367
1601617079
1601618065
1601618116
1601619546
1601620583
1601622142
1601622656
1601623285
1601624610
1601625235
1601625573
1601626573
1601626760
1601628232
1601628302
1601630847
1601632317
1601634062
1601635176
1601636804
1601637834
1601639196
1601640526
1601641287
1601643686
1601647693
1601650144
1601650643
1601651553
1601654220
1601655548
1601658439
1601658598
1601663998
1601668267
1601669676
1601670329
1601670669
1601671912
1601673537
1601673821
1601676255
1601677366
1601678052
1601680363
1601680563
1601682709
1601682879
1601688824
1601690751
1601692747
1601695313
1601695654
1601696870
1601697611
1601698677
1601703126
1601707621
1601708248
1601709555
1601709746
1601710279
1601710685
1601713090
1601714378
1601716033
1601720984
1601721087
1601721213
1601722238
1601724059
1601724704
1601725729
1601726489
1601728053
1601732033
1601732316
1601732679
1601732703
1601736863
1601742063
1601743486
1601745327
1601749721
1601751244
1600002060
1600004199
1600006470
1600009753
1600010280
1600010737
1600013207
1600019310
1600028955
1600030614
1600035198
1600037736
1600040954
1600047631
1600053600
1600053535
1600056806
1600057670
1600059226
1600065549
1600066400
1600067524
1600072056
1600078131
1600078847
1600079572
1600079633
1600084909
1600089225
1600089850
1600093298
1600098631
1600100715
1600101529
1600106632
1600112102
1600114108
1600119093
1603065745
1603065758
1603066704
1603067118
1603068285
1603068576
1603069655
1603072364
1603075059
1603075356
1603075463
1603076888
1603082522
1603082964
1603086453
1603087675
1603087846
1603088042
1603088210
1603088695
1603089672
1603090014
1603090211
1603095018
1603095307
1603095805
1603096231
1603096866
1603098368
1603099206
1603100549
1603101434
1603102951
1603104991
1603106501
1603108918
1603111463
1603111872
1603112058
1603120381
1603121246
1603122519
1603123110
1603127296
1603131418
1603135575
1603138260
1603140336
1603140887
1603141532
1603145100
1603145613
1603146667
1603147622
1603147772
1603148128
1603148740
1603150861
1603151729
1603157038
1603162440
1603162854
1603163009
1603163709
1603169633
1603170955
1603171183
1603171995
1603172977
1603174272
1603175009
1603176260
1603176739
1603178005
1603178777
1603179190
1603180106
1603181588
1603182281
1603181996
1603183694
1603184719
1603184936
1603188827
1603190569
1603190738
1603192420
1603193240
1603195392
1603196674
1603197612
1603198028
1603199804
1603200481
1603200346
1603201316
1603201299
1603201623
1603205690
1603205665
1603206121
1603206679
1603208386
1603211770
1603212252
1603213655
1603213735
1603220310
1603221013
1603221202
1603221366
1603221457
1603222538
1603224655
1603227174
1603229971
1603229886
1603230608
1603231241
1603233124
1603233707
1603237697
1603238027
1603240193
1603243370
1603245405
1603247622
1603248629
1603248905
1603249225
1603250284
1603252512
1603253162
1603253237
1603254188
1603255519
1603260627
1603262035
1603261797
1603263039
1603263968
1603266605
1603266952
1603266861
1603268175
1603268291
1603268760
1603273420
1603245585
1603274412
1603275046
1603275451
1603278308
1603281264
1603283115
1603284418
1603286848
1603287243
1603288318
1603288944
1603291137
1603293504
1603293914
1603294345
1603295147
1603296698
1603298711
1603298553
1603298879
1603300870
1603301494
1603302760
1603308162
1603310760
1603310337
1603311342
1603314469
1603320203
1603320614
1603321991
1603322320
1603322584
1603324130
1603327973
1603328668
1603328745
1603330729
1603331251
1603332700
1603338367
1603340082
1603340522
1603340864
1603341591
1603341826
1603343450
1603344942
1603347399
1603350120
1603350119
1603351599
1603354004
1603354618
1603358265
1603359758
1603359268
1603360940
1603363324
1603364541
1603366287
1603366612
1603369368
1603369200
1603372039
1603373177
1603373812
1603375202
1603374789
1603378084
1603380811
1603382390
1603382727
1603383829
1603384324
1603388451
1603393594
1603394096
1603394614
1603403842
1603404612
1603407801
1603408000
1603408969
1603409190
1603410345
1603410592
1603411139
1603411600
1603411861
1603416429
1603417429
1603419265
1603419628
1603419662
1603419748
1603419971
1603422239
1603422689
1603423113
1603424180
1603423923
1603425261
1603425493
1603426950
1603427480
1603429996
1603430242
1603430559
1603434284
1603435158
1603438437
1603438479
1603439124
1603440085
1603440711
1603441433
1603442916
1603443785
1603443971
1603445607
1603445626
1603446012
1603448133
1603452153
1603452449
1603452548
1603454603
1603458167
1603460521
1603460910
1603462883
1603463649
1603467917
1603470733
1603471382
1603471343
1603471751
1603475094
1603475825
1603475949
1603482660
1603483375
1603483665
1603484252
1603485764
1603487743
1603490203
1603495945
1603497466
1603497789
1603498183
1603499818
1603500368
1603502922
1603504502
1603508509
1603508568
1603510593
1603511422
1603512236
1603513006
1603512686
1603514468
1603515662
1603516727
1603517594
1603527848
1603531758
1603533535
1603534039
1603535691
1603535915
1603538845
1603541605
1603546503
1603547293
1603548087
1603548106
1603548770
1603550868
1603551369
1603551437
1603553910
1603554180
1603554703
1603555294
1603556257
1603557093
1603559486
1603559603
1603561430
1603561727
1603561892
1603563690
1603564394
1603565153
1603565883
1603570410
1603571255
1603574071
1603574859
1603575966
1603576436
1603576774
1603581294
1603582043
1603583643
1603585421
1603586999
1603588220
1603589646
1603590269
1603590449
1603592341
1603592860
1603593977
1603594597
1603597071
1603598275
1603598474
1603602650
1603603035
1603603402
1603603721
1603605573
1603606733
1603608496
1603608892
1603609221
1603609373
1603611442
1603611916
1603613100
1603615476
1603616697
1603618591
1603623486
1603625147
1603628002
1603627862
1603628496
1603628413
1603633371
1603633478
1603633968
1603634028
1603633964
1603635304
1603636360
1603641348
1603644064
1603646890
1603646871
1603653713
1603654539
1603655200
1603655168
1603658152
1603658242
1603659547
1603660534
1603660940
1603662295
1603663403
1603668770
1603670947
1603676197
1603676647
1603681448
1603684850
1603686709
1603686737
1603694538
1603695618
1603696074
1603698319
1603699270
1603699416
1603701918
1603706407
1603706302
1603706998
1603707853
1603712014
1603712626
1603712821
1603713814
1603716506
1603723853
1603727382
1603728850
1603730008
1603730323
1603731165
1603731267
1603731488
1603734072
1603734746
1603735404
1603735738
1603736476
1603737043
1603738076
1603744280
1603745114
1603747230
1603749208
1603750185
1603750953
1603753083
1603753431
1603757685
1603758493
1603758497
1603759709
1603761121
1603762005
1603762230
1603764334
1603767299
1603770333
1603771119
1603771693
1603772749
1603773437
1603773891
1603774178
1603774421
1603779888
1603781599
1603782528
1603782562
1603782472
1603783570
1603783880
1603786942
1603789857
1603789964
1603790744
1603793014
1603793591
1603794499
1603794295
1603794973
1603795715
1603801194
1603808522
1603809097
1603814059
1603823134
1603840511
1603849693
1603850886
1603855775
1603860020
1603861396
1603863927
1603863943
1603866685
1603870958
1603875464
1603878935
1603884185
1603884555
1603886164
1603886310
1603890393
1603890520
1603891225
1603891714
1603893485
1603893848
1603893870
1603895045
1603898034
1603899304
1603908175
1603908476
1603911494
1603912952
1603913895
1603914130
1603915126
1603918832
1603921760
1603922488
1603922850
1603923116
1603923692
1603923923
1603931983
1603933461
1603936487
1603938515
1603938931
1603939555
1603944857
1603944883
1603945624
1603948155
1603949406
1603954600
1603957319
1603960147
1603961609
1603964180
1603964262
1603965477
1603966103
1603966848
1603967304
1603968611
1603971630
1603974572
1603975750
1603977066
1603980922
1603983461
1603984293
1603987850
1603988158
1603990618
1603990401
1603991286
1603991320
1603991337
1603991912
1603995901
1603997122
1603998362
1603999042
1604002264
1604002968
1604005670
1604006401
1604007190
1604007624
1604008955
1604009069
1604009082
1604011100
1604012748
1604015096
1604017081
1604017210
1604017114
1604018312
1604019891
1604020261
1604024460
1604027269
1604027995
1604029839
1604030215
1604030440
1604030590
1604030799
1604030987
1604031754
1604032042
1604034368
1604035063
1604038100
1604040717
1604042099
1604045384
1604047389
1604047590
1604049911
1604050487
1604051679
1604053577
1604054969
1604056731
1604058594
1604058636
1604059206
1604058850
1604059199
1604059954
1604063743
1604064721
1604064827
1604066374
1604067673
1604068417
1604068475
1604074165
1604077663
1604077850
1604078988
1604082617
1604083004
1604084436
1604083344
1604085319
1604085411
1604087448
1604089206
1604093201
1604096993
1604101650
1604102096
1604102304
1604103669
1604110064
1604110285
1604110267
1604112150
1604113309
1604118439
1604122596
1604122858
1604125893
1604126441
1604127157
1604127840
1604128871
1604129920
1604130481
1604134079
1604134574
1604126040
1604138150
1604138524
1604139015
1604143526
1604143901
1604144296
1604145275
1604147743
1604148089
1604148325
1604152076
1604152442
1604152523
1604152732
1604152863
1604156036
1604156521
1604156966
1604157204
1604157808
1604160348
1604161602
1604162689
1604165647
1604165586
1604169535
1604171568
1604171761
1604177818
1604180682
1604181727
1604181756
1604184058
1604184940
1604185543
1604185554
1604185588
1604188238
1604190542
1604191431
1604191777
1604192047
1604194117
1604194492
1604195900
1604198381
1604201537
1604201693
1604201627
1604202871
1604206496
1604206920
1604208441
1604208926
1604210235
1604212015
1604214016
1604215635
1604215969
1604216091
1604217897
1604217952
1604218092
1604218430
1604219546
1604220293
1604224920
1604226527
1604226827
1604225927
1604230707
1604236038
1604240037
1604239973
1604241703
1604243252
1604243337
1604244350
1604246145
1604248838
1604249265
1604249269
1604249459
1604250313
1604251293
1604251910
1604253381
1604254415
1604255046
1604255786
1604256783
1604257511
1604258138
1604259531
1604265399
1604266578
1604267364
1604268785
1604269775
1604270416
1604270687
1604270642
1604272273
1604275487
1604276299
1604277003
1604282579
1604283473
1604288159
1604290177
1604293856
1604294077
1604295446
1604296513
1604297183
1604297217
1604298472
1604298532
1604300834
1604301433
1604301759
1604302343
1604304005
1604304606
1604307085
1604308444
1604308641
1604311032
1604313464
1604314406
1604316189
1604317076
1604318862
1604319918
1604321786
1604326193
1604326337
1604326506
1604328024
1604331354
1604333204
1604340173
1604341105
1604342393
1604342846
1604343116
1604343785
1604344308
1604349451
1604353505
1604356742
1604357568
1604358902
1604358814
1604360107
1604361306
1604364233
1604366115
1604367690
1604372759
1604373839
1604377850
1604380822
1604383557
1604384414
1604386116
1604389230
1604398253
1604405836
1604407978
1604408354
1604410711
1604413560
1604415056
1604417054
1604421971
1604425290
1604425948
1604428954
1604433199
1604434118
1604434974
1604439766
1604445979
1604446761
1604446797
1604450403
1604451357
1604452111
1604453478
1604454204
1604457920
1604458314
1604459485
1604461560
1604462041
1604473438
1604476411
1604476413
1604478409
1604478726
1604480719
1604483315
1604486313
1604486726
1604486917
1604490340
1604490578
1604492569
1604492970
1604493020
1604493003
1604493668
1604497019
1604497400
1604499182
1604500520
1604501757
1604503388
1604504055
1604504900
1604505444
1604505134
1604506631
1604507700
1604508244
1604513889
1604513831
1604517177
1604518861
1604522015
1604523339
1604524655
1604527034
1604528521
1604531538
1604531913
1604536220
1604536872
1604538842
1604539082
1604539028
1604543907
1604544730
1604545545
1604546051
1604548340
1604549673
1604551277
1604552046
1604552287
1604555001
1604557486
1604558533
1604560199
1604560850
1604560681
1604563857
1604565245
1604569227
1604569486
1604571576
1604572962
1604575472
1604576114
1604577641
1604584308
1604585778
1604586229
1604588367
1604587934
1604591261
1604592075
1604594393
1604595096
1604603803
1604607621
1604608423
1604610326
1604610869
1604612238
1604613425
1604615733
1604615726
1604616294
1604616924
1604617616
1604618236
1604619372
1604620981
1604621697
1604621841
1604621926
1604624006
1604627071
1604627153
1604627983
1604631117
1604635542
1604637802
1604639415
1604641032
1604641632
1604642497
1604647549
1604648714
1604649234
1604651149
1604651583
1604651788
1604652718
1604652939
1604654333
1604655516
1604655640
1604655541
1604656356
1604656514
1604662601
1604664074
1604664250
1604667181
1604667474
1604668436
1604670334
1604670787
1604672202
1604673328
1604673651
1604674250
1604674435
1604675828
1604676608
1604677419
1604677739
1604678017
1604679253
1604680040
1604680689
1604681200
1604681850
1604682173
1604682361
1604682923
1604683155
1604683353
1604686795
1604687679
1604687822
1604688277
1604692163
1604691784
1604694257
1604694703
1604696607
1604697356
1604699887
1604700073
1604703151
1604703413
1604711254
1604712044
1604711799
1604713165
1604713568
1604715733
1604716611
1604718490
1604719036
1604722266
1604722571
1604725382
1604725304
1604727488
1604727548
1604728421
1604728945
1604732456
1604734368
1604736324
1604735713
1604739135
1604739906
1604740376
1604740714
1604743183
1604743275
1604743521
1604743641
1604744536
1604746243
1604751946
1604753772
1604755546
1604755625
1604758685
1604759906
1604760312
1604761167
1604762129
1604765816
1604766871
1604767595
1604768270
1604770750
1604772183
1604772636
1604773142
1604777131
1604778735
1604780989
1604782556
1604784035
1604784585
1604785481
1604786102
1604786418
1604788224
1604790608
1604790957
1604792583
1604797407
1604798710
1604803053
1604803234
1604803642
1604804495
1604804687
1604804847
1604812677
1604814206
1604817651
1604818898
1604819738
1604820220
1604820879
1604821867
1604826456
1604827874
1604829338
1604831100
1604832821
1604833673
1604834566
1604835636
1604838264
1604838718
1604840019
1604840071
1604840684
1604841950
1604842008
1604843371
1604846143
1604847095
1604847354
1604847329
1604848368
1604849747
1604849838
1604849883
1604850706
1604851493
1604851895
1604856331
1604857216
1604857407
1604858048
1604859794
1604859790
1604860354
1604860628
1604861113
1604861810
1604864647
1604866710
1604867059
1604871403
1604871589
1604872340
1604872394
1604874150
1604882867
1604886734
1604887921
1604888242
1604889578
1604889722
1604890051
1604891374
1604891610
1604893791
1604893910
1604894362
1604896043
1604896324
1604896540
1604896635
1604898549
1604898792
1604900843
1604905554
1604909540
1604909881
1604910428
1604914499
1604917005
1604918301
1604919412
1604920814
1604920785
1604926411
1604926603
1604929335
1604930703
1604930957
1604931707
1604934290
1604936114
1604937551
1604938666
1604941689
1604942775
1604942894
1604945498
1604945809
1604946297
1604947407
1604947631
1604947743
1604952847
1604952640
1604954201
1604955282
1604955560
1604956044
1604956103
1604956362
1604956422
1604957983
1604957548
1604964920
1604968747
1604972432
1604974014
1604974529
1604975015
1604977096
1604977345
1604980176
1604982256
1604982354
1604985294
1604988283
1604989986
1604990399
1604990517
1604990941
1604992506
1604992731
1604995819
1604997682
1605001082
1605004054
1605006020
1605005880
1605006859
1605011154
1605011549
1605012053
1605013853
1605013476
1605014641
1605014802
1605014804
1605016257
1605017509
1605018582
1605018755
1605019543
1605020195
1605027514
1605028847
1605031125
1605031438
1605035879
1605036464
1605041664
1605044046
1605044743
1605044895
1605047731
1605049446
1605051531
1605052211
1605054304
1605054512
1605056185
1605058191
1605061829
1605065459
1605066384
1605066427
1605067225
1605068608
1605071629
1605071998
1605073173
1605075368
1605077321
1605077696
1605081779
1605082523
1605082537
1605084028
1605084296
1605084854
1605085141
1605085566
1605085917
1605086674
1605087493
1605087705
1605089482
1605094070
1605094146
1605096313
1605097809
1605098144
1605098618
1605099568
1605103085
1605107052
1605107415
1605108002
1605109577
1605110378
1605115586
1605116721
1605120334
1605120319
1605121219
1605122214
1605122356
1605123503
1605124899
1605125998
1605127214
1605127645
1605133601
1605133925
1605136507
1605140385
1605140991
1605141612
1605143926
1605144915
1605145032
1605145541
1605150654
1605150801
1605150654
1605150801
1605152147
1605152868
1605154574
1605154965
1605155418
1605156985
1605157278
1605159429
1605159573
1605160926
1605160902
1605161141
1605161302
1605161519
1605161957
1605162402
1605168037
1605168328
1605169086
1605169792
1605171264
1605172489
1605180382
1605182845
1605182897
1605184382
1605185044
1605185138
1605185225
1605185590
1605185709
1605186751
1605186986
1605189580
1605194869
1605196750
1605198347
1605198723
1605199828
1605200262
1605201673
1605202827
1605204619
1605204974
1605206444
1605206106
1605208789
1605209760
1605210518
1605211147
1605211221
1605216761
1605217684
1605218697
1605220895
1605222321
1605226995
1605227939
1605228876
1605231809
1605235286
1605236334
1605239638
1605240587
1605240099
1605241331
1605241965
1605248602
1605250528
1605252152
1605252835
1605264096
1605276581
1605277526
1605280816
1605282058
1605285444
1605288089
1605288079
1605288201
1605288851
1605292000
1605293421
1605296603
1605299075
1605299385
1605302827
1605306843
1605307056
1605308975
1605317587
1605317905
1605318010
1605318963
1605318952
1605321900
1605323281
1605326706
1605326797
1605327985
1605332945
1605338848
1605340161
1605340319
1605341400
1605341759
1605343026
1605344197
1605347195
1605348869
1605354842
1605358576
1605362369
1605363330
1605373033
1605375586
1605375851
1605376489
1605382827
1605383745
1605400714
1605401332
1605401711
1605403591
1605415341
1605418237
1605423834
1605425919
1605431480
1605431425
1605435206
1605436969
1605438797
1605445111
1605445441
1605446633
1605446777
1605448402
1605450493
1605457407
1605459669
1605459715
1605460402
1605462395
1605462892
1605465444
1605465277
1605466533
1605468721
1605469755
1605470832
1605477582
1605477923
1605484175
1605485426
1605489072
1605491069
1605492922
1605493420
1605493733
1605494600
1605495942
1605511095
1605513180
1605513711
1605514651
1605518278
1605519005
1605520946
1605522407
1605525303
1605525604
1605526434
1605526831
1605532287
1605533287
1605540030
1605540172
1605544589
1605544799
1605546780
1605550912
1605553550
1605554601
1605558672
1605565171
1605569579
1605570346
1605571217
1605571970
1605574289
1605577660
1605578153
1605587080
1605590272
1605592886
1605599843
1605600663
1605603274
1605604253
1605609815
1605613435
1605616584
1605618919
1605620142
1605623190
1605623733
1605623885
1605626704
1605628466
1605629356
1605630491
1605634015
1605637095
1605639616
1605642062
1605646604
1605647951
1605667242
1605669296
1605672464
1605673860
1605682409
1605694762
1605699339
1605700709
1605700998
1605700623
1605710980
1605713184
1605713082
1605716259
1605719298
1605721258
1605721606
1605721722
1605729294
1605732703
1605737590
1605736820
1605739049
1605739342
1605748855
1605753438
1605763238
1605764138
1605766566
1605767309
1605769225
1605773857
1605776819
1605781026
1605784722
1605785153
1605787201
1605790236
1605791138
1605791754
1605791846
1605798256
1605799621
1605801865
1605802118
1605802598
1605805033
1605807407
1605808526
1605809047
1605815156
1605818682
1605822674
1605828574
1605834547
1605838675
1605841622
1605849268
1605852281
1605854990
1605864112
1605868430
1605868491
1605868544
1605874477
1605879867
1605880802
1605881320
1605884980
1605885651
1605885677
1605887067
1605892310
1605893241
1605900339
1605901826
1605902095
1605906721
1605906691
1605907282
1605909607
1605913821
1605916954
1605917032
1605924123
1605931562
1605936686
1605942024
1605945376
1605947476
1605947485
1605950174
1605952322
1605953333
1605955799
1605956151
1605955965
1605956829
1605957804
1605958457
1605959342
1605959985
1605962402
1605964350
1605966038
1605970696
1605971155
1605975739
1605978747
1605979104
1605982081
1605985099
1605988904
1605991585
1605994373
1605996746
1605999778
1606001110
1606001746
1606002193
1606004694
1606007115
1606007760
1606009267
1606010685
1606021134
1606026711
1606027624
1606029828
1606031481
1606033879
1606039170
1606041526
1606045517
1606045831
1606045933
1606055300
1606059061
1606062096
1606063425
1606063978
1606067344
1606071988
1606074751
1606078025
1606083044
1606083860
1606085598
1606086339
1606088874
1606088892
1606094804
1606096253
1606097852
1606100914
1606102872
1606108892
1606109238
1606110754
1606112969
1606115612
1606118373
1606121963
1606122877
1606122905
1606125057
1606126374
1606127578
1606131522
1606131882
1606133760
1606140383
1606140278
1606149661
1606151556
1606152984
1606154181
1606154867
1606157643
1606159452
1606160097
1606160613
1606162567
1606165142
1606166115
1606166982
1606174261
1606182100
1606188726
1606197644
1606198224
1606200455
1606201775
1606207967
1606209847
1606211370
1606212982
1606214904
1606221272
1606226560
1606234190
1606234806
1606235036
1606246521
1606250279
1606252390
1606253231
1606261774
1606263745
1606272145
1606274796
1606277066
1606278985
1606281256
1606282198
1606283629
1606288631
1606294930
1606300756
1606302961
1606303816
1606307910
1606310121
1606310189
1606311359
1606311758
1606312544
1606321605
1606324620
1606326347
1606331567
1606332176
1606338515
1606343038
1606345168
1606345321
1606348482
1606349953
1606352171
1606352752
1606353444
1606353741
1606355016
1606355486
1606360286
1606361200
1606366490
1606366585
1606372124
1606378240
1606382377
1606382494
1606383325
1606383333
1606385857
1606392163
1606393922
1606395148
1606395952
1606398446
1606400368
1606401329
1606406985
1606409166
1606412335
1606416715
1606418656
1606418730
1606421746
1606422891
1606429354
1606429521
1606433267
1606436393
1606442993
1606450344
1606451348
1606452616
1606453197
1606453502
1606457201
1606464939
1606467173
1606476022
1606481632
1606483158
1606483315
1606483756
1606484646
1606485214
1606486704
1606489562
1606492289
1606494472
1606502312
1606505000
1606505339
1606507213
1606508286
1606511483
1606521579
1606521640
1606522924
1606530718
1606532695
1606535776
1606538219
1606538366
1606542163
1606543064
1606543201
1606549796
1606551044
1606551319
1606552580
1606555125
1606555655
1606560036
1606563558
1606564670
1606572683
1606574734
1606575509
1606580945
1606588952
1606589206
1606589512
1606591359
1606592127
1606595504
1606597083
1606597348
1606598480
1606602530
1606604203
1606608086
1606609103
1606615062
1606615415
1606617074
1606622701
1606626270
1606638470
1606641383
1606642589
1606645007
1606654020
1606655825
1606659523
1606660711
1606664931
1606666501
1606666991
1606674009
1606679491
1606682717
1606685995
1606688426
1606689597
1606698276
1606698654
1606706986
1606707421
1606709862
1606709891
1606714945
1606724295
1606731431
1606735908
1606736182
1606737101
1606738279
1606740317
1606742696
1606745291
1606746254
1606751264
1606751770
1606758766
1606759579
1606764186
1606767215
1606767200
1606770900
1606772130
1606775135
1606776322
1606780136
1606783083
1606785273
1606787894
1606789524
1606789702
1606790621
1606792398
1606792404
1606792675
1606798035
1606800841
1606802895
1606803948
1606808508
1606808470
1606810909
1606811072
1606812115
1606819024
1606825335
1606826081
1606832804
1606834410
1606834767
1606838786
1606841800
1606843317
1606845863
1606847124
1606850870
1606857190
1606858912
1606859603
1606865605
1606872417
1606876583
1606877887
1606880449
1606882155
1606883786
1606884741
1606886662
1606889435
1606892503
1606893780
1606900462
1606901484
1606902090
1606902344
1606907370
1606907575
1606912698
1606917350
1606926821
1606927482
1606929743
1606930251
1606930703
1606934143
1606934879
1606935302
1606935593
1606938313
1606940470
1606943138
1606947329
1606949864
1606953975
1606955443
1606961527
1606963814
1606964588
1606965979
1606967528
1606974624
1606975103
1606976130
1606979375
1606983047
1606983883
1606987561
1606991896
1606994026
1606995453
1606996658
1606997069
1607005024
1607014363
1607014606
1607015745
1607016133
1607017690
1607020573
1607020977
1607022301
1607023266
1607025528
1607025851
1607043252
1607044446
1607044855
1607048297
1607048132
1607048770
1607049347
1607052427
1607054060
1607054138
1607072298
1607073807
1607076242
1607076992
1607080631
1607082290
1607082849
1607084390
1607086691
1607087866
1607088192
1607091879
1607093618
1607103413
1607104412
1607105429
1607108174
1607109061
1607111346
1607112448
1607113654
1607115195
1607115569
1607115952
1607116492
1607117699
1607118736
1607121625
1607124407
1607126268
1607128122
1607128242
1607131525
1607132142
1607135603
1607136140
1607146901
1607148529
1607149194
1607150898
1607151678
1607152127
1607156131
1607156346
1607159302
1607160782
1607160807
1607161592
1607165649
1607168956
1607172886
1607173384
1607176740
1607177631
1607178188
1607180103
1607184920
1607189689
1607189745
1607199394
1607201014
1607204824
1607205154
1607206039
1607213495
1607213741
1607215176
1607220263
1607222423
1607223877
1607223935
1607231062
1607231108
1607233768
1607235760
1607240430
1607241739
1607249037
1607252038
1607255969
1607256489
1607258093
1607259952
1607266806
1607272413
1607282496
1607284801
1607285830
1607299599
1607300084
1607300218
1607302088
1607302221
1607302318
1607306680
1607310264
1607310787
1607312307
1607313672
1607313700
1607324811
1607329487
1607332512
1607333466
1607338435
1607341425
1607344758
1607347993
1607349658
1607368736
1607371577
1607372663
1607374355
1607380610
1607381509
1607385088
1607386308
1607386891
1607387142
1607388560
1607389755
1607391398
1607399711
1607401118
1607401610
1607402091
1607405947
1607408013
1607411295
1607411925
1607412412
1607416050
1607426151
1607426559
1607440423
1607441920
1607443663
1607449959
1607450771
1607452539
1607453784
1607460088
1607463606
1607471820
1607471911
1607474292
1607477398
1607479608
1607483739
1607483934
1607487842
1607489000
1607490424
1607490835
1607492750
1607493135
1607495019
1607496282
1607496311
1607500846
1607503368
1607509642
1607511567
1607511941
1607512067
1607515104
1607516092
1607519702
1607531517
1607531117
1607532507
1607537722
1607539976
1607543483
1607543924
1607544926
1607545507
1607551781
1607555750
1607558147
1607559874
1607563210
1607564990
1607576592
1607577105
1607581796
1607583532
1607586348
1607591154
1607597406
1607597792
1607605599
1607614057
1607614491
1607615022
1607616277
1607617362
1607621707
1607622490
1607627518
1607629816
1607633020
1607634216
1607643840
1607645874
1607646513
1607656936
1607662823
1607665205
1607667901
1607673672
1607676619
1607678053
1607683353
1607685182
1607686780
1607690726
1607692015
1607692533
1607693653
1607698219
1607700269
1607702768
1607702797
1607704325
1607707879
1607708881
1607711680
1607713047
1607714999
1607717052
1607718084
1607724820
1607725392
1607733193
1607734310
1607737104
1607738318
1607740613
1607751942
1607752875
1607763324
1607776043
1607779899
1607781744
1607783208
1607786744
1607791382
1607802886
1607805319
1607807026
1607809332
1607811904
1607811635
1607812597
1607815744
1607818368
1607818430
1607818862
1607819642
1607820510
1607822121
1607827160
1607828439
1607831655
1607832135
1607834516
1607835509
1607838009
1607844374
1607853336
1607853479
1607855516
1607856883
1607858575
1607861044
1607863836
1607863834
1607865626
1607866674
1607867555
1607868955
1607873631
1607874066
1607876091
1607879060
1607880201
1607883071
1607884165
1607890150
1607890535
1607894141
1607895312
1607896521
1607898446
1607901381
1607901564
1607903480
1607904862
1607907057
1607908991
1607909160
1607909726
1607915325
1607915817
1607916294
1607923174
1607926308
1607927474
1607927903
1607927444
1607928837
1607928839
1607935653
1607936211
1607936480
1607936663
1607938384
1607942348
1607942896
1607947909
1607951111
1607951657
1607955221
1607955041
1607958080
1607962882
1607962988
1607966016
1607966714
1607967300
1607976179
1607984679
1607984723
1607991011
1607993743
1607996981
1607997646
1607998478
1608000030
1608000325
1608000618
1608001853
1608006499
1608007806
1608009619
1608010037
1608013505
1608014900
1608015376
1608016823
1608017020
1608018603
1608022242
1608025367
1608028962
1608032874
1608035323
1608042865
1608043524
1608043432
1608044257
1608047238
1608049928
1608050088
1608052718
1608053755
1608054339
1608054612
1608056663
1608057818
1608057899
1608063702
1608066356
1608066211
1608068129
1608069678
1608073508
1608075941
1608076451
1608076707
1608076688
1608077738
1608084771
1608088554
1608090255
1608090456
1608090609
1608094553
1608094987
1608100922
1608102368
1608103839
1608104689
1608108311
1608114090
1608120057
1608120595
1608123397
1608125747
1608127763
1608127866
1608135260
1608136535
1608136813
1608143307
1608145704
1608146357
1608147535
1608149410
1608151468
1608158191
1608159345
1608159459
1608159730
1608168322
1608172898
1608173206
1608173737
1608175355
1608177148
1608177936
1608178903
1608181324
1608181425
1608182306
1608184047
1608184384
1608187621
1608188333
1608194080
1608194356
1608195607
1608195492
1608195962
1608197897
1608198456
1608199088
1608199248
1608199345
1608202715
1608209385
1608215292
1608217530
1608218835
1608221041
1608221722
1608222018
1608223222
1608225428
1608225526
1608228447
1608232100
1608234319
1608243294
1608243422
1608246122
1608253164
1608255768
1608255568
1608256749
1608266511
1608269613
1608269858
1608270455
1608272144
1608273186
1608276563
1608278001
1608284962
1608286964
1608289573
1608295091
1608295870
1608295994
1608303586
1608307963
1608308252
1608309118
1608311007
1608319336
1608319997
1608326004
1608336772
1608338996
1608340606
1608340384
1608341610
1608347349
1608348773
1608349634
1608363113
1608364309
1608365092
1608366039
1608366803
1608366966
1608369398
1608370463
1608373479
1608373824
1608382239
1608388813
1608390431
1608392789
1608396145
1608398176
1608402849
1608404535
1608410897
1608412003
1608412995
1608414614
1608415447
1608417606
1608418390
1608428626
1608429761
1608430221
1608433976
1608437992
1608445936
1608450193
1608452925
1608453226
1608453506
1608455094
1608456057
1608462932
1608464759
1608469258
1608469960
1608470222
1608471327
1608472879
1608473630
1608478003
1608479431
1608480993
1608491293
1608491167
1608496642
1608496861
1608509459
1608511646
1608513061
1608513430
1608514350
1608513638
1608516592
1608517051
1608517927
1608519763
1608522831
1608524411
1608526359
1608525821
1608531582
1608531828
1608534356
1608534717
1608536443
1608536603
1608540491
1608541354
1608545949
1608545920
1608552646
1608557384
1608557545
1608561527
1608566647
1608569635
1608569853
1608569889
1608570002
1608571673
1608573247
1608575599
1608582079
1608585450
1608593080
1608593927
1608600310
1608601424
1608602555
1608606518
1608606977
1608613144
1608616914
1608617427
1608618043
1608618279
1608618940
1608619727
1608623241
1608623497
1608626404
1608632515
1608637068
1608642072
1608644583
1608649984
1608652771
1608655343
1608656733
1608657720
1608664216
1608667888
1608668166
1608674077
1608676149
1608681207
1608682112
1608686923
1608688410
1608688891
1608691184
1608695564
1608696671
1608701671
1608703221
1608703934
1608707330
1608708543
1608712289
1608714914
1608715239
1608716355
1608717641
1608718798
1608722980
1608731920
1608732396
1608733093
1608735300
1608737711
1608741097
1608744596
1608745331
1608746439
1608749630
1608751872
1608761266
1608764233
1608767869
1608772533
1608776994
1608777215
1608780789
1608781608
1608782736
1608783471
1608785800
1608787479
1608788745
1608795592
1608802979
1608803681
1608806097
1608807591
1608811293
1608814611
1608814793
1608830160
1608832160
1608834848
1608835182
1608836542
1608846242
1608846524
1608848427
1608852600
1608854128
1608865944
1608869673
1608872197
1608886408
1608886707
1608886454
1608887205
1608888768
1608888857
1608889339
1608892020
1608896287
1608898553
1608898921
1608899331
1608900913
1608904850
1608906778
1608907743
1608909428
1608909941
1608913774
1608914062
1608919585
1608924412
1608926967
1608929038
1608929471
1608931184
1608934910
1608939209
1608941245
1608941514
1608946995
1608950261
1608952381
1608953093
1608956642
1608956679
1608960682
1608963079
1608967048
1608968833
1608971026
1608974951
1608976991
1608980008
1608982907
1608991597
1608994869
1608996256
1608996792
1608996962
1608999382
1609005226
1609006297
1609010519
1609020011
1609023062
1609025606
1609026214
1609028573
1609034913
1609035148
1609040007
1609043952
1609046204
1609048822
1609049220
1609050404
1609050973
1609051405
1609051663
1609056326
1609056660
1609068074
1609072923
1609077793
1609077995
1609083839
1609085057
1609085484
1609085508
1609097609
1609104366
1609104750
1609105289
1609106369
1609114893
1609116456
1609120795
1609124547
1609126020
1609126285
1609127995
1609129881
1609136273
1609139118
1609140755
1609140791
1609142533
1609146327
1609149070
1609154422
1609154599
1609155828
1609157991
1609158725
1609163145
1609163257
1609168402
1609168664
1609177413
1609181385
1609183275
1609192964
1609194961
1609195771
1609196372
1609203768
1609218669
1609224781
1609225525
1609226913
1609228171
1609228919
1609228947
1609229482
1609229389
1609230149
1609233755
1609233856
1609234216
1609235029
1609237936
1609240010
1609243838
1609244750
1609244975
1609247159
1609247731
1609249368
1609262415
1609264357
1609268589
1609270759
1609271758
1609277134
1609278950
1609281148
1609283080
1609283764
1609284839
1609285404
1609290625
1609290600
1609294370
1609294729
1609295032
1609300950
1609308707
1609313192
1609313695
1609327074
1609328887
1609329039
1609332359
1609333155
1609334246
1609336956
1609345677
1609349563
1609354619
1609359040
1609362857
1609366803
1609372468
1609376658
1609380098
1609382604
1609395480
1609395467
1609401700
1609405201
1609414464
1609418606
1609418616
1609421020
1609423649
1609427930
1609429077
1609429975
1609430047
1609439210
1609438844
1609441528
1609441624
1609441860
1609442715
1609447206
1609447381
1609448248
1609451446
1609452822
1609455162
1609457982
1609459314
1609460681
1609462749
1609463533
1609470105
1609472454
1609474301
1609474440
1609476803
1609480825
1609480964
1609482233
1609483503
1609483864
1609494153
1609498557
1609504159
1609515226
1609515255
1609515375
1609518351
1609518568
1609523537
1609523614
1609527229
1609527909
1609531679
1609536085
1609537516
1609546005
1609546282
1609548309
1609552234
1609552369
1609556128
1609556864
1609560028
1609560970
1609561433
1609561743
1609569650
1609580607
1609586298
1609586797
1609586964
1609587085
1609588548
1609589672
1609590264
1609593821
1609594731
1609600357
1609600518
1609605505
1609606393
1609606353
1609610056
1609612144
1609614606
1609626766
1609628573
1609636288
1609642215
1609644738
1609646444
1609648527
1609649944
1609652570
1609659044
1609666099
1609669755
1609673274
1609675121
1609680086
1609680590
1609681727
1609686299
1609686793
1609688674
1609691558
1609692722
1609708909
1609709426
1609709463
1609713885
1609715843
1609716112
1609716337
1609719364
1609721013
1609723733
1609725562
1609726663
1609727506
1609727677
1609732815
1609737682
1609737976
1609741885
1609747605
1609752824
1609754250
1609756648
1609761971
1609767033
1609771044
1609771562
1609774447
1609781166
1609781436
1609782899
1609783969
1609785233
1609790137
1609790732
1609791467
1609791345
1609792526
1609801575
1609804761
1609805699
1609809028
1609810572
1609812921
1609819102
1609819883
1609822771
1609823356
1609825404
1609825908
1609825769
1609826849
1609828832
1609833535
1609833638
1609833763
1609833882
1609837462
1609846769
1609854238
1609854481
1609860824
1609861707
1609865070
1609871842
1609875027
1609881693
1609882342
1609883592
1609888880
1609892686
1609895398
1609898998
1609902911
1609904275
1609908366
1609911910
1609914847
1609917124
1609917194
1609924824
1609926508
1609927879
1609934391
1609935493
1609939518
1609940056
1609948373
1609952504
1609955992
1609956858
1609958255
1609963764
1609967720
1609969051
1609969508
1609976680
1609982730
1609982777
1609985653
1609988544
1609989641
1609992256
1609994924
