801019910
801026281
801039499
800108099
800112254
800127146
800127529
801074835
800151850
800155361
800065070
800108099
800112254
800127146
800127529
800151850
800155361
800164620
800190790
800198595
800210821
800220684
800263310
800277780
800278310
800285551
800300836
800307006
800307681
800338164
800343279
800394484
800396196
800409290
800441538
800450504
800467926
800476810
800493644
800500227
800503565
800504394
800507237
800520818
800521116
800566445
800578302
800594931
800613009
800618450
800658178
800679956
800683255
800720266
800739225
800746181
800782145
800793009
800816768
800855707
800874425
800878416
800900143
800901000
800920536
800928866
800952528
800977997
800994994
800998131
801019910
801026281
801039499
801074835
801106442
801160186
801164983
801187226
801211011
801229929
801250925
801250931
801258518
801262640
801281392
801294576
801297272
801299008
801353204
801354444
801362012
801362310
801381044
801386174
801416677
801423609
801445373
801449116
801450597
801459989
801499272
801503628
801517608
801555897
801559349
801585359
801588344
801597732
801603251
801616168
801643973
801649590
801703631
801739092
801739667
801757535
801761871
