960056693
960200517
960272877
960517493
960548400
960917320
961230966
961533561
961573716
961626074
961630389
961727595
961851259
962070798
962126605
962161385
962347458
962565680
962683704
962744226
