610003617
610005017
610007106
610007797
610007901
610013353
610019719
610021078
610021673
610023298
610025839
610027027
610028872
610032580
610034462
610040696
610043223
610045934
610047374
610048900
610049285
610050011
610050539
610053550
610059781
610060787
610061408
610062107
610062480
610066477
610068295
610069735
610071493
610078312
610082767
610088330
610088245
610088520
610089852
610090732
610090856
610090999
610097593
610099774
610100565
610100875
610100867
610104038
610104071
610105111
610106699
610107407
610109797
610110536
610114229
610115349
610118296
610122179
610122627
610123018
610125097
610127595
610129035
610131481
610131946
610144484
610144706
610145464
610153537
610161461
610167306
610171655
610172038
610175561
610176626
610179215
610183959
610188575
610188472
610190660
610193583
610199624
610200521
610200607
610201511
610202168
610204116
610207276
610207953
610210742
610213885
610214602
610215349
610222912
610224445
610226319
610234051
610238822
610247415
610258833
610258944
610261073
610266904
610267780
610270251
610272358
610275640
610276749
610282275
610282420
610284945
610289855
610296391
610296677
610303236
610306823
610307619
610308473
610310387
610311600
610315496
610318546
610322108
610325128
610326356
610326927
610326199
610329355
610329792
610331539
610331831
610335952
610343136
610345658
610347256
610349350
610349543
610351272
610353792
610368392
610368488
610369285
610370494
610371105
610372785
610373654
610374127
610380016
610382170
610384335
610385316
610389387
610394280
610398662
610399397
610402997
610411630
610411625
610413537
610414220
610418060
610418992
610422628
610426043
610426549
610427214
610430577
610433988
610435451
610437491
610437658
610440743
610441638
610446143
610453328
610455330
610461854
610463521
610463866
610476191
610477107
610478059
610478460
610478690
610479314
610481170
610481413
610481949
610482181
610485658
610486643
610488490
610489543
610493826
610498313
610498446
610502095
610502191
610504190
610506395
610508473
610509936
610510857
610512418
610515092
610515972
610516419
610517015
610520474
610528373
610529059
610530617
610531958
610536928
610538330
610550847
610553053
610557513
610565219
610565450
610567638
610571838
610578993
610588070
610593052
610599990
610605577
610607664
610608091
610609193
610611073
610613952
610614411
610615468
610615997
610617006
610619872
610620375
610621444
610623041
610625390
610625725
610627394
610629445
610629492
610633671
610635296
610637563
610637567
610638392
610638560
610640577
610641112
610641207
610646451
610647119
610647318
610647764
610649729
610650083
610652538
610656800
610660663
610665931
610666415
610670714
610676292
610678546
610680816
610685834
610688463
610689145
610689397
610691592
610691974
610693615
610694709
610694687
610698411
610699282
610707041
610710589
610712521
610715589
610717067
610717943
610722746
610726033
610732552
610733820
610741970
610742843
610743524
610745142
610745334
610750486
610750922
610751291
610751867
610755608
