710009180
710014498
710025081
710050363
710168056
710238483
710243505
710393415
710429281
710439557
710586544
710602591
710642532
710716671
710820773
711098355
711131096
711266991
711610636
711646555
711655135
711828929
711830287
711864419
711894326
712066113
712163206
712302190
712335474
712530251
712578926
712580471
712612768
712780876
712790860
712793033
712850782
712927752
713026022
713030458
713058860
713071632
713303671
713389794
713431282
713476192
713535243
