710239668
710291889
710501928
710921751
711147274
711258564
711439788
711460662
711513670
711654163
711702834
711792238
711857213
712067486
712189770
712245189
712521796
712566208
712605667
712661000
712785489
712843983
712871534
712903432
712925064
713080252
713236853
713381962
713393720
