730031712
730042464
730063425
730068026
730081752
731021622
731044597
730108887
730113402
730121113
731077076
730143822
730152537
731094625
731096617
730170723
730192064
731132630
731134893
731136981
731168951
731177463
730268647
730276251
730292877
731227508
730313390
731259649
730338448
731272274
730408831
731562592
731570598
731570946
731586120
731590205
730451881
731595746
730461003
731605578
731614608
731625226
731646521
730514641
731660969
730521138
731663420
731664681
731694992
731707000
731738453
730551187
730556126
730557619
731753777
731773077
730580982
730582497
731785090
730597006
730602292
731798800
731799754
730610948
731814560
730625042
731850154
730672623
730677548
731874988
730702623
731932023
731938066
731956544
731964395
731980699
730712784
730715762
730762097
730765337
730770306
730777562
730786242
730794806
730797089
732098513
732103848
730825403
732125945
732128298
1600025410
1600049300
1600075619
1600078007
1600114048
1600115186
1600137000
1600145555
1600146550
1600168690
1600169590
1600191014
1600212947
1600229035
1600246034
1600250792
1600261585
1600281477
1600281579
1600294228
1600305690
1600354895
1600367858
1600379167
1600402590
1600444218
1600448385
1600449684
1600463386
1600483653
1600510721
1600516886
1600540203
1600560434
1600578912
1600584740
1600612514
1600626716
1600635685
1600671979
1600677743
1600702026
1600706324
1600723829
1600758102
1600777022
1600811605
1600831141
1600841331
1600901752
1600934523
1600962346
1601009397
1601048517
1601056392
1601097432
1601193407
1601197927
1601203383
1601221865
1601252941
1601324918
1601335809
1601337164
1601372240
1601397597
1601412132
1601434894
1601514017
1601525742
1601533825
1601577708
1601659823
1601665861
1601705681
1601708272
1600049300
1600075619
1600114048
1600115186
1603086083
1603092779
1603100042
1603161683
1603170232
1603179866
1603208879
1603235792
1603245265
1603256014
1603273732
1603307260
1603307928
1603343373
1603369291
1603387911
1603394455
1603434849
1603442521
1603447271
1603454997
1603455972
1603466715
1603494337
1603496010
1603520290
1603521547
1603583887
1603600549
1603622183
1603651019
1603655165
1603686893
1603727674
1603868588
1603873440
1603899397
1603918577
1603926031
1603939542
1603983934
1603987102
1603995302
1603998419
1604066500
1604107793
1604144483
1604160791
1604184342
1604201367
1604294221
1604299444
1604337078
1604347400
1604377338
1604476885
1604488989
1604495207
1604498181
1604525087
1604534428
1604553072
1604589979
1604595127
1604612959
1604657737
1604664539
1604711652
1604720178
1604732025
1604820022
1604824733
1604824864
1604833666
1604853128
1604865791
1604865915
1604895975
1604913460
1604917726
1604918457
1604935778
1604949524
1604950406
1604950774
1604986791
1604993804
1605005203
1605047194
1605057682
1605116084
1605186037
1605200796
1605334608
1605424024
1605444176
1605448769
1605461094
1605506621
1605523817
1605538217
1605586693
1605604422
1605606991
1605607285
1605618806
1605625269
1605628658
1605632007
1605657299
1605713529
1605714013
1605787871
1605811039
1605903866
1605963968
1605978088
1606007782
1606066195
1606102331
1606110028
1606179594
1606208685
1606268414
1606322601
1606330778
1606348921
1606391307
1606450116
1606493581
1606495153
1606495965
1606513792
1606555246
1606570483
1606604426
1606634975
1606675809
1606680337
1606804917
1606836288
1606905973
1606932241
1606977590
1606987499
1607006709
1607053671
1607084897
1607151345
1607159973
1607203376
1607213173
1607220533
1607256925
1607279680
1607308382
1607331160
1607357943
1607363094
1607404406
1607438234
1607456330
1607493362
1607522709
1607524560
1607527721
1607539422
1607553885
1607577813
1607600934
1607609784
1607651551
1607745569
1607853156
1607936828
1607946815
1607995678
1608006753
1608012625
1608023940
1608034105
1608106108
1608202226
1608204035
1608236911
1608240871
1608276090
1608281506
1608294374
1608300590
1608322302
1608390057
1608394251
1608428494
1608468357
1608486333
1608505891
1608536695
1608542822
1608566212
1608664591
1608718106
1608739549
1608740890
1608763152
1608786535
1608827454
1608832579
1608883066
1608885664
1608939531
1608974432
1609002904
1609007580
1609040918
1609063706
1609080985
1609112952
1609135880
1609187239
1609187913
1609257435
1609267158
1609275016
1609297640
1609320944
1609332874
1609336716
1609340629
1609345394
1609439355
1609453820
1609461482
1609467011
1609495228
1609502164
1609508792
1609522527
1609637320
1609685529
1609692778
1609714269
1609739238
1609831079
1609850635
1609871355
1609898304
1609927048
1609931193
1609944865
1609979705
1609996948
1609997059
