710015048
710062508
710137744
710156845
710202883
710276070
710327313
710369696
710371325
710404123
710433494
710496047
710519128
710596106
710599036
710613257
710624075
710667367
710678718
710739973
710832125
710835307
710883858
710938915
710956843
711012593
711030474
711035745
711082357
711110869
711160311
711262598
711286685
711326238
711349306
711369347
711374885
711453547
711478887
711484502
711496253
711504902
711616978
711628544
711637975
711730170
711730607
711766576
711770070
711884749
711888689
711897413
711908348
711975041
712017677
712044999
712070381
712106701
712117816
712143388
712146179
712149935
712220180
712372978
712389264
712399144
712400860
712427898
712495045
712529182
712609007
712632689
712639129
712740434
712830636
712987188
713016620
713025713
713027015
713062323
713103297
713115573
713144575
713180251
713191050
713208750
713217709
713244104
713248693
713251973
713255761
713316948
713384335
713460948
713487551
