840015964
840020030
840051365
840051919
840051769
840056993
840127511
840128128
840136444
840143043
840156569
840160776
840194586
840239760
840241511
840255297
840262788
840278290
840310769
840348675
840368512
840382486
840394355
840420229
840442852
840448699
840449243
840452777
840472862
