730000285
730020753
730039243
730048202
1600002763
1600003404
1600003898
1600006014
1600006025
1600006014
1600006014
1600006014
1600006989
1800000885
730058221
1601000042
1601000216
730039243
730048202
730058221
730070604
730076028
730078833
730085144
731019223
731020905
731023721
730088844
731035853
731041919
731042124
731049305
731052965
730121759
731075104
730140047
730147536
731107665
731108757
730178069
730178825
730178809
730183255
731120324
731129493
730202762
730204111
731143410
730211540
730213604
730213838
730218468
730232419
730236887
730242509
731173609
730254318
730255032
731188003
731188007
730259498
731193001
731199579
730272720
731210684
731214339
731216779
730294327
731227260
730305256
730308550
730316138
730318828
730324327
731253058
731256788
731268150
731268739
730344282
730344324
731542641
731545057
731552376
731563004
730426216
731565351
730432060
730436693
731580333
731583290
731597082
730460095
731604407
730474045
731620896
730482801
731624168
730491052
731641250
731646597
730515812
731664772
731669258
731678795
731689357
731691120
731694692
731696711
731697855
731698915
731717680
730537968
730538879
731731807
730540368
731736026
731740707
731760855
731761536
730569217
730571220
730572219
730580767
731774461
730582831
730589780
731783688
730590196
730595018
730597215
730598109
731797907
731801785
731802149
731805505
730614439
731810400
731811681
731814340
731815319
731820547
730626984
731832998
731835276
730647988
731854206
730660254
731861220
731861306
730666271
731866831
730671670
730673983
731878512
730684591
731881363
731886361
731891724
731892001
731928500
731962765
731963111
731965187
731973714
731979711
731986757
731998887
732011725
730719396
730727696
732025269
732029506
730735112
732035609
732046898
732051672
730762777
730765505
732061046
732067446
730775778
730778761
732080153
730789781
732086690
730794623
732090628
732104733
730816172
730822498
730823366
732120391
730826002
730827271
730834051
730834773
1600002763
1600003404
1600003898
1600006014
1600006025
1600006989
1600008025
1600008630
1600010558
1600012243
1600013209
1600013348
1600014134
1600014659
1600015958
1600016387
1600018357
1600018735
1600019452
1600020057
1600022757
1600023092
1600022962
1600023652
1600024104
1600024346
1600026492
1600026504
1600026500
1600026885
1600026907
1600027519
1600029331
1600030289
1600033972
1600034542
1600034578
1600034552
1600035091
1600035601
1600035853
1600037365
1600037415
1600037365
1600037775
1600038543
1600038543
1600040406
1600040815
1600041498
1600043410
1600044014
1600045032
1600045180
1600045325
1600045332
1600045489
1600045682
1600045985
1600046596
1600047180
1600047816
1600048309
1600049131
1600049250
1600050173
1600053994
1600054143
1600054109
1600054524
1600055720
1600055751
1600055988
1600055991
1600056398
1600057062
1600057606
1600059194
1600060429
1600060515
1600061004
1600060853
1600061366
1600061665
1600061887
1600062756
1600063123
1600063719
1600066238
1600067521
1600067608
1600067858
1600068361
1600068438
1600068824
1600070152
1600070434
1600070612
1600071496
1600073355
1600074570
1600076568
1600077601
1600078039
1600078579
1600079067
1600079478
1600079590
1600079677
1600080492
1600080664
1600081039
1600081497
1600082952
1600083098
1600083208
1600083404
1600084242
1600084832
1600084858
1600085444
1600086936
1600087999
1600088892
1600090061
1600090275
1600091231
1600091274
1600091430
1600093517
1600094301
1600094376
1600095207
1600096088
1600097317
1600097757
1600097784
1600098006
1600098092
1600099737
1600101703
1600101816
1600102609
1600103773
1600103946
1600104693
1600105380
1600106759
1600108821
1600109507
1600110537
1600110733
1600111118
1600112867
1600113055
1600113280
1600113410
1600114514
1600114714
1600115323
1600116439
1600117256
1600118721
1600118890
1600119015
1600119321
1600119985
1600120638
1600120941
1600124107
1600124257
1600124685
1600125541
1600126718
1600127921
1600128030
1600128821
1600129270
1600132291
1600132658
1600133047
1600133038
1600134016
1600136386
1600136498
1600137817
1600138171
1600139762
1600139769
1600140057
1600139851
1600143067
1600144359
1600147906
1600148953
1600149273
1600150359
1600150495
1600151942
1600154177
1600154723
1600154883
1600155071
1600157608
1600160504
1600160914
1600162793
1600163984
1600164076
1600166045
1600166649
1600167734
1600168433
1600169645
1600171658
1600172126
1600175217
1600175294
1600176482
1600176971
1600177049
1600179397
1600180645
1600180757
1600181325
1600183944
1600184810
1600184813
1600185107
1600185485
1600187051
1600187430
1600187848
1600188271
1600188379
1600188503
1600190501
1600190973
1600193030
1600193077
1600194445
1600195835
1600196636
1600197205
1600197512
1600198274
1600199473
1600200100
1600200186
1600200233
1600202540
1600203598
1600203992
1600204246
1600204213
1600204303
1600204200
1600204382
1600206072
1600206357
1600208830
1600210503
1600214246
1600214562
1600214901
1600215263
1600219903
1600221546
1600222305
1600223169
1600223859
1600225688
1600227024
1600227282
1600227349
1600228172
1600229345
1600230945
1600231448
1600233883
1600234151
1600234461
1600235504
1600235738
1600237171
1600239123
1600239509
1600239925
1600239967
1600240855
1600241660
1600243103
1600244127
1600246091
1600246594
1600248496
1600249159
1600249792
1600251408
1600253091
1600253249
1600254371
1600255349
1600256601
1600258809
1600258929
1600258953
1600259047
1600259496
1600259657
1600260426
1600261538
1600261801
1600261977
1600262026
1600262636
1600263507
1600263336
1600264388
1600265247
1600265316
1600266824
1600267109
1600267286
1600267862
1600268342
1600268944
1600269318
1600269995
1600270970
1600268017
1600272381
1600273811
1600273896
1600275628
1600276902
1600278129
1600281975
1600282248
1600282803
1600283572
1600283612
1600284368
1600284972
1600284992
1600285139
1600285722
1600285853
1600287784
1600288793
1600288855
1600290563
1600291047
1600295604
1600297124
1600299563
1600302641
1600302774
1600303100
1600303431
1600306522
1600308331
1600308436
1600308848
1600309573
1600310436
1600310620
1600310686
1600310944
1600311870
1600312381
1600312612
1600314597
1600315033
1600315231
1600316475
1600316542
1600316766
1600317122
1600319933
1600320447
1600320644
1600322715
1600322902
1600323797
1600323956
1600324040
1600324551
1600326518
1600327469
1600328060
1600329498
1600329497
1600329573
1600329819
1600330191
1600330862
1600330826
1600331122
1600333868
1600334250
1600335673
1600336502
1600336762
1600339767
1600340211
1600341266
1600344231
1600345717
1600345668
1600347226
1600347744
1600348335
1600348626
1600349297
1600349460
1600349356
1600353201
1600353531
1600353694
1600354213
1600354897
1600354947
1600357342
1600357471
1600359170
1600359031
1600360827
1600361198
1600361463
1600361633
1600362921
1600363152
1600364570
1600364702
1600365069
1600365276
1600365827
1600366006
1600366315
1600367460
1600368488
1600368782
1600368908
1600370467
1600372495
1600375322
1600375437
1600376521
1600378017
1600380258
1600381327
1600383018
1600384511
1600384756
1600385704
1600385768
1600386469
1600386723
1600388447
1600389269
1600390233
1600390892
1600392342
1600392910
1600393534
1600393544
1600393679
1600394090
1600394244
1600394404
1600394713
1600395507
1600395817
1600396597
1600396833
1600399370
1600400172
1600400414
1600400606
1600401092
1600401705
1600401977
1600402042
1600403440
1600404172
1600405627
1600405756
1600405786
1600406148
1600407454
1600407639
1600408360
1600408371
1600408768
1600410309
1600411921
1600413727
1600414668
1600414832
1600416879
1600416992
1600417761
1600417923
1600418218
1600418738
1600419384
1600420139
1600420174
1600420805
1600420904
1600421163
1600421900
1600423137
1600424078
1600424305
1600425186
1600427685
1600427832
1600428111
1600429696
1600430239
1600431950
1600432563
1600434303
1600436416
1600437196
1600437430
1600438999
1600441131
1600441425
1600442254
1600442939
1600442962
1600443494
1600443621
1600444821
1600445012
1600449327
1600449570
1600449434
1600449662
1600451698
1600452240
1600452455
1600453757
1600454344
1600454811
1600456936
1600457379
1600457689
1600458287
1600458365
1600458389
1600458979
1600459187
1600462649
1600464550
1600466218
1600466650
1600467017
1600467801
1600468463
1600471120
1600471923
1600473810
1600474320
1600474786
1600475101
1600475840
1600476435
1600476898
1600477055
1600478003
1600478588
1600479516
1600480534
1600481498
1600481712
1600481764
1600484882
1600484988
1600485274
1600485585
1600485893
1600486462
1600486622
1600486849
1600488616
1600489544
1600490240
1600494483
1600495780
1600495710
1600495961
1600496256
1600497667
1600498177
1600498505
1600498947
1600499047
1600500520
1600501689
1600504450
1600504739
1600506323
1600506482
1600506542
1600506825
1600507674
1600508242
1600508908
1600509247
1600510602
1600511020
1600511164
1600512261
1600514385
1600514640
1600515081
1600515524
1600516729
1600516846
1600517546
1600518132
1600520430
1600520654
1600520932
1600521141
1600521955
1600522069
1600522459
1600522901
1600523650
1600524393
1600525260
1600526020
1600526183
1600527344
1600527894
1600528095
1600528894
1600529293
1600530034
1600530138
1600531360
1600531807
1600532091
1600532369
1600533626
1600533609
1600534220
1600536482
1600536942
1600536967
1600537305
1600537398
1600538250
1600539033
1600540772
1600541779
1600542086
1600543038
1600543951
1600545123
1600545153
1600545503
1600545782
1600547354
1600547930
1600547934
1600548262
1600549051
1600551945
1600554952
1600558757
1600558880
1600558998
1600559888
1600560181
1600560723
1600561769
1600562064
1600562293
1600562975
1600564289
1600564444
1600565677
1600565874
1600566114
1600566119
1600567729
1600568483
1600568504
1600568840
1600569236
1600571551
1600571840
1600572231
1600573717
1600576374
1600578173
1600578132
1600578710
1600580263
1600580861
1600581414
1600583749
1600585003
1600585452
1600585596
1600585825
1600587470
1600588783
1600589496
1600589662
1600590309
1600590817
1600592563
1600592834
1600593771
1600594643
1600594666
1600596358
1600598320
1600598979
1600599822
1600600051
1600600189
1600602446
1600604638
1600605532
1600606043
1600606164
1600606968
1600607617
1600608219
1600608321
1600609607
1600610344
1600610861
1600611747
1600611856
1600612123
1600614340
1600614822
1600615331
1600615413
1600617716
1600617836
1600620782
1600622636
1600622918
1600623352
1600624255
1600625807
1600626731
1600627777
1600628055
1600628910
1600629374
1600629864
1600630296
1600630257
1600631039
1600632316
1600632853
1600632963
1600634210
1600635140
1600635682
1600639774
1600640962
1600642421
1600643039
1600643161
1600643328
1600644809
1600645334
1600645482
1600645650
1600648024
1600648304
1600648876
1600649268
1600650112
1600650336
1600650618
1600650989
1600653575
1600653972
1600654368
1600655448
1600655566
1600656789
1600656925
1600657837
1600659421
1600660650
1600661074
1600661647
1600662912
1600663014
1600663945
1600665721
1600666933
1600667384
1600667614
1600668141
1600669384
1600669818
1600672083
1600672370
1600673142
1600673153
1600674928
1600675367
1600675715
1600675809
1600676441
1600676838
1600677314
1600678726
1600679333
1600681550
1600681615
1600682576
1600682825
1600685099
1600686230
1600686980
1600688033
1600688328
1600689187
1600689258
1600690372
1600690825
1600691676
1600693609
1600693791
1600694142
1600695119
1600695603
1600695700
1600696195
1600696308
1600696640
1600699091
1600699669
1600701652
1600701814
1600701919
1600702382
1600702979
1600703034
1600703515
1600704382
1600705882
1600707996
1600710169
1600711932
1600712566
1600714157
1600714577
1600716476
1600716616
1600716716
1600716979
1600718673
1600721482
1600721646
1600722037
1600722269
1600722317
1600723467
1600723686
1600725724
1600727237
1600727206
1600727325
1600728197
1600728766
1600729407
1600729732
1600730388
1600732258
1600732362
1600732867
1600733145
1600733313
1600733492
1600733681
1600734260
1600735200
1600736350
1600737018
1600737354
1600737427
1600738275
1600741344
1600741394
1600740704
1600742730
1600743257
1600743690
1600743707
1600743907
1600743911
1600743903
1600745089
1600746342
1600746499
1600747506
1600747779
1600748109
1600749730
1600749889
1600750249
1600751710
1600752115
1600752251
1600753293
1600753503
1600754366
1600754446
1600754629
1600755102
1600755407
1600755493
1600756588
1600759502
1600759576
1600759628
1600761863
1600763200
1600763725
1600764711
1600764759
1600766567
1600767836
1600770273
1600771292
1600772373
1600772730
1600773095
1600774640
1600775440
1600776136
1600777660
1600777722
1600778293
1600778933
1600781341
1600784366
1600784628
1600785817
1600786952
1600789629
1600790605
1600793580
1600794438
1600794528
1600794834
1600795281
1600795469
1600797245
1600797668
1600797731
1600797881
1600797900
1600800162
1600801085
1600801648
1600802353
1600804869
1600805307
1600805903
1600808849
1600809242
1600810829
1600811346
1600812057
1600812772
1600813238
1600814718
1600819078
1600819758
1600821248
1600821611
1600823186
1600824189
1600825034
1600825518
1600826467
1600826763
1600827214
1600828806
1600828804
1600831804
1600831992
1600832845
1600833539
1600834200
1600835505
1600837069
1600837812
1600838439
1600839050
1600839017
1600839203
1600839275
1600839342
1600839338
1600839873
1600841405
1600841794
1600842334
1600842654
1600842673
1600843672
1600843856
1600844151
1600844420
1600847217
1600847674
1600849449
1600850213
1600850990
1600851067
1600851577
1600851608
1600853534
1600853821
1600853924
1600854475
1600854531
1600855388
1600855597
1600855696
1600856416
1600857081
1600857458
1600859410
1600860674
1600861009
1600861051
1600862541
1600862543
1600863234
1600863805
1600864999
1600865485
1600868759
1600869117
1600869876
1600870469
1600871136
1600871246
1600872681
1600873667
1600875835
1600876056
1600876138
1600876165
1600876304
1600876869
1600877708
1600878671
1600880548
1600882585
1600882892
1600882991
1600883585
1600884036
1600884534
1600886004
1600887760
1600888705
1600889481
1600889505
1600891815
1600892890
1600893801
1600894500
1600895441
1600896589
1600898299
1600900072
1600900262
1600900809
1600900869
1600900874
1600903836
1600903810
1600904447
1600906900
1600908428
1600908667
1600909652
1600909893
1600910502
1600910773
1600911147
1600912996
1600913450
1600914363
1600914522
1600916930
1600918083
1600918139
1600918477
1600920799
1600921271
1600921707
1600923400
1600923673
1600924415
1600925995
1600926933
1600927409
1600929514
1600929692
1600929707
1600930052
1600930283
1600931090
1600932963
1600935305
1600935731
1600936717
1600937200
1600937436
1600937969
1600939555
1600939798
1600939965
1600941002
1600941085
1600942832
1600944820
1600945303
1600945941
1600946319
1600946574
1600946635
1600948547
1600949775
1600950802
1600951204
1600951952
1600952162
1600953264
1600954751
1600954721
1600957787
1600959696
1600962059
1600962527
1600964644
1600964930
1600964970
1600965415
1600966729
1600966843
1600967153
1600967292
1600967663
1600968570
1600969072
1600969150
1600969423
1600969947
1600970138
1600971081
1600971609
1600971670
1600972138
1600973364
1600974920
1600975159
1600975327
1600975344
1600975525
1600975689
1600975951
1600976228
1600976517
1600976588
1600977945
1600977974
1600979101
1600982564
1600984428
1600984469
1600984609
1600985524
1600985850
1600985920
1600986243
1600987237
1600987809
1600988129
1600988312
1600988692
1600988732
1600990114
1600991309
1600991146
1600993420
1600995371
1601000042
1600999998
1601000204
1601000216
1601000301
1601000470
1601001046
1601001282
1601001296
1601002284
1601002395
1601004307
1601004448
1601009525
1601009642
1601011157
1601011916
1601013716
1601014590
1601016015
1601016136
1601017855
1601018499
1601018870
1601020976
1601021251
1601021466
1601022797
1601023317
1601023545
1601025731
1601025999
1601026196
1601026942
1601027045
1601027130
1601027752
1601027762
1601027871
1601027898
1601028678
1601028667
1601028760
1601028908
1601029768
1601030239
1601030925
1601033025
1601035418
1601035898
1601035882
1601035973
1601036917
1601037653
1601038516
1601038566
1601038666
1601039035
1601039760
1601040188
1601040159
1601040278
1601040729
1601042526
1601043093
1601043442
1601044441
1601045252
1601045342
1601047175
1601047940
1601048605
1601048873
1601049421
1601050553
1601050510
1601052103
1601052457
1601054230
1601054366
1601054913
1601054765
1601054997
1601056929
1601057768
1601058686
1601059713
1601060300
1601060859
1601061712
1601063184
1601064394
1601064449
1601065704
1601065788
1601065857
1601067317
1601068745
1601070132
1601070505
1601070855
1601072502
1601073342
1601075262
1601076926
1601079428
1601079690
1601080352
1601081705
1601084934
1601085953
1601086781
1601086953
1601088354
1601088988
1601090982
1601091340
1601091750
1601092425
1601093738
1601094218
1601094288
1601095026
1601096713
1601097558
1601097977
1601099448
1601099534
1601100718
1601100792
1601101564
1601102518
1601103485
1601104326
1601104442
1601105679
1601106130
1601107682
1601108267
1601109121
1601109596
1601109752
1601109935
1601110739
1601111265
1601112834
1601113969
1601117002
1601117107
1601118030
1601120013
1601121940
1601122984
1601125016
1601127064
1601127278
1601128705
1601129043
1601129352
1601129229
1601129474
1601129738
1601130819
1601132088
1601132263
1601134100
1601135199
1601135965
1601137163
1601137818
1601138559
1601138682
1601139115
1601140259
1601141296
1601143300
1601144497
1601144642
1601145146
1601145230
1601145861
1601145844
1601145826
1601146927
1601147810
1601147787
1601148393
1601148964
1601149370
1601149696
1601150733
1601151115
1601151350
1601152659
1601153001
1601153466
1601153600
1601154202
1601155256
1601155756
1601155979
1601156587
1601157003
1601160047
1601162654
1601163854
1601164114
1601164872
1601167978
1601167859
1601168043
1601168597
1601170395
1601170565
1601172662
1601173745
1601175746
1601177520
1601177906
1601177885
1601178283
1601178812
1601178882
1601178916
1601179421
1601180503
1601180893
1601181420
1601183832
1601184567
1601184729
1601185058
1601185132
1601189991
1601190256
1601191558
1601192567
1601194303
1601194452
1601196680
1601197974
1601200957
1601201337
1601202455
1601202831
1601203104
1601203656
1601203903
1601205106
1601207078
1601207678
1601207655
1601207625
1601210275
1601210506
1601210550
1601210786
1601210984
1601211275
1601211850
1601212372
1601212681
1601214385
1601214850
1601216407
1601217937
1601218055
1601218396
1601218831
1601218840
1601219201
1601221454
1601222347
1601226210
1601226766
1601227813
1601229171
1601229288
1601229782
1601229818
1601230786
1601231235
1601231893
1601232164
1601232926
1601233084
1601233094
1601233234
1601233480
1601234001
1601235982
1601236283
1601236335
1601237318
1601238052
1601238835
1601239037
1601239478
1601240054
1601241570
1601245522
1601246668
1601246919
1601247188
1601248504
1601249592
1601251170
1601251671
1601252052
1601252106
1601252416
1601253372
1601253674
1601255852
1601257903
1601258022
1601257934
1601261263
1601261447
1601263259
1601264853
1601267502
1601269232
1601273331
1601273811
1601273845
1601274302
1601274334
1601275338
1601275375
1601275712
1601275642
1601279247
1601281725
1601281991
1601282181
1601284352
1601284394
1601286431
1601286599
1601287486
1601288248
1601288316
1601289066
1601289297
1601290169
1601291486
1601292476
1601292924
1601293493
1601293559
1601295918
1601295957
1601296673
1601297597
1601297833
1601298019
1601298309
1601299288
1601299419
1601301094
1601301424
1601301611
1601302346
1601304196
1601304314
1601305740
1601305979
1601306286
1601307569
1601307593
1601307796
1601308664
1601309296
1601309423
1601309342
1601310977
1601311866
1601312609
1601313331
1601313509
1601313573
1601314255
1601315197
1601315648
1601316192
1601316949
1601317157
1601317739
1601317840
1601321943
1601322138
1601323168
1601325637
1601325919
1601326230
1601326344
1601326721
1601328480
1601329160
1601329745
1601331373
1601333956
1601334166
1601334358
1601336897
1601337342
1601337509
1601337964
1601338369
1601338656
1601341922
1601342212
1601342203
1601343345
1601343520
1601344178
1601344624
1601345265
1601347946
1601348824
1601348923
1601349528
1601350303
1601353916
1601355355
1601356509
1601357067
1601357036
1601358243
1601359046
1601361049
1601361038
1601361664
1601362364
1601362510
1601362822
1601363024
1601363944
1601364657
1601365762
1601366193
1601367590
1601367343
1601368243
1601371036
1601371154
1601371119
1601371375
1601373391
1601375522
1601375853
1601376142
1601376445
1601376695
1601376744
1601376997
1601377506
1601377850
1601379093
1601380233
1601380883
1601382513
1601382656
1601382954
1601383437
1601383959
1601384066
1601384353
1601386472
1601386803
1601387241
1601387526
1601388257
1601388676
1601390379
1601390992
1601392162
1601392189
1601392509
1601392787
1601393509
1601393903
1601395486
1601397184
1601397321
1601398413
1601398440
1601399068
1601399268
1601401428
1601401537
1601401727
1601402165
1601404322
1601405701
1601405783
1601407385
1601407766
1601408321
1601410907
1601411024
1601411149
1601412321
1601414397
1601414277
1601416688
1601420589
1601420646
1601421587
1601422113
1601422197
1601423253
1601423407
1601423810
1601425827
1601426392
1601426856
1601426963
1601427363
1601427573
1601428391
1601429985
1601431329
1601431437
1601433171
1601433362
1601434076
1601434610
1601436145
1601437038
1601437507
1601438275
1601438532
1601438887
1601440028
1601440326
1601440440
1601440851
1601441562
1601444225
1601446570
1601449629
1601450987
1601450992
1601452222
1601453107
1601453290
1601453790
1601454242
1601454968
1601455839
1601456221
1601459138
1601460170
1601461688
1601462682
1601467252
1601467693
1601468114
1601468258
1601468375
1601471804
1601472767
1601473043
1601473064
1601473604
1601474635
1601475648
1601475967
1601477211
1601477257
1601477443
1601477899
1601478646
1601478789
1601479097
1601479458
1601479940
1601480392
1601481199
1601483768
1601484525
1601487938
1601490012
1601490351
1601491071
1601494398
1601495844
1601495880
1601497187
1601497349
1601498367
1601499074
1601499077
1601499145
1601500910
1601502196
1601502816
1601503381
1601503555
1601504654
1601506412
1601507639
1601507888
1601507940
1601508119
1601508269
1601508694
1601508747
1601510013
1601511802
1601513023
1601512948
1601513270
1601514195
1601517304
1601517573
1601518092
1601520719
1601523191
1601524264
1601526637
1601531499
1601531804
1601532142
1601532224
1601535667
1601535677
1601537417
1601537580
1601538829
1601539097
1601539483
1601539567
1601540260
1601540701
1601540691
1601541403
1601543628
1601543766
1601544444
1601544483
1601544705
1601545595
1601546072
1601546742
1601547491
1601547610
1601548574
1601548766
1601548978
1601549226
1601549480
1601550039
1601551048
1601551194
1601551136
1601551612
1601552525
1601552820
1601555326
1601556097
1601556322
1601556596
1601557002
1601556915
1601557230
1601557893
1601561009
1601561420
1601561475
1601561782
1601561911
1601562292
1601563429
1601563442
1601563913
1601564158
1601564684
1601565032
1601565043
1601566193
1601566352
1601566731
1601567005
1601567388
1601569023
1601569083
1601569344
1601570120
1601570086
1601571840
1601574681
1601575009
1601577836
1601579076
1601580778
1601581243
1601581282
1601582570
1601582929
1601583501
1601584980
1601585089
1601585299
1601586093
1601587118
1601587649
1601587697
1601587785
1601588149
1601588851
1601591721
1601591980
1601592054
1601593808
1601595877
1601596408
1601596565
1601597702
1601599007
1601599790
1601600594
1601607610
1601611194
1601611518
1601610581
1601611747
1601611749
1601612614
1601612766
1601613260
1601613333
1601615516
1601615530
1601616585
1601619432
1601620461
1601621474
1601624023
1601623887
1601625647
1601625818
1601626700
1601627012
1601628006
1601629706
1601629653
1601631488
1601632107
1601635122
1601636542
1601637218
1601638124
1601640121
1601640079
1601640726
1601640780
1601645745
1601647263
1601649403
1601649474
1601649949
1601650873
1601652664
1601653283
1601654005
1601654066
1601654466
1601654720
1601654776
1601656567
1601657766
1601657730
1601657736
1601659161
1601659316
1601661525
1601662681
1601662828
1601666060
1601666419
1601666792
1601667632
1601667779
1601668729
1601668871
1601670861
1601671164
1601671228
1601672448
1601673937
1601674198
1601677173
1601678652
1601679627
1601681677
1601683761
1601684494
1601684915
1601686184
1601687040
1601687189
1601689795
1601690232
1601691163
1601694556
1601694762
1601696689
1601697366
1601699456
1601699515
1601699662
1601700271
1601702751
1601704119
1601705029
1601705480
1601707730
1601711263
1601712820
1601713793
1601713966
1601714155
1601715159
1601716073
1601716214
1601717271
1601718007
1601719954
1601719943
1601721116
1601722060
1601724075
1601724449
1601727017
1601727967
1601729578
1601730582
1601730929
1601731596
1601731932
1601732092
1601732184
1601732624
1601732767
1601732907
1601733444
1601733473
1601733867
1601734043
1601744648
1601750570
1600006025
1600020057
1600026500
1600026885
1600040406
1600054524
1600055988
1600057606
1600070152
1600071496
1600073355
1600081039
1600083208
1600083098
1600083404
1600087999
1600097784
1600104693
1600113280
1603064617
1603064950
1603064972
1603065116
1603067338
1603068423
1603073412
1603078364
1603078939
1603082446
1603082901
1603083192
1603083828
1603084028
1603084395
1603086683
1603087992
1603090107
1603090473
1603090624
1603090558
1603090781
1603091743
1603094294
1603094929
1603095367
1603095555
1603095596
1603096146
1603097177
1603098303
1603099550
1603102161
1603102389
1603102437
1603104823
1603105152
1603107402
1603108690
1603110036
1603111932
1603112102
1603112553
1603112711
1603112702
1603114127
1603115472
1603117513
1603117997
1603118984
1603119186
1603119610
1603119701
1603120339
1603121320
1603121592
1603123552
1603123642
1603124037
1603124073
1603126540
1603126928
1603127406
1603128827
1603128745
1603129017
1603129915
1603130619
1603131223
1603131493
1603132247
1603132698
1603132331
1603134323
1603135132
1603135503
1603135830
1603135870
1603136573
1603137288
1603141251
1603141828
1603142728
1603144152
1603144187
1603144643
1603145049
1603145062
1603145156
1603145238
1603145366
1603145405
1603145865
1603146192
1603147287
1603147424
1603147439
1603149176
1603149693
1603150021
1603150187
1603150309
1603150468
1603151007
1603151712
1603151681
1603155052
1603155806
1603156266
1603157519
1603158014
1603159822
1603160072
1603161712
1603164003
1603164356
1603164508
1603164545
1603164992
1603165680
1603167099
1603167285
1603168797
1603169018
1603171361
1603171916
1603172981
1603172971
1603173131
1603173927
1603174605
1603174642
1603177706
1603178301
1603163443
1603179610
1603180565
1603181564
1603181706
1603182134
1603182499
1603182629
1603184751
1603185072
1603185246
1603186194
1603187178
1603187759
1603187918
1603188496
1603189662
1603189686
1603189802
1603190723
1603192141
1603193039
1603193402
1603193554
1603195405
1603195690
1603196259
1603196900
1603199728
1603200624
1603203626
1603204481
1603205635
1603205637
1603205794
1603208121
1603211336
1603211581
1603210053
1603213171
1603214522
1603216290
1603216983
1603217621
1603217314
1603217810
1603218709
1603218872
1603219227
1603219701
1603222581
1603223172
1603223852
1603225516
1603225671
1603225954
1603226348
1603226606
1603227556
1603231882
1603232122
1603232778
1603232853
1603235453
1603235383
1603236069
1603239025
1603239261
1603240116
1603240638
1603240397
1603241667
1603241849
1603243462
1603245047
1603246021
1603248180
1603248901
1603248680
1603249233
1603249537
1603250179
1603250289
1603251614
1603252153
1603253647
1603253741
1603254146
1603256055
1603258084
1603258338
1603258692
1603261278
1603262915
1603266006
1603267582
1603268489
1603269458
1603269559
1603270287
1603271140
1603271914
1603273294
1603273644
1603274309
1603274482
1603279043
1603279839
1603280114
1603280643
1603282370
1603282778
1603283097
1603285799
1603287068
1603288057
1603288143
1603288751
1603289475
1603290688
1603291816
1603292918
1603293571
1603293755
1603294087
1603294697
1603294864
1603295527
1603296111
1603296119
1603296780
1603296618
1603298122
1603298488
1603299903
1603301285
1603302339
1603302742
1603303075
1603303636
1603304040
1603304523
1603305062
1603306676
1603307301
1603309055
1603311747
1603312293
1603315524
1603315701
1603315888
1603316074
1603317213
1603317766
1603317941
1603318280
1603319414
1603321407
1603322445
1603322603
1603322905
1603323345
1603323745
1603323813
1603325201
1603326077
1603327366
1603327382
1603328061
1603328572
1603328670
1603328982
1603328777
1603330059
1603330221
1603330584
1603330959
1603333250
1603334381
1603336499
1603336506
1603336600
1603338075
1603338319
1603338683
1603338881
1603339501
1603340192
1603341266
1603341623
1603343345
1603344241
1603345224
1603345295
1603347160
1603347141
1603348893
1603348916
1603349992
1603351273
1603351728
1603352002
1603352990
1603353666
1603353873
1603353982
1603354580
1603355608
1603356710
1603357120
1603357332
1603357652
1603358306
1603359020
1603359698
1603360123
1603360961
1603361736
1603361852
1603362944
1603364773
1603364812
1603365257
1603368401
1603369063
1603371937
1603372545
1603372585
1603373892
1603374536
1603375279
1603375939
1603377468
1603377998
1603378182
1603378239
1603378471
1603379146
1603379404
1603380163
1603382777
1603382959
1603383338
1603383460
1603384319
1603384486
1603384548
1603384884
1603385423
1603387973
1603388540
1603388870
1603390727
1603391016
1603391529
1603391969
1603392339
1603392905
1603393997
1603395478
1603395768
1603396080
1603396924
1603397125
1603397586
1603398746
1603398156
1603399230
1603401331
1603401448
1603401760
1603407060
1603407412
1603407202
1603408363
1603408912
1603409264
1603410486
1603412131
1603414237
1603414764
1603415078
1603416495
1603416906
1603417179
1603417407
1603417946
1603418123
1603419591
1603420077
1603420386
1603420885
1603420814
1603421610
1603422497
1603423453
1603424325
1603424887
1603425272
1603426806
1603427010
1603427218
1603427298
1603428956
1603429051
1603429054
1603429373
1603432158
1603432784
1603433523
1603433318
1603434663
1603435165
1603435224
1603436218
1603436844
1603436806
1603437292
1603437407
1603438489
1603439366
1603440163
1603441507
1603441686
1603449979
1603450723
1603456167
1603458050
1603458838
1603460977
1603461254
1603462909
1603463946
1603465535
1603468586
1603470577
1603470979
1603471221
1603471415
1603472219
1603472341
1603472904
1603473104
1603472614
1603475437
1603476759
1603477221
1603478065
1603479412
1603479480
1603480447
1603481643
1603481844
1603481353
1603483155
1603484042
1603485084
1603488013
1603489978
1603493694
1603494911
1603498248
1603498360
1603498243
1603498184
1603498577
1603499048
1603500789
1603503683
1603504985
1603509086
1603510232
1603509879
1603511749
1603513872
1603514964
1603515168
1603515709
1603515984
1603516249
1603517317
1603519103
1603519718
1603521513
1603521657
1603522576
1603522687
1603522299
1603524562
1603524712
1603525562
1603526124
1603526371
1603526953
1603527030
1603527830
1603528001
1603529328
1603529408
1603529836
1603530182
1603531337
1603531449
1603531510
1603532352
1603536028
1603536240
1603536325
1603537805
1603538687
1603539444
1603541224
1603541619
1603542326
1603542704
1603543034
1603543387
1603543462
1603545297
1603545358
1603546727
1603547206
1603547755
1603549157
1603549152
1603549976
1603551300
1603551677
1603551678
1603552816
1603553098
1603553378
1603553472
1603557827
1603557846
1603559008
1603559506
1603560785
1603561634
1603561999
1603562432
1603563513
1603562123
1603564311
1603565640
1603566058
1603566695
1603571577
1603571815
1603572520
1603575279
1603576275
1603578775
1603578904
1603580240
1603580464
1603580558
1603580605
1603581919
1603583198
1603584140
1603583927
1603585982
1603586581
1603589290
1603591697
1603591963
1603592649
1603593069
1603593518
1603595079
1603595556
1603595983
1603596001
1603596332
1603596749
1603597165
1603597208
1603600508
1603602394
1603602933
1603603405
1603604102
1603604064
1603606379
1603608295
1603608440
1603609350
1603609533
1603611695
1603613063
1603613614
1603613986
1603614790
1603615155
1603615728
1603616257
1603616841
1603617839
1603619496
1603626794
1603627406
1603627698
1603628744
1603629466
1603629731
1603632427
1603632234
1603634360
1603634345
1603636004
1603636336
1603636366
1603637843
1603641101
1603642137
1603642702
1603643362
1603645148
1603645367
1603646108
1603647058
1603648198
1603650323
1603650786
1603651115
1603652096
1603652250
1603653017
1603653098
1603653748
1603654078
1603655444
1603656592
1603656911
1603658144
1603659843
1603659935
1603660541
1603660621
1603661030
1603661197
1603661331
1603661364
1603661598
1603662174
1603662156
1603663777
1603664231
1603664423
1603665065
1603666213
1603667073
1603669013
1603669243
1603669586
1603669878
1603670291
1603670374
1603670814
1603673346
1603673330
1603673670
1603674052
1603674494
1603674728
1603674832
1603676380
1603677150
1603677255
1603679200
1603679526
1603682878
1603685168
1603686360
1603689001
1603689231
1603690170
1603690150
1603691090
1603692038
1603691988
1603693628
1603694415
1603694523
1603695601
1603697713
1603698306
1603699060
1603699093
1603699883
1603700870
1603700990
1603702431
1603702716
1603704014
1603707631
1603709316
1603710178
1603711857
1603712383
1603713537
1603713857
1603714381
1603716001
1603716248
1603716294
1603717541
1603718030
1603719491
1603720194
1603722428
1603722219
1603723052
1603724350
1603726521
1603726606
1603728967
1603731470
1603731463
1603731948
1603731737
1603733088
1603734533
1603734739
1603735992
1603736197
1603736526
1603736796
1603737029
1603736579
1603738356
1603739831
1603740245
1603741232
1603741717
1603745429
1603745319
1603745206
1603745855
1603746140
1603747341
1603748284
1603748552
1603748250
1603749188
1603750395
1603750217
1603751269
1603753273
1603753542
1603755385
1603757012
1603757141
1603757492
1603758226
1603758986
1603759937
1603759910
1603760231
1603762488
1603763702
1603764144
1603764920
1603765038
1603765092
1603765855
1603766096
1603766643
1603766696
1603767124
1603767461
1603767389
1603770910
1603771021
1603771707
1603773269
1603773321
1603773495
1603775810
1603777097
1603777829
1603777930
1603778531
1603779258
1603781978
1603783269
1603784830
1603788905
1603790149
1603789483
1603790387
1603790429
1603790491
1603791374
1603792201
1603792996
1603793641
1603793037
1603794466
1603794653
1603796461
1603796952
1603811632
1603813573
1603826739
1603832027
1603833010
1603834628
1603840204
1603868366
1603875988
1603883417
1603888011
1603889585
1603889772
1603892007
1603892159
1603896951
1603898102
1603900708
1603900834
1603901226
1603902134
1603902857
1603903760
1603905250
1603905005
1603905554
1603906912
1603907748
1603908621
1603908902
1603909101
1603912226
1603913627
1603915672
1603915798
1603916159
1603917444
1603914853
1603919010
1603920007
1603921836
1603922219
1603923423
1603924781
1603925026
1603925293
1603925976
1603930488
1603931142
1603933187
1603933166
1603933954
1603934574
1603934857
1603936722
1603937477
1603938778
1603938944
1603938996
1603941920
1603941084
1603942073
1603943966
1603945085
1603945738
1603947006
1603947104
1603947129
1603949277
1603950224
1603952973
1603954570
1603956060
1603956363
1603957493
1603958387
1603960863
1603961035
1603961279
1603961247
1603961853
1603962991
1603963800
1603963961
1603964769
1603965567
1603965619
1603965855
1603965990
1603967141
1603967297
1603967399
1603969082
1603970246
1603970185
1603972946
1603973388
1603974596
1603977036
1603978431
1603978498
1603983937
1603984884
1603985616
1603986371
1603986626
1603986639
1603987462
1603990871
1603991221
1603991497
1603992796
1603993797
1603995197
1603998111
1603997954
1603999295
1603999908
1604000382
1604000848
1604001215
1604003359
1604003996
1604004922
1604009108
1604009312
1604011808
1604012369
1604014321
1604015570
1604016457
1604016854
1604017466
1604018150
1604017920
1604018755
1604019058
1604019200
1604019286
1604019328
1604019884
1604022204
1604022318
1604022541
1604023315
1604024475
1604025380
1604026142
1604027727
1604028922
1604028896
1604029188
1604032202
1604032374
1604033634
1604037021
1604037366
1604037744
1604037923
1604041599
1604042747
1604043244
1604045148
1604045645
1604045869
1604046048
1604046400
1604047789
1604048486
1604048852
1604049050
1604049443
1604049700
1604049792
1604049838
1604051391
1604051996
1604054111
1604054633
1604055105
1604055790
1604056165
1604056875
1604059005
1604060400
1604061323
1604061317
1604061764
1604063096
1604063376
1604063813
1604064933
1604064913
1604065565
1604065858
1604066055
1604066084
1604066584
1604066690
1604066600
1604066761
1604067218
1604067730
1604068740
1604069534
1604069903
1604070087
1604070854
1604072132
1604072635
1604073005
1604075574
1604076922
1604077618
1604078881
1604079197
1604083024
1604085658
1604086154
1604087357
1604091482
1604091618
1604091769
1604092409
1604092410
1604093408
1604095908
1604095884
1604096812
1604097013
1604099266
1604099284
1604099433
1604099675
1604099945
1604101420
1604102294
1604102403
1604102448
1604103199
1604102987
1604103564
1604104579
1604106317
1604107043
1604109068
1604109728
1604110597
1604111048
1604113765
1604114717
1604115691
1604115751
1604115919
1604117210
1604118037
1604119295
1604120088
1604121483
1604122578
1604123659
1604123909
1604124144
1604125177
1604126169
1604126669
1604128989
1604129369
1604129540
1604130443
1604131693
1604132580
1604132905
1604134294
1604134525
1604136873
1604138197
1604138231
1604138270
1604138885
1604138997
1604139060
1604139073
1604139569
1604140617
1604141122
1604142615
1604142687
1604142754
1604142914
1604143641
1604144776
1604145217
1604145563
1604145575
1604146856
1604146685
1604147850
1604148605
1604149165
1604149981
1604150346
1604151454
1604152217
1604152627
1604152885
1604153565
1604155970
1604157336
1604157606
1604158150
1604160029
1604159991
1604161086
1604163371
1604163539
1604164116
1604164212
1604164660
1604166258
1604167434
1604168932
1604169823
1604170588
1604170841
1604171350
1604171635
1604172050
1604172675
1604172912
1604173051
1604173788
1604174845
1604175009
1604175807
1604177123
1604180236
1604181375
1604181460
1604182728
1604183613
1604186616
1604187246
1604187650
1604188002
1604188393
1604188754
1604189135
1604189527
1604191176
1604191537
1604191545
1604192521
1604193266
1604193794
1604195511
1604196329
1604199134
1604199749
1604201005
1604202112
1604202238
1604203731
1604204748
1604205131
1604206036
1604206537
1604207345
1604207618
1604208145
1604208962
1604209301
1604211186
1604211199
1604211275
1604212654
1604214238
1604216225
1604216254
1604218717
1604219723
1604219899
1604220842
1604220304
1604221835
1604222587
1604223275
1604223709
1604224432
1604225041
1604225024
1604225149
1604225548
1604226787
1604227096
1604227215
1604227428
1604228291
1604229799
1604229754
1604230890
1604231050
1604232183
1604234519
1604237406
1604238112
1604238685
1604239154
1604239157
1604240679
1604243414
1604243707
1604245485
1604246457
1604246452
1604249213
1604249364
1604251453
1604252248
1604253793
1604256637
1604258462
1604259255
1604259751
1604260296
1604260846
1604261747
1604251799
1604264049
1604265276
1604265952
1604265933
1604265996
1604266060
1604266339
1604266647
1604267106
1604268180
1604269368
1604270399
1604271342
1604271830
1604271945
1604272140
1604272752
1604273263
1604276429
1604276797
1604277707
1604277860
1604277987
1604279365
1604279437
1604279757
1604280122
1604280504
1604279405
1604281098
1604281251
1604282349
1604283713
1604284269
1604284446
1604285103
1604285629
1604285653
1604287234
1604288165
1604288244
1604288736
1604289080
1604289669
1604290784
1604290972
1604291169
1604293945
1604294247
1604294371
1604294751
1604295006
1604295319
1604296041
1604299110
1604299246
1604300243
1604301363
1604303120
1604306213
1604306017
1604307661
1604309347
1604311599
1604312798
1604313284
1604315163
1604315145
1604315539
1604316516
1604317595
1604317354
1604317914
1604318902
1604319853
1604320455
1604321881
1604322413
1604323460
1604323924
1604324311
1604324449
1604324720
1604324828
1604325455
1604327762
1604327766
1604328111
1604328524
1604329556
1604330293
1604331528
1604332128
1604335296
1604335544
1604335779
1604335853
1604338813
1604339219
1604338025
1604339834
1604339965
1604340869
1604341272
1604347009
1604347558
1604348548
1604348837
1604348937
1604349792
1604351077
1604351342
1604351643
1604352662
1604355872
1604356306
1604356424
1604361183
1604361770
1604361879
1604363773
1604364020
1604364507
1604364627
1604364474
1604366356
1604367766
1604368701
1604369460
1604370954
1604371208
1604373843
1604374626
1604374689
1604378004
1604378353
1604379413
1604379317
1604380022
1604380158
1604381026
1604382316
1604382329
1604386897
1604399436
1604403100
1604416516
1604431951
1604436307
1604436991
1604445564
1604446609
1604446899
1604449931
1604453881
1604455605
1604456251
1604456273
1604456754
1604457177
1604457776
1604462697
1604466207
1604466256
1604467838
1604468377
1604468470
1604469528
1604470696
1604472504
1604473074
1604473793
1604474108
1604475734
1604475835
1604476617
1604478216
1604481763
1604481537
1604483271
1604483647
1604485483
1604490654
1604491622
1604491833
1604492279
1604492606
1604494271
1604496295
1604496560
1604496957
1604497795
1604498331
1604499192
1604500366
1604501368
1604501965
1604504263
1604504935
1604505158
1604506309
1604506773
1604506906
1604507069
1604509871
1604511778
1604512342
1604512419
1604518682
1604521664
1604523685
1604523792
1604523910
1604524546
1604524601
1604525569
1604525673
1604526894
1604527261
1604528452
1604530683
1604533374
1604534164
1604535107
1604535214
1604536241
1604536567
1604536853
1604536403
1604537068
1604537650
1604538238
1604538868
1604539408
1604541629
1604542234
1604543515
1604543853
1604543979
1604543975
1604544224
1604543486
1604544833
1604545738
1604545835
1604546718
1604546818
1604546938
1604546710
1604547322
1604549075
1604551446
1604552259
1604552875
1604553876
1604553963
1604554315
1604556169
1604557469
1604558974
1604560343
1604563059
1604565310
1604565749
1604567162
1604567383
1604568763
1604572923
1604573568
1604574378
1604574981
1604575058
1604575174
1604575498
1604577510
1604577649
1604577918
1604578483
1604578729
1604580118
1604580768
1604581072
1604582700
1604583108
1604583573
1604584068
1604584282
1604584416
1604585084
1604588059
1604588080
1604588314
1604590474
1604590545
1604592118
1604593601
1604596187
1604596694
1604596790
1604597395
1604597971
1604601724
1604601751
1604603001
1604603420
1604604606
1604605124
1604606179
1604607115
1604609403
1604610660
1604610249
1604611607
1604612212
1604612341
1604614938
1604616386
1604617160
1604618143
1604618672
1604620607
1604620696
1604620922
1604621438
1604621450
1604622494
1604623525
1604624180
1604625282
1604625616
1604627389
1604628045
1604630099
1604632099
1604632346
1604632975
1604633609
1604634166
1604635543
1604636645
1604636984
1604637644
1604637721
1604640095
1604641736
1604642030
1604643419
1604644388
1604644367
1604644860
1604644949
1604645268
1604646378
1604646796
1604647532
1604647876
1604648217
1604648503
1604648931
1604649441
1604649491
1604650202
1604650615
1604651099
1604651264
1604652533
1604652752
1604653538
1604653619
1604657334
1604657759
1604658100
1604658600
1604659189
1604659203
1604659337
1604661402
1604664136
1604664122
1604667875
1604668015
1604668377
1604668611
1604668913
1604669302
1604670366
1604673798
1604674860
1604676045
1604678604
1604679178
1604680844
1604682276
1604682516
1604684101
1604689393
1604691610
1604692049
1604691991
1604692545
1604693090
1604695043
1604695636
1604696712
1604698250
1604698372
1604700171
1604700885
1604704813
1604706721
1604706698
1604709505
1604710569
1604711223
1604712159
1604712348
1604712513
1604715532
1604716798
1604718068
1604718366
1604718489
1604719610
1604720185
1604720226
1604720967
1604721275
1604723381
1604724852
1604725155
1604725784
1604726740
1604727662
1604727783
1604728676
1604729347
1604730201
1604730237
1604730066
1604730612
1604731631
1604731847
1604734792
1604734840
1604736235
1604738010
1604740813
1604741384
1604741842
1604742293
1604743241
1604743353
1604744332
1604744614
1604745224
1604745946
1604748924
1604749135
1604750372
1604750881
1604751402
1604752180
1604752712
1604753798
1604754293
1604757616
1604758276
1604761082
1604762684
1604765566
1604766795
1604768454
1604769510
1604770199
1604770637
1604773239
1604773301
1604774092
1604774230
1604778126
1604779620
1604780085
1604780259
1604781436
1604781612
1604782157
1604783268
1604783709
1604783688
1604783959
1604784720
1604786066
1604787921
1604788300
1604788552
1604788707
1604790100
1604790460
1604791961
1604792031
1604792975
1604792601
1604794680
1604796632
1604796669
1604797126
1604797315
1604797395
1604798226
1604799621
1604800473
1604801060
1604801938
1604801984
1604802587
1604802820
1604803637
1604804581
1604805457
1604805510
1604806443
1604809607
1604810144
1604810273
1604810441
1604810474
1604811299
1604811396
1604811803
1604812145
1604812213
1604813967
1604814551
1604817549
1604817469
1604819403
1604819480
1604819940
1604820358
1604820535
1604820814
1604820751
1604822504
1604823542
1604823923
1604824665
1604824992
1604825259
1604825563
1604825797
1604826495
1604830130
1604830838
1604832834
1604833871
1604834903
1604835223
1604835767
1604835933
1604838021
1604838607
1604838687
1604839123
1604839513
1604840167
1604841387
1604841488
1604842463
1604843493
1604844683
1604845262
1604845202
1604845483
1604846017
1604846334
1604846957
1604847600
1604847351
1604849045
1604849040
1604850289
1604850676
1604850926
1604857106
1604857185
1604857858
1604858821
1604859702
1604860241
1604860629
1604861021
1604861526
1604862038
1604862680
1604863394
1604864169
1604865009
1604865085
1604865683
1604866253
1604869700
1604872745
1604873046
1604873451
1604873654
1604873871
1604873911
1604876103
1604876562
1604876735
1604877296
1604877598
1604878052
1604879232
1604881054
1604881471
1604882818
1604883052
1604883305
1604883650
1604884275
1604884541
1604884855
1604886068
1604886817
1604889848
1604890814
1604891087
1604892495
1604894913
1604895132
1604895434
1604895549
1604895619
1604895900
1604896265
1604897361
1604898634
1604899085
1604899730
1604899940
1604900312
1604900428
1604901925
1604901994
1604902630
1604902799
1604903315
1604903425
1604904107
1604904458
1604904791
1604904875
1604905130
1604908185
1604908812
1604909323
1604910030
1604911297
1604912757
1604913716
1604914189
1604914299
1604915021
1604916966
1604916878
1604917332
1604920036
1604920104
1604920169
1604920910
1604921596
1604922095
1604923819
1604926459
1604926851
1604926892
1604927786
1604929942
1604929504
1604930569
1604930552
1604933570
1604934587
1604934839
1604935111
1604935931
1604936565
1604937141
1604937746
1604939311
1604940118
1604942287
1604943037
1604943341
1604943805
1604944579
1604945632
1604945786
1604945820
1604946218
1604946357
1604946580
1604948559
1604948919
1604950829
1604951862
1604951837
1604951933
1604952569
1604953474
1604954643
1604954976
1604955175
1604955459
1604955734
1604955791
1604955958
1604957771
1604958815
1604959620
1604959946
1604959947
1604960833
1604961828
1604962763
1604963040
1604963344
1604965968
1604966230
1604966280
1604966544
1604967426
1604967499
1604968090
1604970333
1604971087
1604972404
1604973283
1604974711
1604975503
1604975722
1604976319
1604976515
1604976616
1604977678
1604977921
1604978018
1604978237
1604979579
1604980900
1604981291
1604982454
1604983955
1604983815
1604985032
1604985331
1604985445
1604988218
1604989281
1604990111
1604991782
1604992327
1604992346
1604993639
1604996269
1604999288
1605000318
1605001103
1605001667
1605003767
1605004890
1605005036
1605005410
1605005531
1605007091
1605008509
1605008561
1605008969
1605009094
1605009513
1605010061
1605010786
1605012894
1605013479
1605015451
1605015630
1605015733
1605016930
1605017110
1605018656
1605019148
1605019720
1605020228
1605020685
1605020818
1605021056
1605027692
1605027706
1605028224
1605028414
1605029001
1605029657
1605029913
1605030195
1605030663
1605030413
1605031154
1605033574
1605033682
1605034097
1605035386
1605035039
1605039125
1605039685
1605041341
1605041003
1605042236
1605045652
1605046248
1605046922
1605047302
1605048278
1605048557
1605049088
1605049967
1605050320
1605051212
1605051941
1605052343
1605053785
1605053913
1605054464
1605055323
1605055934
1605056742
1605056897
1605057613
1605057808
1605057929
1605058182
1605058460
1605063974
1605064444
1605064397
1605064751
1605066163
1605066327
1605067028
1605067400
1605067813
1605069224
1605071758
1605073614
1605073795
1605073330
1605073917
1605075359
1605075752
1605076127
1605076197
1605076266
1605076258
1605078009
1605078921
1605079028
1605084081
1605084277
1605087272
1605088418
1605090108
1605090392
1605091132
1605091179
1605093688
1605094525
1605096614
1605096996
1605099869
1605100070
1605100217
1605100417
1605101363
1605105161
1605105266
1605107302
1605107533
1605109135
1605110042
1605111037
1605113557
1605113661
1605113666
1605114057
1605115023
1605115310
1605116502
1605118085
1605120109
1605120198
1605120674
1605120907
1605120960
1605121101
1605121085
1605121822
1605122324
1605123319
1605124653
1605125259
1605125559
1605127129
1605127918
1605128180
1605128555
1605128843
1605129468
1605129875
1605130143
1605131865
1605132101
1605132461
1605132271
1605134601
1605135112
1605135049
1605135771
1605136183
1605136521
1605137389
1605137678
1605137922
1605138408
1605140427
1605141289
1605141829
1605144131
1605144501
1605144576
1605145062
1605144960
1605145431
1605146531
1605146888
1605147688
1605147950
1605149034
1605149386
1605150273
1605151196
1605150273
1605151196
1605152164
1605152552
1605153080
1605153298
1605153495
1605153984
1605154399
1605154530
1605157726
1605158011
1605158076
1605158757
1605159959
1605160891
1605160970
1605160947
1605162601
1605162912
1605164010
1605164499
1605164052
1605166744
1605169888
1605170206
1605171400
1605172341
1605173751
1605174973
1605177397
1605178224
1605178511
1605180433
1605180922
1605181445
1605183213
1605183695
1605183842
1605186421
1605187704
1605189265
1605190290
1605190394
1605190508
1605190805
1605191298
1605190916
1605192077
1605192697
1605194934
1605197385
1605197497
1605198512
1605198683
1605197812
1605202117
1605202349
1605202055
1605204113
1605204598
1605205610
1605206507
1605207560
1605210773
1605211530
1605211762
1605211940
1605216122
1605218383
1605218790
1605220381
1605221342
1605223166
1605224949
1605225225
1605227772
1605241763
1605253613
1605263906
1605268529
1605269718
1605274525
1605278638
1605287693
1605306031
1605307266
1605308768
1605308998
1605311419
1605312121
1605313362
1605314032
1605314738
1605317107
1605317925
1605318077
1605319481
1605323315
1605323599
1605325307
1605327423
1605328117
1605328202
1605329526
1605331129
1605332529
1605333078
1605333272
1605335318
1605340211
1605340384
1605341270
1605342607
1605342907
1605343373
1605343510
1605344354
1605356363
1605360608
1605361032
1605360930
1605363453
1605364061
1605367164
1605367081
1605377812
1605379063
1605385751
1605401868
1605402550
1605407390
1605410687
1605417210
1605419262
1605439653
1605444359
1605444920
1605462069
1605465788
1605466576
1605471090
1605478977
1605490911
1605492408
1605512242
1605518736
1605518701
1605519903
1605525342
1605530094
1605555957
1605556502
1605557098
1605564803
1605567222
1605570521
1605583196
1605589608
1605591182
1605594625
1605601269
1605606845
1605614439
1605619434
1605636589
1605638293
1605640914
1605646681
1605646933
1605672154
1605679820
1605681447
1605700112
1605714565
1605723454
1605724193
1605730948
1605746323
1605752584
1605754500
1605764084
1605768246
1605784417
1605787883
1605788955
1605792809
1605794776
1605798031
1605805732
1605805889
1605805906
1605810223
1605812828
1605813699
1605823282
1605836794
1605839655
1605853578
1605858047
1605858193
1605859087
1605863279
1605866809
1605867967
1605869837
1605869760
1605870740
1605879566
1605887259
1605898072
1605901276
1605906147
1605908887
1605914085
1605922371
1605924206
1605928007
1605934107
1605940824
1605944154
1605946098
1605946130
1605961180
1605986548
1606004911
1606018442
1606044700
1606048066
1606052618
1606091341
1606127397
1606132131
1606155359
1606162883
1606178441
1606181000
1606182749
1606196957
1606198850
1606200748
1606201018
1606202392
1606213282
1606214647
1606215359
1606220806
1606233963
1606241406
1606241683
1606268041
1606272627
1606286684
1606286711
1606295638
1606298894
1606308772
1606321874
1606374655
1606383073
1606393568
1606394141
1606398248
1606404836
1606407320
1606410858
1606412215
1606423772
1606428585
1606429016
1606436230
1606457651
1606470245
1606470727
1606479746
1606483524
1606494807
1606504372
1606538951
1606541193
1606542001
1606553566
1606554317
1606563798
1606564425
1606572031
1606572508
1606573715
1606573821
1606589304
1606595248
1606610972
1606611222
1606636625
1606652988
1606661993
1606682901
1606683259
1606692294
1606700841
1606706336
1606710871
1606711703
1606733474
1606740256
1606746048
1606746341
1606748162
1606752616
1606754446
1606762574
1606780396
1606791943
1606814385
1606814919
1606837962
1606848578
1606850644
1606873977
1606881754
1606886584
1606892874
1606915772
1606920753
1606942813
1606944852
1606946177
1606950621
1606957716
1606963299
1606968630
1606974572
1606974802
1606978899
1606982427
1606988040
1606990237
1607043559
1607055651
1607057664
1607057785
1607060159
1607064014
1607067628
1607067862
1607075591
1607084194
1607084576
1607089101
1607120832
1607122658
1607144507
1607148216
1607154293
1607165204
1607171752
1607187276
1607191465
1607191681
1607196310
1607197063
1607204983
1607208754
1607226019
1607241869
1607255275
1607258963
1607270480
1607282917
1607296556
1607303376
1607314296
1607331747
1607332117
1607336842
1607348119
1607355439
1607375216
1607386477
1607413387
1607429204
1607434106
1607437280
1607448380
1607448864
1607452280
1607460211
1607468132
1607468690
1607476593
1607479999
1607490623
1607491363
1607493667
1607504178
1607510436
1607525418
1607540731
1607541240
1607545710
1607548744
1607556002
1607560592
1607565460
1607571377
1607580383
1607592019
1607592355
1607593574
1607596932
1607598604
1607598688
1607606663
1607614165
1607636474
1607653942
1607656577
1607690247
1607690404
1607694209
1607706579
1607710324
1607710703
1607717739
1607734782
1607737600
1607740926
1607744421
1607747146
1607752158
1607756006
1607764643
1607773448
1607775435
1607776939
1607786476
1607798444
1607802067
1607810607
1607810989
1607830011
1607832043
1607840615
1607855688
1607860176
1607862075
1607865007
1607869950
1607874840
1607897267
1607899214
1607910017
1607938129
1607938275
1607944522
1607955391
1607956650
1607994284
1608003376
1608013469
1608022187
1608026590
1608031461
1608055996
1608059861
1608066568
1608072435
1608091931
1608094741
1608118059
1608123228
1608125859
1608132544
1608133882
1608135167
1608136172
1608140433
1608140440
1608162336
1608188081
1608190980
1608219924
1608235885
1608255237
1608276706
1608277869
1608280557
1608283401
1608287098
1608287787
1608312690
1608312850
1608313590
1608337537
1608337803
1608350368
1608357030
1608371654
1608377763
1608378351
1608381066
1608382449
1608384263
1608386423
1608398440
1608410523
1608419755
1608421832
1608422241
1608426167
1608437088
1608439401
1608459316
1608477554
1608481036
1608486348
1608487931
1608521076
1608525243
1608532490
1608547335
1608551362
1608554195
1608565462
1608566704
1608566804
1608575700
1608578592
1608623605
1608634356
1608643740
1608644024
1608661584
1608679915
1608689128
1608698280
1608702572
1608709096
1608713714
1608714582
1608716017
1608718492
1608724788
1608735633
1608738923
1608739829
1608749096
1608753152
1608755478
1608757995
1608759854
1608773976
1608775577
1608783903
1608784877
1608788294
1608792619
1608803780
1608804812
1608814732
1608815598
1608819204
1608825235
1608846554
1608853776
1608862047
1608863494
1608865221
1608882542
1608890133
1608892984
1608903309
1608915289
1608920885
1608924033
1608925899
1608927957
1608932870
1608939262
1608941986
1608950798
1608958236
1608964112
1608972527
1609006535
1609013592
1609014852
1609019101
1609021909
1609022608
1609062183
1609064997
1609085191
1609087598
1609100676
1609113255
1609131257
1609132638
1609133088
1609144569
1609147383
1609151625
1609171218
1609171889
1609173248
1609199134
1609201902
1609203797
1609205606
1609212543
1609221553
1609242792
1609245229
1609249188
1609255825
1609257742
1609268935
1609274655
1609276736
1609286314
1609291943
1609297732
1609306522
1609308661
1609320262
1609325647
1609334767
1609335502
1609350123
1609352620
1609352858
1609359486
1609363583
1609366911
1609371104
1609375474
1609386006
1609390216
1609392277
1609405827
1609406953
1609411577
1609412518
1609413786
1609417679
1609447986
1609452242
1609458236
1609471219
1609476895
1609481707
1609482748
1609490371
1609497003
1609503885
1609507572
1609514021
1609514592
1609514680
1609518946
1609529853
1609532069
1609537531
1609547680
1609575445
1609578742
1609589152
1609591995
1609607862
1609610533
1609628701
1609637211
1609638277
1609691413
1609702165
1609702724
1609714136
1609714336
1609716896
1609723899
1609751320
1609756164
1609762422
1609765915
1609770466
1609778249
1609780186
1609785308
1609791660
1609801876
1609802668
1609811091
1609811798
1609823479
1609843415
1609871027
1609871498
1609879671
1609885200
1609886819
1609889569
1609899863
1609900861
1609903605
1609904391
1609906606
1609909107
1609913838
1609926425
1609938105
1609948708
1609949128
1609953943
1609956387
1609959758
1609962151
1609967906
1609977239
1609984512
