922001303
922006552
922013779
922017372
922020310
922021114
922021588
922025384
921003126
921003951
920013050
920014974
920016947
920024815
920031582
920039777
920053014
920077140
920092033
920094587
920107390
920112753
920129188
920130729
