1600336235
1600812527
1603065016
1603220090
1603990954
1604297028
1604315913
1604432222
1604574366
1604576435
1605245943
1605736203
1605882715
1606123469
1606935892
1607094803
1607175306
1607310107
1608772072
1609092377
1609230127
1609795642
1609805640
1609856549
1609988399
