730003696
730030546
730034013
730043448
730043880
730060488
730060777
730062166
730080920
731031174
731036353
730105371
731047003
731051008
731052432
730122207
730130624
731069675
730139504
731086370
730157257
731097439
731105098
731120528
731124129
730194588
731136794
731142878
730217380
730218519
730218969
731172741
731176766
731177103
730248221
730264221
731196864
731199535
730288214
730290462
731223127
730309356
730312396
730324829
731252505
731252960
731257209
731265318
731276257
731539722
730401576
730405604
730409223
731549387
730413669
730417256
730419867
731565837
730428400
731575276
731589115
731590686
730456371
730459124
731601584
730469464
731631137
731637659
730503301
731649321
730510277
730511513
731683548
731685084
731689108
731691451
731697883
731700134
731703702
731705235
731711300
731720508
731723574
731725868
730534542
730538982
730542656
731735270
731740427
730554739
730558546
731753287
730565211
731757805
731777732
730587736
731799036
731799860
730616772
730627346
730634319
731830294
731831002
730635723
730643969
730652655
731851428
730658046
730664963
731877547
730682595
730682938
731884113
730693791
731893843
731893549
731897975
730703216
731917838
731948585
731986732
730710919
732009778
732012230
730717954
730721508
730722521
732020905
732034284
730760868
730762530
732061334
730768530
732062826
730770314
730774414
730777913
732074856
732084472
732084916
730793488
730795182
732099933
732103461
732110829
732112832
732113117
732113860
732122441
1600009563
1600013830
1600015867
1600018507
1600030519
1600037560
1600041299
1600041299
1600051341
1600054327
1600056691
1600058011
1600059387
1600059615
1600066931
1600070389
1600071293
1600072793
1600076855
1600082577
1600086410
1600097661
1600111886
1600118944
1600123765
1600129367
1600130247
1600136435
1600142029
1600146316
1600149695
1600150194
1600153222
1600154701
1600157029
1600157263
1600159840
1600165469
1600167284
1600173661
1600176705
1600178239
1600180109
1600182980
1600183804
1600194768
1600199591
1600205981
1600206054
1600212733
1600213556
1600217671
1600218313
1600219902
1600221705
1600224139
1600233479
1600242463
1600258371
1600260695
1600264059
1600264619
1600264897
1600273458
1600275947
1600277070
1600284478
1600286565
1600289125
1600291078
1600291728
1600294847
1600296890
1600307847
1600310860
1600312069
1600323386
1600324633
1600326270
1600329032
1600333982
1600336377
1600339072
1600341211
1600342737
1600345074
1600351871
1600352096
1600352463
1600355495
1600356206
1600361240
1600371098
1600373905
1600375408
1600377292
1600380688
1600383875
1600385252
1600392931
1600393743
1600393897
1600400547
1600408043
1600421050
1600421610
1600426577
1600429068
1600431229
1600434548
1600436308
1600443005
1600446743
1600452122
1600454641
1600454738
1600455851
1600459884
1600461382
1600460943
1600464763
1600466553
1600470548
1600472509
1600485247
1600487700
1600506096
1600508105
1600511598
1600513750
1600516982
1600518231
1600520662
1600522487
1600523641
1600531012
1600531259
1600533710
1600544376
1600545908
1600546596
1600546975
1600550431
1600563145
1600562979
1600566375
1600566393
1600572899
1600579549
1600580781
1600581939
1600589553
1600592987
1600600884
1600604280
1600605467
1600609653
1600616542
1600618123
1600620130
1600630346
1600634439
1600635933
1600640049
1600644519
1600646711
1600651425
1600655607
1600655631
1600661022
1600665947
1600666043
1600667765
1600668161
1600673081
1600678942
1600682715
1600686855
1600691543
1600693421
1600696251
1600698490
1600700686
1600707289
1600709296
1600716552
1600723643
1600725795
1600728807
1600730113
1600730842
1600736958
1600740692
1600741651
1600743009
1600745121
1600750797
1600751047
1600764336
1600767512
1600783468
1600787322
1600794705
1600795998
1600796140
1600797961
1600804195
1600804741
1600811970
1600814326
1600815538
1600821051
1600832870
1600848757
1600852217
1600852940
1600860075
1600864392
1600867097
1600869133
1600869412
1600874983
1600876049
1600878688
1600884800
1600888492
1600894244
1600896937
1600902878
1600903882
1600905058
1600919904
1600920300
1600922094
1600922382
1600926605
1600932849
1600938612
1600940822
1600943605
1600945297
1600946524
1600953284
1600963199
1600964630
1600964248
1600965813
1600982408
1600987336
1600988207
1600991640
1600993706
1600995697
1600997648
1600999711
1601000614
1601002106
1601007024
1601009015
1601014341
1601015196
1601024998
1601030269
1601031017
1601032290
1601037341
1601050774
1601052898
1601057936
1601062059
1601062454
1601077405
1601083237
1601084060
1601085535
1601088393
1601092717
1601093276
1601094481
1601105014
1601109427
1601109983
1601117212
1601117717
1601118516
1601118770
1601122318
1601125252
1601125783
1601127323
1601127918
1601128064
1601131970
1601133178
1601133423
1601134481
1601134486
1601135270
1601149930
1601151664
1601153062
1601154185
1601156619
1601157100
1601163273
1601171052
1601174669
1601180371
1601190770
1601192163
1601192240
1601194444
1601196034
1601201230
1601209482
1601213966
1601219921
1601223673
1601226787
1601228314
1601230092
1601231761
1601232715
1601238747
1601239525
1601247231
1601247699
1601252235
1601253914
1601272350
1601273180
1601293027
1601298074
1601298997
1601301793
1601303201
1601304600
1601317942
1601326846
1601327023
1601327923
1601330306
1601333123
1601340821
1601345238
1601347106
1601350527
1601352908
1601354440
1601363149
1601371753
1601374002
1601381937
1601385712
1601390210
1601394631
1601404484
1601406183
1601422843
1601425714
1601427151
1601430753
1601430892
1601432012
1601441592
1601443827
1601447136
1601451463
1601459387
1601462496
1601476346
1601477401
1601481046
1601481737
1601482389
1601492906
1601494532
1601501521
1601505329
1601505810
1601508506
1601513059
1601517594
1601521900
1601522438
1601523307
1601527390
1601528313
1601533470
1601536188
1601539017
1601551332
1601551587
1601551967
1601554775
1601555136
1601586016
1601596644
1601597757
1601598052
1601606114
1601607559
1601613251
1601613586
1601613777
1601615308
1601616357
1601622378
1601623276
1601625846
1601628532
1601640254
1601651251
1601651865
1601651828
1601660395
1601663708
1601664335
1601664540
1601666248
1601670590
1601671502
1601673257
1601680006
1601683975
1601684727
1601687133
1601690746
1601696785
1601701978
1601705012
1601708616
1601713529
1601713807
1601714428
1601717862
1601720089
1601721819
1601722255
1601725403
1601727064
1601727928
1601729147
1601729898
1601731661
1601731745
1601733167
1601734278
1600009563
1600015867
1600056691
1600070389
1600071293
1600076855
1600111886
1603066328
1603072491
1603074409
1603082404
1603092291
1603095939
1603102712
1603104670
1603108391
1603108677
1603121553
1603121865
1603123330
1603125657
1603129702
1603131281
1603135086
1603137093
1603141421
1603141876
1603142927
1603144383
1603146862
1603146840
1603159543
1603165042
1603165509
1603169142
1603170664
1603178828
1603180783
1603185456
1603185803
1603186388
1603188009
1603188545
1603194788
1603196120
1603198706
1603199906
1603206292
1603207240
1603209282
1603214343
1603222608
1603233851
1603240834
1603245291
1603246032
1603247330
1603249721
1603263225
1603271628
1603271983
1603272216
1603274942
1603275098
1603279381
1603280117
1603281094
1603294115
1603295904
1603296524
1603300733
1603301247
1603310135
1603316664
1603316943
1603319148
1603320500
1603325628
1603337036
1603355470
1603360662
1603361487
1603363586
1603365147
1603368060
1603371533
1603374075
1603381814
1603384440
1603390310
1603395767
1603396777
1603417074
1603417832
1603419252
1603422348
1603423595
1603423525
1603431670
1603440438
1603448849
1603450934
1603467544
1603469330
1603481360
1603485996
1603486077
1603489463
1603473993
1603490410
1603497784
1603505102
1603514766
1603518117
1603536131
1603536996
1603537531
1603539114
1603546779
1603551092
1603551134
1603552102
1603558636
1603558707
1603568014
1603575569
1603580994
1603581366
1603582635
1603591928
1603594490
1603598676
1603601082
1603602907
1603607691
1603608390
1603614413
1603634319
1603637805
1603640599
1603655918
1603656815
1603659928
1603663760
1603665614
1603667545
1603671125
1603671711
1603675061
1603676584
1603680978
1603681913
1603684527
1603685476
1603696637
1603702302
1603709503
1603713438
1603717244
1603729839
1603731227
1603736216
1603738853
1603744742
1603748897
1603750087
1603770885
1603778325
1603781299
1603782324
1603817589
1603817783
1603875916
1603881685
1603887235
1603895080
1603902333
1603906481
1603909649
1603915592
1603917584
1603928623
1603935856
1603936483
1603939010
1603942691
1603946688
1603946864
1603954480
1603958483
1603962333
1603963460
1603965391
1603968487
1603971060
1603970400
1603973915
1603975762
1603984883
1603987026
1603992639
1604001829
1604009094
1604014275
1604027036
1604036213
1604037962
1604045987
1604047356
1604051447
1604061820
1604063908
1604065155
1604071676
1604081756
1604084451
1604089678
1604093617
1604093734
1604096473
1604102537
1604114519
1604121972
1604123656
1604125808
1604129319
1604133579
1604140547
1604152772
1604153318
1604158898
1604161481
1604167250
1604175534
1604176054
1604181572
1604181297
1604184804
1604186902
1604191041
1604216167
1604220623
1604225770
1604226038
1604231500
1604232304
1604233149
1604234225
1604235981
1604237832
1604241783
1604250874
1604256616
1604262546
1604274455
1604280623
1604289827
1604295765
1604302145
1604302645
1604313969
1604314185
1604320493
1604334938
1604335274
1604337857
1604345951
1604352214
1604353444
1604361963
1604364439
1604371021
1604374394
1604377064
1604380829
1604455400
1604457094
1604462994
1604469656
1604472492
1604474211
1604476952
1604480219
1604488512
1604491777
1604494491
1604505367
1604508248
1604513086
1604515597
1604518704
1604525208
1604544403
1604548865
1604552640
1604552740
1604554433
1604563232
1604567734
1604570336
1604572029
1604584577
1604586754
1604588666
1604589610
1604590179
1604592351
1604593337
1604593730
1604604912
1604619084
1604622126
1604623778
1604624153
1604629224
1604645788
1604650326
1604650566
1604652708
1604657948
1604663957
1604667088
1604672692
1604685941
1604698101
1604698434
1604705160
1604712871
1604713583
1604719134
1604724297
1604741191
1604741387
1604744989
1604751773
1604755183
1604756822
1604759055
1604761106
1604765579
1604773011
1604773795
1604776289
1604782675
1604785800
1604787198
1604788044
1604792430
1604793395
1604797216
1604802956
1604807125
1604810210
1604813029
1604814827
1604814931
1604822381
1604823516
1604826254
1604827274
1604831410
1604831585
1604832361
1604839771
1604840888
1604843281
1604851184
1604851749
1604852449
1604864868
1604874870
1604880930
1604881005
1604881956
1604893307
1604894680
1604895632
1604901613
1604906562
1604909115
1604914600
1604915008
1604915750
1604918885
1604923442
1604923753
1604927192
1604928527
1604929802
1604945296
1604947745
1604949686
1604966706
1604967913
1604972344
1604975017
1604976432
1604977136
1604979239
1604986080
1604989554
1604995852
1604998557
1605001150
1605003087
1605003192
1605004679
1605005258
1605005442
1605007466
1605011408
1605012242
1605012294
1605023194
1605026614
1605026810
1605029474
1605030537
1605032942
1605033022
1605034958
1605035961
1605037340
1605040465
1605046986
1605047281
1605047589
1605059574
1605060308
1605060421
1605071711
1605075751
1605080259
1605080530
1605082314
1605093068
1605093240
1605097578
1605102062
1605105143
1605107733
1605108175
1605108695
1605109224
1605113464
1605115977
1605123551
1605124195
1605126898
1605129072
1605134135
1605141245
1605160934
1605164005
1605166314
1605167857
1605173003
1605176050
1605178356
1605180024
1605180684
1605181291
1605186782
1605193892
1605202024
1605208986
1605223560
1605286416
1605307028
1605317534
1605323711
1605323882
1605324146
1605327339
1605331508
1605331912
1605335583
1605336507
1605342594
1605354389
1605367806
1605429455
1605465832
1605504590
1605519890
1605553571
1605637446
1605656849
1605659950
1605750053
1605787438
1605797447
1605892085
1605904238
1605919388
1605920006
1605928623
1605987865
1606122731
1606130618
1606140120
1606143405
1606193902
1606278685
1606298324
1606357761
1606371662
1606386853
1606396377
1606462309
1606532216
1606605483
1606687804
1606710756
1606716909
1606783948
1606841350
1606851876
1606879510
1606907476
1606909316
1606959410
1606970389
1606974955
1606995682
1607033029
1607058123
1607099462
1607156450
1607191391
1607217460
1607420641
1607496011
1607535347
1607563170
1607571477
1607578833
1607705119
1607706300
1607827226
1607841834
1607866281
1607888487
1607947026
1607975150
1607985779
1608008302
1608015260
1608067658
1608114345
1608123044
1608218981
1608259500
1608333750
1608334819
1608353530
1608379467
1608394131
1608399479
1608445845
1608538917
1608558359
1608584428
1608638467
1608706054
1608711373
1608714696
1608799144
1608921252
1609002440
1609112994
1609143672
1609163066
1609239463
1609266909
1609358861
1609382887
1609415135
1609416324
1609455739
1609499939
1609504388
1609519742
1609583466
1609586914
1609590897
1609608860
1609621744
1609667925
1609693037
1609720823
1609817921
1609819679
1609841076
1609864851
1609912478
