730036240
730336314
730453018
730617815
730648136
1600018212
1600043570
1600058702
1600072312
1600084267
1600108848
1600121538
1600127783
1600190881
1600205880
1600231075
1600270072
1600281144
1600304227
1600309326
1600321250
1600347743
1600366510
1600379066
1600435014
1600442464
1600452517
1600475337
1600479445
1600562553
1600582810
1600592775
1600617293
1600620062
1600623916
1600624068
1600626934
1600636412
1600675462
1600676112
1600702867
1600705180
1600727405
1600774453
1600774447
1600783589
1600800414
1600812386
1600819402
1600834024
1600845563
1600850052
1600868176
1600875898
1600893610
1600939939
1600940677
1600959385
1600960303
1600974620
1601003121
1601044291
1601063650
1601090466
1601094659
1601095091
1601095257
1601127115
1601167976
1601190246
1601194426
1601198238
1601233461
1601249615
1601260912
1601272692
1601273666
1601282967
1601312770
1601334945
1601346341
1601377717
1601440555
1601466236
1601490603
1601503157
1601561037
1601569241
1601580908
1601582773
1601583732
1601613157
1601620422
1601625540
1601632619
1601657772
1601673584
1601685022
1601726487
1603096378
1603119274
1603121877
1603132899
1603136391
1603164669
1603184587
1603217050
1603218939
1603228918
1603238565
1603252161
1603259242
1603260348
1603271870
1603300565
1603319202
1603332316
1603333194
1603334612
1603354256
1603369808
1603376540
1603424935
1603460149
1603462578
1603484004
1603502278
1603538551
1603538783
1603541134
1603587609
1603598754
1603621924
1603622843
1603631066
1603638719
1603657592
1603675850
1603697864
1603701740
1603720102
1603747664
1603780235
1603783396
1603790106
1603947509
1603967024
1603972319
1603983326
1604041811
1604059763
1604066145
1604071413
1604146070
1604166629
1604167118
1604177109
1604207545
1604209798
1604229626
1604234453
1604243213
1604341575
1604375583
1604388954
1604460905
1604464722
1604505224
1604535304
1604536430
1604552183
1604563577
1604601553
1604604876
1604615004
1604631882
1604662165
1604674168
1604692341
1604717644
1604718673
1604727217
1604784839
1604787034
1604878783
1604881419
1604884167
1604895804
1604947746
1604952215
1604953289
1604966197
1604994605
1604997515
1605042058
1605069916
1605105809
1605141150
1605155598
1605171861
1605175089
1605281757
1605322045
1605404311
1605507065
1605591699
1605791843
1606116310
1606174532
1606177278
1606308043
1606318418
1606340344
1606554443
1606707683
1606749426
1606854398
1606854482
1606908123
1606910545
1607177115
1607223614
1607314171
1607418808
1607545726
1607663471
1607683765
1607706670
1607802205
1607977310
1608364242
1608456631
1608504537
1608657652
1608679423
1608812766
1608977236
1609002655
1609011089
1609060349
1609127143
1609131648
1609156445
1609297931
1609537335
1609606594
1609607923
1609629148
1609965813
