1850010529
1850013795
1850016311
1850023057
1850044518
1850051060
1850064742
1850068196
1850078300
1850089384
610004276
610004138
610009061
610012304
610012386
610012966
610012997
610018224
610024574
610025577
610028579
610029891
610030207
610034250
610035745
610036689
610040211
610045087
610047667
610049538
610052903
610055645
610060676
610062731
610063438
610081915
610084951
610093666
610095283
610103578
610105028
610107876
610115916
610118623
610119377
610121154
610121998
610121973
610122376
610122732
610123165
610123715
610125642
610127048
610126808
610130074
610131208
610131933
610132504
610135287
610135267
610136611
610141390
610141257
610145235
610148091
610149460
610153958
610155229
610157047
610157855
610160489
610167690
610169384
610169663
610171731
610171759
610176063
610177266
610177420
610191336
610199127
610205156
610205174
610207484
610214983
610219470
610230846
610239312
610253714
610257973
610262308
610263042
610266989
610271245
610272651
610273434
610273497
610273915
610274804
610281545
610282459
610288143
610296816
610301108
610302591
610304701
610305960
610308412
610310928
610311265
610321131
610324042
610332857
610334050
610336383
610342021
610356050
610356647
610357055
610359251
610364110
610368288
610373500
610375542
610377730
610378297
610379535
610380695
610382488
610382653
610387915
610396192
610397460
610405949
610410167
610410376
610413416
610417491
610418829
610427110
610433592
610442315
610447908
610448969
610449865
610454251
610456465
610460991
610461774
610463103
610470094
610482429
610483040
610483912
610489136
610489310
610489106
610497008
610500120
610505055
610511703
610512421
610515568
610518003
610518382
610521638
610521962
610525486
610526076
610527483
610533003
610534065
610539018
610540199
610542098
610542612
610543391
610545283
610552828
610556151
610562122
610563312
610563990
610565642
610568014
610569061
610571096
610573314
610575254
610578343
610579626
610581371
610586447
610586725
610588470
610589852
610593720
610596630
610596648
610601689
610601918
610602537
610603389
610606233
610606073
610612253
610618113
610619849
610622732
610624937
610624877
610627441
610627999
610628249
610630381
610640250
610648835
610649465
610651075
610652003
610657824
610658048
610658404
610660874
610666340
610666803
610671744
610676361
610676005
610680633
610681957
610685412
610688655
610689646
610690774
610692905
610694095
610695126
610695988
610696147
610698589
610700588
610700856
610702219
610704443
610704755
610704926
610705474
610706040
610707548
610708571
610714150
610714975
610715303
610716958
610720663
610722128
610724612
610729409
610729766
610730776
610734606
610735510
610749155
610752773
610753601
610754410
