960087566
960593918
960596304
960626061
960746362
960778386
960816732
961040218
961059882
961146987
961454144
961802430
961825244
961884336
961910367
962156090
962214486
962292465
962416140
962516060
962726107
962736409
962769541
