710015421
710029079
710030134
710037040
710037975
710069956
710071955
710089677
710111383
710141981
710180488
710204759
710286423
710292545
710297184
710395945
710415412
710418429
710419847
710501544
710515932
710519781
710524470
710538480
710551751
710648724
710677636
710699349
710714804
710775055
710790178
710838382
710841590
710847593
710871517
710915743
710917704
710938161
710946793
710956000
710959164
710971208
711000036
711026738
711054834
711063754
711065057
711065479
711079463
711082268
711090876
711104147
711139455
711140457
711140791
711148242
711182144
711230327
711232342
711242663
711247892
711304342
711316680
711318462
711320179
711326649
711336085
711339221
711353280
711379117
711383840
711398358
711400188
711421960
711439828
711469194
711471365
711503081
711540729
711554873
711560328
711561503
711575292
711577894
711601845
711615546
711626229
711631654
711632966
711639190
711686501
711792927
711814852
711843923
711844921
711854126
711874238
711917591
711922480
711930839
711947365
712018606
712025036
712035282
712055875
712064527
712086944
712107755
712120455
712121598
712124014
712126966
712127279
712141103
712167529
712204563
712208516
712223566
712223664
712246161
712252461
712256728
712286737
712305556
712343073
712377371
712381963
712421512
712446966
712482044
712495645
712513778
712529207
712542890
712568379
712571834
712617375
712619825
712673748
712680948
712686975
712708334
712735544
712739267
712760007
712807919
712810169
712824123
712898681
712902925
712910211
712913323
712938032
712941117
712963964
712976322
713005333
713033794
713071790
713082092
713089628
713133781
713154076
713170899
713172056
713176454
713179724
713183732
713197894
713214066
713240125
713256897
713301628
713314215
713314700
713319578
713322506
713324130
713324886
713330448
713341230
713347665
713352536
713385894
713474699
