960014444
960073769
960075723
960099955
960214420
960242136
960345900
960406118
960467983
960472251
960477790
960508851
960520440
960540224
960592350
960617103
960674052
960674710
960675137
960686721
960842602
960884225
960894227
960907907
960920408
960941245
960990211
961114140
961132489
961158866
961187432
961201661
961207216
961265924
961347939
961349806
961367182
961384860
961404233
961417776
961495176
961498021
961519395
961536431
961565677
961572958
961602733
961623365
961690126
961695139
961730227
961742214
961812222
961854046
961868150
961964669
961988109
962023678
962027767
962048744
962050826
962067710
962132487
962155447
962258179
962274592
962346622
962400256
962400432
962406476
962508664
962626193
962641243
962644596
962667853
962718723
962718830
962745562
962771704
