960017016
960022029
960081611
960127273
960173655
960193101
960223177
960243656
960247638
960278783
960279735
960287320
960334600
960486085
960489247
960595998
960615064
960696510
960708030
960714203
960715601
960734118
960758973
960800566
960817786
960833056
960861221
960864806
960886439
960899317
960931695
960945293
960979907
961001770
961038223
961081298
961117291
961179763
961231668
961242868
961251955
961260077
961261328
961281727
961302228
961413400
961417271
961419729
961423939
961438914
961452446
961465528
961466836
961480348
961501514
961529048
961536856
961536872
961570724
961590830
961609071
961622568
961635203
961638491
961691282
961716799
961745614
961815690
961838278
961861555
961865932
961879719
961883927
961889758
961891361
961969646
961990225
962058684
962061023
962101516
962138895
962192908
962225466
962248164
962283730
962401710
962424806
962430972
962436272
962451268
962518016
962550833
962556853
962645298
962746129
