922004278
922010590
922016074
922021293
922021293
922022072
922024725
922026381
920000916
920002338
920002997
921002359
921004992
921009949
921013372
920000916
920002338
920002997
920020227
920028621
920030050
920046881
920057518
920059888
920059889
920070647
920080135
920080942
920084895
920094039
920100993
920100928
920101425
920103637
920108370
920108822
920114122
920117510
920118192
920123309
