1600142233
1600274474
1600399762
1600402763
1600408867
1600454989
1600462788
1600505881
1600530105
1600649477
1600678961
1600770538
1600901405
1600909551
1600938003
1600948077
1600974571
1600994457
1601196408
1601207942
1601306261
1601496445
1601546431
1601570034
1601588468
1601601500
1601717090
1603109197
1603281404
1603347760
1603348143
1603381784
1603509916
1603655394
1603721379
1603982484
1604083327
1604180762
1604375934
1604476968
1604651426
1604696317
1604748552
1604767159
1604775141
1604924573
1604959839
