640000533
640000533
1850046461
610019101
610020191
610056052
610102424
610115588
610141212
610141856
610178591
610222582
610224387
610296768
610313109
610322500
610340118
610367907
610417855
610504091
610586603
610670955
610673171
610674057
610704329
610709570
610713855
