710001698
710011021
710025654
710041492
710046905
710074329
710104201
710112820
710127660
710141763
710146365
710163464
710165387
710188696
710251721
710252820
710264679
710268336
710274141
710278690
710278940
710297655
710299707
710301615
710315608
710322971
710326185
710328164
710328858
710343346
710344420
710346382
710348024
710359355
710368529
710369486
710372800
710384717
710394936
710401802
710410339
710416104
710421996
710438528
710443449
710446369
710453284
710456670
710477391
710482457
710492639
710498705
710527680
710532189
710544732
710546435
710560225
710589212
710589046
710594238
710597526
710601728
710604675
710607808
710607770
710612169
710630208
710630230
710640536
710645574
710649888
710649892
710650293
710660218
710669674
710672588
710673661
710703233
710705007
710708808
710721037
710723185
710738530
710743613
710759941
710770271
710778396
710785830
710792204
710798991
710799642
710801342
710801432
710802016
710807678
710809441
710810093
710822829
710827315
710834100
710839763
710860420
710866586
710867529
710868824
710868828
710871993
710872878
710880162
710884903
710894279
710902813
710910742
710911768
710913807
710913939
710917557
710921536
710927339
710930631
710944106
710953806
710967891
710967891
710980660
710983159
711006047
711006258
711007874
711018831
711023273
711032449
711042016
711047197
711048588
711049298
711051813
711054968
711066204
711073042
711078179
711079770
711089398
711117467
711127048
711132042
711135127
711138333
711161133
711166070
711175154
711195480
711202298
711229539
711242009
711248000
711263879
711264596
711270865
711274741
711296736
711298726
711308386
711311139
711315491
711321230
711323311
711331815
711341698
711343860
711348481
711355859
711362179
711377117
711377888
711381409
711382295
711404691
711420454
711435875
711446429
711446745
711452666
711455724
711459539
711469487
711476408
711483290
711496174
711505020
711526670
711542496
711549383
711558334
711562057
711575805
711579732
711581687
711586228
711589480
711608571
711625657
711626747
711641693
711653392
711673295
711682008
711689028
711688994
711690327
711697166
711703267
711711479
711712856
711720886
711735060
711740900
711742581
711753113
711759983
711760207
711766727
711768912
711776485
711782693
711805815
711815767
711818761
711833691
711833759
711842820
711843605
711852989
711855600
711868631
711872045
711886021
711890632
711897832
711901898
711903503
711930917
711933177
711933950
711940540
711941959
711941988
711965566
711968447
711969032
711968862
711969921
711973364
711978925
711986793
711987813
712002268
712019819
712033243
712055331
712057522
712061396
712063264
712075895
712081234
712087309
712092288
712105388
712109050
712110020
712115510
712117460
712131580
712149667
712153589
712154989
712157505
712159680
712181843
712184311
712201626
712213802
712221914
712225043
712228348
712229479
712230029
712230568
712238911
712240874
712245365
712246132
712249585
712260496
712264224
712266912
712271643
712279061
712284638
712286346
712294444
712294990
712295400
712305262
712315527
712339866
712342036
712349965
712364685
712370463
712373501
712376274
712397041
712396964
712407043
712408113
712416183
712419268
712428837
712434374
712436350
712448784
712474109
712483036
712485537
712485997
712488405
712489216
712493512
712497660
712498120
712503379
712512584
712518479
712531048
712531578
712534248
712550729
712576841
712586669
712605982
712621077
712623958
712629495
712630764
712631781
712651526
712651542
712679465
712685890
712717296
712720190
712721949
712727001
712730053
712733122
712734992
712743666
712746157
712761014
712764995
712775139
712776064
712776976
712783869
712786604
712789882
712789922
712805525
712816504
712825777
712831299
712842946
712846634
712856338
712858889
712870514
712875563
712883599
712897057
712900591
712906378
712937663
712944741
712948971
712949189
712955763
712958270
712966321
712971825
712975976
712989107
712996047
712996835
712998696
713001312
713001704
713005978
713008894
713014070
713017321
713021346
713030816
713035236
713040309
713045613
713046755
713050876
713053850
713064299
713070527
713088050
713100597
713118493
713121875
713129944
713137347
713137592
713140928
713146361
713152075
713158655
713167461
713175301
713177227
713178802
713197810
713204983
713214334
713226573
713237813
713239184
713239928
713239959
713248503
713249976
713267038
713269779
713274198
713282833
713288233
713288832
713296479
713307181
713310049
713320386
713322658
713324107
713333744
713337116
713344910
713371185
713372407
713377417
713380056
713387263
713389380
713390128
713401211
713415532
713418757
713420124
713421219
713428249
713428848
713435897
713438350
713466532
713467189
713471106
713472977
713481593
713486291
713496358
713500644
713504562
713505075
713513090
713514421
713525625
713528698
713540993
