1600000121
1600000121
1600066293
1600084929
1600139391
1600434210
1600674855
1600859668
1600874448
1600988365
1601049502
1601073608
1601146452
1601370826
1601425275
1603087222
1603322853
1603500740
1603507745
1604034579
1604038202
1604254709
1604343798
1604476689
1604506846
1604646810
1604693314
1604841414
1605033755
1605324034
1609441694
