922000946
922002472
922002925
922005361
922008606
922010883
920004201
921004417
921005069
921005181
921005194
921009968
921009625
921010097
921014070
920004201
920008243
920008369
920009540
920014143
920016663
920022486
920026980
920039965
920043022
920055974
920060202
920061795
920063772
920064243
920070859
920074895
920077959
920078912
920081385
920082674
920082713
920084959
920088268
920094528
920094542
920095936
920096783
920104424
920104658
920105984
920108274
920109701
920113888
920122723
920123723
920126007
920131945
