1600278554
1600318286
1600676600
1600761134
1600772494
1600871514
1600932274
1601024447
1601123554
1601147864
1601178737
1601242736
1601273984
1601521043
1601641317
1603110267
1603327589
1603468021
1603515122
1603573439
1603602108
1603617032
1603657233
1604156617
1604334698
1604659981
1604662831
1604806170
1604836729
1604860261
1605142991
1606648004
1606687939
1607186512
1607558288
1608077172
