731242838
730416998
730663060
732070485
1600030654
1600033171
1600060141
1600129888
1600151105
1600249309
1600280695
1600306534
1600324063
1600423359
1600472198
1600495588
1600559977
1600601521
1600654258
1600658598
1600735162
1600773445
1600774631
1600777707
1600916620
1600937278
1600946090
1600957685
1601105371
1601113161
1601118375
1601219580
1601318236
1601342275
1601358088
1601475559
1601503160
1601519706
1601545954
1601576795
1601590440
1601611795
1601642697
1601654639
1601656213
1601668005
1603099150
1603148297
1603157752
1603182928
1603202209
1603231840
1603262483
1603290057
1603333479
1603550724
1603613510
1603618847
1603618883
1603683393
1603770436
1603780917
1603930415
1603937233
1603947772
1603974649
1604009720
1604044606
1604067842
1604139298
1604142168
1604176997
1604515471
1604558736
1604572468
1604679088
1604680881
1604706855
1604722319
1604875460
1604945187
1604946160
1605071884
1605131057
1605176697
1605189391
1605193865
1605306807
1605613460
1605827601
1608893062
