800048603
801042872
801046840
801061189
800125058
801071845
800129146
801076393
800133086
801099430
800156278
800048603
800125058
800129146
800133086
800156278
800211114
800219395
800222035
800281166
800310050
800318867
800353444
800377696
800456700
800537803
800581717
800606188
800707018
800810465
800854312
800960462
800990427
801042872
801046840
801061189
801071845
801076393
801099430
801124321
801172171
801200079
801214239
801230179
801236466
801304983
801380469
801411492
801522009
801593317
801653042
801658694
801702248
