640000013
640001106
640002237
640002283
640002237
640002283
640002996
640003064
640004156
640004468
640005133
610000853
640000013
640000118
640001106
640002283
640002237
640002996
640003064
640004468
640005133
640005929
640006179
640007834
640008683
610000853
610004879
610006590
610006703
610007883
610009473
610010217
610015607
610020002
610020496
610020957
610021581
610021765
610024463
610025493
610028339
610028891
610029365
610031019
610032144
610034909
610035411
610035824
610036614
610037577
610038366
610038505
610039725
610042283
610044066
610045118
610045236
610045717
610045957
610046722
610047318
610048291
610048744
610048455
610050196
610052987
610054754
610056612
610056876
610060124
610060417
610061436
610062333
610069692
610070941
610071820
610072083
610075372
610076005
610076455
610076982
610080432
610082395
610082637
610085231
610085201
610089261
610091287
610093578
610096328
610096517
610097124
610097878
610098730
610098842
610100567
610100943
610101085
610101922
610103444
610106125
610108092
610108501
610109279
610109423
610109412
610109557
610110107
610110728
610111653
610112383
610114238
610114835
610116558
610117479
610118515
610121989
610129137
610133395
610134150
610134792
610135297
610137681
610138104
610138433
610142566
610142762
610143056
610144473
610145801
610146094
610147317
610148262
610148318
610148074
610153531
610153546
610153949
610154132
610154431
610159663
610160488
610160928
610161455
610162880
610168221
610169102
610170274
610172934
610173951
610173639
610175506
610175946
610178090
610178882
610179898
610180029
610182892
610183144
610184157
610185031
610186040
610186120
610186364
610188204
610188982
610189950
610190981
610191454
610193197
610194127
610195000
610196232
610197505
610200352
610200615
610202482
610204276
610207326
610209968
610213505
610215624
610218781
610219334
610223403
610224885
610225437
610227587
610228361
610231658
610233834
610240075
610244109
610244370
610246860
610247269
610248056
610251226
610253269
610254019
610255238
610255005
610256527
610256653
610256777
610257482
610257257
610262871
610264082
610265039
610266787
610268203
610268306
610270578
610272586
610273658
610276578
610276571
610277090
610278571
610278730
610280265
610281383
610281457
610283114
610285036
610292227
610293797
610294189
610295022
610295268
610298671
610299205
610299393
610302068
610302792
610302908
610303630
610303931
610304552
610305438
610307996
610308611
610310495
610310715
610313264
610314092
610315795
610317970
610319355
610319785
610320114
610320233
610320177
610320742
610324325
610327738
610329555
610331408
610331486
610332973
610333245
610333645
610335085
610335736
610341012
610343252
610343162
610343405
610344974
610347878
610348216
610350304
610350241
610350821
610351700
610352034
610352736
610354963
610354983
610355777
610358334
610359175
610359319
610359820
610360741
610361547
610362738
610363263
610364433
610365400
610366771
610366565
610369788
610370361
610373096
610373148
610373616
610374023
610375623
610377973
610378912
610381884
610382587
610382854
610388679
610389532
610390730
610393460
610397711
610400935
610402512
610402783
610406197
610407331
610408708
610410653
610411683
610412301
610413340
610415847
610422095
610423254
610423905
610428199
610429056
610433649
610436453
610438592
610440138
610440802
610440948
610441794
610444246
610444280
610452891
610452945
610454674
610455329
610455509
610455931
610457214
610458598
610461380
610462472
610462960
610464620
610469920
610471593
610472792
610473103
610473333
610476113
610476485
610480620
610481791
610483324
610484588
610489089
610490451
610490589
610491583
610493469
610494023
610494686
610495260
610496683
610496783
610498969
610499608
610499878
610500424
610501110
610503379
610503278
610505877
610506224
610506740
610507319
610508321
610509038
610509254
610509905
610511316
610512578
610516874
610518827
610518716
610519413
610521054
610524688
610525419
610526534
610528740
610530447
610530915
610531817
610533659
610534790
610535154
610537305
610537825
610539877
610540200
610541012
610541252
610541935
610543969
610544478
610545470
610545754
610547541
610547991
610550428
610551008
610552677
610555222
610555977
610556496
610557956
610558285
610559085
610559409
610559144
610560654
610561393
610562588
610563612
610565201
610565341
610567001
610567802
610568190
610568650
610569947
610570402
610574140
610574277
610576839
610580476
610580790
610582775
610584025
610585951
610586303
610587406
610589083
610592949
610593243
610593681
610595099
610595174
610595605
610600450
610602045
610604506
610605390
610607891
610610170
610615106
610616198
610616226
610617354
610618531
610621212
610621420
610622182
610623135
610629203
610629814
610632157
610634656
610635212
610637099
610637486
610638468
610638327
610638618
610642270
610643007
610643811
610646757
610647295
610648073
610650121
610650058
610652839
610654677
610655998
610655951
610656669
610657015
610658434
610659759
610661256
610661445
610670406
610670618
610674634
610676550
610677114
610677113
610677299
610678077
610679261
610679640
610679689
610681872
610682510
610684860
610685461
610687560
610688724
610688699
610690342
610690799
610692065
610693240
610693819
610695738
610699200
610699611
610700291
610701358
610703108
610703926
610704564
610704725
610707015
610707237
610713694
610715965
610716612
610716799
610718172
610718200
610718382
610718396
610718728
610719234
610719237
610722108
610722823
610723927
610726903
610727456
610728505
610728643
610729737
610730843
610731345
610733014
610734809
610735739
610738571
610742216
610742558
610743434
610743636
610746203
610748377
610748926
610749320
610750646
610754893
610756013
610755972
