710010705
710017528
710018740
710020041
710027807
710034237
710035774
710040116
710043001
710045069
710046147
710049137
710049194
710052076
710052556
710056698
710064247
710084946
710087229
710087781
710089499
710089962
710090412
710097973
710107822
710112345
710119435
710121397
710122320
710122293
710132300
710132331
710134926
710150744
710156895
710163477
710168469
710169006
710169711
710170104
710170716
710178225
710180846
710182090
710190776
710193393
710193838
710195420
710194657
710197701
710199146
710201295
710207833
710214729
710220083
710229929
710240983
710243379
710244461
710245463
710249667
710257827
710260735
710267155
710272046
710272550
710288929
710290572
710292892
710296343
710297214
710296985
710297977
710311460
710314101
710317414
710326927
710329333
710334753
710334600
710335630
710343672
710345836
710347732
710352458
710361960
710376548
710385413
710385339
710388142
710393743
710394828
710397685
710405217
710407938
710408624
710412322
710415788
710421741
710422880
710424137
710431928
710433499
710444345
710449186
710448961
710450155
710450419
710451520
710451817
710460747
710463816
710463759
710464795
710467702
710476672
710478022
710479398
710484281
710485745
710487376
710490581
710493460
710497765
710500355
710506381
710522785
710527751
710529833
710530266
710534290
710537583
710536961
710540739
710542981
710558916
710563462
710564400
710564993
710569680
710572487
710575538
710576016
710581884
710591047
710590598
710593089
710593319
710594431
710601207
710605954
710613891
710617526
710622428
710625867
710626205
710626509
710627427
710628985
710634386
710634540
710635297
710642447
710657943
710666710
710669046
710669514
710677568
710680377
710680794
710686329
710698443
710700045
710700879
710703958
710707358
710712428
710716921
710718766
710721926
710723040
710724034
710725478
710729525
710733878
710751109
710752511
710752449
710757573
710758135
710760955
710761496
710762578
710764714
710768607
710772523
710773442
710775761
710778434
710778643
710781615
710783524
710785995
710787221
710793410
710795545
710802696
710818771
710827888
710829359
710829454
710833825
710833865
710837117
710841717
710842535
710845272
710845815
710851162
710852577
710860025
710861641
710868843
710878055
710883880
710886010
710895150
710901949
710911537
710913306
710914330
710920004
710920647
710922735
710928143
710929166
710930468
710930785
710949192
710953497
710965235
710970699
710971448
710972557
710974818
710974837
710977175
710978994
710979728
710985859
710990718
710993677
710996692
711012267
711013302
711014666
711019905
711021566
711023114
711022723
711026437
711026627
711035974
711040423
711041917
711042656
711044323
711049354
711057719
711058563
711058699
711062034
711065616
711072453
711075926
711078344
711078126
711100557
711104722
711112127
711117444
711123860
711126024
711126770
711128851
711132743
711142267
711145603
711145727
711155669
711162101
711164214
711170506
711171722
711185008
711191199
711192841
711194355
711207109
711210404
711215398
711215475
711217025
711219110
711223644
711225353
711226018
711227289
711229037
711236164
711238567
711255269
711257104
711264325
711264543
711265294
711266591
711267292
711268893
711271934
711273865
711279066
711281686
711282038
711298599
711300016
711302839
711309498
711313313
711318481
711334214
711334659
711337551
711339816
711345299
711373294
711376923
711380044
711387559
711392461
711392905
711397562
711401995
711404662
711407296
711414383
711415637
711417966
711419684
711422148
711425629
711432067
711448380
711458368
711461055
711467862
711468208
711470665
711472361
711476676
711479782
711487176
711487082
711495234
711497561
711502793
711509878
711511256
711512229
711512417
711529109
711529169
711531770
711536886
711543582
711549630
711550229
711551400
711551784
711554935
711560056
711561202
711567676
711570238
711590013
711591803
711597109
711601326
711601692
711601999
711615788
711617850
711625227
711628283
711634723
711635512
711639479
711642883
711643116
711649948
711651457
711654215
711655892
711671260
711677749
711677464
711678646
711689399
711692294
711698221
711699109
711710152
711711943
711714275
711721199
711732292
711732323
711734813
711735808
711742139
711746562
711749933
711752052
711752659
711757367
711760246
711769182
711771911
711784834
711785328
711789991
711790544
711791655
711791981
711804596
711806143
711807672
711808979
711811756
711817726
711824733
711825069
711825250
711826447
711828604
711849481
711849443
711850089
711855324
711862079
711862993
711874768
711876207
711880095
711882934
711883202
711886923
711888458
711902921
711906644
711907062
711907043
711908829
711919961
711923774
711924126
711924457
711925979
711932928
711937060
711940703
711945198
711946365
711951398
711952220
711953998
711954897
711954677
711973359
711980934
711981180
711983359
711999031
712001549
712002150
712005452
712019365
712021299
712023713
712025458
712033862
712035262
712053095
712056022
712058001
712060486
712065838
712066705
712072215
712073072
712077188
712078824
712093323
712093806
712094148
712096316
712106375
712109813
712111142
712114813
712115278
712120342
712124710
712124783
712129486
712129752
712133629
712145377
712146321
712148528
712156642
712157327
712160035
712164288
712169413
712170714
712189695
712189767
712191725
712196839
712197997
712201544
712202842
712202961
712210639
712210717
712216480
712244582
712246096
712248348
712249157
712254014
712261797
712262840
712264146
712265875
712267814
712277494
712279866
712279987
712284859
712285126
712288239
712288678
712323519
712327050
712331784
712332481
712333973
712335150
712337041
712348823
712358393
712362590
712363934
712365764
712367249
712368060
712375337
712377584
712378116
712381388
712381698
712386415
712400177
712406648
712413759
712415735
712427961
712428184
712429659
712432329
712436911
712437425
712439678
712441605
712445765
712460548
712461711
712466241
712468533
712472672
712477448
712483642
712494650
712499880
712501165
712504389
712505265
712506553
712513425
712513285
712520890
712536522
712538715
712540249
712542230
712557065
712562813
712584898
712587840
712589161
712590258
712591802
712592826
712599325
712602603
712604311
712610501
712612545
712613993
712614517
712616339
712621004
712621675
712629581
712634765
712635555
712636619
712643372
712644170
712645290
712645130
712646316
712649234
712656261
712660243
712662623
712688430
712703485
712713405
712714677
712721157
712740368
712744980
712750726
712752383
712755614
712757755
712758241
712758868
712759674
712768050
712770878
712773388
712775131
712776781
712792588
712794716
712800134
712802236
712802603
712808897
712812202
712813757
712817238
712819384
712827123
712828601
712829092
712829350
712829760
712831499
712838752
712841310
712849457
712853679
712856408
712856764
712860066
712860498
712870482
712871898
712873959
712880935
712888504
712892226
712895956
712935190
712936570
712941554
712945065
712950025
712950175
712956387
712963511
712963569
712963767
712963921
712964876
712966232
712971319
712975406
712984898
712987557
713002810
713017353
713021693
713021781
713027623
713027798
713028603
713046412
713048468
713049503
713049811
713050239
713053357
713057394
713060840
713064431
713069313
713069208
713074788
713075782
713078103
713079861
713085157
713089298
713090552
713093188
713096198
713096757
713098588
713099274
713101154
713104588
713107306
713109996
713113676
713118243
713120872
713121699
713122650
713125381
713127970
713129717
713134464
713135119
713139314
713139846
713140045
713150423
713153054
713155487
713160896
713162369
713162403
713167408
713183792
713196049
713200008
713206443
713215054
713224807
713229943
713234013
713237367
713239453
713243003
713248391
713248836
713254210
713255157
713256383
713257960
713262146
713266708
713269677
713270431
713278588
713280885
713283261
713285268
713286953
713294454
713296371
713297956
713307425
713311561
713316712
713317524
713319013
713327265
713336609
713337323
713339714
713342915
713344052
713346182
713358054
713360276
713364169
713368703
713375818
713376448
713380602
713381739
713391711
713394683
713396846
713397590
713407760
713410715
713424143
713424471
713426120
713432425
713433723
713439055
713440160
713444339
713448121
713450408
713451854
713451868
713460681
713464060
713474516
713478494
713480459
713492115
713494210
713500718
713502910
713504656
713506072
713510325
713529745
713529871
713532826
713535747
