731052118
1600623637
1601302333
1603121046
1603247083
1604342687
1604544030
1604688910
1604701079
1605005709
1605078308
1606462695
1607685811
1607770231
1608206824
1608502401
1608771957
1609364085
1609599383
1609636890
