610007541
610008386
610009248
610011331
610019774
610035197
610036357
610048559
610049162
610058436
610073519
610088584
610095947
610095690
610100341
610107318
610112054
610117381
610121315
610126112
610130775
610134282
610136329
610139176
610144377
610152640
610159343
610182612
610193414
610194373
610215468
610225099
610233195
610237883
610252759
610266142
610278255
610284290
610286304
610288300
610294348
610299869
610303703
610307744
610310606
610316910
610318661
610339097
610341414
610347292
610351264
610352935
610355087
610355432
610355828
610364067
610378316
610386262
610393246
610395603
610401510
610402182
610405176
610417529
610417586
610427275
610442774
610442552
610459693
610461559
610461076
610464077
610471844
610474739
610475514
610483277
610484008
610490076
610503350
610504014
610508368
610511771
610534454
610580458
610585996
610592662
610592734
610603233
610618144
610629242
610630132
610635038
610636220
610638150
610648628
610657120
610661170
610669832
610669821
610674771
610681619
610699970
610702172
610710889
610718765
610731918
610755731
