840008694
840012179
840014154
840020190
840025024
840026910
840030458
840040679
840043898
840047163
840058754
840073122
840082026
840084336
840095379
840096716
840102960
840105019
840111897
840118661
840127284
840137074
840144806
840153250
840159692
840176136
840177414
840193777
840194435
840197990
840199885
840202924
840211406
840215141
840227329
840230917
840236016
840268437
840271516
840277408
840278400
840293880
840294171
840295168
840299580
840306953
840317840
840321447
840323327
840325713
840341321
840344594
840345611
840347501
840355711
840366095
840369599
840370238
840371898
840374334
840415814
840421035
840424972
840427404
840437935
840440171
840447400
840448725
840451856
840459759
840463511
840479855
840482055
