730012658
730125424
730139017
730158453
730179584
731125503
730219511
730221567
730245600
731179171
730250074
731199278
731221913
730301464
731228901
731559582
731564544
730425724
731583605
731591977
730456033
731604934
730473643
730495775
731646217
730512893
731655871
730520860
731670406
731679273
731697774
731724109
730549906
731755373
731760209
731763024
730575343
731770663
731781051
731796354
730611303
731847565
731849431
731855588
730668962
731874624
731875652
731949176
731993668
732022678
732026779
730752371
730757407
732070150
1600012926
1600021724
1600070597
1600087239
1600087724
1600090010
1600090283
1600093080
1600095911
1600108291
1600113690
1600124196
1600135352
1600135876
1600137308
1600157827
1600158687
1600168517
1600210295
1600212288
1600235478
1600241518
1600244133
1600247086
1600249723
1600288185
1600346086
1600357334
1600373180
1600413803
1600417368
1600444283
1600471770
1600476178
1600477981
1600477919
1600550352
1600560886
1600565269
1600579647
1600630117
1600642180
1600642706
1600663285
1600687134
1600690058
1600715377
1600721576
1600731862
1600739799
1600761224
1600788921
1600789888
1600808379
1600865644
1600885862
1600900762
1600903936
1600905241
1600907212
1600911226
1600930712
1600931638
1600945219
1600952951
1600979055
1600979449
1600984932
1600988654
1600999776
1601000318
1601002354
1601006719
1601031251
1601034926
1601080388
1601087977
1601110871
1601127548
1601141577
1601183317
1601197703
1601198085
1601202985
1601216123
1601222023
1601230537
1601238735
1601254174
1601257108
1601271630
1601274243
1601300410
1601309463
1601314745
1601330757
1601405789
1601413433
1601428655
1601430806
1601447467
1601454382
1601458296
1601462098
1601467779
1601483186
1601506478
1601510018
1601521834
1601529344
1601559248
1601565323
1601566889
1601568646
1601576501
1601626928
1601662680
1601699732
1601715164
1601717365
1601723168
1603069680
1603087100
1603101102
1603132837
1603140548
1603141259
1603153428
1603158081
1603175041
1603182163
1603183336
1603217442
1603256608
1603263635
1603281379
1603290277
1603295138
1603300018
1603306844
1603309513
1603360764
1603449434
1603457499
1603484068
1603496595
1603502709
1603517342
1603537878
1603548455
1603559630
1603576959
1603582410
1603591206
1603600685
1603602558
1603613499
1603614916
1603629819
1603639534
1603642787
1603667579
1603668970
1603669754
1603691004
1603708511
1603711817
1603729366
1603758400
1603776191
1603809894
1603890952
1603894828
1603932943
1603935569
1603935837
1603969648
1603988672
1604000411
1604073803
1604091785
1604108536
1604119381
1604125940
1604131066
1604134461
1604135854
1604151169
1604157857
1604174410
1604175923
1604230649
1604245132
1604251237
1604266677
1604275748
1604294357
1604305680
1604314758
1604314970
1604319383
1604328133
1604335759
1604337393
1604340083
1604347168
1604378874
1604473356
1604473752
1604482913
1604490308
1604494412
1604506541
1604511526
1604530882
1604541339
1604543421
1604557898
1604558372
1604584878
1604585190
1604588967
1604614147
1604619141
1604628474
1604652043
1604661045
1604664224
1604672963
1604679297
1604680807
1604725990
1604752234
1604820750
1604823467
1604833009
1604841974
1604903083
1604903308
1604917030
1604935396
1604950773
1604975391
1604993829
1605018837
1605043024
1605071014
1605103372
1605104679
1605106788
1605113428
1605123790
1605142257
1605145836
1605150444
1605150444
1605167064
1605187393
1605307675
1605307962
1605311845
1605339334
1605527691
1605532014
1606111622
1606134682
1606150420
1606214851
1606540405
1607291664
1607551721
1607794687
1608059182
1608157738
1608785611
1609171907
1609234430
1609677711
1609787565
1609801588
