800002308
800006363
801002974
800019522
800022648
800030360
800034076
800040505
800044116
800044837
800045044
800050480
800053629
800062905
801011605
800067690
800068416
801015737
801016600
800077205
801020647
801021377
800081604
800082041
800084992
800085154
800086751
800090630
800092870
801034192
801040545
800100710
800106459
800108479
800109808
800113955
801055752
800115293
800115293
801059729
801062182
800121340
800125362
800125354
800131880
800132541
800136366
800137643
800138704
801090907
801091372
801095149
800153389
801097876
801099762
802002387
802003138
800002308
800006363
800019522
800022648
800034076
800040505
800044116
800045044
800044837
800050480
800053629
800062905
800067690
800068416
800077205
800082041
800084992
800085154
800086751
800090630
800081604
800092870
800100710
800106459
800108479
800109808
800113955
800115293
800121340
800125354
800125362
800131880
800132541
800136366
800137643
800138704
800153389
800164249
800167929
800170541
800175086
800175895
800183126
800196018
800202222
800207983
800210219
800211189
800214476
800219161
800224345
800256991
800269490
800275019
800276170
800281496
800286254
800300621
800320733
800322416
800324063
800328483
800329005
800333061
800337512
800338075
800345734
800355681
800366125
800370500
800378947
800385228
800387957
800396354
800398510
800408876
800409921
800410440
800411627
800415912
800418829
800423794
800423880
800433103
800457691
800462448
800464465
800469103
800475386
800486757
800489992
800490430
800490755
800492908
800493440
800494386
800497541
800498445
800511752
800517735
800524134
800535540
800536254
800536912
800540641
800547767
800555450
800570109
800584486
800586394
800586828
800604951
800614955
800623951
800625758
800635784
800650376
800652730
800652958
800657186
800672020
800673342
800674413
800675489
800681249
800682132
800682078
800684197
800697978
800703458
800703842
800704469
800713616
800714816
800716187
800718891
800723342
800734346
800738239
800741129
800743422
800745769
800746390
800746801
800747563
800759075
800767358
800789845
800791879
800792555
800795597
800795972
800797689
800800181
800804124
800806303
800808743
800822397
800824105
800824580
800825997
800836278
800842429
800845387
800852305
800866940
800871086
800886264
800888735
800891755
800896302
800903385
800914459
800919599
800920014
800923186
800925408
800929508
800932657
800937795
800938776
800939315
800950201
800955632
800961402
800962909
800964710
800969679
800974081
800977450
800982540
801002974
801011605
801015737
801016600
801020647
801021377
801034192
801040545
801055752
801059729
801062182
801090907
801091372
801095149
801097876
801099762
801106917
801109102
801115355
801117331
801124536
801126477
801126977
801130102
801140861
801149245
801161742
801170835
801178348
801178327
801185073
801192731
801203577
801204005
801213906
801216685
801218967
801220959
801225069
801225694
801226437
801246505
801247833
801257853
801265144
801269856
801272814
801284049
801284031
801284515
801289466
801304922
801320496
801321287
801341300
801343972
801356680
801357170
801370163
801372231
801372640
801375780
801377287
801380119
801391559
801392530
801404939
801427036
801432195
801434547
801440617
801442368
801470003
801495565
801496180
801503183
801508259
801512866
801522459
801528810
801529927
801530499
801534053
801536617
801559682
801559751
801561069
801562525
801570406
801575001
801578017
801581089
801590597
801592633
801594130
801597303
801601898
801603082
801604954
801614707
801617315
801619210
801625277
801628480
801638853
801641823
801649542
801652532
801652567
801674189
801677846
801679457
801682923
801684201
801720372
801724907
801728533
801734144
801741738
801743788
801745619
801746384
801759953
801772576
801776312
801778259
801781994
801783636
801789282
801796569
