730005605
1600003205
1600003300
1600003692
1600007531
730073267
730074294
730098168
731038072
730109626
731063640
731069000
730140249
730147332
730149200
730184771
730186265
731130350
731172649
730259112
730262901
731192369
730267103
731205226
731210145
730291454
730292244
731235592
730317427
731266365
730406434
730428053
731576461
730442028
730446974
731586710
731595190
730499938
730503669
730503777
730504319
731645766
730504927
730515772
731663795
731680291
731681715
731683170
730525017
730535003
730567768
730588370
731784886
731786100
731816847
731818574
731832333
730640525
730650260
730654386
731861730
730678061
730680700
730688206
731892685
730700016
730701821
731913167
731913249
731934176
731939971
731993290
730707194
730710724
730733556
730734549
730739117
730763956
732060419
730775779
732090540
732111898
732123837
730836373
1600003300
1600003205
1600003692
1600007531
1600007664
1600009473
1600009165
1600012643
1600014062
1600015460
1600016022
1600018776
1600020404
1600020632
1600022543
1600023420
1600023490
1600023556
1600024428
1600026816
1600027611
1600027701
1600027792
1600030779
1600032680
1600033619
1600033566
1600033367
1600033933
1600035661
1600036690
1600036616
1600037496
1600038624
1600040159
1600040390
1600040652
1600041997
1600043422
1600044210
1600044554
1600045262
1600047335
1600048776
1600050034
1600050075
1600052194
1600054754
1600056310
1600057132
1600057132
1600059879
1600060160
1600063061
1600063102
1600063572
1600067372
1600068093
1600068161
1600069474
1600069597
1600073146
1600073926
1600077684
1600078885
1600079384
1600079698
1600081310
1600082113
1600084968
1600085578
1600085570
1600087410
1600087478
1600090023
1600093164
1600093469
1600094064
1600094348
1600095716
1600097811
1600097797
1600101930
1600101999
1600104313
1600104563
1600104891
1600107855
1600108297
1600109634
1600112681
1600112701
1600113982
1600115659
1600118369
1600120442
1600121628
1600126864
1600128521
1600129359
1600130797
1600130969
1600133605
1600134042
1600134684
1600134872
1600134896
1600135625
1600136510
1600137273
1600138992
1600143651
1600144035
1600145568
1600146920
1600147428
1600148451
1600150573
1600151370
1600161181
1600164519
1600166212
1600168810
1600169598
1600169933
1600170388
1600175396
1600176536
1600177349
1600179039
1600181155
1600181513
1600181831
1600188282
1600188777
1600189023
1600191553
1600191964
1600194213
1600195275
1600198617
1600198943
1600199948
1600200348
1600201751
1600202276
1600202443
1600204687
1600205546
1600207512
1600209440
1600210888
1600213409
1600215750
1600216906
1600217082
1600217779
1600219216
1600220212
1600222737
1600223095
1600224351
1600226902
1600228522
1600229474
1600230518
1600231055
1600233834
1600234279
1600234371
1600234606
1600235889
1600236359
1600236994
1600239211
1600239361
1600239442
1600239799
1600243440
1600244073
1600244512
1600246523
1600253592
1600253617
1600255823
1600256275
1600257875
1600258171
1600258595
1600259232
1600262462
1600263870
1600264074
1600265185
1600265155
1600265668
1600265829
1600268148
1600268402
1600268780
1600271338
1600273095
1600274264
1600274799
1600275137
1600275150
1600275257
1600275928
1600276115
1600276278
1600277181
1600277881
1600277959
1600280580
1600280822
1600282917
1600283064
1600284217
1600285287
1600286136
1600289399
1600290070
1600291935
1600295780
1600296365
1600298170
1600298608
1600300455
1600305306
1600307115
1600307552
1600308384
1600315733
1600318188
1600318924
1600318902
1600319002
1600319942
1600321834
1600322908
1600329251
1600329348
1600329875
1600330124
1600330757
1600331305
1600331511
1600333159
1600334068
1600335515
1600335984
1600336314
1600336643
1600337075
1600337061
1600337444
1600339877
1600340221
1600340907
1600345134
1600345846
1600347115
1600348147
1600348732
1600354506
1600354635
1600354926
1600356036
1600356887
1600357610
1600358884
1600360213
1600361538
1600366372
1600371541
1600372107
1600374793
1600375483
1600376314
1600376955
1600377518
1600378495
1600378627
1600380063
1600381299
1600383083
1600383417
1600384566
1600384594
1600384849
1600386210
1600386306
1600387233
1600389322
1600389607
1600390360
1600391048
1600391147
1600392472
1600393251
1600395266
1600397679
1600399874
1600403068
1600403294
1600404829
1600405352
1600405518
1600405600
1600407106
1600409196
1600410480
1600410475
1600411300
1600413317
1600415158
1600417253
1600418846
1600419065
1600419885
1600420146
1600421630
1600421653
1600421818
1600421921
1600423298
1600425292
1600425276
1600425566
1600425930
1600425875
1600426311
1600426775
1600427086
1600430507
1600431344
1600431673
1600433676
1600434424
1600438017
1600438588
1600438843
1600441150
1600442935
1600446584
1600447500
1600447960
1600448985
1600449977
1600451557
1600451797
1600452667
1600455393
1600455393
1600458116
1600458441
1600459003
1600460012
1600460275
1600461183
1600461195
1600461432
1600462996
1600465185
1600470107
1600471605
1600472893
1600473410
1600473866
1600475239
1600475410
1600475471
1600476642
1600480353
1600482069
1600482130
1600482210
1600483140
1600483862
1600484125
1600486977
1600487033
1600488039
1600488765
1600489203
1600492616
1600493561
1600495020
1600496926
1600499055
1600499204
1600499866
1600499772
1600500036
1600500605
1600500679
1600504959
1600504984
1600505131
1600505073
1600505435
1600505766
1600505826
1600506644
1600506787
1600508221
1600511441
1600515357
1600515358
1600516822
1600517072
1600517456
1600518318
1600518621
1600519416
1600522777
1600524046
1600525059
1600527012
1600529691
1600530271
1600532985
1600535440
1600535568
1600536769
1600537847
1600537848
1600538691
1600539111
1600541742
1600542381
1600543594
1600545027
1600546436
1600552611
1600552742
1600556440
1600556906
1600557413
1600558742
1600559969
1600560381
1600560703
1600560905
1600561536
1600564590
1600565446
1600567741
1600569038
1600570291
1600572334
1600572426
1600573844
1600573844
1600575883
1600577168
1600578328
1600579066
1600582743
1600585197
1600588536
1600589147
1600591277
1600591310
1600593266
1600595621
1600596021
1600596414
1600597261
1600598443
1600599860
1600599903
1600601713
1600602626
1600603018
1600603596
1600604644
1600605796
1600606277
1600606367
1600606498
1600607115
1600607179
1600607459
1600607780
1600608095
1600608358
1600609468
1600610165
1600611075
1600611372
1600612057
1600614491
1600616213
1600616330
1600622384
1600623341
1600623803
1600624204
1600626650
1600626885
1600629458
1600630188
1600630992
1600631545
1600632003
1600633112
1600633303
1600633953
1600634160
1600634375
1600636432
1600638974
1600641542
1600644250
1600644267
1600646520
1600647801
1600649595
1600652463
1600652782
1600653825
1600654290
1600656246
1600656625
1600658177
1600659124
1600659244
1600660406
1600660406
1600661767
1600662432
1600662761
1600665770
1600666239
1600667490
1600667732
1600667801
1600669905
1600671020
1600671320
1600674537
1600675685
1600676938
1600677237
1600687079
1600690567
1600694237
1600695919
1600697219
1600697626
1600697649
1600700466
1600700848
1600701719
1600702030
1600703123
1600703587
1600703647
1600704075
1600704182
1600705397
1600706809
1600707866
1600707956
1600710642
1600713834
1600714357
1600715026
1600715266
1600715410
1600716127
1600718234
1600718722
1600721078
1600721134
1600722774
1600723244
1600724445
1600724597
1600724862
1600724996
1600725769
1600728059
1600731628
1600733194
1600733750
1600735146
1600736219
1600736304
1600736418
1600737662
1600741052
1600741177
1600746262
1600746674
1600748185
1600749009
1600750597
1600752337
1600752595
1600755903
1600760414
1600761672
1600762860
1600763579
1600764249
1600764286
1600764649
1600764745
1600765378
1600765604
1600766842
1600767421
1600767807
1600767822
1600768385
1600768688
1600769687
1600769686
1600770227
1600771483
1600772607
1600773346
1600773493
1600774188
1600774202
1600774455
1600774466
1600776042
1600776378
1600776927
1600777359
1600778702
1600779421
1600780291
1600782478
1600787045
1600788050
1600790230
1600792276
1600792796
1600793062
1600794488
1600795020
1600796082
1600800407
1600800625
1600800661
1600800664
1600805405
1600808076
1600810541
1600813040
1600813089
1600813281
1600816940
1600818255
1600818770
1600818868
1600819640
1600819666
1600820460
1600822320
1600824037
1600825148
1600826642
1600828120
1600829366
1600836346
1600840018
1600841309
1600842783
1600844007
1600844545
1600845775
1600846104
1600846294
1600846391
1600848214
1600848348
1600851658
1600852233
1600852603
1600855241
1600856141
1600856978
1600857053
1600860503
1600860520
1600861784
1600864088
1600863617
1600867729
1600867980
1600869011
1600869521
1600869838
1600870200
1600872328
1600872435
1600872177
1600872534
1600875206
1600876107
1600876991
1600878237
1600878579
1600883137
1600883612
1600884422
1600884835
1600885985
1600886641
1600887169
1600888969
1600889854
1600889878
1600892845
1600893975
1600894380
1600895964
1600898410
1600898677
1600899255
1600900675
1600903557
1600904263
1600909518
1600910362
1600910835
1600913267
1600917552
1600917758
1600921336
1600921920
1600922234
1600925221
1600926989
1600927487
1600927899
1600928673
1600929746
1600931298
1600935105
1600938020
1600938175
1600940706
1600944864
1600945563
1600945766
1600946018
1600947226
1600948064
1600950632
1600952901
1600953215
1600953321
1600957975
1600959722
1600962883
1600965085
1600965796
1600966239
1600966265
1600967096
1600967588
1600971532
1600973084
1600974101
1600974267
1600974530
1600976008
1600976438
1600978348
1600983722
1600985375
1600986284
1600987025
1600988626
1600989489
1600991760
1600991878
1600992017
1600991519
1600993259
1600994217
1600996795
1600997229
1600997646
1600999011
1600998976
1600999641
1601000487
1601005484
1601007535
1601010488
1601010523
1601011737
1601011950
1601012486
1601014192
1601014206
1601015067
1601015443
1601018449
1601018909
1601020530
1601021005
1601021386
1601021787
1601022408
1601023078
1601023290
1601024943
1601026699
1601028163
1601028559
1601028685
1601029069
1601029401
1601031476
1601031727
1601031914
1601033393
1601034800
1601036854
1601037173
1601040676
1601044676
1601045909
1601049443
1601051401
1601052003
1601053657
1601054921
1601055024
1601056856
1601059567
1601060216
1601060169
1601064456
1601064738
1601065281
1601070322
1601071020
1601071178
1601072367
1601075221
1601076588
1601080841
1601081685
1601083440
1601084890
1601086249
1601087273
1601087869
1601088562
1601089616
1601089763
1601090192
1601091660
1601093126
1601093284
1601095102
1601096206
1601097132
1601098012
1601098354
1601098013
1601101018
1601103085
1601103647
1601104583
1601104972
1601104973
1601105561
1601106460
1601107374
1601108694
1601111338
1601112047
1601112500
1601112832
1601116264
1601117496
1601118343
1601118589
1601118910
1601119456
1601121133
1601122273
1601122733
1601123054
1601123217
1601123578
1601124789
1601126495
1601127239
1601127283
1601127419
1601129797
1601131443
1601132251
1601132355
1601133311
1601133639
1601135723
1601138825
1601141665
1601141916
1601141992
1601144593
1601145199
1601147569
1601148576
1601148703
1601148972
1601152033
1601152393
1601153099
1601153391
1601155213
1601156896
1601157025
1601157118
1601157426
1601158644
1601159421
1601161960
1601162071
1601162373
1601164097
1601164753
1601166872
1601168011
1601168768
1601169609
1601170197
1601170483
1601170869
1601174266
1601176069
1601177863
1601178328
1601180157
1601182009
1601182614
1601183692
1601185983
1601186032
1601189672
1601192151
1601192152
1601193331
1601193572
1601196136
1601197303
1601198900
1601199241
1601199658
1601201295
1601202550
1601202960
1601203283
1601204076
1601205863
1601208379
1601210280
1601211975
1601212102
1601214432
1601215591
1601215888
1601216936
1601217100
1601217964
1601218284
1601219368
1601222330
1601223860
1601224004
1601225519
1601225739
1601227868
1601228030
1601230499
1601230679
1601231002
1601231169
1601232213
1601232687
1601235361
1601236340
1601237048
1601237882
1601238908
1601239095
1601238986
1601240821
1601241762
1601244818
1601247716
1601248092
1601248965
1601252373
1601255033
1601257637
1601258632
1601259190
1601259466
1601269814
1601271882
1601272957
1601273860
1601274227
1601279148
1601279532
1601281254
1601282134
1601282597
1601282667
1601282753
1601285560
1601288781
1601289752
1601291339
1601291473
1601293717
1601294099
1601294645
1601294889
1601295460
1601299250
1601301469
1601303787
1601304990
1601305057
1601307895
1601310293
1601310956
1601312418
1601314400
1601316532
1601318333
1601320775
1601320763
1601320889
1601321719
1601323878
1601325407
1601327224
1601327657
1601329943
1601330503
1601331674
1601335910
1601336132
1601339257
1601341068
1601341161
1601343523
1601344043
1601344233
1601345195
1601346651
1601350149
1601350237
1601350376
1601351693
1601352966
1601353226
1601354559
1601356079
1601356505
1601357189
1601358681
1601360806
1601361460
1601363338
1601367295
1601367436
1601368648
1601368830
1601369109
1601369473
1601369621
1601371097
1601374484
1601376186
1601376189
1601377005
1601377588
1601378265
1601378652
1601384565
1601385055
1601385666
1601386057
1601386175
1601386861
1601389076
1601390480
1601391796
1601397617
1601401014
1601401491
1601402926
1601407022
1601408136
1601410530
1601412454
1601412657
1601413279
1601413572
1601416375
1601416612
1601416617
1601418224
1601419464
1601420738
1601420951
1601421348
1601421631
1601422416
1601424228
1601424639
1601426245
1601426751
1601427443
1601428584
1601432991
1601434500
1601434527
1601436276
1601436975
1601439718
1601440406
1601441319
1601442391
1601444097
1601444872
1601445948
1601447586
1601448383
1601449447
1601449845
1601450671
1601451358
1601451676
1601453087
1601454830
1601455230
1601456072
1601457998
1601460406
1601460821
1601461858
1601461952
1601465101
1601465778
1601467688
1601467808
1601468395
1601468993
1601470205
1601472715
1601474876
1601476244
1601477097
1601477133
1601478522
1601478614
1601479408
1601480535
1601481063
1601481966
1601484343
1601484848
1601488599
1601489491
1601490539
1601491608
1601493145
1601494866
1601494969
1601498042
1601498254
1601500632
1601500767
1601500950
1601502637
1601505381
1601506728
1601507394
1601508452
1601508750
1601509222
1601510026
1601511236
1601511485
1601513347
1601513599
1601514016
1601514377
1601514982
1601515486
1601517426
1601518381
1601518522
1601519047
1601520658
1601522328
1601529817
1601530223
1601531329
1601531607
1601532155
1601534195
1601534077
1601535837
1601537010
1601537695
1601539892
1601540509
1601541146
1601543571
1601544781
1601547240
1601547810
1601548293
1601551465
1601552224
1601552474
1601552696
1601552772
1601554038
1601555726
1601556293
1601556668
1601557372
1601557672
1601558100
1601563299
1601565120
1601567757
1601568587
1601568842
1601569720
1601571156
1601571577
1601572839
1601572837
1601576070
1601576568
1601579731
1601580853
1601583195
1601583996
1601584091
1601584696
1601584550
1601587582
1601588704
1601590277
1601590644
1601591066
1601594950
1601595580
1601596720
1601597408
1601600979
1601603672
1601604463
1601605374
1601606354
1601607425
1601608163
1601609640
1601610066
1601610209
1601610933
1601612226
1601613989
1601616517
1601616645
1601616781
1601617360
1601620910
1601621356
1601621647
1601623485
1601624903
1601625508
1601626156
1601626313
1601630399
1601629691
1601630790
1601631321
1601631546
1601631605
1601632825
1601635971
1601638305
1601639836
1601640708
1601644014
1601645812
1601647661
1601651847
1601654815
1601656527
1601658260
1601660017
1601660779
1601663615
1601663720
1601665191
1601666283
1601666420
1601667122
1601667501
1601669377
1601671460
1601673281
1601673238
1601674397
1601678910
1601679464
1601681908
1601682848
1601683060
1601686914
1601687021
1601687800
1601692099
1601693327
1601695459
1601696729
1601697317
1601697489
1601699996
1601702971
1601703158
1601703529
1601704544
1601704885
1601705058
1601706120
1601706376
1601706683
1601706778
1601706993
1601707140
1601707819
1601708658
1601709430
1601710772
1601714615
1601715575
1601718027
1601720801
1601721074
1601721328
1601726506
1601728356
1601743102
1600003692
1600022543
1600023556
1600027611
1600033367
1600033933
1600040652
1600050120
1600068093
1600077684
1600085570
1600087410
1600090023
1600093164
1600095716
1600101930
1603065746
1603066800
1603069287
1603071988
1603072162
1603072929
1603076924
1603077960
1603078537
1603080197
1603080547
1603081763
1603082085
1603082212
1603083919
1603084403
1603087121
1603087263
1603087446
1603089043
1603089555
1603089960
1603090259
1603090429
1603091677
1603093595
1603095148
1603097241
1603097521
1603099092
1603100973
1603102663
1603103042
1603108194
1603108580
1603108873
1603110351
1603111406
1603113980
1603116542
1603117207
1603118455
1603119004
1603120731
1603120956
1603123406
1603124059
1603124078
1603124572
1603124855
1603129489
1603131317
1603132992
1603134441
1603135788
1603136024
1603136719
1603136764
1603136858
1603137265
1603137795
1603138418
1603138443
1603139294
1603141219
1603145301
1603145904
1603149223
1603151696
1603151860
1603153016
1603155455
1603157169
1603160096
1603160778
1603164953
1603165224
1603165264
1603165755
1603166936
1603168810
1603169945
1603171031
1603171551
1603172353
1603172584
1603173724
1603174305
1603175589
1603176121
1603175874
1603177559
1603179764
1603181004
1603182753
1603187612
1603190502
1603192251
1603192397
1603194693
1603195345
1603196440
1603196912
1603197645
1603199037
1603199025
1603199216
1603201613
1603203402
1603206485
1603208380
1603208537
1603209605
1603213360
1603213488
1603214286
1603215009
1603215690
1603215958
1603217452
1603218470
1603219690
1603219894
1603223092
1603225435
1603225713
1603225768
1603225993
1603227087
1603228134
1603228552
1603229879
1603231432
1603231940
1603232920
1603235251
1603237650
1603238070
1603242682
1603242327
1603243568
1603244053
1603245379
1603245595
1603246308
1603248169
1603249969
1603250004
1603250094
1603252938
1603253355
1603254144
1603254738
1603255284
1603255872
1603256123
1603256185
1603257994
1603258720
1603260205
1603260440
1603260994
1603261343
1603262646
1603264279
1603266420
1603267260
1603267257
1603272952
1603273131
1603273378
1603274537
1603275702
1603276660
1603277238
1603277487
1603277675
1603284992
1603285837
1603286088
1603287215
1603289372
1603290094
1603291914
1603292043
1603295906
1603296260
1603297064
1603297942
1603298716
1603298989
1603301355
1603302397
1603302799
1603303707
1603304060
1603303014
1603305899
1603306288
1603307217
1603308404
1603308520
1603309370
1603310908
1603312901
1603313861
1603313743
1603319406
1603321218
1603321522
1603322037
1603322677
1603323520
1603325439
1603327058
1603327455
1603327812
1603327869
1603328691
1603330997
1603331917
1603332414
1603334124
1603335233
1603335478
1603335554
1603340002
1603340913
1603342052
1603342615
1603342820
1603342834
1603344008
1603347005
1603348448
1603349409
1603349478
1603353718
1603355696
1603357944
1603361972
1603362554
1603365516
1603365595
1603366440
1603366689
1603368343
1603369941
1603372397
1603373193
1603376906
1603376980
1603378670
1603379205
1603380885
1603382416
1603383577
1603385323
1603385471
1603387047
1603388172
1603388275
1603389590
1603392741
1603396090
1603397477
1603398734
1603399455
1603399465
1603406028
1603406088
1603408511
1603411157
1603412254
1603414147
1603417081
1603420604
1603424650
1603424769
1603425128
1603425461
1603426394
1603427708
1603428378
1603429593
1603429798
1603430146
1603430850
1603431227
1603432150
1603437921
1603438243
1603440463
1603441408
1603443038
1603442297
1603444880
1603445343
1603451402
1603454018
1603454992
1603456047
1603456631
1603456959
1603458080
1603458556
1603459740
1603459981
1603462463
1603463287
1603463820
1603464397
1603466572
1603467357
1603470387
1603471904
1603472851
1603473631
1603473825
1603473797
1603475147
1603475428
1603477123
1603477434
1603480269
1603482949
1603482971
1603487143
1603488125
1603487826
1603488706
1603490107
1603490215
1603491661
1603491864
1603491651
1603492714
1603493464
1603494019
1603497346
1603497435
1603498910
1603502993
1603506121
1603509490
1603510118
1603510636
1603513627
1603514304
1603516379
1603520137
1603520327
1603523259
1603523447
1603523517
1603523929
1603526263
1603529785
1603530701
1603533162
1603535346
1603537667
1603539269
1603540232
1603540249
1603541976
1603542681
1603544136
1603544665
1603547428
1603548541
1603548925
1603548970
1603549120
1603549185
1603549554
1603549547
1603551393
1603551960
1603553036
1603553399
1603555163
1603554828
1603556128
1603556891
1603557069
1603557693
1603561865
1603561963
1603565502
1603567515
1603567879
1603568379
1603568447
1603574032
1603574336
1603578117
1603579804
1603581023
1603584806
1603585064
1603585998
1603586723
1603586992
1603588309
1603588167
1603589854
1603590894
1603593732
1603594040
1603595086
1603595151
1603595904
1603596632
1603597937
1603598449
1603603936
1603604595
1603604654
1603605263
1603606136
1603607834
1603608277
1603608793
1603611356
1603612218
1603613558
1603614088
1603614852
1603615604
1603617844
1603617987
1603618121
1603617924
1603619342
1603619602
1603619968
1603620383
1603620818
1603621254
1603621410
1603625048
1603625789
1603628031
1603628520
1603628530
1603629636
1603630459
1603631309
1603636014
1603636015
1603637554
1603639870
1603641722
1603641877
1603642184
1603645838
1603651039
1603656086
1603656747
1603657009
1603657966
1603657491
1603658902
1603660586
1603661585
1603664362
1603664892
1603665236
1603665659
1603666874
1603669215
1603669549
1603669760
1603670646
1603670928
1603671254
1603672328
1603673189
1603673244
1603672904
1603673573
1603677131
1603677477
1603681810
1603682260
1603683913
1603684676
1603685178
1603685521
1603685782
1603686679
1603687046
1603687183
1603689762
1603690257
1603691370
1603692466
1603692590
1603693561
1603693728
1603694658
1603695120
1603696079
1603699365
1603700497
1603701976
1603703615
1603704268
1603705999
1603706904
1603707147
1603708503
1603710279
1603711976
1603712508
1603712487
1603713835
1603715166
1603719550
1603720466
1603721641
1603721972
1603722638
1603722630
1603724319
1603725069
1603725121
1603725742
1603725784
1603727501
1603729072
1603730278
1603730933
1603731754
1603732068
1603732968
1603733566
1603736304
1603739781
1603741012
1603741400
1603743107
1603744490
1603746466
1603750333
1603752422
1603752454
1603753222
1603754219
1603754594
1603754708
1603755187
1603755246
1603756834
1603758302
1603759224
1603762090
1603762654
1603763597
1603764787
1603764972
1603765969
1603766310
1603767481
1603768066
1603768746
1603770888
1603772801
1603773827
1603774599
1603775760
1603776186
1603779909
1603782332
1603784080
1603784331
1603785326
1603785959
1603787586
1603788654
1603789825
1603789910
1603791801
1603791860
1603794232
1603795261
1603798946
1603801023
1603803502
1603806652
1603826443
1603834943
1603835255
1603847569
1603874223
1603880073
1603886627
1603889346
1603890007
1603890903
1603895630
1603897231
1603897230
1603900061
1603902914
1603903954
1603904118
1603907043
1603907578
1603910966
1603912204
1603912430
1603912596
1603913521
1603915818
1603917010
1603917114
1603920877
1603924732
1603925664
1603926078
1603927205
1603927688
1603930334
1603931535
1603935987
1603938164
1603938413
1603939741
1603940298
1603942094
1603942898
1603944373
1603945978
1603946901
1603947400
1603949154
1603949835
1603947532
1603950947
1603951534
1603954038
1603955856
1603956394
1603958945
1603959880
1603960544
1603961573
1603962951
1603965538
1603966305
1603971449
1603971397
1603973073
1603975080
1603976389
1603979356
1603979641
1603979955
1603981276
1603981694
1603982255
1603985205
1603985244
1603985737
1603989255
1603990280
1603996058
1604000322
1604005501
1604006795
1604007733
1604008115
1604007891
1604009576
1604010576
1604010898
1604011282
1604012121
1604013740
1604016045
1604016437
1604016987
1604016501
1604019692
1604020574
1604020543
1604026064
1604026163
1604027844
1604028822
1604029519
1604034429
1604036068
1604036380
1604036728
1604037853
1604038814
1604040029
1604041471
1604041703
1604042922
1604044605
1604045252
1604045442
1604046509
1604048192
1604053893
1604054726
1604056065
1604057299
1604057330
1604057557
1604058590
1604060124
1604060704
1604060786
1604060947
1604061585
1604064387
1604064914
1604065017
1604065402
1604065397
1604067309
1604067583
1604067664
1604068396
1604070648
1604071146
1604073258
1604073393
1604073988
1604077995
1604080690
1604082409
1604082271
1604084475
1604088259
1604088376
1604090048
1604090186
1604092938
1604096208
1604098170
1604098282
1604098691
1604098758
1604100104
1604100118
1604100429
1604101152
1604102631
1604102867
1604103404
1604103748
1604105760
1604105795
1604105920
1604107137
1604109707
1604110235
1604110573
1604111122
1604112580
1604113385
1604113867
1604114479
1604116119
1604116897
1604117204
1604117601
1604118574
1604119805
1604122745
1604124267
1604124167
1604123704
1604125939
1604129342
1604131233
1604133995
1604134056
1604136382
1604139524
1604139575
1604140384
1604141834
1604142116
1604144396
1604144663
1604146772
1604148004
1604148627
1604149025
1604150706
1604150897
1604150553
1604154546
1604154905
1604157830
1604157827
1604158093
1604158311
1604162292
1604162499
1604166910
1604168739
1604173360
1604173554
1604174537
1604177134
1604177400
1604177756
1604179877
1604181501
1604182435
1604187451
1604187489
1604188557
1604189453
1604189870
1604191865
1604193201
1604195243
1604196415
1604196743
1604196965
1604198511
1604199439
1604200097
1604201967
1604202179
1604202230
1604203559
1604206829
1604206942
1604207326
1604208713
1604208609
1604210535
1604210996
1604212173
1604214730
1604215776
1604216304
1604215289
1604218456
1604218773
1604218932
1604219652
1604222516
1604222907
1604223055
1604225590
1604225795
1604228529
1604229604
1604229963
1604232955
1604233186
1604236352
1604236804
1604237374
1604240068
1604240307
1604239707
1604242205
1604242970
1604243232
1604243765
1604246395
1604246595
1604249197
1604250529
1604250887
1604251052
1604251724
1604254014
1604255572
1604255638
1604255971
1604258383
1604258920
1604260818
1604261472
1604263046
1604264327
1604264452
1604265046
1604266416
1604266328
1604267608
1604268378
1604268545
1604269450
1604270033
1604272648
1604276185
1604276544
1604276809
1604278365
1604278774
1604280874
1604280960
1604282940
1604282944
1604284085
1604285158
1604286151
1604287709
1604289605
1604291101
1604292032
1604292109
1604292640
1604293735
1604295654
1604298746
1604299333
1604299740
1604301815
1604304870
1604309250
1604313556
1604314058
1604314371
1604317987
1604319105
1604321332
1604321762
1604326561
1604327961
1604328653
1604331290
1604331809
1604332654
1604333069
1604333852
1604334082
1604334367
1604336115
1604337359
1604337829
1604337733
1604341317
1604343537
1604344203
1604345512
1604346962
1604346912
1604347107
1604347834
1604347993
1604348546
1604348668
1604348708
1604350177
1604350258
1604351073
1604353244
1604358322
1604358962
1604363754
1604363742
1604365310
1604366427
1604366794
1604367224
1604367337
1604367611
1604368901
1604370251
1604370465
1604371009
1604371090
1604374277
1604375744
1604377844
1604378506
1604378530
1604378983
1604380384
1604380649
1604389239
1604389606
1604392847
1604414358
1604425535
1604429637
1604443775
1604451057
1604452316
1604454007
1604460734
1604466163
1604466600
1604467221
1604470511
1604471932
1604472698
1604473508
1604475097
1604479333
1604481386
1604482086
1604482174
1604483640
1604485318
1604485452
1604486947
1604489627
1604491150
1604492104
1604492936
1604494852
1604495313
1604497004
1604501516
1604503431
1604504088
1604504447
1604506272
1604514519
1604515921
1604517625
1604518697
1604519001
1604522523
1604524437
1604525666
1604526497
1604527036
1604528926
1604531828
1604531840
1604531886
1604533054
1604534239
1604536392
1604539204
1604540507
1604547755
1604550198
1604554259
1604554972
1604556907
1604558200
1604558497
1604559291
1604561157
1604564557
1604569223
1604570044
1604570651
1604573256
1604575555
1604575785
1604578445
1604581412
1604581505
1604582286
1604589977
1604591383
1604592589
1604594337
1604595349
1604596092
1604596732
1604600714
1604602046
1604603396
1604605103
1604605933
1604607389
1604607827
1604608244
1604610561
1604613955
1604614721
1604615687
1604616649
1604617897
1604618441
1604619744
1604620011
1604622384
1604623120
1604624388
1604624620
1604626623
1604627290
1604632339
1604633373
1604633792
1604633999
1604637680
1604641118
1604644082
1604646850
1604647991
1604648817
1604648697
1604652369
1604653434
1604655232
1604657924
1604658446
1604662567
1604663479
1604664848
1604665166
1604665575
1604668239
1604668388
1604669112
1604668945
1604669456
1604671473
1604671990
1604676372
1604676450
1604677065
1604676822
1604679519
1604679954
1604680414
1604683054
1604683399
1604684065
1604685975
1604687068
1604688975
1604691554
1604693434
1604694272
1604695535
1604696636
1604697514
1604697730
1604697867
1604698539
1604698629
1604699326
1604699553
1604700111
1604701901
1604702647
1604704959
1604705859
1604707772
1604710069
1604710228
1604712461
1604715791
1604717229
1604720230
1604720897
1604721414
1604726799
1604726918
1604727724
1604729629
1604730843
1604730783
1604734771
1604735014
1604735528
1604736680
1604737734
1604739590
1604740471
1604741884
1604744113
1604744735
1604744728
1604746512
1604747385
1604747531
1604747781
1604749399
1604751267
1604753446
1604754555
1604755287
1604757788
1604758672
1604760952
1604762114
1604762572
1604763355
1604763372
1604767206
1604768737
1604769559
1604771414
1604773536
1604774019
1604774334
1604774959
1604776937
1604777841
1604779346
1604779955
1604780298
1604780737
1604781164
1604781737
1604784057
1604790924
1604792180
1604792502
1604792767
1604793481
1604794356
1604795316
1604796418
1604797234
1604796493
1604797847
1604799289
1604799556
1604799967
1604802308
1604803056
1604803519
1604803468
1604804740
1604806215
1604806345
1604806560
1604806565
1604807034
1604807435
1604809180
1604809390
1604810481
1604812777
1604813604
1604813641
1604815163
1604818456
1604819292
1604821634
1604823005
1604823914
1604824198
1604825179
1604828246
1604828520
1604829058
1604832030
1604836824
1604838223
1604844311
1604844517
1604844799
1604845231
1604846246
1604851384
1604852144
1604854267
1604854303
1604859167
1604859651
1604859574
1604862557
1604865998
1604868968
1604868638
1604869153
1604869573
1604870556
1604871681
1604874844
1604875367
1604876920
1604877667
1604878620
1604879999
1604880606
1604882096
1604882869
1604885597
1604888854
1604889229
1604889723
1604890202
1604891418
1604891526
1604892464
1604892745
1604893672
1604897147
1604898637
1604900042
1604900115
1604902566
1604903937
1604904603
1604907447
1604907736
1604907634
1604908859
1604910208
1604910613
1604917066
1604918043
1604919857
1604921306
1604921443
1604921839
1604922137
1604922641
1604924407
1604924510
1604925469
1604925707
1604926081
1604926713
1604926765
1604928099
1604931635
1604931824
1604934145
1604934273
1604935944
1604936089
1604937216
1604937313
1604937666
1604941627
1604943473
1604943430
1604945633
1604947914
1604949676
1604950306
1604950313
1604951172
1604953042
1604954588
1604954690
1604955090
1604955253
1604957466
1604958330
1604958960
1604959860
1604960223
1604962390
1604964478
1604968082
1604968171
1604970345
1604971306
1604972618
1604973505
1604974184
1604974620
1604974734
1604975396
1604975366
1604976531
1604976647
1604976805
1604978012
1604979360
1604980032
1604981441
1604981583
1604982219
1604982388
1604984570
1604985373
1604986654
1604987109
1604987049
1604989239
1604991823
1604993084
1604995288
1604997390
1604997851
1604999265
1605003978
1605003929
1605005107
1605005932
1605007787
1605008535
1605009978
1605017299
1605016891
1605020552
1605021290
1605022187
1605022695
1605022803
1605026153
1605026867
1605030809
1605031393
1605031589
1605033636
1605034819
1605035899
1605036133
1605037324
1605039437
1605039601
1605039650
1605039768
1605040559
1605040966
1605042235
1605044277
1605046095
1605046444
1605046714
1605048555
1605048864
1605049250
1605053780
1605054537
1605055200
1605055890
1605059961
1605060216
1605060412
1605060190
1605062754
1605064283
1605064874
1605065374
1605065492
1605066459
1605069369
1605070134
1605072201
1605074735
1605075881
1605079047
1605079226
1605082950
1605083809
1605085652
1605089988
1605090588
1605094978
1605095257
1605098869
1605099749
1605100246
1605102187
1605102947
1605104886
1605105367
1605106299
1605106846
1605110067
1605110022
1605110582
1605111658
1605111753
1605112219
1605113403
1605113655
1605115826
1605118110
1605124162
1605127618
1605127863
1605129744
1605129846
1605130615
1605131676
1605132134
1605135091
1605140118
1605143219
1605144515
1605145214
1605145383
1605146157
1605146766
1605148061
1605149862
1605150602
1605150789
1605150818
1605150602
1605150789
1605150818
1605152588
1605153368
1605153622
1605154294
1605156696
1605157193
1605158408
1605158405
1605161750
1605164463
1605168302
1605168810
1605171750
1605172665
1605174552
1605175136
1605175858
1605182921
1605183226
1605184018
1605184190
1605184637
1605187811
1605192264
1605192674
1605193182
1605194303
1605195587
1605195493
1605196654
1605199537
1605204208
1605209392
1605213029
1605213760
1605216038
1605216535
1605221690
1605222675
1605246019
1605307313
1605309110
1605309565
1605309019
1605310050
1605311365
1605311686
1605311907
1605312331
1605313831
1605315680
1605316905
1605316670
1605317162
1605317830
1605318769
1605319840
1605320653
1605321848
1605322083
1605324345
1605325544
1605327600
1605328148
1605329804
1605334134
1605334350
1605338275
1605339961
1605339993
1605342381
1605345811
1605347124
1605347583
1605349785
1605356707
1605361461
1605364486
1605367557
1605370162
1605370400
1605371448
1605401034
1605446687
1605452698
1605474973
1605476124
1605497858
1605522818
1605533525
1605554096
1605559853
1605561515
1605585382
1605634323
1605641702
1605646577
1605658837
1605676099
1605694546
1605725648
1605749953
1605757654
1605758261
1605766794
1605779406
1605781426
1605786840
1605814273
1605816563
1605843357
1605848043
1605875835
1605877202
1605889839
1605891791
1605894494
1605911033
1605925724
1605929755
1605931406
1605936968
1605943694
1605945529
1605967044
1605979759
1605981787
1605987997
1605990540
1605996884
1605997000
1606012436
1606013209
1606031237
1606034895
1606043805
1606045344
1606051776
1606057760
1606058480
1606070966
1606084150
1606089766
1606097936
1606100790
1606115091
1606125267
1606125636
1606130655
1606135524
1606182877
1606193715
1606201539
1606212132
1606237425
1606246897
1606294710
1606309359
1606318839
1606336269
1606340621
1606352409
1606360780
1606365838
1606368342
1606371021
1606382124
1606401665
1606412964
1606413356
1606414680
1606419036
1606420838
1606441916
1606466896
1606473909
1606504916
1606510066
1606521454
1606538451
1606558211
1606571992
1606585627
1606629279
1606641854
1606645195
1606646247
1606662419
1606665188
1606671193
1606684146
1606707965
1606710077
1606711171
1606720420
1606724348
1606725136
1606733350
1606739061
1606751850
1606764299
1606792182
1606800662
1606807079
1606821803
1606822869
1606833888
1606848723
1606866403
1606869679
1606872851
1606879113
1606892676
1606911604
1606913396
1606915425
1606925136
1606929637
1606931868
1606945542
1606950652
1606962331
1606965591
1606995487
1607010779
1607012621
1607025080
1607034267
1607040233
1607052955
1607058521
1607064435
1607072754
1607121003
1607122682
1607122776
1607124781
1607142639
1607146124
1607150707
1607153203
1607172347
1607201381
1607203721
1607208152
1607208993
1607217195
1607223008
1607228943
1607229790
1607245686
1607247770
1607251026
1607268941
1607272404
1607312039
1607319722
1607330802
1607331210
1607332187
1607360621
1607383065
1607400703
1607404241
1607416009
1607429697
1607436907
1607451011
1607462089
1607462486
1607482967
1607491935
1607498672
1607503336
1607514793
1607539631
1607541383
1607545267
1607549991
1607554755
1607560849
1607578830
1607588734
1607602119
1607656964
1607690941
1607720310
1607724546
1607739702
1607742342
1607744677
1607746383
1607750710
1607765628
1607766731
1607770085
1607775356
1607776564
1607780090
1607785278
1607805204
1607809709
1607812642
1607813611
1607825994
1607833673
1607843762
1607858843
1607861357
1607862229
1607871918
1607902769
1607940083
1607945944
1607950561
1607954379
1607958572
1607963137
1607964260
1607971568
1607989827
1607992075
1607995802
1607999220
1607999963
1608002029
1608014289
1608015863
1608023556
1608028230
1608029493
1608062766
1608071046
1608088426
1608090604
1608101510
1608101803
1608108860
1608117557
1608124654
1608128708
1608146697
1608151013
1608152701
1608164199
1608175622
1608176042
1608179908
1608180279
1608182034
1608188832
1608208350
1608229755
1608231513
1608232323
1608235186
1608236326
1608242326
1608252343
1608257220
1608265311
1608295942
1608302852
1608304419
1608312657
1608329019
1608356995
1608369662
1608371482
1608375448
1608395240
1608421974
1608423246
1608432838
1608435870
1608451001
1608452606
1608456920
1608463984
1608541868
1608546772
1608565407
1608582880
1608584340
1608585556
1608595206
1608604457
1608619258
1608630130
1608653531
1608656204
1608699657
1608704673
1608704783
1608710705
1608758691
1608775210
1608788574
1608788675
1608793927
1608797949
1608808950
1608841144
1608844991
1608869160
1608887553
1608892410
1608901693
1608911096
1608915320
1608930869
1608944302
1608960317
1608971298
1608985501
1608985763
1608986581
1608987924
1608988104
1608990038
1608997545
1609024594
1609040619
1609041281
1609042291
1609044938
1609088956
1609090783
1609120248
1609121830
1609127549
1609146216
1609148345
1609151013
1609172637
1609176088
1609201929
1609208571
1609213368
1609224135
1609228114
1609243982
1609243820
1609250180
1609270327
1609273494
1609284336
1609294686
1609295318
1609306457
1609308248
1609308478
1609324320
1609349133
1609354437
1609360483
1609365707
1609368465
1609369457
1609372514
1609376936
1609378573
1609387889
1609394321
1609430982
1609440940
1609444712
1609460740
1609463647
1609463985
1609477023
1609508715
1609514381
1609527316
1609530607
1609531818
1609536118
1609548417
1609556547
1609562386
1609566163
1609566076
1609567525
1609581177
1609585472
1609590972
1609628967
1609634458
1609636336
1609637965
1609646653
1609649062
1609658237
1609659863
1609666310
1609685504
1609688804
1609699140
1609716099
1609734207
1609736956
1609759862
1609781537
1609799482
1609805267
1609806406
1609809440
1609819242
1609847156
1609856952
1609860828
1609865404
1609866469
1609872140
1609893733
1609899637
1609912396
1609936595
1609971929
1609978382
1609984511
1609989150
1609996089
