840000187
840001811
840002259
840001967
840002476
840002535
840003292
840003256
840004497
840004650
840006560
840006597
840006821
840006971
840007630
840007950
840008292
840008421
840008335
840009211
840009228
840008799
840009479
840009619
840010659
840010518
840011016
840011703
840011748
840014020
840014137
840014238
840015199
840015466
840016204
840015975
840016809
840016797
840018086
840018350
840018613
840018536
840020673
840020604
840021025
840021523
840021961
840022649
840023267
840023373
840025186
840026277
840026220
840026299
840027164
840027586
840029182
840029422
840030034
840030280
840030466
840030543
840031731
840032393
840034215
840035051
840035430
840035210
840035521
840036454
840037013
840037340
840039099
840038770
840039233
840041031
840042112
840042437
840042453
840043398
840043562
840044389
840044739
840045833
840045993
840046767
840047911
840048966
840050023
840050387
840050245
840050971
840051740
840051982
840051898
840052839
840052925
840052752
840053839
840053510
840054642
840054893
840055522
840056848
840057048
840058703
840059832
840058772
840060391
840061325
840060844
840061359
840061629
840062105
840062134
840062641
840062892
840062941
840063871
840064061
840063897
840064270
840063036
840065886
840066381
840066480
840066572
840066686
840067440
840067803
840068154
840068482
840069856
840069956
840071415
840071715
840073454
840074023
840074148
840074772
840075072
840076205
840076494
840076834
840077567
840077572
840078505
840078818
840079113
840079281
840080238
840080446
840080806
840080924
840082025
840082260
840082347
840083335
840083986
840084697
840084947
840085137
840085574
840087001
840087632
840088473
840088921
840089751
840090020
840090279
840093044
840093997
840094899
840096615
840097192
840097580
840097956
840098457
840099336
840100053
840100695
840100853
840101376
840101890
840101972
840105365
840105669
840105756
840105875
840108874
840109664
840110352
840111222
840111322
840112696
840113040
840113798
840114115
840114425
840114687
840117197
840117488
840117047
840117760
840117848
840118030
840117965
840118461
840118688
840118897
840120117
840119864
840122279
840123059
840124053
840124161
840124622
840124629
840126149
840126575
840126574
840126657
840127037
840126618
840127499
840127562
840127581
840127781
840128853
840129240
840129233
840129987
840130297
840131064
840131249
840132029
840131502
840133010
840133227
840133591
840133980
840133517
840134349
840134438
840135196
840135198
840136185
840136510
840137530
840137660
840138803
840139285
840139641
840140361
840140757
840141108
840141456
840141470
840141124
840141411
840141690
840141969
840142002
840141896
840143587
840144286
840144536
840144586
840145251
840145409
840147533
840147985
840148640
840149725
840149868
840150189
840150942
840151216
840152807
840153968
840154817
840155400
840156475
840156767
840156836
840157110
840157572
840158345
840158703
840160419
840160243
840160427
840161696
840161905
840162060
840161575
840162657
840164302
840165999
840166893
840166983
840168446
840169636
840170288
840170443
840170866
840170957
840171429
840171678
840171825
840173592
840173877
840173979
840174026
840174174
840174088
840174288
840174301
840174525
840174859
840175343
840175467
840179074
840179271
840179160
840179952
840180253
840180240
840182271
840182518
840183013
840182939
840183745
840184758
840185087
840185598
840185471
840186185
840186827
840186925
840187486
840187317
840187857
840188027
840189525
840189948
840190379
840190899
840190996
840191207
840191393
840191859
840192278
840192736
840193450
840193694
840195232
840197827
840198332
840198433
840199889
840200007
840200291
840200682
840200965
840201439
840201803
840201674
840203450
840204663
840205304
840205324
840206597
840206385
840208776
840210832
840210903
840211121
840211501
840211637
840212658
840213056
840214105
840214177
840214237
840214673
840214753
840215001
840215352
840215493
840216257
840216558
840216679
840216506
840217100
840218957
840219206
840219413
840220105
840220271
840220518
840220663
840221106
840222102
840222586
840222724
840223671
840223868
840224602
840225852
840226147
840226262
840226408
840227018
840227541
840227865
840228423
840228397
840230898
840231240
840232426
840232608
840232538
840232771
840232940
840233226
840233310
840234549
840234833
840234874
840235933
840236394
840236648
840236707
840236718
840237292
840238620
840239132
840239404
840240142
840240735
840240857
840241117
840242239
840242232
840243145
840243360
840243484
840245633
840246334
840246593
840246709
840246903
840247069
840247698
840247930
840249056
840249199
840249230
840249269
840250370
840253168
840253716
840254064
840254505
840256037
840256104
840257432
840257252
840258445
840258659
840258653
840259073
840261180
840261126
840262078
840262686
840263384
840263655
840264894
840265299
840265373
840266774
840266590
840267261
840267293
840267647
840268800
840268749
840269624
840270003
840270602
840270441
840270596
840271192
840271904
840274021
840276288
840278198
840279074
840280740
840280814
840281581
840283516
840283772
840284483
840285825
840286001
840285848
840286750
840287485
840287699
840289638
840290353
840290593
840291200
840291581
840292295
840292795
840294673
840294813
840295123
840295111
840295538
840296374
840296585
840296901
840297453
840298091
840300572
840300638
840301498
840301642
840302224
840303246
840303747
840304282
840304585
840304714
840305441
840305465
840305114
840306132
840306793
840306718
840307226
840308574
840308980
840309410
840309592
840310084
840310235
840310577
840310918
840311359
840311547
840311570
840311658
840312787
840313769
840313807
840313924
840315495
840316209
840317454
840319230
840319850
840320128
840320214
840320885
840322306
840322591
840322564
840323105
840323820
840324026
840324854
840324954
840325465
840326749
840326707
840327448
840327144
840327628
840327811
840328382
840328740
840330914
840330946
840332191
840332815
840333434
840333628
840333855
840334320
840334795
840334872
840334917
840334960
840334811
840336020
840337846
840337867
840338380
840339106
840339245
840340224
840340518
840340763
840340514
840341077
840342513
840342462
840343668
840345157
840346406
840346497
840347856
840347866
840347970
840348255
840349881
840349973
840350261
840350056
840350061
840351255
840351883
840352785
840352972
840353122
840353799
840353877
840353993
840354740
840356506
840357132
840357631
840357755
840358152
840361610
840362040
840362384
840364934
840364956
840365678
840365997
840366151
840366939
840367029
840367495
840368236
840368317
840368322
840368499
840368847
840368583
840369867
840370003
840370044
840371112
840371135
840372919
840372980
840373172
840374379
840376530
840376701
840376472
840378076
840378136
840377900
840378300
840378408
840378747
840379488
840378449
840382376
840382547
840383054
840383324
840383506
840384439
840384466
840384654
840385231
840386380
840387030
840387846
840387977
840388129
840388414
840388959
840389074
840389331
840389623
840390836
840390778
840391029
840391094
840390843
840391981
840392548
840392177
840393006
840394672
840395216
840395624
840395695
840395917
840395940
840396352
840396472
840396457
840397435
840397099
840397773
840397731
840399278
840399394
840399963
840400401
840399978
840402729
840404475
840404685
840404933
840404992
840404581
840405683
840405848
840405931
840406132
840406896
840407211
840407444
840407502
840408700
840408685
840409371
840409855
840410289
840410751
840410789
840410974
840410593
840411187
840412301
840412515
840413047
840413137
840413798
840413791
840413973
840414144
840415178
840415504
840415797
840416357
840418416
840419934
840420316
840421422
840422939
840423539
840424891
840425151
840425269
840425548
840426159
840426562
840426976
840427286
840428739
840428666
840428543
840429695
840430621
840430640
840431274
840430823
840431208
840432435
840433160
840433455
840434671
840434730
840435087
840436078
840436214
840437434
840437424
840438017
840438103
840438679
840438632
840439166
840438855
840439551
840440127
840440517
840440896
840441946
840442078
840442542
840443826
840445494
840445988
840446033
840446353
840446379
840446649
840446681
840447082
840449188
840449791
840450073
840451704
840452248
840452627
840452672
840453409
840454639
840455080
840455442
840455468
840456089
840455784
840457336
840457527
840457553
840459095
840459054
840459571
840459832
840459588
840460601
840461640
840461887
840461955
840463827
840463993
840464118
840464548
840464668
840465076
840464735
840465491
840465164
840465746
840465663
840465933
840466599
840466582
840466822
840467426
840469285
840470193
840470415
840470071
840471327
840472166
840472456
840472515
840472617
840472965
840473120
840473395
840473486
840474199
840475215
840475656
840477047
840477170
840477226
840477550
840478090
840479783
840480028
840480501
840481647
840482129
840482793
840483147
840483200
840483526
840483504
840483543
840484075
840484237
840485314
840485736
