1600000580
1600000580
1600008531
1600020975
1600028144
1600034065
1600048015
1600048972
1600057383
1600093916
1600140408
1600153849
1600171267
1600175674
1600188344
1600191051
1600219859
1600220450
1600228479
1600241479
1600252636
1600253484
1600270575
1600282042
1600306386
1600333068
1600338598
1600360864
1600367734
1600375842
1600391287
1600406382
1600412602
1600416816
1600437432
1600447091
1600462115
1600474767
1600521642
1600524764
1600526685
1600560774
1600571414
1600571766
1600574682
1600591467
1600604982
1600606090
1600615937
1600616216
1600636164
1600639072
1600648681
1600653485
1600664316
1600688931
1600693760
1600706647
1600726054
1600761745
1600774167
1600775525
1600782813
1600819561
1600842314
1600867357
1600869653
1600929946
1600930519
1600944323
1600947257
1600961516
1600966969
1600987816
1601023885
1601037141
1601054582
1601070640
1601088640
1601093979
1601099929
1601129484
1601141821
1601146365
1601146397
1601159761
1601170786
1601209077
1601253018
1601255302
1601289842
1601295426
1601295619
1601300430
1601309748
1601334028
1601346453
1601350108
1601382819
1601388482
1601391774
1601393033
1601393507
1601395284
1601399818
1601404364
1601407356
1601430984
1601439781
1601453434
1601474764
1601533991
1601534670
1601585329
1601601265
1601636935
1601639745
1601641906
1601665327
1601685423
1601686846
1601706826
1601712209
1603071035
1603099559
1603113153
1603114487
1603115882
1603122323
1603130597
1603193550
1603200272
1603200355
1603206786
1603210069
1603233521
1603248412
1603258229
1603268073
1603284387
1603292861
1603297091
1603330605
1603334321
1603357758
1603360832
1603366778
1603390877
1603431495
1603431615
1603447831
1603458980
1603461251
1603481598
1603487853
1603490850
1603498496
1603505922
1603519158
1603521316
1603551446
1603555592
1603581118
1603592886
1603613318
1603665895
1603683412
1603691761
1603704042
1603705842
1603714408
1603722015
1603742723
1603788102
1603790356
1603796387
1603890114
1603895546
1603932647
1603937931
1603951955
1603978042
1604001474
1604022149
1604048816
1604076956
1604093535
1604112974
1604116380
1604180540
1604191878
1604194652
1604195504
1604198086
1604203680
1604213315
1604242371
1604253537
1604274102
1604279957
1604281980
1604312967
1604337396
1604351079
1604374454
1604469436
1604488586
1604502558
1604512295
1604521564
1604523626
1604529372
1604556641
1604579813
1604596484
1604604431
1604616199
1604645955
1604651345
1604657109
1604676125
1604711287
1604739207
1604768517
1604808001
1604811424
1604852012
1604872717
1604882761
1604918191
1604935069
1604941133
1604967522
1604974098
1604974919
1605006720
1605025578
1605026618
1605029682
1605052595
1605065464
1605070212
1605072174
1605075096
1605080520
1605087861
1605123002
1605143703
1605157623
1605179276
1605218059
1605220469
1605306381
1605312027
1605316882
1605355559
1605359515
1605365607
1605615205
1605793828
1605870371
1606067564
1606281860
1607261016
1608412406
1608823516
1609103898
1609578268
