1600007208
730001080
730001297
730034124
730036797
730038213
730039359
730040710
730041191
730051925
730055264
730062838
730062932
730063334
730070380
730070901
730070989
730075714
730076565
730077258
730080575
730087719
731024653
730089791
730094343
730094993
730095919
730096755
730097435
730097698
731038168
731043269
730103912
730106574
731047165
730110132
730111740
730117591
730119623
730121603
730125996
731065368
730128797
730129676
731068364
730132557
731071858
730135350
730137412
730137602
730140717
731079301
730146281
731088005
730151828
731092311
730159900
730160709
730160898
731097141
731097319
731098237
731103015
730168155
730173129
731109521
730175633
731114704
731116551
731122723
730188392
731122767
730189107
730189863
730190057
731126086
730191989
730192867
731128521
730200208
731136006
730204351
730206189
731141114
731141404
730210403
730213464
730214351
730215547
731149704
730218447
731151293
730220820
730221290
730221895
730223409
731156357
731162973
730232362
731164017
730232867
731166133
730235510
730239918
731171936
731176516
731176853
730247103
730250340
731183647
730258170
731191620
730262945
731192836
731193048
730267730
731198986
731199545
730279986
730282463
730282446
730282420
730283865
731212892
731214073
731219616
730293406
731221714
731225068
731226179
730302355
731232335
730306159
730306962
731233912
730309021
731241133
731241628
731245936
731249944
730325256
731252450
731253338
731254656
731254768
730330589
731256610
731257470
731257570
731257692
731262142
730339462
730345092
730347836
731536992
730400295
731542670
731543628
730410675
730411226
731560062
731563158
730426204
731565597
730426647
731570225
731572372
731572553
730434426
731586071
731585336
730447083
731589991
730451917
730455492
731597457
730462613
730466196
730468312
731610685
730470388
731611519
731611625
731612632
730472293
730471824
730475790
730475816
730476527
731616675
731620067
730485272
730484658
731628550
730490128
731631579
730492380
731635209
731638751
730499766
730501091
730503639
730508319
731652825
731653332
730514020
731657609
730515676
731665460
731667637
731669256
731673159
731677241
731687504
731690287
731696822
731698389
731698183
731700113
731700855
731703695
731705916
731707623
731708380
731716636
730527541
731722383
730533920
730536252
731727598
730537847
731730772
731732349
731734090
730542258
731734658
730543755
730549573
730552749
731745456
730555240
731747457
730555834
731751028
731753720
731755329
730566274
731761173
730569641
730570687
731766456
731766694
730575690
730578443
730580927
731774698
731774913
731778313
730587496
730587877
731785831
730593171
730593710
731790509
731792804
731793660
731794972
731796173
730602831
730604116
731798874
730606312
730608380
731803535
730611419
730613091
730614280
730616076
730616565
731812441
730618376
730620291
730621037
730621346
731817260
730628931
730628941
731829947
731830514
731832431
730637292
731833065
730643929
731839862
730652385
731849345
730653917
730654434
731857471
730663054
731859587
730664222
731861112
731870718
730676966
730680863
731877386
730681640
731879120
730685288
730685777
730686615
730692511
731891078
731894813
730700734
731898726
731898730
730702456
731900944
731902768
731903827
731903966
731909153
731909207
731912500
731925804
731930506
731931685
731933260
731939617
731948636
731950604
731955014
731958418
731979363
731979956
731980765
731981793
731983041
731985259
731990112
731993568
731995638
731999138
730706393
732005050
732006800
732007113
732007921
732020461
730724722
730726468
732022109
730727591
732026921
730735990
732031570
730740873
732040531
732041984
732044360
732046367
732046880
730754965
732058379
732064894
730775083
732071456
730781243
730781777
730781944
730783817
732079621
732079538
730786906
732084996
732089368
730796714
730799788
730799355
730801418
730803754
730804266
730805038
732102918
732103336
730807341
730807668
732103289
732103696
730808262
732107594
732109468
732110333
730815218
732113100
732116296
732117003
732118720
730824274
732122686
730828662
730828873
732125849
1600007208
1600077805
1600142224
1600161679
1600179299
1600201741
1600212517
1600224549
1600236042
1600242183
1600260648
1600275645
1600280352
1600281946
1600323457
1600338231
1600342407
1600375103
1600391954
1600447065
1600451138
1600467162
1600473368
1600478890
1600491512
1600514103
1600534543
1600543952
1600608194
1600615291
1600617626
1600635023
1600651278
1600684464
1600689159
1600692443
1600705753
1600724060
1600734109
1600740626
1600741031
1600758248
1600759935
1600777630
1600786760
1600799544
1600819265
1600822190
1600867371
1600928441
1600937765
1600959677
1600984632
1601023656
1601063891
1601070447
1601090400
1601096478
1601129942
1601141599
1601148018
1601179861
1601189175
1601190758
1601231949
1601261967
1601302812
1601305014
1601371229
1601390313
1601423646
1601459167
1601474311
1601543877
1601563885
1601567895
1601574172
1601583946
1601584695
1601626636
1601647133
1601684413
1601716872
1600007208
1600077805
1603103929
1603120313
1603122305
1603130633
1603172297
1603205354
1603211374
1603233134
1603272312
1603274710
1603300418
1603360985
1603397333
1603437087
1603434039
1603453689
1603454450
1603462210
1603481345
1603519426
1603582670
1603614627
1603667984
1603714733
1603779911
1603792978
1603874591
1603891157
1603921934
1603923828
1603969100
1604005426
1604015926
1604044713
1604066646
1604070753
1604093860
1604109960
1604110695
1604128501
1604145924
1604174656
1604194221
1604215788
1604220911
1604222250
1604257361
1604273184
1604286349
1604292147
1604293098
1604307199
1604340671
1604354737
1604427217
1604453035
1604460478
1604494463
1604515472
1604557879
1604584829
1604588164
1604608153
1604646308
1604655596
1604670672
1604689286
1604701721
1604725779
1604743134
1604768046
1604791558
1604812569
1604821429
1604832905
1604865324
1604882473
1604898814
1604909503
1604917630
1604927710
1604959447
1604976721
1605007069
1605027593
1605046810
1605057309
1605072002
1605089281
1605091642
1605180233
1605190603
1605249572
1605252157
1605261445
1605275721
1605322171
1605346506
1605359666
1605484549
1605492940
1605500504
1605508504
1605564066
1605572066
1605601952
1605605044
1605621298
1605623517
1605641488
1605671246
1605675984
1605679808
1605681488
1605681791
1605683211
1605725092
1605743865
1605764080
1605769329
1605774196
1605778238
1605810281
1605824785
1605827760
1605870985
1605911322
1605935200
1605940315
1605975570
1605981983
1605984795
1606032266
1606043312
1606057901
1606061899
1606062453
1606062802
1606070348
1606074614
1606123788
1606127682
1606198622
1606206116
1606217856
1606218148
1606219152
1606272692
1606283931
1606304234
1606322596
1606336456
1606337185
1606411222
1606439749
1606460747
1606482859
1606501852
1606512713
1606530932
1606544448
1606553801
1606596178
1606633911
1606649083
1606658335
1606687373
1606689325
1606743378
1606748234
1606757942
1606771147
1606772819
1606795843
1606826094
1606829544
1606829685
1606830081
1606839541
1606863645
1606889673
1606918001
1607018346
1607022278
1607042284
1607046929
1607063301
1607110973
1607122870
1607135442
1607145105
1607153387
1607174602
1607188977
1607208386
1607236261
1607248420
1607257844
1607290699
1607317582
1607334951
1607338036
1607369157
1607459424
1607468668
1607481482
1607482735
1607505188
1607533899
1607540757
1607584075
1607589320
1607591007
1607617810
1607637147
1607641681
1607662796
1607702937
1607767532
1607769887
1607809120
1607835230
1607841796
1607843321
1607863932
1607867417
1607886932
1607891834
1607910030
1607921478
1607938283
1607949326
1607968175
1607978235
1608006323
1608060899
1608074902
1608149990
1608160322
1608192678
1608197872
1608209938
1608235692
1608267043
1608288913
1608333931
1608336347
1608366746
1608429163
1608433309
1608441056
1608458553
1608463357
1608468120
1608502496
1608545327
1608600742
1608631153
1608633748
1608637756
1608740368
1608751522
1608753818
1608756563
1608781577
1608812907
1608839919
1608852755
1608852888
1608856872
1608861135
1608904215
1608904731
1608941444
1608946616
1608948374
1609017192
1609028848
1609118759
1609120596
1609166875
1609185196
1609225788
1609250806
1609298504
1609302629
1609314225
1609318084
1609320215
1609341153
1609341772
1609361145
1609391833
1609431431
1609449548
1609467348
1609484852
1609493521
1609618841
1609636722
1609661970
1609675004
1609701171
1609709620
1609711958
1609723856
1609795630
1609804293
1609818546
1609843426
1609856234
1609903255
1609903582
1609946028
1609947183
1609958987
1609979903
1609991591
1609996621
