205000096
205000133
205000270
205000563
205000719
205000757
205000817
205002212
205002837
205002919
205002852
205004594
205005155
205005500
205005950
205006590
205007179
205007433
205007368
205007712
205007579
205008238
205008346
205010207
205010364
205010859
205011266
205011971
