960004139
960007766
960008162
960019425
960020844
960021775
960022621
960023191
960022288
960026276
960029214
960029624
960034373
960036874
960038061
960041193
960044066
960055297
960059819
960060765
960063450
960067526
960068011
960069988
960071890
960077728
960081561
960084934
960085171
960088475
960092256
960091602
960093521
960097404
960099316
960099898
960101849
960108996
960109710
960111532
960112972
960113925
960113889
960113656
960116168
960120028
960121267
960123838
960130750
960133507
960138965
960143674
960151726
960156535
960157871
960164562
960166229
960166487
960174056
960176960
960182304
960182579
960184577
960187003
960188608
960188746
960193109
960193337
960195316
960197589
960198162
960199899
960202634
960204320
960207247
960211836
960216981
960221244
960221516
960223596
960228265
960228858
960228732
960232136
960232890
960233303
960236822
960237153
960241235
960242187
960247684
960251427
960252446
960252624
960254537
960258309
960259205
960264460
960266466
960272127
960276236
960275541
960277111
960277671
960279537
960282191
960282432
960283643
960284889
960289958
960290574
960294576
960296581
960300500
960301957
960305444
960308954
960308249
960310629
960314815
960314802
960324952
960325488
960327580
960330799
960331355
960331911
960335512
960340750
960341146
960343085
960343789
960344351
960349599
960353111
960355906
960356263
960356321
960356539
960362676
960365008
960368295
960368845
960375304
960375651
960382227
960383666
960383236
960385101
960385665
960392686
960394247
960394594
960396080
960396756
960409227
960410323
960414276
960414650
960415262
960419036
960419078
960421501
960425094
960426794
960429433
960430132
960430285
960432417
960439240
960440373
960440625
960440670
960443865
960444373
960449217
960449394
960449770
960451328
960451828
960452494
960452843
960453189
960459417
960461495
960463285
960465352
960465853
960466487
960467133
960469021
960471962
960472623
960474176
960474778
960477853
960485017
960486204
960487163
960491182
960490806
960493556
960496282
960497094
960498152
960502080
960503172
960503996
960505786
960505949
960509155
960509174
960511078
960512183
960512299
960514413
960514486
960514921
960519891
960521867
960524200
960524335
960526061
960527832
960528408
960531047
960531101
960531723
960537985
960541237
960541741
960543248
960544039
960558299
960559415
960564204
960565773
960569592
960572945
960580419
960585059
960585865
960590486
960591078
960591704
960592393
960596137
960603200
960603219
960603864
960603861
960608397
960608911
960609097
960609808
960610118
960611175
960614800
960614703
960615543
960617052
960618763
960621616
960621955
960625606
960628660
960630937
960639151
960643535
960644237
960644304
960645353
960647165
960650861
960654023
960654055
960658127
960659425
960659346
960660447
960661047
960661174
960661589
960664137
960664327
960669831
960669846
960671108
960673778
960680024
960682874
960686018
960687831
960689530
960694594
960698424
960698525
960710909
960711261
960712508
960720658
960720765
960723346
960725690
960725877
960734364
960738272
960738183
960744581
960745101
960746252
960746643
960747110
960749905
960758139
960765215
960765350
960767513
960768558
960768573
960769121
960775385
960780310
960783842
960786105
960788839
960790229
960791432
960792348
960799778
960804139
960807841
960808490
960811736
960811692
960816453
960817508
960820027
960828929
960828867
960829720
960830902
960831079
960831438
960832504
960835719
960840155
960840423
960845498
960846829
960847842
960849411
960850784
960859257
960860847
960863711
960866264
960869381
960869927
960871889
960878618
960880368
960882096
960888164
960890512
960891239
960896072
960897010
960901489
960904850
960905586
960907098
960912148
960912477
960914218
960916614
960916715
960919495
960920254
960922712
960925482
960927598
960931194
960931647
960932197
960937170
960938832
960939762
960940533
960944727
960949174
960952010
960953114
960955630
960955781
960956389
960957560
960962175
960963153
960964976
960965702
960968645
960969453
960973541
960975505
960975643
960975674
960977598
960979320
960981525
960985746
960985668
960991840
960993295
960998216
960998083
960999850
961002146
961004984
961010015
961017804
961023251
961023670
961027191
961027579
961030765
961034344
961034321
961034930
961035483
961036704
961041164
961042677
961042841
961045827
961046673
961049178
961049415
961051884
961058582
961059975
961065892
961067643
961068059
961071098
961072570
961074045
961074427
961077890
961080333
961086134
961091370
961096856
961098680
961099051
961101437
961107901
961108801
961127692
961130215
961131621
961132897
961133288
961133965
961134991
961137997
961138951
961139742
961142410
961144588
961147648
961152047
961158210
961161598
961167130
961167598
961173307
961173794
961179798
961184272
961187104
961187564
961188826
961191948
961193890
961194273
961199810
961203806
961204436
961205336
961207353
961208941
961209871
961213355
961217720
961218536
961221161
961223369
961226114
961226383
961230568
961237539
961238299
961242941
961245874
961247821
961248564
961248733
961255181
961256081
961259331
961259291
961260758
961266367
961269460
961269809
961270444
961274972
961275802
961276158
961275775
961278981
961279003
961280450
961282268
961289936
961290106
961291017
961291956
961292772
961294285
961296180
961297242
961297688
961299033
961266216
961299293
961302879
961303257
961303845
961307279
961310139
961315842
961316851
961316855
961317013
961317011
961318460
961328541
961330186
961330996
961332108
961332170
961333407
961342522
961343077
961347476
961348575
961353680
961358224
961358778
961360248
961361111
961361491
961361928
961361970
961363578
961364037
961372376
961374035
961376045
961377925
961378108
961379156
961382959
961387143
961387405
961389642
961390840
961394943
961400231
961401518
961401687
961402551
961404130
961405540
961406629
961407039
961407319
961409414
961410921
961411374
961414098
961415726
961416987
961417045
961421538
961422886
961426826
961430916
961432309
961433612
961434614
961434950
961435371
961437129
961437936
961447607
961449621
961450148
961451175
961458203
961458809
961463590
961464203
961465378
961466906
961467496
961476851
961478835
961479868
961481278
961488246
961494232
961494988
961497323
961502556
961506792
961508016
961512558
961514835
961516455
961516641
961519559
961521464
961526695
961530426
961531405
961540078
961541559
961541794
961545391
961548213
961550247
961555148
961555762
961563249
961567996
961577446
961579724
961581308
961583178
961584369
961584701
961587543
961588018
961592609
961595960
961596536
961598985
961601491
961611080
961611296
961617773
961620621
961623630
961623831
961625493
961626617
961627866
961628552
961633208
961633236
961644669
961645195
961646668
961647629
961651925
961652475
961652466
961666093
961669176
961669626
961669969
961670357
961672912
961673427
961676670
961678478
961679390
961680374
961684618
961686179
961688233
961693792
961693905
961694908
961697364
961702389
961703359
961703859
961707641
961707818
961707538
961709644
961715392
961715834
961717935
961719122
961721088
961726105
961726611
961727168
961736138
961737002
961740644
961741862
961744857
961745082
961754347
961758407
961760012
961760579
961762709
961767943
961768719
961771521
961771691
961772736
961773458
961774952
961781618
961783816
961784340
961784801
961785710
961786921
961788975
961791272
961795537
961800819
961809783
961810895
961810885
961811310
961819834
961821158
961823723
961824665
961834700
961834758
961834844
961835080
961835419
961842374
961845582
961846004
961848548
961849774
961853116
961853573
961854247
961856643
961857952
961857884
961859059
961866485
961866814
961869695
961870732
961871407
961878778
961879274
961879494
961879567
961881064
961887511
961888200
961890510
961891862
961892655
961893824
961894377
961897940
961902322
961902717
961905022
961904945
961906260
961911006
961911898
961913902
961915970
961921674
961922951
961927210
961933196
961933803
961934289
961936060
961937152
961943631
961947773
961948506
961950899
961951949
961951964
961954189
961954375
961956281
961958248
961966253
961967419
961970676
961972438
961973592
961976268
961977645
961984178
961987489
961988481
961991643
961995495
961996091
961996636
961999307
962006592
962006831
962008122
962010635
962014167
962018181
962020832
962021723
962022577
962022591
962024407
962028791
962030454
962032717
962043239
962044561
962048360
962050324
962053649
962054746
962055175
962057595
962067249
962070070
962071824
962079251
962080062
962080110
962081199
962081729
962084723
962090023
962090359
962090592
962090615
962094194
962095106
962096109
962096171
962096805
962097619
962098036
962107426
962110317
962110875
962112592
962118270
962118133
962119805
962120595
962125616
962129181
962130377
962133784
962140072
962141159
962142849
962143452
962144907
962146451
962147966
962150524
962150752
962151458
962157059
962157134
962156689
962162631
962167379
962168806
962171768
962174388
962175733
962177109
962177931
962179180
962187659
962189151
962189372
962195622
962197176
962198854
962199348
962200457
962201983
962203472
962203687
962206099
962206417
962206517
962206702
962207754
962210830
962213042
962214498
962216898
962219615
962220897
962222419
962224066
962228105
962233903
962235910
962236307
962236550
962237992
962237638
962239524
962241992
962245052
962249428
962250505
962251839
962255931
962255951
962257880
962262719
962264675
962264857
962269305
962269727
962270482
962271168
962272741
962273861
962273956
962280961
962281918
962282678
962282948
962286400
962286678
962291356
962299750
962306482
962306411
962308270
962312296
962313033
962313665
962315492
962315829
962316277
962326817
962329046
962333528
962335092
962337286
962338234
962338613
962341709
962345955
962346348
962347577
962350365
962351221
962353644
962355059
962360026
962362205
962362726
962363817
962365995
962366627
962367840
962369563
962369610
962376327
962376741
962377058
962377759
962381248
962384166
962386328
962387283
962388734
962391690
962393084
962392262
962394153
962395291
962398088
962398320
962400337
962402208
962409196
962410948
962412239
962413179
962415898
962418370
962419041
962422090
962423293
962424047
962425978
962426206
962426529
962427195
962427866
962431659
962439524
962447696
962451790
962456542
962456783
962459786
962464434
962465509
962467413
962468548
962470414
962471441
962476127
962476376
962477853
962484491
962489563
962494128
962494757
962494687
962495434
962505658
962506133
962512574
962517818
962520468
962523115
962525688
962533349
962534071
962533609
962542195
962543736
962548393
962548724
962550337
962551464
962552307
962554047
962555817
962556596
962556943
962558128
962562023
962565440
962566715
962569082
962568658
962573689
962574403
962575292
962579805
962585526
962591283
962594934
962596079
962596735
962599469
962600747
962603565
962603649
962605380
962605950
962610054
962611255
962611338
962625134
962625236
962625797
962630677
962634456
962643275
962645482
962645652
962649839
962650099
962650305
962651456
962653190
962654448
962661184
962661521
962665396
962668533
962669453
962673564
962673341
962674142
962675639
962676368
962679461
962682172
962683392
962685334
962685951
962685790
962686843
962688436
962689368
962696475
962700054
962704117
962704230
962705178
962707482
962707683
962708380
962713961
962715185
962721471
962724274
962727098
962728163
962728568
962729266
962731668
962739689
962741043
962744960
962746259
962746410
962746796
962750614
962750944
962753746
962755796
962759081
962761543
962761720
962763036
962763777
962766213
962766346
962767201
962767880
962769829
962773356
962774256
962776653
962776948
962778206
962778898
962783501
962785016
962789403
962791675
