1600021371
1600065173
1600238870
1600771385
1601168326
1601382437
1601494701
1600065173
1603231580
1603419104
1603748991
1603768967
1603920011
1604353938
1604515323
1604526181
1604605041
1604656065
1604759834
1604800013
1608242368
