710072659
710127637
710183263
710276588
710295607
710311205
710803251
710916558
710918665
711068070
711168567
711495126
711601313
711629512
711714771
711746225
711774825
711814108
711991145
712041016
712041257
712187354
712240843
712303842
712362897
712463168
712498259
712617555
712786400
712898956
712943926
713359068
