960008154
960044390
960063411
960076902
960136964
960154947
960200733
960237192
960245770
960383003
960391547
960392178
960407592
960469945
960486203
960503575
960509868
960514622
960529176
960611921
960641313
960645718
960788278
960793281
960794573
960802459
960802459
960805474
960807714
960844388
960860350
960861935
960882530
961034428
961049452
961060832
961116003
961117342
961119391
961168615
961173868
961267088
961295868
961320855
961434447
961450835
961484531
961508343
961603843
961611612
961615704
961653069
961686482
961690818
961696539
961707184
961739247
961784261
961821172
961901403
961915731
962012906
962089598
962103517
962141403
962198437
962237477
962282043
962332093
962333141
962338019
962455598
962468091
962504612
962514352
962515978
962559479
962581548
962581895
962595433
962613786
962635043
962683694
962747667
962754412
