1600000348
1600000348
1600002382
1600002382
1600005194
1600005194
1600006165
1600006165
731588406
731792259
1600000348
1600002382
1600005194
1600006165
1600007696
1600010269
1600014898
1600017604
1600020909
1600027229
1600029505
1600031704
1600032019
1600032863
1600037079
1600038459
1600042503
1600043568
1600044778
1600044978
1600045752
1600045961
1600047575
1600050949
1600053410
1600054973
1600056900
1600061464
1600062211
1600071483
1600071691
1600074423
1600077159
1600088968
1600104148
1600104931
1600113461
1600113908
1600114907
1600115485
1600122127
1600134885
1600136347
1600157357
1600157820
1600163076
1600163044
1600165290
1600167028
1600172084
1600175733
1600176573
1600176627
1600192675
1600199118
1600205713
1600206230
1600206440
1600210463
1600210686
1600219706
1600225684
1600226273
1600229105
1600234888
1600238411
1600245908
1600245790
1600252514
1600256326
1600256664
1600261886
1600268346
1600270542
1600273966
1600275604
1600277187
1600282016
1600283026
1600283164
1600285065
1600287617
1600289895
1600290919
1600293223
1600293393
1600296278
1600309508
1600314737
1600320009
1600321717
1600325132
1600328275
1600332349
1600333027
1600334102
1600336666
1600345222
1600349161
1600351662
1600353868
1600358804
1600361921
1600364438
1600369007
1600372861
1600374446
1600378599
1600384591
1600388585
1600388914
1600389386
1600390960
1600394182
1600395993
1600398081
1600398090
1600399963
1600401023
1600402298
1600404270
1600407471
1600407790
1600409625
1600411412
1600418883
1600421614
1600422877
1600435237
1600444573
1600446037
1600446741
1600446741
1600451946
1600457128
1600464618
1600464798
1600472035
1600479818
1600488306
1600488715
1600500045
1600506014
1600510314
1600511212
1600514191
1600516315
1600517665
1600518415
1600519567
1600520345
1600521945
1600525615
1600532707
1600542375
1600546455
1600547605
1600553629
1600559548
1600561078
1600562723
1600563911
1600574385
1600579545
1600587556
1600589376
1600593842
1600596993
1600598392
1600599534
1600604213
1600609646
1600612310
1600613069
1600624180
1600629732
1600631240
1600640572
1600641332
1600648179
1600650663
1600651846
1600655141
1600659067
1600663549
1600666774
1600672453
1600673338
1600674596
1600676361
1600680321
1600680572
1600682108
1600682692
1600683377
1600685408
1600687005
1600687919
1600688851
1600692123
1600692341
1600695081
1600698959
1600699551
1600699618
1600711556
1600715858
1600717962
1600722560
1600727993
1600735605
1600739171
1600744215
1600745844
1600747228
1600759405
1600761642
1600763914
1600764501
1600770489
1600774324
1600776286
1600778433
1600787241
1600799970
1600812287
1600816634
1600817526
1600818272
1600818532
1600819368
1600819928
1600827962
1600828097
1600831993
1600840996
1600846583
1600847462
1600866032
1600866866
1600867295
1600874041
1600887885
1600891234
1600898938
1600901735
1600910286
1600911489
1600911830
1600920278
1600926450
1600929656
1600930664
1600931986
1600932458
1600934402
1600935941
1600941237
1600955821
1600959925
1600962703
1600964542
1600967537
1600968104
1600969728
1600971679
1600972589
1600972856
1600973885
1600979952
1600984021
1600985203
1600986819
1600986951
1600989807
1600990124
1600990938
1600991128
1600994046
1600999427
1601001948
1601024798
1601031650
1601034706
1601039471
1601044818
1601049280
1601050332
1601052248
1601055456
1601060031
1601062099
1601063414
1601064448
1601076332
1601083686
1601086329
1601086601
1601088997
1601090319
1601090954
1601091163
1601097837
1601099867
1601102441
1601102598
1601105764
1601108576
1601109646
1601116037
1601123912
1601131363
1601132322
1601134229
1601136226
1601136346
1601138288
1601141958
1601142592
1601143309
1601146836
1601158231
1601160417
1601166240
1601170534
1601172677
1601176620
1601187682
1601193389
1601196135
1601196592
1601211597
1601212465
1601219869
1601232453
1601240042
1601240546
1601241383
1601244742
1601251339
1601251661
1601262566
1601281517
1601283189
1601284462
1601285457
1601286782
1601287613
1601290441
1601290410
1601296924
1601300693
1601302721
1601304616
1601306212
1601308573
1601311987
1601313229
1601316892
1601316502
1601318338
1601320311
1601322220
1601322849
1601324103
1601326314
1601326519
1601330011
1601330329
1601332523
1601332990
1601333125
1601336482
1601343074
1601347109
1601348153
1601349267
1601357379
1601357571
1601358225
1601362386
1601364949
1601369069
1601383291
1601384267
1601389047
1601397454
1601404403
1601407563
1601407640
1601409709
1601411805
1601413295
1601413789
1601416904
1601421065
1601423663
1601427446
1601429088
1601434534
1601434803
1601435712
1601436926
1601438657
1601440732
1601444689
1601446094
1601451106
1601452225
1601452819
1601453817
1601455910
1601463729
1601465321
1601465887
1601467269
1601477583
1601483921
1601484125
1601490563
1601491648
1601494389
1601496107
1601523608
1601523905
1601525131
1601531778
1601532272
1601535378
1601542059
1601543702
1601543851
1601554704
1601556662
1601557759
1601563101
1601571596
1601576187
1601576959
1601581684
1601584587
1601585195
1601587700
1601587652
1601587688
1601587868
1601592783
1601593788
1601594530
1601595183
1601600944
1601601932
1601602446
1601604630
1601606568
1601606934
1601607447
1601607683
1601614566
1601632356
1601636582
1601645209
1601645250
1601648176
1601648896
1601649767
1601649967
1601652068
1601653327
1601654147
1601658277
1601658921
1601665646
1601669324
1601672789
1601672898
1601673163
1601673704
1601673864
1601677271
1601689296
1601689612
1601694807
1601706868
1601714863
1601716751
1601716966
1601717367
1601720484
1601720583
1601729718
1601737312
1601738016
1601739342
1601749918
1600000348
1600029505
1600054973
1600061464
1600074423
1600113461
1600114907
1603067719
1603068475
1603069781
1603072689
1603091207
1603093142
1603093658
1603096029
1603104783
1603106290
1603108380
1603111441
1603112053
1603119764
1603119880
1603125552
1603125881
1603128917
1603130747
1603133386
1603133840
1603134877
1603142969
1603149909
1603152054
1603152309
1603153653
1603155369
1603155468
1603159707
1603170872
1603171725
1603176169
1603182904
1603186347
1603186461
1603191385
1603192925
1603194644
1603194957
1603196853
1603199070
1603200084
1603201643
1603204121
1603205372
1603206334
1603208784
1603210379
1603218806
1603232280
1603235201
1603235222
1603235554
1603237090
1603238112
1603239491
1603243199
1603244521
1603248283
1603252998
1603254077
1603255050
1603263233
1603264853
1603265175
1603268792
1603273571
1603278354
1603283300
1603286625
1603300165
1603306691
1603308744
1603317002
1603317587
1603317763
1603318705
1603320623
1603325453
1603327476
1603336810
1603337993
1603339719
1603340805
1603344871
1603350365
1603353272
1603363290
1603365252
1603368244
1603373403
1603373873
1603374223
1603378650
1603381035
1603381241
1603383694
1603385987
1603402043
1603404964
1603406648
1603408581
1603409951
1603414289
1603417523
1603418167
1603419302
1603425887
1603429679
1603435431
1603438807
1603439761
1603441556
1603441993
1603444415
1603452430
1603453721
1603455710
1603457124
1603460732
1603462740
1603467313
1603467924
1603481454
1603482408
1603483433
1603489067
1603495999
1603498319
1603501981
1603504142
1603505984
1603507457
1603507466
1603510607
1603517007
1603517294
1603522051
1603523429
1603528044
1603528661
1603532472
1603533300
1603535028
1603541232
1603542756
1603544082
1603546792
1603550799
1603554225
1603556943
1603558224
1603563037
1603563999
1603566665
1603567333
1603571856
1603572604
1603577349
1603582843
1603586205
1603592755
1603606310
1603606341
1603614660
1603617015
1603617161
1603618133
1603622651
1603627587
1603629233
1603629979
1603639000
1603642898
1603644212
1603644042
1603649110
1603649197
1603655533
1603659040
1603660015
1603663977
1603664142
1603663775
1603665358
1603678412
1603679699
1603682704
1603694889
1603696899
1603697721
1603698071
1603700707
1603704537
1603708258
1603710832
1603711967
1603712552
1603716237
1603716592
1603717417
1603728769
1603730183
1603731753
1603734083
1603738744
1603744825
1603748226
1603750790
1603753595
1603759530
1603765928
1603770586
1603773824
1603774924
1603775778
1603778313
1603790505
1603794730
1603796443
1603823906
1603827581
1603830461
1603883132
1603898288
1603915539
1603923848
1603940148
1603941002
1603941653
1603943930
1603944043
1603945483
1603948434
1603949867
1603956470
1603956676
1603959745
1603963972
1603964084
1603964844
1603970204
1603971048
1603980595
1603981820
1603982069
1603986138
1603986019
1603991843
1603992715
1603994656
1603996537
1603997578
1604002821
1604003270
1604003802
1604006242
1604009801
1604017832
1604021700
1604022680
1604028360
1604028820
1604030185
1604040463
1604041838
1604042463
1604047878
1604048373
1604055461
1604056738
1604059272
1604064939
1604068215
1604069682
1604075558
1604077108
1604077460
1604084014
1604087210
1604088773
1604090912
1604092562
1604093995
1604095127
1604104324
1604106110
1604109489
1604110809
1604111524
1604113117
1604113824
1604114379
1604117113
1604117684
1604118097
1604118172
1604120472
1604121060
1604127155
1604132047
1604134400
1604147343
1604148278
1604150915
1604151470
1604180337
1604190163
1604192203
1604195472
1604195832
1604196833
1604197677
1604202050
1604204844
1604211962
1604220514
1604223600
1604224626
1604224845
1604224973
1604228036
1604228235
1604229731
1604230765
1604247441
1604248771
1604252677
1604255320
1604257735
1604259260
1604262335
1604266961
1604268393
1604272146
1604279462
1604281248
1604287438
1604300491
1604308109
1604310145
1604314857
1604317445
1604321169
1604322901
1604323063
1604324453
1604329892
1604329933
1604333073
1604334293
1604336748
1604336817
1604340493
1604343581
1604351369
1604354626
1604368410
1604369132
1604370137
1604373159
1604377219
1604409838
1604428568
1604442367
1604450080
1604460201
1604472863
1604474527
1604476616
1604484106
1604486642
1604487728
1604493114
1604493106
1604505247
1604512727
1604518020
1604518280
1604522275
1604533711
1604535477
1604545937
1604551490
1604552746
1604561108
1604563086
1604565828
1604568900
1604569543
1604569510
1604579746
1604585172
1604592808
1604596565
1604601965
1604604925
1604610025
1604614497
1604614846
1604615555
1604620162
1604621629
1604643335
1604644268
1604645072
1604647540
1604647816
1604655698
1604658709
1604672028
1604683615
1604690030
1604696502
1604698996
1604700987
1604705437
1604706926
1604707410
1604708372
1604710470
1604719761
1604722710
1604742872
1604745654
1604746029
1604758713
1604761872
1604765219
1604768879
1604769266
1604772765
1604775335
1604780597
1604783181
1604784807
1604785547
1604789227
1604789637
1604796003
1604799260
1604805508
1604810406
1604811384
1604814327
1604824343
1604828141
1604831417
1604835409
1604842045
1604847562
1604851750
1604855655
1604857108
1604857293
1604862382
1604866972
1604867138
1604874401
1604876640
1604879495
1604885073
1604887959
1604888542
1604889760
1604890770
1604891476
1604894587
1604901744
1604902176
1604904083
1604904383
1604904839
1604905140
1604908468
1604911660
1604911599
1604913983
1604915846
1604922628
1604924568
1604932198
1604935116
1604945485
1604946752
1604948227
1604957292
1604963544
1604966038
1604971679
1604974778
1604984982
1604985863
1604989444
1604990533
1604990842
1604991706
1604991791
1604992827
1604993821
1604995804
1604998885
1605001115
1605001656
1605002240
1605012109
1605013871
1605014591
1605014867
1605018155
1605018464
1605018883
1605019636
1605020584
1605020591
1605025813
1605032638
1605035589
1605036275
1605037312
1605042570
1605044701
1605044926
1605050297
1605050951
1605051040
1605059916
1605062247
1605069010
1605071329
1605074435
1605082323
1605088765
1605092530
1605094080
1605101071
1605101598
1605102152
1605102925
1605107470
1605111326
1605115806
1605118804
1605121486
1605126352
1605126134
1605130714
1605134113
1605134800
1605140554
1605149114
1605149782
1605158459
1605169219
1605169758
1605171490
1605171701
1605179326
1605184106
1605184506
1605186962
1605189320
1605191059
1605207218
1605210354
1605211114
1605213219
1605214982
1605216183
1605221753
1605223346
1605237361
1605266271
1605274406
1605274561
1605288492
1605290599
1605314406
1605315456
1605317022
1605320272
1605321068
1605328109
1605342992
1605354010
1605356085
1605357005
1605357460
1605359386
1605362820
1605403234
1605403785
1605414357
1605420861
1605454152
1605468176
1605505176
1605512579
1605513681
1605534684
1605540333
1605542142
1605543303
1605548283
1605575903
1605586554
1605587099
1605605115
1605614469
1605653527
1605669733
1605672750
1605684477
1605703863
1605711000
1605711055
1605742880
1605752782
1605755771
1605773222
1605783152
1605784848
1605799080
1605802120
1605819082
1605848478
1605854987
1605857723
1605869003
1605875849
1605894348
1605917569
1605927986
1605947390
1605972405
1605975977
1605977213
1605981759
1606030478
1606037710
1606065724
1606084412
1606099574
1606131569
1606154525
1606212922
1606234160
1606237823
1606261592
1606268651
1606270398
1606295789
1606305764
1606360799
1606380944
1606400419
1606405956
1606412624
1606441614
1606473255
1606477643
1606487037
1606504246
1606513798
1606517584
1606523108
1606525553
1606535970
1606546117
1606554599
1606564457
1606566499
1606573856
1606603463
1606634547
1606710289
1606713498
1606730250
1606748667
1606759211
1606770192
1606833157
1606840277
1606844298
1606872385
1606872736
1606875097
1606892998
1606906676
1606926048
1606931323
1606944451
1606948879
1606954114
1606959474
1606960016
1606965001
1606988057
1607000227
1607012555
1607031040
1607034064
1607037662
1607064339
1607074463
1607103847
1607104380
1607116857
1607129175
1607129662
1607178757
1607194549
1607201681
1607213787
1607221070
1607250152
1607268379
1607269232
1607283537
1607288015
1607295212
1607296878
1607304135
1607323765
1607344491
1607347269
1607412509
1607442464
1607482932
1607507721
1607509253
1607541351
1607544341
1607574777
1607575488
1607578193
1607615210
1607658576
1607662898
1607665928
1607667725
1607674937
1607694411
1607711413
1607753314
1607786685
1607790214
1607793580
1607794254
1607794463
1607810182
1607820067
1607821671
1607827013
1607829119
1607830534
1607835839
1607840007
1607878772
1607879923
1607949077
1607951832
1607956907
1607982797
1607988675
1608011616
1608026398
1608047527
1608048872
1608054014
1608058950
1608059143
1608071412
1608072562
1608075395
1608085331
1608114022
1608137939
1608148128
1608156039
1608157616
1608197995
1608217487
1608246316
1608252039
1608254679
1608261214
1608262743
1608278555
1608290479
1608294925
1608336005
1608354448
1608377312
1608424293
1608433959
1608444850
1608451885
1608457257
1608457409
1608460151
1608495315
1608548664
1608562914
1608569832
1608577341
1608591771
1608605153
1608607627
1608626989
1608628131
1608641013
1608663358
1608680635
1608686217
1608692816
1608703780
1608715844
1608723476
1608727117
1608732152
1608733041
1608765079
1608773232
1608783620
1608798781
1608855369
1608871266
1608905510
1608906422
1608909189
1608913699
1608928847
1608939180
1608967234
1608972773
1608983869
1608999915
1609042877
1609046916
1609058084
1609073645
1609081629
1609105388
1609121842
1609122736
1609139615
1609140505
1609140632
1609146717
1609147956
1609170618
1609217703
1609230031
1609237020
1609240623
1609248749
1609256699
1609271088
1609271908
1609274135
1609287519
1609301554
1609309478
1609310993
1609316626
1609323640
1609359963
1609382208
1609402937
1609429214
1609435976
1609474253
1609482384
1609495986
1609499249
1609510577
1609511657
1609569240
1609583075
1609588955
1609602143
1609602790
1609604047
1609611856
1609637092
1609678499
1609687411
1609700797
1609766104
1609791852
1609795192
1609805849
1609806548
1609808782
1609824571
1609873647
1609924117
1609925482
1609925558
1609934688
1609975482
1609982975
1609993678
