800075627
801024017
800084565
801031661
800091162
801033206
800093801
800128370
801075450
800139067
800140648
801087909
801096620
801098447
800075627
800084565
800091162
800093801
800128370
800139067
800140648
800162430
800177274
800198463
800201240
800204115
800204217
800214208
800221519
800222620
800229121
800234338
800242045
800242812
800243646
800244239
800250921
800251238
800262991
800265642
800272896
800274355
800281240
800282735
800287200
800288696
800304936
800305760
800310813
800315512
800336086
800339634
800340563
800366275
800368254
800369518
800370869
800393377
800412674
800418933
800443278
800455431
800466652
800470251
800486044
800510890
800514582
800514871
800516886
800519735
800522326
800526733
800529017
800531571
800542375
800542639
800547300
800551364
800557513
800564559
800564544
800580626
800581510
800598980
800599918
800606828
800610825
800614018
800615331
800620621
800626975
800631587
800634191
800642531
800646192
800652747
800673084
800679118
800685012
800686940
800687158
800697390
800705073
800708168
800711064
800726987
800728988
800729417
800731560
800740339
800742236
800747541
800752701
800755350
800760592
800770362
800770586
800782615
800783937
800788700
800791927
800793451
800804948
800816793
800817342
800841880
800842926
800847511
800849051
800859302
800864245
800866975
800881205
800883423
800892391
800904853
800909440
800911789
800916929
800920243
800922893
800923499
800934534
800937597
800941636
800951389
800955246
800957805
800960784
800961067
800969546
800973816
800980010
800982257
800984813
800993601
801005118
801007124
801010311
801012353
801024017
801031661
801033206
801075450
801087909
801096620
801098447
801106873
801108893
801109841
801116220
801117733
801119541
801128669
801130295
801132216
801134262
801138591
801143777
801150910
801161679
801162948
801187702
801192842
801193558
801200643
801207594
801212706
801217516
801222187
801243944
801247936
801266835
801313522
801313837
801315537
801317679
801325333
801330536
801331965
801332768
801337371
801340632
801344233
801350426
801352749
801355001
801375264
801375522
801376166
801380200
801380096
801385870
801423412
801431860
801433628
801440706
801452298
801455572
801460189
801462965
801470283
801471877
801476774
801480687
801481272
801484538
801485053
801485033
801486786
801490723
801491555
801505240
801506091
801517208
801530385
801531280
801532206
801532740
801545926
801569349
801570536
801574097
801574901
801583894
801586640
801586597
801591587
801591951
801592964
801599520
801610637
801611123
801620569
801625122
801625579
801625970
801643141
801656850
801663759
801673247
801682714
801694898
801697454
801701621
801713407
801719801
801723566
801727368
801737663
801744529
801755700
801758897
801773185
801799429
801815132
