710020712
710032669
710176495
710397674
710408407
710458419
710464141
710626662
710715868
710775492
710793048
710845236
710916621
710938574
711099422
711101765
711111214
711127863
711147917
711381083
711411694
711457504
711463145
711474533
711607791
711684193
711705147
711719860
711761776
711824329
711936844
712027535
712032446
712051759
712082735
712105369
712120858
712136030
712401902
712697548
712717311
712735900
712754692
