730004509
730026103
730029069
730039703
730054862
1600001644
1600005431
1600007133
1600007133
1600007133
1600007133
730039703
730054862
730061867
730073536
730077780
730079121
731025112
731028718
731044805
730121691
731068956
730144385
731104230
731111217
730186735
731124801
730194935
730200227
730205084
731139797
730208602
730216825
731152888
731156226
731163865
730233693
730244326
731176539
730249303
730250689
731182820
730263087
731196180
730273189
731202866
731216817
731233536
730312736
730317440
731249580
731253163
731253955
730331640
730339842
730343943
730348202
731541346
731547338
731560630
731568842
731571889
730434663
731580599
730442754
730461397
731601459
731619109
730480402
731629510
731633925
731638047
730497284
730507843
731654640
731655800
730518046
731682532
731700370
731712130
731713573
731714626
731715796
730527506
730558906
731753585
730569167
731765673
731765524
730579014
730627370
730628228
730629818
730630676
731841041
731845402
730664301
731876396
730695677
730697835
730703105
731905368
731950269
731963646
730708638
732007983
730713339
732010820
730723867
730724601
732019721
730728631
732027266
730737909
732060883
732061630
732064620
732073176
730782508
730786999
730787746
732091189
732091305
730800240
732097214
732101228
730814118
732119540
730836998
1600005431
1600007133
1600007694
1600007883
1600009499
1600014324
1600015682
1600016470
1600016899
1600018057
1600021187
1600022221
1600025242
1600025441
1600026064
1600026760
1600027105
1600030550
1600031505
1600031546
1600033457
1600033702
1600034062
1600035789
1600036053
1600036448
1600036955
1600038398
1600040305
1600041522
1600042521
1600042380
1600042563
1600043357
1600043626
1600047017
1600051269
1600051420
1600051518
1600053291
1600053508
1600057296
1600057868
1600059572
1600060514
1600061118
1600064058
1600064914
1600067166
1600068558
1600072236
1600074508
1600074696
1600077246
1600077389
1600079307
1600080041
1600080556
1600080854
1600082891
1600085594
1600087438
1600088618
1600089293
1600089952
1600095064
1600099146
1600100084
1600101450
1600101864
1600103586
1600106646
1600108204
1600110227
1600110465
1600110581
1600111899
1600112831
1600114209
1600116249
1600120333
1600120670
1600124296
1600126707
1600126810
1600127304
1600127707
1600130089
1600130891
1600131531
1600132184
1600136015
1600136502
1600138241
1600140046
1600140879
1600141270
1600141438
1600144567
1600144726
1600145516
1600146066
1600147939
1600148091
1600149649
1600149723
1600149775
1600149995
1600152058
1600152358
1600153845
1600154281
1600154452
1600149995
1600155442
1600155678
1600155823
1600157597
1600159285
1600160294
1600161141
1600164608
1600165415
1600168657
1600169415
1600171009
1600172165
1600176120
1600176854
1600177347
1600178839
1600182374
1600185068
1600185110
1600185171
1600186666
1600187853
1600189192
1600189326
1600191312
1600193484
1600194632
1600196004
1600196419
1600197187
1600198896
1600199296
1600202719
1600202899
1600203544
1600204423
1600206306
1600206886
1600207193
1600207521
1600207872
1600208742
1600210052
1600211112
1600211317
1600211690
1600212365
1600213269
1600213575
1600213907
1600214330
1600220900
1600221752
1600224901
1600229964
1600230591
1600230965
1600234950
1600236273
1600238630
1600242212
1600242399
1600242675
1600244691
1600247886
1600248138
1600248748
1600248931
1600249656
1600249812
1600251157
1600252437
1600252721
1600253164
1600254802
1600254897
1600256248
1600259830
1600260584
1600263472
1600265070
1600266802
1600271487
1600272156
1600279282
1600282471
1600284521
1600284770
1600285596
1600291563
1600292505
1600292599
1600293855
1600295130
1600298376
1600306050
1600306857
1600307265
1600307642
1600308661
1600310786
1600311263
1600311740
1600313572
1600313942
1600324676
1600326061
1600328799
1600329408
1600335115
1600337375
1600338366
1600338704
1600339465
1600341776
1600342942
1600344094
1600344794
1600344958
1600345170
1600345898
1600346171
1600347939
1600348067
1600348896
1600351530
1600355001
1600355472
1600355581
1600356945
1600357381
1600357795
1600359437
1600360796
1600361829
1600362549
1600362778
1600366052
1600367021
1600368164
1600369018
1600369489
1600369673
1600374492
1600375348
1600376926
1600378777
1600379319
1600381754
1600381916
1600383046
1600385012
1600385692
1600394750
1600397713
1600398661
1600399786
1600400585
1600400996
1600402823
1600404579
1600405106
1600407657
1600408558
1600408928
1600409152
1600415663
1600419555
1600420030
1600422870
1600423966
1600425585
1600426141
1600426440
1600426992
1600429356
1600432054
1600432546
1600432775
1600433291
1600435499
1600436259
1600437476
1600440880
1600441220
1600442094
1600442887
1600445210
1600447168
1600448019
1600451344
1600451362
1600452111
1600452544
1600454882
1600455995
1600456571
1600457684
1600458112
1600458837
1600459463
1600460549
1600460770
1600461513
1600463364
1600464536
1600465297
1600468535
1600469172
1600469298
1600472220
1600472591
1600472768
1600473099
1600474253
1600474780
1600475920
1600477454
1600480580
1600480557
1600481898
1600483099
1600484966
1600488914
1600491361
1600493534
1600493660
1600495469
1600496024
1600496611
1600497909
1600498993
1600499554
1600501682
1600508195
1600509190
1600509984
1600511183
1600511906
1600512384
1600519613
1600523246
1600526090
1600528903
1600530019
1600530323
1600531038
1600531397
1600537799
1600537888
1600541355
1600545603
1600545743
1600546008
1600546158
1600549785
1600550232
1600550516
1600550797
1600553364
1600553640
1600554998
1600555158
1600559347
1600559478
1600559734
1600562143
1600563355
1600563912
1600564151
1600569340
1600572642
1600574037
1600574673
1600575334
1600577936
1600579536
1600579816
1600586554
1600590486
1600592731
1600598444
1600602214
1600603989
1600605180
1600607530
1600608046
1600609535
1600611287
1600612135
1600612726
1600612766
1600615246
1600615932
1600618457
1600620116
1600621836
1600622029
1600622594
1600627205
1600631513
1600632125
1600633386
1600634119
1600636934
1600639617
1600641219
1600641946
1600643431
1600645153
1600645617
1600646340
1600646877
1600647554
1600648867
1600649240
1600649312
1600650322
1600650792
1600657643
1600662156
1600664118
1600666024
1600666349
1600666806
1600666906
1600667904
1600669803
1600670281
1600670825
1600672468
1600674097
1600674432
1600675815
1600676102
1600677185
1600678739
1600678941
1600680348
1600681776
1600682200
1600683214
1600684754
1600689608
1600689971
1600691510
1600698351
1600699836
1600700726
1600701334
1600702385
1600705279
1600709987
1600710288
1600711880
1600712514
1600713857
1600714501
1600714786
1600714958
1600716504
1600721812
1600724064
1600724494
1600724685
1600727188
1600727370
1600730619
1600731226
1600732971
1600733725
1600736150
1600736176
1600738496
1600739948
1600740847
1600741022
1600742064
1600745297
1600745682
1600746689
1600746820
1600746853
1600749540
1600750014
1600755022
1600755745
1600756352
1600759718
1600760284
1600762241
1600762296
1600764916
1600765300
1600766888
1600770068
1600771895
1600773748
1600774523
1600775300
1600778349
1600779629
1600783083
1600783110
1600788981
1600790939
1600792295
1600792938
1600795065
1600795328
1600796840
1600798080
1600803647
1600805153
1600805270
1600809501
1600811464
1600812172
1600815510
1600816103
1600816751
1600818294
1600821451
1600823646
1600824905
1600825556
1600826570
1600827149
1600831315
1600835359
1600837400
1600840117
1600840209
1600847390
1600848028
1600849916
1600849931
1600853217
1600853375
1600855268
1600857177
1600857895
1600858071
1600861089
1600863738
1600864068
1600865329
1600865454
1600865740
1600869074
1600870840
1600873336
1600873418
1600874976
1600875776
1600876209
1600876272
1600880136
1600884868
1600887809
1600887874
1600890592
1600891065
1600890972
1600893609
1600896400
1600898942
1600899434
1600900192
1600901518
1600903245
1600906051
1600912154
1600912568
1600916508
1600917276
1600917843
1600918857
1600919014
1600923105
1600927636
1600932244
1600933768
1600935568
1600935962
1600936170
1600938147
1600940790
1600941880
1600942938
1600944264
1600946118
1600947572
1600949408
1600950705
1600952633
1600954814
1600955515
1600958484
1600960099
1600960523
1600962000
1600962949
1600963055
1600966681
1600966797
1600967823
1600969400
1600969999
1600971296
1600971377
1600973907
1600975749
1600976224
1600982504
1600983089
1600985178
1600985225
1600986296
1600988213
1600993363
1600995834
1600996549
1600998847
1600999582
1600999646
1600999982
1601000091
1601000415
1601004048
1601005620
1601006723
1601007639
1601008664
1601008636
1601008903
1601009197
1601011341
1601011498
1601011710
1601014938
1601017885
1601018033
1601020649
1601020868
1601021802
1601023079
1601023818
1601024021
1601024154
1601025513
1601027509
1601031086
1601031376
1601032027
1601032179
1601033442
1601034750
1601035953
1601036068
1601037157
1601037781
1601040894
1601043122
1601044949
1601045205
1601045288
1601048777
1601051663
1601054441
1601055546
1601055816
1601058642
1601061952
1601062749
1601062867
1601066213
1601067731
1601068564
1601069410
1601071249
1601071467
1601072927
1601073649
1601076865
1601078162
1601078227
1601081021
1601082194
1601082219
1601084399
1601085067
1601085335
1601093764
1601093985
1601094370
1601095455
1601095515
1601095830
1601097967
1601099400
1601104573
1601105793
1601106248
1601106421
1601106842
1601108167
1601109947
1601110128
1601111492
1601111587
1601115397
1601117961
1601121190
1601121499
1601123062
1601123206
1601125658
1601125750
1601125979
1601126574
1601128900
1601130367
1601130401
1601133212
1601133891
1601133923
1601136461
1601137837
1601139647
1601140081
1601140174
1601140305
1601140290
1601140733
1601140799
1601141344
1601141823
1601143879
1601145035
1601145379
1601147594
1601149679
1601153686
1601154992
1601155442
1601155801
1601156004
1601157492
1601158090
1601159641
1601159795
1601160747
1601160890
1601162384
1601165140
1601170495
1601170586
1601172802
1601173866
1601179122
1601182098
1601185705
1601186212
1601192351
1601192728
1601195066
1601195242
1601199032
1601200323
1601202825
1601203150
1601203530
1601205607
1601208274
1601208280
1601209261
1601210700
1601212686
1601213258
1601214967
1601217501
1601219409
1601219491
1601222442
1601223715
1601226788
1601231508
1601232143
1601232873
1601235341
1601236418
1601236507
1601237495
1601239434
1601240510
1601243272
1601246351
1601249103
1601250612
1601251531
1601253160
1601253635
1601254668
1601255486
1601271120
1601271079
1601271310
1601271759
1601272386
1601273518
1601276211
1601277200
1601277340
1601278165
1601280053
1601282015
1601282341
1601284292
1601285060
1601287731
1601290850
1601291031
1601293496
1601295570
1601298762
1601298793
1601299338
1601300997
1601305315
1601305606
1601307038
1601307381
1601308409
1601308434
1601310537
1601315053
1601315104
1601320259
1601322183
1601322892
1601325118
1601325641
1601327523
1601328506
1601330314
1601331900
1601332419
1601333138
1601334308
1601335540
1601337717
1601338026
1601338788
1601338883
1601339142
1601339299
1601340670
1601341436
1601341733
1601342517
1601346173
1601346750
1601348966
1601349265
1601352025
1601359026
1601363021
1601367993
1601369904
1601370786
1601372532
1601373146
1601373250
1601377645
1601378107
1601378691
1601379033
1601379960
1601380490
1601380850
1601381488
1601381718
1601384659
1601385173
1601385481
1601386198
1601386212
1601389083
1601390239
1601390411
1601392805
1601395526
1601396040
1601398075
1601399492
1601402938
1601404250
1601405641
1601409371
1601410698
1601417105
1601417899
1601418338
1601420653
1601420886
1601421504
1601422770
1601424791
1601425523
1601426259
1601428973
1601429063
1601431472
1601431705
1601433920
1601434566
1601434737
1601434987
1601436764
1601440628
1601441246
1601442229
1601442947
1601443710
1601445136
1601447123
1601447681
1601448872
1601451202
1601453183
1601453562
1601454608
1601456095
1601456194
1601458989
1601459237
1601460290
1601460737
1601461968
1601464356
1601464443
1601464821
1601467121
1601468400
1601470268
1601472691
1601472703
1601473564
1601474131
1601474568
1601476327
1601477061
1601477287
1601477994
1601482505
1601482565
1601485153
1601486608
1601486694
1601495100
1601496259
1601497091
1601497756
1601498321
1601498542
1601498590
1601498632
1601499246
1601500540
1601501255
1601501701
1601502446
1601502761
1601503431
1601506174
1601507466
1601508669
1601508621
1601510609
1601510406
1601511721
1601512619
1601516195
1601516744
1601517694
1601518471
1601520283
1601520844
1601523219
1601524512
1601525486
1601526502
1601527988
1601532630
1601539793
1601542217
1601542645
1601543208
1601543455
1601543618
1601543658
1601547920
1601550272
1601556219
1601557489
1601558584
1601561173
1601561180
1601561216
1601562381
1601562758
1601563792
1601567657
1601569801
1601570216
1601572519
1601573163
1601574338
1601576539
1601577892
1601579198
1601583636
1601586098
1601586376
1601588218
1601588451
1601590523
1601591090
1601593048
1601594324
1601594674
1601598168
1601600936
1601602914
1601603995
1601605256
1601606443
1601607674
1601612699
1601616087
1601617773
1601618238
1601621003
1601626854
1601626847
1601629658
1601630431
1601630410
1601630717
1601632989
1601633181
1601636154
1601636282
1601638975
1601640682
1601641221
1601641340
1601641620
1601644308
1601644949
1601645484
1601646312
1601651604
1601655453
1601655793
1601658803
1601660629
1601665078
1601666354
1601666367
1601667489
1601667825
1601668505
1601669019
1601669408
1601671704
1601671695
1601672618
1601680874
1601681865
1601683359
1601684740
1601685036
1601685054
1601686262
1601687496
1601688677
1601688695
1601688795
1601691161
1601691457
1601691956
1601692641
1601696850
1601699467
1601699992
1601700224
1601702182
1601703380
1601703644
1601705547
1601707304
1601709101
1601711385
1601711704
1601712851
1601712854
1601713762
1601714632
1601714746
1601715225
1601716237
1601716743
1601717301
1601719189
1601721330
1601721432
1601726395
1601727699
1601727774
1601727971
1601728893
1601728990
1601729695
1601731776
1601732572
1601733787
1601734158
1600031546
1600036053
1600064058
1603064571
1603065789
1603070063
1603071181
1603074339
1603074735
1603074997
1603075806
1603076040
1603076404
1603076775
1603077193
1603077910
1603078026
1603078151
1603082107
1603082692
1603083805
1603084973
1603089599
1603090451
1603091728
1603093693
1603095859
1603095917
1603097907
1603098729
1603099011
1603099461
1603100381
1603103238
1603108698
1603110062
1603110384
1603114738
1603118286
1603119619
1603120997
1603122468
1603128128
1603128474
1603129983
1603134081
1603134334
1603136648
1603136772
1603138303
1603140744
1603143446
1603146543
1603146908
1603148522
1603150343
1603150657
1603151846
1603154383
1603156185
1603158068
1603159116
1603159795
1603161109
1603166704
1603167757
1603169013
1603169467
1603169832
1603172274
1603172276
1603175261
1603176066
1603177862
1603178619
1603179104
1603179433
1603181759
1603186084
1603186946
1603194525
1603195776
1603196422
1603197704
1603200825
1603202959
1603203323
1603203925
1603208646
1603209924
1603210592
1603211383
1603213626
1603213930
1603214862
1603216347
1603220545
1603220633
1603220764
1603220263
1603222541
1603225443
1603227785
1603230473
1603236161
1603237231
1603237226
1603239876
1603240296
1603243755
1603244426
1603246167
1603246547
1603248190
1603251077
1603256878
1603257584
1603261818
1603262599
1603266160
1603267337
1603268192
1603269109
1603270735
1603271659
1603275208
1603275232
1603275400
1603277839
1603278119
1603279260
1603281027
1603282177
1603284046
1603285128
1603286119
1603288114
1603288595
1603289862
1603290439
1603294918
1603297922
1603298565
1603298837
1603298774
1603302299
1603309175
1603309251
1603314292
1603318469
1603318644
1603321331
1603321768
1603322473
1603323161
1603323984
1603327809
1603329128
1603329292
1603331443
1603332479
1603332666
1603333167
1603335106
1603339011
1603339574
1603339987
1603339991
1603340059
1603341852
1603342181
1603342182
1603343189
1603345513
1603346494
1603348128
1603351282
1603354266
1603356176
1603357008
1603358089
1603358137
1603358180
1603358277
1603358550
1603358922
1603361921
1603366337
1603366986
1603367801
1603370266
1603372719
1603373830
1603377231
1603377635
1603379160
1603379275
1603380088
1603381102
1603381409
1603383170
1603384267
1603385082
1603386718
1603386406
1603387253
1603389996
1603390280
1603391658
1603392491
1603393949
1603396519
1603397503
1603398187
1603398273
1603402453
1603402473
1603402479
1603403361
1603404169
1603408971
1603410089
1603411226
1603412807
1603413810
1603414319
1603414557
1603416277
1603416844
1603417924
1603422068
1603422573
1603422033
1603424326
1603424995
1603425501
1603426318
1603427675
1603431628
1603434854
1603436816
1603437577
1603439702
1603442346
1603442584
1603442862
1603443401
1603444247
1603445455
1603445559
1603446085
1603446546
1603447565
1603448058
1603449096
1603449505
1603451159
1603451642
1603454265
1603455751
1603456329
1603457258
1603457953
1603458128
1603458170
1603460317
1603461325
1603462294
1603463784
1603464885
1603468371
1603471061
1603472261
1603477527
1603480257
1603481768
1603483315
1603486121
1603487127
1603488698
1603490538
1603496876
1603496855
1603496920
1603498531
1603499783
1603503849
1603504185
1603506929
1603508288
1603508829
1603509112
1603511257
1603512471
1603513311
1603512323
1603515744
1603517968
1603518303
1603521282
1603521360
1603522908
1603523871
1603524238
1603525306
1603525259
1603526236
1603528234
1603530544
1603530888
1603533662
1603534186
1603534610
1603537380
1603537797
1603538434
1603541496
1603543051
1603543425
1603543512
1603545574
1603545855
1603547528
1603547879
1603551639
1603554768
1603562037
1603562144
1603566984
1603567547
1603567868
1603570250
1603572521
1603575579
1603576413
1603580833
1603584225
1603585383
1603585814
1603587509
1603587659
1603588285
1603590347
1603593949
1603596198
1603596782
1603597093
1603597181
1603600415
1603601592
1603602485
1603605401
1603605689
1603606708
1603608751
1603608968
1603610501
1603611803
1603613010
1603615484
1603617176
1603617591
1603619070
1603620080
1603621574
1603622690
1603626689
1603629850
1603631199
1603632459
1603633553
1603633780
1603635515
1603636520
1603641442
1603642523
1603642961
1603644484
1603644960
1603645229
1603646667
1603647411
1603649442
1603649789
1603649798
1603650142
1603654076
1603654265
1603655313
1603656219
1603660036
1603660741
1603662003
1603666810
1603667323
1603669935
1603672205
1603676502
1603677711
1603677921
1603678918
1603682898
1603684631
1603684749
1603686206
1603687994
1603688560
1603689160
1603690458
1603691812
1603695212
1603698017
1603698796
1603701176
1603701936
1603702234
1603705667
1603706059
1603708077
1603710403
1603711673
1603711779
1603712441
1603714654
1603715831
1603719608
1603719689
1603720358
1603721143
1603723977
1603724515
1603724988
1603729281
1603732267
1603732690
1603732883
1603737501
1603737927
1603739912
1603742733
1603745220
1603745775
1603747237
1603748444
1603749366
1603750885
1603751233
1603752179
1603752696
1603758388
1603758582
1603761222
1603764546
1603765330
1603767073
1603767909
1603768314
1603768694
1603769151
1603769389
1603772527
1603773248
1603774250
1603774317
1603774997
1603777311
1603777453
1603777481
1603777943
1603778264
1603780647
1603780737
1603781100
1603785084
1603786219
1603786724
1603787412
1603788136
1603788556
1603788825
1603787656
1603789858
1603793945
1603796064
1603797060
1603805908
1603812281
1603822866
1603889838
1603891234
1603892501
1603897156
1603897963
1603903318
1603904261
1603905506
1603909614
1603911663
1603917929
1603919930
1603921185
1603923554
1603924620
1603926971
1603929735
1603930142
1603930233
1603934140
1603936086
1603939088
1603940775
1603944055
1603945208
1603946182
1603947223
1603951494
1603950974
1603951566
1603952143
1603953098
1603954112
1603954660
1603955094
1603965650
1603965949
1603968136
1603969454
1603971123
1603972351
1603974145
1603974361
1603977069
1603986671
1603987141
1603988877
1603992097
1603992321
1603992203
1603994311
1603997435
1604001308
1604001168
1604004921
1604005470
1604005957
1604005602
1604006342
1604010435
1604013121
1604014493
1604014702
1604015564
1604016188
1604019176
1604020770
1604023232
1604023601
1604024216
1604024811
1604025019
1604025372
1604028583
1604028850
1604030646
1604031813
1604032485
1604033437
1604033811
1604034083
1604035446
1604036386
1604037152
1604039074
1604042318
1604044118
1604045076
1604048613
1604049926
1604054175
1604054767
1604057725
1604061659
1604062376
1604064683
1604065660
1604065592
1604065743
1604067999
1604070723
1604073301
1604074864
1604075960
1604077946
1604079213
1604080354
1604081646
1604082770
1604084281
1604085677
1604086822
1604087515
1604091453
1604094633
1604096548
1604096751
1604097948
1604098086
1604098495
1604098785
1604098954
1604099774
1604101887
1604102332
1604102466
1604105763
1604105322
1604106132
1604104733
1604106650
1604107088
1604108249
1604110671
1604112636
1604113358
1604113484
1604114603
1604117866
1604118296
1604122329
1604122115
1604124027
1604127839
1604132662
1604134620
1604137070
1604137160
1604138986
1604139022
1604139292
1604139835
1604141695
1604142567
1604143293
1604145668
1604145779
1604148942
1604151280
1604153255
1604153949
1604154315
1604156340
1604157401
1604159900
1604160883
1604162407
1604164139
1604164506
1604163277
1604171874
1604173815
1604177853
1604178199
1604180432
1604185632
1604186377
1604186436
1604187829
1604188993
1604190540
1604193673
1604196086
1604196599
1604196713
1604198035
1604204683
1604208009
1604207939
1604209493
1604209741
1604212251
1604215121
1604217711
1604221578
1604222021
1604222846
1604223845
1604228480
1604228574
1604229284
1604229894
1604230086
1604232112
1604232733
1604234004
1604234621
1604235016
1604238327
1604238487
1604238611
1604239186
1604240719
1604243122
1604243701
1604246527
1604247962
1604249355
1604249952
1604250688
1604253321
1604255679
1604256175
1604257665
1604258247
1604259299
1604261275
1604263052
1604265246
1604267823
1604269574
1604269628
1604271607
1604272821
1604275449
1604280048
1604279173
1604280579
1604282085
1604284231
1604286003
1604291574
1604292520
1604293269
1604295814
1604296884
1604296965
1604298677
1604299180
1604300308
1604307690
1604308283
1604308557
1604309074
1604310700
1604313756
1604316446
1604321395
1604321875
1604322500
1604327053
1604329499
1604328782
1604330239
1604330646
1604331625
1604332590
1604334515
1604335937
1604338319
1604339800
1604341240
1604347500
1604347816
1604349602
1604351714
1604353161
1604353127
1604354166
1604359782
1604361938
1604365217
1604366679
1604367710
1604367907
1604370393
1604370671
1604375220
1604397446
1604441880
1604445965
1604451768
1604453178
1604455855
1604457275
1604458325
1604459253
1604462424
1604468455
1604470145
1604471960
1604476745
1604478035
1604479026
1604479801
1604482477
1604483245
1604483914
1604484946
1604487622
1604488135
1604488835
1604490499
1604490683
1604491282
1604492981
1604496133
1604496744
1604499775
1604501645
1604503016
1604508032
1604510310
1604509936
1604511042
1604514796
1604516355
1604519172
1604519533
1604520092
1604520159
1604520636
1604520308
1604520975
1604522387
1604522550
1604524132
1604524321
1604525817
1604526270
1604526866
1604527571
1604529020
1604529523
1604531211
1604531312
1604531432
1604532717
1604535061
1604536680
1604537137
1604537673
1604540580
1604540434
1604541408
1604543025
1604548045
1604549294
1604549208
1604549934
1604552337
1604552903
1604553720
1604557442
1604558604
1604559491
1604559531
1604559996
1604561442
1604566460
1604567495
1604568657
1604569771
1604569647
1604572866
1604576175
1604576795
1604578950
1604579748
1604584070
1604584646
1604588434
1604590059
1604591098
1604592230
1604592426
1604593059
1604593646
1604594880
1604599149
1604602245
1604603116
1604603317
1604605570
1604608103
1604609074
1604610877
1604611552
1604611646
1604613378
1604614047
1604614261
1604618232
1604619010
1604620284
1604620865
1604621645
1604622124
1604622464
1604625335
1604626191
1604626329
1604626951
1604628128
1604632207
1604632685
1604633777
1604635900
1604639263
1604641496
1604645497
1604646174
1604649718
1604650302
1604651338
1604655988
1604659744
1604661565
1604663029
1604665452
1604666519
1604669618
1604669679
1604669848
1604670757
1604671404
1604671994
1604674349
1604679965
1604681702
1604683309
1604684165
1604687626
1604686965
1604688631
1604691860
1604691951
1604694780
1604694704
1604695556
1604695813
1604699307
1604702262
1604703543
1604704033
1604703789
1604708944
1604709295
1604709716
1604709759
1604713005
1604714953
1604716956
1604717300
1604717206
1604717745
1604719317
1604720620
1604721889
1604722769
1604723184
1604723716
1604724837
1604726461
1604727359
1604731644
1604732154
1604732076
1604734011
1604734266
1604734616
1604738178
1604742552
1604743197
1604744029
1604744586
1604745532
1604746910
1604749335
1604750465
1604750610
1604750578
1604752237
1604752993
1604753481
1604754828
1604754386
1604757803
1604760003
1604760306
1604764090
1604766693
1604767069
1604767184
1604770780
1604772466
1604773479
1604775160
1604774899
1604777405
1604777540
1604777745
1604779002
1604779406
1604781000
1604781350
1604783961
1604785375
1604786095
1604787507
1604788330
1604789328
1604790422
1604791417
1604793156
1604794196
1604797588
1604797568
1604798413
1604799377
1604799945
1604800380
1604800636
1604801616
1604802095
1604802129
1604803357
1604804155
1604805766
1604812149
1604813016
1604813829
1604816232
1604816539
1604817129
1604818777
1604822713
1604823781
1604824045
1604824459
1604828033
1604830771
1604830920
1604833474
1604836771
1604839060
1604840114
1604840664
1604842145
1604843042
1604843196
1604845263
1604847007
1604849482
1604849780
1604851847
1604852775
1604853819
1604856099
1604860750
1604862505
1604863180
1604863696
1604866311
1604866508
1604867071
1604870515
1604872155
1604873460
1604873114
1604873740
1604875646
1604875912
1604876745
1604876839
1604880029
1604880874
1604884434
1604885191
1604885257
1604886820
1604888548
1604888784
1604889315
1604889566
1604890323
1604890817
1604891408
1604892292
1604893710
1604893884
1604895198
1604896886
1604897609
1604898003
1604898751
1604899846
1604901481
1604907861
1604907969
1604909582
1604909846
1604912206
1604912097
1604913193
1604916100
1604916973
1604918830
1604919309
1604919746
1604921348
1604923657
1604924121
1604924667
1604927062
1604927763
1604929727
1604930189
1604933698
1604935859
1604936014
1604936286
1604938085
1604939349
1604940731
1604940833
1604941860
1604941925
1604943615
1604943904
1604944586
1604944658
1604945097
1604946013
1604948049
1604948462
1604950655
1604950978
1604951517
1604951771
1604955015
1604954761
1604955348
1604955451
1604956303
1604964151
1604966406
1604968162
1604968921
1604969397
1604974010
1604974238
1604976183
1604976919
1604978314
1604982463
1604982770
1604984821
1604985231
1604986400
1604987066
1604989778
1604991468
1604997571
1604999550
1605002513
1605002520
1605002972
1605003030
1605003561
1605004251
1605006333
1605006638
1605007184
1605008464
1605009223
1605009760
1605010172
1605014114
1605017212
1605017974
1605018568
1605019375
1605019321
1605021860
1605023370
1605027462
1605029819
1605030185
1605032351
1605032720
1605033160
1605033209
1605034834
1605034855
1605036284
1605037977
1605040063
1605042531
1605042589
1605043477
1605044902
1605045799
1605047697
1605048502
1605048520
1605051336
1605052067
1605052547
1605052869
1605054744
1605056285
1605056700
1605057661
1605058204
1605059319
1605059593
1605061128
1605062266
1605066085
1605066691
1605066748
1605066647
1605071167
1605070857
1605073084
1605074763
1605078678
1605081896
1605082048
1605082270
1605082443
1605083661
1605084629
1605086851
1605087275
1605089192
1605089328
1605093379
1605093561
1605094190
1605095014
1605097961
1605101806
1605102355
1605103670
1605104983
1605104985
1605105121
1605106800
1605108055
1605109013
1605109760
1605112059
1605111764
1605113082
1605113578
1605114038
1605114502
1605119860
1605121299
1605121189
1605121123
1605124028
1605125426
1605128061
1605129274
1605130077
1605132310
1605134772
1605136377
1605137602
1605137671
1605142154
1605144302
1605143854
1605145462
1605145776
1605145826
1605145611
1605153345
1605156093
1605157618
1605161099
1605161446
1605161524
1605163266
1605167038
1605167543
1605168977
1605173326
1605173455
1605173953
1605174283
1605174639
1605176938
1605178727
1605179054
1605179509
1605181896
1605188187
1605189351
1605190490
1605193704
1605194122
1605194766
1605197383
1605197734
1605198234
1605200452
1605201007
1605202011
1605202677
1605202858
1605204710
1605206325
1605209511
1605210581
1605211373
1605307683
1605309072
1605311492
1605315333
1605317655
1605318530
1605318861
1605320482
1605320376
1605324509
1605325339
1605327761
1605328098
1605332105
1605332327
1605333035
1605333290
1605343787
1605346282
1605347308
1605349043
1605350649
1605352130
1605353862
1605354690
1605355439
1605359482
1605362608
1605368162
1605371804
1605372397
1605438889
1605480584
1605493036
1605506372
1605506643
1605532560
1605581649
1605600233
1605621973
1605646193
1605656655
1605694020
1605719772
1605737593
1605792463
1605800041
1605817985
1605885290
1605951989
1605980745
1606102885
1606252747
1606278766
1606319111
1606383220
1606403486
1606514510
1606647906
1606648210
1606688024
1606802348
1606827039
1606838674
1606884051
1606951190
1607102944
1607134037
1607197485
1607224452
1607246928
1607390920
1607420836
1607555443
1607733979
1607786629
1607795610
1607982978
1608107321
1608133431
1608211146
1608415221
1608478165
1608511338
1608537493
1608549295
1608657768
1608720725
1608723856
1608807784
1608808601
1608819379
1608907347
1608916634
1609002595
1609006215
1609012613
1609060583
1609091156
1609096105
1609099440
1609100961
1609214654
1609219167
1609226012
1609276224
1609301740
1609354308
1609374288
1609421029
1609457605
1609459523
1609654775
1609743222
1609751919
1609821226
1609856010
1609891561
1609948498
1609996336
