730003754
730017993
730037313
730039235
1600001952
1600001952
1600001952
1600005346
1600006116
1600006116
1600006116
1600007302
1600007302
730003754
730037313
730039235
730068687
730074300
730096165
730101540
731047543
731047665
730113645
731059276
731060907
731073550
730137253
731080256
730153853
731109853
731110894
730178489
731117864
730184994
731132478
731132305
730199276
731140025
730215605
731156186
730230726
730239378
731171614
730241221
730262067
731218279
731221623
731232944
730308085
730324723
730327461
730343921
730404004
730423057
731562408
730431814
731576014
730449613
730450455
730472651
731616961
731628722
730496907
731640376
731642681
731649789
731668472
731676658
731681866
731683588
731685422
731713959
730530277
731735582
731736879
730547990
730555034
730565175
731779205
731785372
731795049
731796942
731808566
730614415
731839021
731864205
730671061
730673793
730681061
730681425
730684727
730687866
730689652
730694074
731900076
731910788
731990907
730713531
730716196
730717343
732014950
732015777
730721117
730727264
730751216
732061104
732061544
732063584
732070962
732071929
732094687
730803751
732101689
732103523
732105345
732110082
730817422
730819448
730819721
730823178
732128114
1600001952
1600005346
1600006116
1600007302
1600008404
1600009284
1600011591
1600013123
1600015990
1600016778
1600018334
1600023171
1600023387
1600026854
1600028137
1600030336
1600031937
1600033140
1600033257
1600033992
1600035940
1600036434
1600037829
1600038706
1600039878
1600045852
1600048200
1600048827
1600051809
1600053159
1600054857
1600061780
1600061780
1600062100
1600064719
1600065514
1600066182
1600067040
1600068007
1600068761
1600069422
1600072646
1600076934
1600079474
1600079732
1600080015
1600081298
1600086246
1600086702
1600089743
1600091380
1600092976
1600094574
1600095161
1600096710
1600099033
1600102839
1600103240
1600104334
1600106300
1600107139
1600107120
1600109659
1600110768
1600110886
1600111238
1600112909
1600113227
1600117851
1600120048
1600121950
1600122784
1600123002
1600125086
1600126865
1600127582
1600127635
1600127961
1600128725
1600130989
1600131489
1600132612
1600133409
1600133543
1600133935
1600135474
1600137428
1600142450
1600147324
1600147884
1600148627
1600149086
1600154861
1600154970
1600156254
1600160331
1600164469
1600166661
1600168094
1600169611
1600170956
1600175138
1600176679
1600177331
1600180010
1600180255
1600181405
1600182149
1600182772
1600184231
1600186118
1600189881
1600192925
1600193922
1600194167
1600195187
1600197528
1600200059
1600201456
1600202401
1600202550
1600202762
1600204019
1600204387
1600206721
1600207051
1600207184
1600210579
1600210644
1600211312
1600214160
1600214389
1600214905
1600215664
1600217405
1600220377
1600221301
1600222843
1600223538
1600223669
1600225552
1600226242
1600226367
1600228777
1600229033
1600229312
1600229304
1600230859
1600231998
1600234183
1600236870
1600242013
1600243448
1600244828
1600245874
1600246339
1600250620
1600251911
1600256221
1600257105
1600258220
1600258795
1600260408
1600261315
1600262233
1600262991
1600265052
1600265484
1600265886
1600266046
1600266057
1600266126
1600271186
1600272832
1600273890
1600274363
1600275582
1600277943
1600280452
1600280854
1600282107
1600282930
1600285425
1600285797
1600286189
1600289586
1600291463
1600295921
1600298203
1600303828
1600305469
1600306501
1600306999
1600308261
1600308545
1600312001
1600312910
1600313278
1600317279
1600320267
1600320715
1600323114
1600324979
1600325718
1600329469
1600329721
1600331307
1600332907
1600334288
1600334757
1600337691
1600341309
1600341648
1600342780
1600345205
1600346774
1600346966
1600348811
1600349156
1600350224
1600351066
1600354550
1600355028
1600362643
1600363817
1600365651
1600365918
1600366254
1600366258
1600366945
1600368868
1600369705
1600373736
1600374512
1600375464
1600377862
1600378403
1600379968
1600380916
1600381068
1600381198
1600381471
1600383316
1600384196
1600384362
1600384613
1600385144
1600386903
1600388674
1600389321
1600389418
1600390019
1600391233
1600393852
1600394209
1600395701
1600396347
1600397795
1600399283
1600400823
1600401139
1600401559
1600403705
1600405956
1600408302
1600408398
1600410168
1600410976
1600411309
1600411708
1600415036
1600417007
1600418153
1600418317
1600418407
1600421154
1600421625
1600422461
1600423906
1600424264
1600424324
1600427064
1600433791
1600435925
1600436244
1600436451
1600437028
1600438657
1600440164
1600440287
1600442702
1600444103
1600445363
1600445603
1600445677
1600447155
1600449218
1600450441
1600451748
1600452151
1600456165
1600457578
1600458401
1600460741
1600463481
1600463948
1600467437
1600468755
1600469311
1600469982
1600470088
1600470722
1600472713
1600473157
1600473857
1600475343
1600475373
1600475745
1600476006
1600476917
1600478232
1600480476
1600482453
1600483488
1600484171
1600487363
1600487528
1600490117
1600493704
1600494252
1600494525
1600496342
1600496482
1600498632
1600498751
1600498744
1600500433
1600501945
1600504299
1600505913
1600506713
1600509332
1600509447
1600513378
1600513464
1600514011
1600514927
1600516001
1600517727
1600519087
1600517727
1600522827
1600523088
1600524991
1600526425
1600527164
1600526832
1600528254
1600528418
1600529392
1600530842
1600534291
1600535814
1600538589
1600539142
1600539375
1600539728
1600540230
1600541785
1600542553
1600544553
1600544641
1600547155
1600547688
1600548017
1600548847
1600549090
1600550435
1600552684
1600552954
1600557160
1600560369
1600561129
1600561305
1600561854
1600562429
1600563002
1600563636
1600563669
1600564844
1600567058
1600567170
1600567555
1600568311
1600568552
1600571222
1600574008
1600579664
1600580616
1600580763
1600581133
1600582661
1600586392
1600586995
1600586943
1600588383
1600588779
1600589072
1600589288
1600590657
1600591493
1600591631
1600592001
1600593740
1600593781
1600594876
1600596344
1600596754
1600597222
1600597172
1600598892
1600599315
1600600712
1600603324
1600603650
1600607155
1600608157
1600609662
1600610176
1600610729
1600611409
1600614215
1600614216
1600616631
1600617464
1600620052
1600622125
1600623499
1600625005
1600625085
1600625922
1600626345
1600627779
1600629587
1600632548
1600634477
1600634745
1600636941
1600637157
1600637276
1600637282
1600637725
1600639949
1600639570
1600641390
1600643596
1600643730
1600644799
1600647991
1600648931
1600650523
1600651401
1600654078
1600659572
1600659672
1600659909
1600660093
1600662362
1600664308
1600666504
1600666734
1600669496
1600669662
1600672018
1600676399
1600676729
1600677413
1600677620
1600677200
1600681936
1600684785
1600685482
1600688731
1600690371
1600691339
1600695359
1600695914
1600698370
1600699629
1600699693
1600701854
1600703758
1600705451
1600707905
1600709962
1600710501
1600710621
1600711979
1600714010
1600716262
1600717735
1600720962
1600724631
1600724881
1600727089
1600727028
1600727340
1600728100
1600729446
1600729577
1600734491
1600733915
1600735300
1600736721
1600737100
1600737256
1600739324
1600742025
1600743374
1600744721
1600747206
1600747908
1600748152
1600748162
1600750293
1600750839
1600753347
1600753727
1600755204
1600755595
1600757834
1600757999
1600759753
1600762746
1600764285
1600767417
1600769309
1600771920
1600773205
1600774137
1600774899
1600775675
1600776678
1600777166
1600777474
1600784029
1600785212
1600787863
1600788581
1600788728
1600792756
1600793519
1600799574
1600800608
1600802199
1600806383
1600807117
1600808125
1600809488
1600809491
1600809570
1600810447
1600811217
1600812088
1600812460
1600814825
1600816532
1600817265
1600817938
1600818914
1600819634
1600820538
1600820653
1600820913
1600821474
1600826324
1600826374
1600826350
1600829516
1600832452
1600832675
1600833955
1600836659
1600836681
1600837081
1600837133
1600840612
1600842890
1600846804
1600847267
1600848854
1600849725
1600852012
1600855266
1600855264
1600856110
1600856854
1600857291
1600860346
1600861058
1600862460
1600863993
1600865494
1600866210
1600870043
1600870638
1600873817
1600878533
1600881918
1600882179
1600883912
1600885526
1600888603
1600889371
1600890577
1600891150
1600892983
1600893575
1600893733
1600894525
1600896343
1600896391
1600897765
1600897799
1600898124
1600900841
1600901675
1600903320
1600904292
1600904855
1600909132
1600910782
1600913488
1600913902
1600914035
1600914877
1600914916
1600917205
1600917882
1600918001
1600918451
1600923276
1600925272
1600925302
1600928966
1600931514
1600931903
1600935732
1600938258
1600940755
1600944144
1600944888
1600946475
1600947642
1600952827
1600953579
1600953602
1600954849
1600955100
1600962169
1600963134
1600965001
1600965206
1600967280
1600968915
1600969020
1600973104
1600973697
1600975317
1600975887
1600976162
1600977159
1600986387
1600986949
1600988844
1600989162
1600990234
1600991040
1600991412
1600991669
1600992693
1600998717
1600998806
1601002584
1601002777
1601003559
1601004952
1601006178
1601007540
1601009473
1601010722
1601012492
1601012738
1601017468
1601017758
1601018452
1601020377
1601021250
1601021404
1601022197
1601022834
1601023106
1601023283
1601024860
1601027096
1601034081
1601039360
1601039413
1601039567
1601040811
1601041578
1601044608
1601045833
1601048330
1601049350
1601053042
1601056753
1601057064
1601057812
1601058172
1601058795
1601059108
1601059794
1601060136
1601061068
1601063633
1601066482
1601067838
1601068019
1601068253
1601069620
1601071063
1601071103
1601072584
1601073347
1601073551
1601075090
1601075043
1601075657
1601077370
1601078455
1601079652
1601080254
1601080852
1601081004
1601081767
1601087829
1601088637
1601092154
1601093297
1601093713
1601096958
1601098000
1601098867
1601098970
1601103287
1601104613
1601104812
1601105823
1601105995
1601108372
1601109686
1601111576
1601113333
1601113637
1601114449
1601114635
1601115192
1601117946
1601119103
1601119399
1601119952
1601120166
1601123198
1601124481
1601126721
1601127293
1601128249
1601129224
1601130746
1601133263
1601136230
1601137125
1601138627
1601138705
1601142765
1601144295
1601144387
1601145180
1601145321
1601146184
1601146489
1601146620
1601148679
1601148920
1601150178
1601151254
1601152031
1601151708
1601152762
1601153574
1601154908
1601155877
1601156917
1601156913
1601159841
1601160009
1601162290
1601166836
1601169981
1601172559
1601173742
1601174032
1601175638
1601180087
1601180566
1601181482
1601181551
1601182279
1601183936
1601185070
1601186366
1601187026
1601188109
1601188206
1601190462
1601192739
1601194622
1601195376
1601195729
1601197518
1601201066
1601201458
1601201778
1601203464
1601204288
1601205265
1601207085
1601207506
1601209434
1601209771
1601210171
1601213987
1601214646
1601215261
1601215663
1601218916
1601219652
1601219650
1601220504
1601220837
1601221091
1601221474
1601221830
1601224212
1601225971
1601227192
1601228859
1601228978
1601229159
1601231396
1601231988
1601232395
1601234331
1601235345
1601237954
1601242055
1601242249
1601244046
1601245335
1601246696
1601247740
1601248085
1601248364
1601249971
1601250248
1601255228
1601255527
1601260480
1601264437
1601268848
1601275241
1601276808
1601277485
1601280195
1601281167
1601282160
1601285843
1601285995
1601287055
1601288333
1601289248
1601289434
1601291325
1601293842
1601294172
1601296550
1601297303
1601297989
1601299308
1601299735
1601300416
1601303802
1601309329
1601310357
1601312142
1601314332
1601314429
1601316309
1601321021
1601321439
1601321433
1601321695
1601322959
1601325376
1601328183
1601328471
1601330317
1601331087
1601331705
1601331911
1601334432
1601334623
1601339124
1601339490
1601340104
1601341348
1601341291
1601341827
1601344948
1601346156
1601347550
1601349323
1601349935
1601350571
1601351212
1601352331
1601355976
1601357022
1601362453
1601362672
1601363216
1601365746
1601366373
1601367912
1601368649
1601370925
1601371810
1601372356
1601373977
1601377264
1601378561
1601379563
1601379742
1601380755
1601381708
1601385494
1601392962
1601400294
1601401139
1601401598
1601403055
1601403532
1601404903
1601407053
1601409149
1601409681
1601411584
1601413029
1601413925
1601415097
1601415233
1601415623
1601416880
1601417987
1601418598
1601420508
1601420826
1601422453
1601423245
1601424099
1601425115
1601428833
1601432026
1601436463
1601437671
1601438138
1601444696
1601445582
1601445796
1601446010
1601446497
1601447020
1601449350
1601451860
1601455552
1601455878
1601456546
1601458588
1601462865
1601465259
1601465933
1601467461
1601470547
1601470760
1601473860
1601473968
1601477609
1601477625
1601478024
1601484829
1601485335
1601485405
1601488292
1601488481
1601488904
1601492054
1601492984
1601495795
1601495861
1601498241
1601500048
1601500725
1601504695
1601508473
1601512455
1601512653
1601514628
1601517261
1601517666
1601518410
1601521142
1601521881
1601522672
1601522899
1601523363
1601527034
1601527195
1601527983
1601528801
1601529636
1601531039
1601535799
1601545070
1601545283
1601545740
1601547882
1601549479
1601552449
1601552624
1601552859
1601557069
1601559740
1601560414
1601560683
1601562018
1601564289
1601565271
1601565394
1601567843
1601568184
1601569733
1601569943
1601570126
1601570542
1601572093
1601572926
1601575556
1601576396
1601576411
1601577218
1601579735
1601580041
1601580318
1601581800
1601583076
1601586240
1601588865
1601589386
1601591690
1601595573
1601595826
1601598165
1601598552
1601599390
1601600369
1601601330
1601601640
1601601966
1601602020
1601603893
1601605610
1601606893
1601610903
1601611410
1601615761
1601616398
1601616467
1601617116
1601619126
1601618970
1601622042
1601622303
1601622369
1601625192
1601625486
1601627704
1601628692
1601630806
1601631186
1601631306
1601633549
1601636810
1601639971
1601643090
1601645518
1601653301
1601653508
1601654779
1601655151
1601657072
1601658412
1601659891
1601662393
1601662492
1601662534
1601663488
1601663879
1601663883
1601665844
1601666659
1601669318
1601669327
1601670153
1601670423
1601672537
1601673843
1601674117
1601677244
1601681530
1601683124
1601683210
1601683573
1601683848
1601684262
1601685462
1601689955
1601694039
1601698412
1601699190
1601698412
1601701760
1601701106
1601703369
1601703785
1601704181
1601706145
1601707299
1601707885
1601708244
1601709730
1601710873
1601711046
1601711237
1601711568
1601713724
1601714864
1601715443
1601716026
1601721106
1601721619
1601722099
1601722547
1601722701
1601723913
1601726170
1601726904
1601732946
1601734522
1601734566
1603064572
1603065080
1603067347
1603068410
1603068406
1603068512
1603070535
1603073033
1603074087
1603074138
1603074597
1603075572
1603075669
1603077727
1603078266
1603078292
1603080092
1603084825
1603087042
1603088166
1603088386
1603088486
1603088460
1603089825
1603089903
1603091886
1603092233
1603092658
1603092816
1603093680
1603096437
1603104792
1603105680
1603105965
1603106982
1603110372
1603112121
1603117269
1603117448
1603118309
1603122527
1603123438
1603124400
1603124774
1603126989
1603127040
1603127220
1603127903
1603129450
1603129827
1603129736
1603131517
1603134915
1603135749
1603137682
1603139508
1603139811
1603140259
1603140498
1603142141
1603143578
1603146015
1603146900
1603147176
1603147472
1603148776
1603150809
1603154673
1603155350
1603156243
1603158047
1603159279
1603159926
1603160890
1603161426
1603162213
1603162181
1603163133
1603167092
1603166296
1603168658
1603169487
1603169707
1603171790
1603171606
1603173039
1603174449
1603176653
1603177635
1603179638
1603181636
1603184308
1603184463
1603184977
1603189162
1603190047
1603191926
1603191942
1603193953
1603194937
1603195904
1603196212
1603196395
1603199307
1603199431
1603199337
1603200515
1603201550
1603201279
1603202708
1603204700
1603206003
1603208749
1603212957
1603213300
1603213208
1603214915
1603215492
1603215724
1603218210
1603218514
1603220056
1603221858
1603222869
1603223343
1603224575
1603225124
1603225261
1603225640
1603226669
1603228919
1603229350
1603230316
1603230543
1603232106
1603233515
1603239620
1603239922
1603239891
1603240502
1603242045
1603244121
1603247904
1603248503
1603251843
1603252166
1603252248
1603259395
1603259389
1603259643
1603262489
1603263080
1603264628
1603264737
1603268338
1603269038
1603269484
1603270181
1603274279
1603274693
1603275986
1603276950
1603277683
1603281159
1603281806
1603281741
1603282765
1603283862
1603289431
1603292362
1603293114
1603294401
1603295960
1603296484
1603300641
1603302146
1603302701
1603303338
1603304089
1603304638
1603304745
1603308353
1603312314
1603313146
1603316135
1603318158
1603318276
1603318474
1603321743
1603323050
1603324658
1603325422
1603327523
1603328637
1603328936
1603329260
1603329944
1603330109
1603330556
1603334244
1603335317
1603335597
1603336092
1603336128
1603336484
1603336237
1603337988
1603342208
1603342686
1603345917
1603347337
1603351680
1603351937
1603352336
1603352268
1603352757
1603352828
1603352931
1603353309
1603354092
1603357320
1603357515
1603356703
1603359784
1603360026
1603360998
1603360805
1603361221
1603364124
1603364464
1603365935
1603366262
1603371103
1603371178
1603373425
1603374299
1603376581
1603377347
1603378910
1603380158
1603381270
1603381350
1603381935
1603382114
1603382753
1603390508
1603390921
1603391761
1603392545
1603393208
1603394602
1603394550
1603396122
1603398771
1603399028
1603400556
1603400366
1603405409
1603407905
1603409125
1603409247
1603409463
1603412415
1603413056
1603413362
1603415329
1603415773
1603416447
1603416776
1603417109
1603417182
1603418038
1603419144
1603419590
1603421466
1603422585
1603424215
1603424763
1603425897
1603426895
1603427828
1603428255
1603428516
1603429849
1603432515
1603432414
1603433370
1603436878
1603439670
1603440130
1603441049
1603441084
1603441498
1603443354
1603443945
1603445750
1603445965
1603447598
1603449188
1603449481
1603449767
1603449826
1603450464
1603453749
1603454014
1603455396
1603455633
1603457633
1603458975
1603466307
1603467463
1603468157
1603468772
1603469623
1603470936
1603471366
1603471623
1603472505
1603473294
1603475121
1603476613
1603477543
1603479952
1603479589
1603480399
1603484242
1603485136
1603486422
1603486717
1603487077
1603487658
1603489596
1603476239
1603493497
1603497983
1603500329
1603500950
1603501841
1603505438
1603506049
1603506111
1603506253
1603510126
1603511021
1603513100
1603515377
1603517391
1603519298
1603522013
1603524783
1603525235
1603528982
1603529815
1603537291
1603538728
1603539278
1603540231
1603540570
1603540880
1603542423
1603542357
1603543694
1603543697
1603545008
1603545318
1603545685
1603546119
1603546688
1603546697
1603547792
1603547834
1603547939
1603549318
1603550262
1603550661
1603553972
1603554894
1603555156
1603555647
1603556169
1603556651
1603560046
1603560778
1603562851
1603563125
1603563992
1603564277
1603568417
1603568580
1603572685
1603573763
1603574813
1603576243
1603577352
1603578051
1603578348
1603580280
1603580640
1603582186
1603582465
1603582715
1603582889
1603582744
1603583688
1603584552
1603584795
1603585953
1603586059
1603585826
1603586952
1603587122
1603588676
1603588708
1603589258
1603590707
1603591424
1603591760
1603591790
1603593015
1603593123
1603595552
1603597569
1603598673
1603599442
1603600341
1603600492
1603601919
1603604862
1603605924
1603607385
1603607791
1603608704
1603609895
1603611698
1603611925
1603612812
1603615050
1603615147
1603618547
1603619666
1603623408
1603627313
1603629298
1603629717
1603634003
1603635308
1603635614
1603636755
1603636841
1603637321
1603638738
1603642383
1603643115
1603643285
1603644750
1603644977
1603648814
1603649886
1603650879
1603651243
1603653273
1603653730
1603654030
1603655877
1603657638
1603662394
1603663093
1603664592
1603664628
1603665960
1603666182
1603670797
1603671072
1603671405
1603672546
1603673058
1603673939
1603675364
1603675410
1603680621
1603681460
1603683533
1603685207
1603686361
1603687905
1603688349
1603689709
1603691591
1603692883
1603693297
1603693705
1603695579
1603697954
1603697942
1603698625
1603699731
1603701319
1603703458
1603704865
1603706378
1603706741
1603707913
1603707894
1603709662
1603710061
1603713832
1603716252
1603723449
1603724225
1603727545
1603728329
1603730353
1603731771
1603734353
1603734321
1603737505
1603739910
1603739924
1603741979
1603743653
1603746921
1603749732
1603749765
1603751223
1603751934
1603752267
1603752492
1603753613
1603755701
1603759856
1603759950
1603760876
1603761436
1603761874
1603764221
1603765507
1603767944
1603771008
1603773895
1603776997
1603777635
1603778105
1603780494
1603783182
1603783498
1603783788
1603783123
1603787268
1603788827
1603788970
1603790025
1603790325
1603790405
1603790836
1603792745
1603792922
1603795697
1603810163
1603826247
1603889811
1603896325
1603898423
1603898900
1603898884
1603902158
1603906658
1603907244
1603913226
1603916884
1603916972
1603917962
1603918351
1603922114
1603922300
1603927733
1603927818
1603930364
1603932418
1603933853
1603935373
1603941397
1603946202
1603946658
1603947163
1603949051
1603950148
1603951673
1603952345
1603954933
1603954898
1603955477
1603956370
1603957617
1603960048
1603960404
1603961138
1603962062
1603963054
1603968203
1603968995
1603970262
1603970416
1603972250
1603975620
1603979605
1603981294
1603983117
1603983303
1603983185
1603983551
1603986601
1603987951
1603992475
1603995349
1604002506
1604002418
1604010064
1604010741
1604013485
1604014095
1604014501
1604014782
1604015657
1604016322
1604019255
1604022038
1604028629
1604032702
1604035538
1604036780
1604038762
1604041570
1604043093
1604044228
1604044372
1604047412
1604047504
1604047890
1604047917
1604050173
1604050520
1604051336
1604052288
1604054069
1604054341
1604057693
1604059133
1604061511
1604061961
1604062641
1604064338
1604068622
1604069125
1604069436
1604073050
1604073335
1604074593
1604077519
1604078814
1604078769
1604078992
1604079107
1604081190
1604086297
1604085219
1604087142
1604088243
1604090107
1604090233
1604090956
1604092890
1604094253
1604095128
1604095294
1604095918
1604099710
1604101702
1604102927
1604102281
1604103926
1604104407
1604104991
1604104703
1604106432
1604106833
1604107339
1604109461
1604109561
1604109832
1604109961
1604112529
1604113348
1604114188
1604117281
1604118610
1604121045
1604122544
1604123262
1604126151
1604126806
1604130763
1604132226
1604132699
1604135137
1604136058
1604136458
1604139376
1604141424
1604141778
1604145159
1604146710
1604148453
1604148524
1604155340
1604157229
1604158756
1604159110
1604161101
1604161183
1604162558
1604164498
1604164597
1604165102
1604166722
1604171748
1604173121
1604173532
1604174043
1604174140
1604175654
1604176452
1604180335
1604183177
1604183559
1604184062
1604188580
1604193642
1604195186
1604196091
1604193920
1604198078
1604205451
1604207682
1604210094
1604210838
1604212117
1604212361
1604213160
1604214859
1604215280
1604217735
1604218804
1604219422
1604220005
1604220378
1604220699
1604221717
1604222374
1604222370
1604222526
1604223225
1604225513
1604227518
1604228856
1604230037
1604230563
1604230976
1604233205
1604233890
1604235084
1604235708
1604240527
1604240922
1604243885
1604245984
1604248215
1604249534
1604249700
1604249772
1604255618
1604256341
1604258036
1604259711
1604259873
1604260463
1604262346
1604262549
1604263421
1604264942
1604267041
1604270216
1604270782
1604271021
1604271936
1604273531
1604275250
1604277479
1604279493
1604280706
1604280876
1604282001
1604283262
1604283850
1604286136
1604286902
1604289944
1604296486
1604309982
1604310866
1604311298
1604311871
1604311974
1604313562
1604314592
1604315023
1604318672
1604320161
1604320389
1604323221
1604324789
1604326463
1604328452
1604328515
1604329788
1604330344
1604330906
1604337446
1604339204
1604339724
1604340752
1604340672
1604342728
1604345355
1604348722
1604350055
1604351258
1604355071
1604355831
1604356620
1604357081
1604357965
1604358341
1604360000
1604360363
1604361775
1604361903
1604365676
1604370749
1604371143
1604372218
1604372456
1604374415
1604374891
1604377725
1604379731
1604381136
1604386808
1604448286
1604448955
1604449216
1604449540
1604457812
1604458743
1604461327
1604462633
1604464287
1604469596
1604472859
1604472972
1604478438
1604478943
1604480218
1604481329
1604481997
1604482105
1604485532
1604488617
1604489535
1604492091
1604492151
1604493838
1604494798
1604496933
1604497323
1604497727
1604499633
1604504767
1604505137
1604505424
1604506851
1604507157
1604516635
1604516794
1604517071
1604517126
1604519221
1604519693
1604523916
1604524460
1604533482
1604535630
1604537364
1604538654
1604538799
1604539633
1604541011
1604542009
1604542667
1604543340
1604545318
1604546560
1604548047
1604550320
1604551398
1604554310
1604555775
1604556359
1604560898
1604564732
1604566485
1604567143
1604568598
1604570831
1604571345
1604571890
1604572365
1604572422
1604572499
1604573645
1604573772
1604574450
1604576010
1604579520
1604583193
1604583443
1604583919
1604584363
1604585595
1604587014
1604588495
1604589367
1604590238
1604590990
1604592897
1604592968
1604596157
1604597995
1604598835
1604598867
1604600016
1604601882
1604602265
1604604908
1604605885
1604606977
1604607321
1604608893
1604611403
1604611959
1604612039
1604612508
1604613347
1604613458
1604613637
1604622355
1604625324
1604625011
1604630363
1604630505
1604631879
1604633765
1604633831
1604635746
1604635785
1604638308
1604641164
1604641752
1604642043
1604645587
1604645914
1604646425
1604646517
1604648936
1604649301
1604651874
1604652849
1604655495
1604655646
1604655896
1604656962
1604657314
1604659320
1604659528
1604660020
1604660449
1604660769
1604664795
1604668564
1604670326
1604671189
1604672822
1604674954
1604676796
1604677206
1604679705
1604682059
1604681226
1604683597
1604685291
1604686709
1604691048
1604691231
1604692524
1604692952
1604696197
1604697352
1604697964
1604700534
1604702733
1604703139
1604704035
1604707140
1604708713
1604710384
1604713429
1604715719
1604719823
1604720759
1604721592
1604722201
1604722495
1604724372
1604725611
1604725896
1604726323
1604727062
1604728565
1604733149
1604733860
1604734642
1604734879
1604736140
1604736854
1604740611
1604747786
1604749504
1604750057
1604750949
1604754690
1604755037
1604756412
1604756401
1604756921
1604757248
1604759343
1604759451
1604760748
1604761371
1604760583
1604763726
1604763707
1604764084
1604765875
1604766881
1604767204
1604770989
1604772137
1604775807
1604776508
1604778016
1604778794
1604779612
1604780111
1604781518
1604782305
1604784806
1604791034
1604792161
1604792989
1604794796
1604795028
1604796144
1604798041
1604798210
1604800145
1604806506
1604806812
1604807415
1604808017
1604810485
1604811382
1604812245
1604812267
1604812879
1604813238
1604814407
1604814855
1604817369
1604821316
1604822701
1604823800
1604826873
1604827690
1604830012
1604830002
1604830439
1604830948
1604831801
1604831796
1604836633
1604837304
1604838022
1604841686
1604842989
1604845248
1604846763
1604849107
1604849992
1604850188
1604852471
1604854604
1604855409
1604858682
1604860520
1604861943
1604862161
1604862432
1604866243
1604867529
1604871970
1604872832
1604876612
1604876884
1604878293
1604880496
1604881040
1604883382
1604884948
1604890738
1604893546
1604894643
1604895589
1604896074
1604896520
1604896892
1604897052
1604898515
1604899556
1604901002
1604901546
1604904027
1604906290
1604909430
1604913026
1604914410
1604914473
1604914636
1604914943
1604915345
1604915585
1604917008
1604917269
1604917869
1604921630
1604921653
1604925929
1604926323
1604926772
1604927953
1604932710
1604937036
1604937615
1604940412
1604941958
1604942434
1604942008
1604944143
1604944912
1604945435
1604946948
1604947597
1604948516
1604950222
1604951046
1604952594
1604957252
1604959403
1604962883
1604963349
1604966704
1604968314
1604970239
1604970339
1604971834
1604973138
1604973477
1604973618
1604975167
1604976538
1604977681
1604977615
1604982132
1604986853
1604989000
1604989089
1604989691
1604991171
1604991924
1604992484
1604993402
1604993753
1604995874
1604996656
1604999242
1604999434
1605003564
1605005736
1605006084
1605006087
1605006506
1605012922
1605014762
1605015901
1605016698
1605016962
1605018579
1605019226
1605020374
1605021900
1605022357
1605023359
1605023603
1605025146
1605025463
1605025497
1605026348
1605027245
1605027283
1605028192
1605029423
1605030367
1605031078
1605031913
1605033128
1605033278
1605034257
1605034935
1605035373
1605036154
1605036834
1605037494
1605037780
1605038273
1605039656
1605040487
1605042289
1605043933
1605044082
1605045984
1605047923
1605049832
1605050531
1605052201
1605055451
1605056774
1605057371
1605058799
1605062324
1605064396
1605064660
1605064643
1605071340
1605073307
1605075083
1605076160
1605076676
1605078167
1605079157
1605079509
1605081002
1605084607
1605086213
1605089373
1605090298
1605090600
1605092538
1605094456
1605097665
1605098553
1605099489
1605099753
1605099815
1605104003
1605106738
1605108152
1605113275
1605113463
1605114320
1605114459
1605114953
1605116492
1605117036
1605117714
1605117921
1605119112
1605120655
1605121107
1605121121
1605124504
1605125643
1605126608
1605127470
1605129633
1605130490
1605131114
1605131142
1605133464
1605134096
1605134169
1605134991
1605135203
1605137318
1605138864
1605139798
1605140050
1605140758
1605142792
1605143016
1605143039
1605146187
1605147099
1605147203
1605147713
1605148582
1605149534
1605155395
1605156149
1605163063
1605163414
1605164255
1605164726
1605168787
1605169061
1605169265
1605171070
1605173235
1605175508
1605175589
1605177178
1605178427
1605183389
1605184146
1605185022
1605191829
1605192102
1605193270
1605196391
1605196715
1605196953
1605199046
1605201519
1605207251
1605210176
1605212575
1605218780
1605219107
1605222273
1605230288
1605233479
1605238925
1605247950
1605253616
1605304814
1605305861
1605306341
1605307544
1605309397
1605309444
1605316067
1605318888
1605318701
1605320978
1605322219
1605322691
1605323251
1605326918
1605332687
1605333634
1605340049
1605340420
1605340897
1605343730
1605344720
1605345252
1605345830
1605350476
1605352133
1605355834
1605355994
1605360079
1605364118
1605365808
1605367582
1605371296
1605372971
1605377270
1605383962
1605466613
1605475846
1605513367
1605519161
1605559496
1605593079
1605607374
1605613229
1605621846
1605660249
1605675501
1605690562
1605697245
1605723267
1605745263
1605747521
1605908683
1605959955
1605976100
1605979007
1606037639
1606058005
1606058316
1606080790
1606135793
1606189818
1606262992
1606326590
1606329857
1606366672
1606392286
1606407364
1606509073
1606521826
1606611789
1606669506
1606694555
1606748103
1606769838
1606816508
1606831773
1606895722
1606906385
1606972834
1606998502
1607043886
1607098789
1607102888
1607116829
1607155854
1607132757
1607194151
1607197346
1607219868
1607259844
1607263869
1607319116
1607385841
1607436786
1607458293
1607481368
1607585360
1607595419
1607610787
1607638913
1607751165
1607791518
1607814927
1607874404
1607882659
1607900545
1607905819
1607921028
1607948761
1607987863
1608022432
1608034945
1608108344
1608144321
1608192847
1608240133
1608309778
1608312727
1608341528
1608346035
1608411210
1608466860
1608470414
1608479373
1608521246
1608555302
1608568224
1608586633
1608615215
1608621265
1608645413
1608653249
1608657997
1608724784
1608729226
1608839216
1608859815
1608878639
1608894183
1608910203
1608916187
1608918336
1608999366
1609025659
1609029742
1609161536
1609180514
1609234961
1609360940
1609396362
1609447447
1609462379
1609467415
1609541233
1609573199
1609669317
1609670867
1609798965
1609802853
1609873914
1609879056
1609898674
1609900992
1609961075
1609982581
1609996340
1609997068
