610001130
610002241
610005931
610007356
610008214
610009779
610012277
610012898
610012938
610013100
610014854
610015421
610016927
610020051
610022602
610024134
610024392
610026752
610026648
610028305
610028801
610029073
610029418
610034989
610036538
610036857
610036864
610039666
610039731
610039790
610040588
610041252
610042301
610044237
610044920
610046148
610047367
610048961
610048992
610053030
610054804
610056431
610058022
610058106
610058187
610058383
610058784
610059050
610059430
610060463
610063374
610063435
610063635
610064336
610064328
610064390
610064488
610064532
610065116
610065391
610065779
610065628
610066014
610066705
610066828
610067273
610070489
610070732
610071116
610072752
610073625
610074370
610075999
610076591
610076753
610076790
610080238
610081779
610082312
610083064
610084680
610085600
610085778
610088088
610091834
610092423
610095312
610099326
610099513
610100021
610100159
610104824
610105071
610107511
610107147
610108199
610108824
610110559
610110865
610111349
610112001
610113096
610114760
610114709
610115847
610115993
610116761
610116850
610118029
610119422
610121423
610121456
610122614
610122665
610125672
610126056
610126476
610130275
610130613
610130761
610131497
610132198
610134916
610137236
610139422
610141273
610142480
610142634
610142935
610143360
610143581
610144717
610144721
610144420
610145472
610145968
610146862
610147052
610149203
610149374
610149509
610149592
610155482
610156875
610157881
610157631
610158411
610161492
610161799
610163817
610164242
610164429
610164766
610165642
610167642
610168199
610168586
610169161
610170895
610172178
610172634
610173446
610174072
610175749
610176471
610176559
610177032
610177773
610178416
610181854
610182329
610183404
610192473
610193377
610194095
610194746
610196780
610199017
610199363
610199531
610201916
610202481
610203850
610204485
610207701
610208408
610210253
610210856
610212367
610214140
610214370
610215062
610216916
610216827
610217303
610217555
610218630
610220323
610221344
610223335
610223333
610223529
610226175
610227082
610226865
610229615
610229950
610231507
610232806
610232894
610236139
610236820
610239704
610239881
610240711
610242455
610245909
610245843
610246664
610248877
610248592
610251235
610251412
610251830
610253950
610256679
610257655
610261466
610262323
610267423
610268918
610271443
610271980
610272510
610272779
610273047
610273774
610275052
610278578
610279555
610280818
610282786
610284109
610285864
610286925
610289782
610290705
610291079
610291604
610292384
610293126
610293620
610294220
610295292
610296661
610298660
610300115
610304045
610304342
610306297
610309742
610312394
610313874
610316186
610316729
610317072
610317005
610317149
610318570
610319149
610320260
610320727
610321668
610323729
610324788
610325927
610325809
610326238
610327175
610329450
610330565
610334292
610334914
610335950
610336001
610336796
610337731
610338270
610339382
610339664
610339945
610340986
610341561
610341729
610342352
610343027
610346182
610349378
610350647
610351289
610351714
610352061
610353485
610353203
610355738
610356506
610357575
610358325
610359060
610361271
610362113
610362952
610363819
610364189
610366591
610366884
610368098
610367599
610368171
610371747
610372430
610372749
610373899
610376159
610378694
610380188
610382269
610382872
610384007
610385127
610385916
610386922
610387872
610388446
610388882
610389802
610393364
610395231
610396027
610397588
610397569
610397860
610398441
610399755
610399915
610400632
610400628
610402780
610405138
610407330
610408842
610409233
610410118
610411543
610413285
610413983
610414865
610415516
610416056
610417428
610419870
610420770
610424704
610427775
610428319
610428382
610428485
610428576
610429215
610431937
610436050
610437260
610437454
610437829
610438127
610438565
610439589
610440230
610442848
610444074
610444826
610445031
610446771
610448544
610449522
610453073
610453570
610454001
610453853
610454748
610455669
610455897
610455930
610458101
610461377
610462842
610463095
610463124
610465166
610465423
610466196
610466961
610468224
610471168
610471104
610471564
610471854
610473759
610474123
610474867
610475701
610476850
610479510
610481542
610482900
610485026
610487909
610488099
610489871
610490194
610491358
610492133
610493084
610494106
610494793
610495445
610496912
610497171
610498548
610498743
610499007
610499403
610501425
610501681
610501968
610503161
610504025
610505021
610506615
610507928
610510135
610513539
610513667
610514283
610515405
610516277
610517178
610519482
610519383
610521077
610521065
610521613
610522136
610523851
610524122
610525052
610528555
610529091
610529855
610531970
610532762
610534026
610535892
610536889
610537250
610537850
610538550
610539823
610543073
610543901
610546235
610546317
610547901
610547994
610547947
610548439
610549126
610549474
610551602
610552514
610554538
610555655
610555976
610556073
610559288
610559947
610560071
610560277
610566226
610566008
610567019
610568358
610569591
610569709
610570019
610571128
610571921
610573042
610573159
610574986
610575276
610576819
610579742
610579735
610581120
610585705
610586225
610586645
610587100
610587529
610591560
610591582
610593784
610594955
610595696
610595992
610596862
610598173
610598389
610598691
610599277
610600772
610602689
610604423
610605587
610605678
610607090
610607827
610614176
610615379
610616223
610616509
610616799
610616859
610617009
610619336
610620787
610624600
610625202
610629195
610629887
610632309
610632992
610632799
610633212
610640576
610643333
610643782
610644002
610646226
610646872
610648647
610648937
610650394
610654146
610654749
610656254
610656918
610659467
610659932
610660919
610661743
610665968
610667038
610667032
610669410
610669857
610670996
610670842
610670979
610671139
610671132
610674966
610677882
610678342
610679247
610679578
610680591
610680725
610681315
610681482
610682146
610685874
610692549
610693540
610695262
610696290
610697445
610697706
610699338
610699273
610701739
610702237
610703417
610704254
610704335
610708417
610710465
610714423
610715211
610716804
610717060
610717009
610718540
610718649
610718659
610719854
610720281
610722312
610723001
610723272
610725694
610726114
610730759
610730873
610731312
610733438
610735427
610738792
610739456
610740397
610740579
610740704
610741422
610743118
610745216
610746015
610746645
610750675
610751763
610753865
