922001300
922006005
922006455
922013009
922021509
922026310
922028545
921000498
921000782
921003814
920006109
921004618
921006521
920006798
921013199
921012881
921015674
920006109
920006798
920013552
920030057
920035886
920043116
920049985
920051841
920062362
920064701
920086900
920099039
920099492
920101577
920106182
920107580
920119237
920119935
920119928
920121358
920123586
920125792
