922012662
922014503
922017292
921000884
920001760
920002843
921009788
921009310
921009892
921012431
920001760
920014859
920016999
920045718
920059700
920065468
920065756
920076013
920088494
920113203
920119105
920122668
