1850006334
1850024538
1850036839
1850058459
1850064801
1850073886
1850086073
1850095264
1850102095
1850106723
1850108245
1850109487
1850125930
1850135104
610024472
610033851
610080618
610098639
610111014
610131077
610135744
610146790
610158369
610163937
610208703
610213028
610214411
610230154
610271347
610305984
610319892
610329650
610337162
610345946
610374525
610380536
610403054
610449030
610449672
610453895
610456339
610460820
610543594
610567254
610568137
610576728
610581649
610655042
610667192
610669884
610685940
610687730
610716066
610754339
