840000279
840003289
840010134
840012885
840032480
840036375
840041315
840045677
840051316
840051973
840053237
840055701
840060340
840063275
840063998
840073102
840073340
840074257
840076028
840079395
840087557
840089542
840093831
840098917
840099870
840104615
840104916
840119002
840140634
840152056
840154454
840160490
840164914
840166623
840170752
840179558
840187552
840191720
840205516
840221826
840226864
840228254
840237929
840242954
840243190
840247295
840257061
840261982
840264257
840267474
840269976
840275770
840292890
840294778
840303879
840306201
840311019
840316557
840327300
840327400
840328143
840338506
840339930
840359767
840365705
840376402
840386921
840393936
840412474
840416497
840434141
840440177
840456176
840463743
840479086
840484686
