800027814
801022952
801080961
800027814
800242291
800271700
800407883
800748710
800775955
800807353
800901233
801022952
801080961
801234721
801275093
801389120
801448714
801593580
801621363
801668940
