710082450
710101109
710409889
710436600
710447250
710712732
710818231
710897882
711099292
711470672
712046208
712174142
712327112
712399759
712405657
712437661
712725084
712748177
712933590
713350465
