730010114
730010306
730011674
730013557
730017568
730022737
730029452
730029842
730043446
730053377
1600000134
1600000628
1600003854
1600003854
1600003932
1600004546
1600004674
1600004674
1600004674
1600004674
1600006428
1600006391
1600006391
1600006391
1600006570
1600006948
1600006970
1600007361
1600007361
730061452
1600000134
730029452
730029842
730043446
730053377
730061452
730061969
730061985
730062215
730063054
730077292
730077756
730082665
730082932
731018544
731020385
730086215
730086442
730092286
731029325
731029437
731030846
730094974
730096473
730096769
731033501
731036113
730099035
731041489
730105838
730107832
731051811
731053764
730115716
731055276
731056105
731061971
731064275
730126062
731066453
731068292
730130515
731070985
730133016
731075538
730140162
731077758
730141749
730146076
730149555
731086644
731088585
730153967
731091531
730155441
731094868
730159582
731095399
731094619
731100156
730166410
731105316
730170269
731106296
731107317
730174342
730177029
731117092
730185938
731121959
731124263
730190308
731132255
731134981
730202119
730201945
731139666
731141318
730212108
731147745
730219928
730221124
731155655
730224857
731156776
730225093
730228710
731165673
731165576
731166503
731170828
730243076
730248382
731179565
730251509
731184530
730256299
731188151
731189441
730259267
731192756
731193642
730271901
731200868
730272068
731201580
730274951
730277856
730277965
730282317
730285698
731233348
731234941
731237036
730310672
731237911
730314163
730314207
730320532
730324103
731250339
730325116
731261122
730338390
730344719
731271448
731276319
731276881
730400488
731540120
730402696
731542987
731546420
731548388
731550287
731556447
730417845
731560661
731562804
730424231
731566366
731567588
731567858
731568109
731571260
731575050
731574800
730437718
731578109
730438907
731580793
730443242
731584541
730444944
730448079
731591626
731592330
731593141
730458894
730458078
730460053
730460669
731605105
730466754
730468243
730470464
731610753
730471860
730472358
730473327
731615515
730475191
731619074
731620076
730482123
731623252
731641173
730500157
731641553
731645040
730506340
731649687
731650091
731650752
731650827
730509482
731651338
730510596
730513300
731661084
730521731
731665383
731672251
731680280
731683080
731684878
731690394
731690984
731697474
731699758
731703388
731703501
731705665
731721440
731725349
730534456
730537379
731732271
731736808
731736867
731737976
731741003
730550853
730555250
730556907
730560859
730565073
730569841
730570264
731763304
730576798
730576830
731770962
731775487
731778156
731778357
730587038
731780498
730589188
730589925
731784254
730592749
731791230
731797702
731799419
731799926
731800320
731802894
731804411
731804850
730613699
731813582
731823893
731825605
731827838
731832460
731833799
731836998
731839443
731841200
731842252
731842835
731843175
731845337
731852383
731852496
730657901
731855955
730662074
731858350
731859797
730664646
731863042
730667737
731864467
730669976
730671707
730671797
731867770
730673075
731870056
731870516
730675687
730677065
731880262
730686649
731884173
731886883
731889706
731892603
730697058
731894609
730698327
731894905
731897026
731898619
730701882
730702094
731903367
731909074
731910425
731919560
731926017
731926921
731929694
731930044
731931384
731933723
731936080
731936372
731936549
731937411
731937525
731938606
731951419
731951519
731953174
731953710
731954724
731956987
731958285
731960025
731964245
731965717
731977660
731980446
731984464
731985004
731988321
731993778
731995390
731996315
731996368
730706969
730710030
732006448
732007490
730714137
730715116
732009946
730715772
732013920
732015006
730724507
730728603
732025653
732030373
732032384
730737036
732033913
730738944
730739054
730741793
732039502
730744754
732044428
732045311
730759577
730759635
730760664
730762838
732063647
730770288
730770859
732065212
732068274
730780579
732076815
730785417
730785592
730788002
730790575
732086477
730793173
730793972
730794817
732090198
732091156
730806052
732103106
732104460
730808341
732106355
730810851
730813872
732110798
730821773
730824004
732121555
732122807
732124623
730828701
732128493
732129045
730833560
730833410
732130868
730836091
1600000134
1600000628
1600003932
1600003854
1600004674
1600006391
1600006428
1600006570
1600006948
1600007361
1600011535
1600011540
1600011682
1600012163
1600018678
1600021177
1600022589
1600023230
1600026355
1600027481
1600029983
1600031094
1600033029
1600036503
1600037361
1600037361
1600039152
1600040009
1600041009
1600042014
1600042367
1600042314
1600043002
1600043512
1600045728
1600046156
1600046226
1600049174
1600050292
1600051435
1600052421
1600052556
1600053743
1600055470
1600055704
1600056032
1600056725
1600056910
1600057268
1600059373
1600059551
1600060875
1600062749
1600065564
1600067208
1600067665
1600070369
1600070765
1600074526
1600074942
1600077702
1600078005
1600078481
1600078492
1600078965
1600079461
1600079739
1600082347
1600082961
1600085799
1600085999
1600086502
1600089393
1600090824
1600091376
1600091960
1600093477
1600094399
1600095451
1600100472
1600100661
1600102530
1600102745
1600104234
1600104519
1600109081
1600110905
1600113478
1600114502
1600116443
1600118243
1600118968
1600120175
1600121529
1600123249
1600124208
1600125055
1600126829
1600126882
1600127229
1600127339
1600128999
1600130506
1600130686
1600132690
1600133173
1600133264
1600135589
1600136951
1600137231
1600137451
1600140092
1600140339
1600142448
1600142820
1600144935
1600145230
1600149965
1600150305
1600154257
1600158546
1600159449
1600159832
1600162982
1600163262
1600164987
1600169636
1600172748
1600175862
1600178508
1600186718
1600188410
1600188629
1600188694
1600189725
1600190998
1600196001
1600198461
1600198563
1600201285
1600201839
1600201861
1600202142
1600202983
1600204228
1600204469
1600210334
1600211056
1600212897
1600214221
1600214441
1600214532
1600215022
1600214693
1600218655
1600218819
1600219210
1600219374
1600219614
1600222886
1600223764
1600225145
1600227684
1600228468
1600231015
1600231003
1600231313
1600232225
1600234357
1600234784
1600234956
1600236449
1600237212
1600238269
1600239458
1600239866
1600243689
1600245640
1600246264
1600247043
1600248318
1600248593
1600249850
1600252009
1600252354
1600253567
1600254046
1600256705
1600256625
1600259453
1600262966
1600264874
1600265732
1600268675
1600269066
1600269708
1600271961
1600272419
1600273208
1600274564
1600277003
1600277498
1600277874
1600279914
1600282172
1600283931
1600284201
1600285864
1600286089
1600286216
1600286884
1600288270
1600289544
1600290133
1600292786
1600295258
1600295693
1600295935
1600295987
1600296028
1600297502
1600298250
1600299259
1600299367
1600299620
1600300753
1600301454
1600303182
1600303417
1600303959
1600304229
1600310784
1600311166
1600312153
1600313883
1600313939
1600315794
1600316663
1600326423
1600331324
1600331375
1600332311
1600334222
1600334913
1600335604
1600336141
1600337157
1600337820
1600338098
1600339510
1600340539
1600341991
1600342159
1600342636
1600343103
1600343573
1600343592
1600344258
1600349867
1600352901
1600352957
1600354746
1600356794
1600356944
1600357567
1600358043
1600359036
1600361626
1600362019
1600362473
1600366697
1600369791
1600369975
1600370849
1600371486
1600371693
1600373549
1600373943
1600374238
1600374750
1600379581
1600380139
1600382187
1600382323
1600383668
1600384027
1600385351
1600386965
1600388359
1600392818
1600395138
1600395763
1600396440
1600396523
1600396587
1600397190
1600400847
1600404263
1600407095
1600416503
1600417759
1600417832
1600418246
1600419017
1600419182
1600419617
1600420042
1600420446
1600421778
1600421886
1600422291
1600423554
1600424705
1600426796
1600429985
1600431763
1600432432
1600435514
1600438010
1600439548
1600440360
1600440806
1600441680
1600443312
1600445035
1600445798
1600446155
1600446519
1600446423
1600446747
1600447730
1600447803
1600450578
1600450835
1600452341
1600452534
1600455375
1600455732
1600456809
1600458225
1600458662
1600460308
1600462258
1600462910
1600464023
1600466818
1600469763
1600469886
1600470356
1600470460
1600470729
1600470887
1600470894
1600471058
1600471659
1600471698
1600473986
1600474885
1600475232
1600478154
1600478567
1600479270
1600481205
1600485024
1600488949
1600490606
1600491477
1600492180
1600493782
1600496760
1600497160
1600497650
1600499943
1600507400
1600510054
1600511313
1600511094
1600511531
1600513048
1600514201
1600517995
1600520920
1600521135
1600521066
1600522941
1600528069
1600529460
1600529632
1600535236
1600536380
1600537317
1600537859
1600538530
1600539969
1600544284
1600547896
1600552202
1600552267
1600552607
1600553131
1600555257
1600558279
1600560853
1600561613
1600561625
1600562290
1600562731
1600564736
1600565031
1600567967
1600568442
1600568753
1600571608
1600573573
1600573694
1600575504
1600575897
1600576553
1600578671
1600580215
1600582804
1600583105
1600587952
1600591527
1600593696
1600593941
1600593912
1600594121
1600599171
1600600625
1600601504
1600604278
1600604670
1600608044
1600609321
1600611239
1600613206
1600614142
1600614650
1600614724
1600615319
1600615605
1600616647
1600617601
1600618053
1600618893
1600620187
1600620412
1600621727
1600623592
1600623644
1600624380
1600624675
1600628697
1600632138
1600633333
1600635066
1600636050
1600637594
1600638749
1600640392
1600650366
1600652788
1600653653
1600655667
1600656132
1600656544
1600657730
1600658952
1600659987
1600662293
1600662445
1600663821
1600666665
1600667671
1600667711
1600668637
1600670873
1600673656
1600674289
1600674550
1600676531
1600676857
1600679030
1600679632
1600681373
1600681587
1600683179
1600687334
1600688331
1600690845
1600691134
1600691187
1600693089
1600693291
1600693741
1600694265
1600695967
1600696496
1600698471
1600700004
1600700989
1600701248
1600702338
1600705667
1600706616
1600707231
1600707593
1600707924
1600708204
1600710591
1600714845
1600714927
1600715027
1600716676
1600721114
1600721238
1600723749
1600724980
1600726036
1600731536
1600732878
1600733357
1600736744
1600737220
1600738111
1600739487
1600739778
1600740599
1600741661
1600741942
1600742315
1600742544
1600743037
1600743920
1600745526
1600746273
1600746554
1600748692
1600749488
1600750247
1600752875
1600753044
1600755217
1600755375
1600759049
1600759511
1600760361
1600761690
1600762117
1600762483
1600764265
1600764646
1600764292
1600767755
1600768336
1600771976
1600773519
1600775264
1600775342
1600775775
1600777667
1600779593
1600782659
1600784642
1600785717
1600786802
1600787781
1600788773
1600789947
1600790408
1600792501
1600795815
1600798478
1600800193
1600804367
1600804581
1600806050
1600806380
1600807465
1600808548
1600809642
1600813862
1600818081
1600818205
1600818511
1600820842
1600821911
1600826741
1600827402
1600828485
1600828639
1600829539
1600830705
1600831268
1600832248
1600832506
1600832898
1600834758
1600835646
1600836419
1600836519
1600836589
1600837018
1600839476
1600840455
1600841350
1600842721
1600844524
1600845677
1600849795
1600850838
1600851349
1600853417
1600854010
1600854054
1600855296
1600857129
1600860430
1600861075
1600861426
1600862110
1600862583
1600863121
1600864280
1600865264
1600866038
1600866402
1600867198
1600867322
1600868899
1600870999
1600872025
1600872301
1600875049
1600875620
1600880708
1600881485
1600882019
1600882778
1600886354
1600889073
1600890812
1600891095
1600892628
1600892970
1600892974
1600897596
1600898102
1600899440
1600901102
1600904943
1600908215
1600908362
1600908580
1600914960
1600915387
1600915776
1600916056
1600917125
1600920807
1600921371
1600921454
1600922784
1600923378
1600925659
1600925874
1600929313
1600929635
1600929773
1600931942
1600931946
1600934450
1600934466
1600935505
1600935994
1600937622
1600938474
1600939789
1600946592
1600947478
1600948155
1600948806
1600949854
1600950333
1600950840
1600951098
1600951903
1600955626
1600955889
1600956170
1600957347
1600957567
1600958222
1600962311
1600963227
1600968223
1600969594
1600971154
1600973991
1600974043
1600974323
1600978224
1600979657
1600980590
1600981787
1600984802
1600984900
1600985640
1600985951
1600986441
1600987697
1600989901
1600990155
1600990458
1600990975
1600992217
1600996215
1600997175
1600997400
1600997763
1601003528
1601004116
1601004482
1601005437
1601007865
1601008753
1601010751
1601011047
1601011809
1601011860
1601012078
1601012725
1601016294
1601017025
1601018550
1601018615
1601018668
1601020251
1601020462
1601022918
1601023387
1601025514
1601028229
1601030403
1601031655
1601032377
1601032557
1601034368
1601035022
1601035316
1601035707
1601037315
1601038686
1601039475
1601040627
1601040834
1601041589
1601044590
1601045462
1601048164
1601048507
1601049216
1601049448
1601050760
1601051417
1601052143
1601053205
1601053510
1601058085
1601059495
1601062217
1601064358
1601065404
1601065811
1601065916
1601067264
1601067703
1601069941
1601069978
1601070765
1601072871
1601073407
1601074401
1601076706
1601082199
1601083836
1601083806
1601084175
1601084629
1601085006
1601085146
1601085380
1601087489
1601087226
1601089407
1601089814
1601089758
1601093716
1601093950
1601095159
1601095309
1601099037
1601100687
1601101776
1601102360
1601102486
1601102919
1601105428
1601107399
1601107646
1601111468
1601112195
1601113205
1601114156
1601114320
1601115345
1601116073
1601117130
1601118437
1601119067
1601119378
1601119524
1601119569
1601121400
1601121863
1601122313
1601123956
1601125100
1601125921
1601126025
1601127818
1601128376
1601134898
1601136136
1601136885
1601138252
1601139002
1601141056
1601141478
1601143407
1601146634
1601146817
1601148916
1601149460
1601152537
1601154102
1601155229
1601155832
1601158470
1601160041
1601161213
1601162951
1601163160
1601163312
1601163402
1601163963
1601166579
1601169461
1601169518
1601170276
1601170127
1601172129
1601172234
1601172785
1601172824
1601173832
1601174773
1601175290
1601175358
1601176851
1601178265
1601179078
1601180084
1601180653
1601182021
1601183196
1601185931
1601189092
1601189653
1601189808
1601190063
1601191647
1601191934
1601192289
1601195287
1601197870
1601198676
1601198809
1601200008
1601200546
1601201628
1601201630
1601202563
1601206163
1601206757
1601207890
1601208909
1601210653
1601211248
1601212253
1601214232
1601214555
1601218167
1601227439
1601228173
1601228566
1601230544
1601230748
1601231991
1601237468
1601237967
1601238694
1601240345
1601240772
1601241164
1601242365
1601242915
1601242854
1601245413
1601246648
1601246782
1601251973
1601252631
1601254507
1601254943
1601255122
1601256437
1601259152
1601259549
1601267190
1601271488
1601271877
1601273210
1601274398
1601274781
1601275528
1601276750
1601277628
1601278030
1601279368
1601280738
1601281759
1601284046
1601285034
1601285459
1601286368
1601286503
1601287168
1601287970
1601288109
1601290460
1601295065
1601295764
1601296170
1601297492
1601298066
1601302813
1601303970
1601307202
1601308246
1601308477
1601309524
1601309805
1601314608
1601315396
1601316334
1601316970
1601318595
1601320415
1601321564
1601325926
1601326819
1601328486
1601329459
1601329770
1601330801
1601331060
1601331316
1601331532
1601337958
1601339208
1601341621
1601341728
1601343138
1601344353
1601346012
1601346361
1601347954
1601349723
1601351129
1601351541
1601352450
1601352487
1601352566
1601353488
1601353494
1601354790
1601355385
1601359855
1601360262
1601361774
1601362210
1601369007
1601369884
1601370806
1601372120
1601372670
1601376846
1601378375
1601379721
1601383459
1601385023
1601387669
1601389134
1601389981
1601390788
1601391009
1601391629
1601393540
1601395154
1601395270
1601395527
1601396418
1601397051
1601397228
1601397271
1601398664
1601399136
1601400031
1601400159
1601401108
1601401838
1601403867
1601403975
1601404729
1601404791
1601406074
1601410925
1601412075
1601413113
1601414915
1601417300
1601419212
1601419953
1601420172
1601420626
1601421466
1601422423
1601423335
1601424625
1601431684
1601432315
1601432366
1601433746
1601434528
1601435729
1601437493
1601437725
1601439470
1601440292
1601442941
1601443331
1601445269
1601446841
1601447044
1601447969
1601449847
1601453779
1601455255
1601456816
1601462398
1601463084
1601465784
1601468486
1601468767
1601469571
1601469870
1601470084
1601470617
1601473907
1601475943
1601476096
1601476178
1601476822
1601477036
1601478815
1601480307
1601481314
1601481963
1601483428
1601485197
1601487487
1601488074
1601488950
1601495018
1601495061
1601495178
1601498345
1601498898
1601499093
1601500079
1601502965
1601505511
1601505727
1601507685
1601508578
1601508954
1601510190
1601510688
1601513002
1601513494
1601514014
1601521219
1601523030
1601523000
1601523634
1601524098
1601524279
1601524507
1601524931
1601527887
1601528548
1601530083
1601530328
1601530422
1601531269
1601532146
1601534423
1601535362
1601535436
1601536460
1601538452
1601540956
1601541023
1601541520
1601542497
1601544380
1601547163
1601547346
1601547774
1601549010
1601550214
1601554454
1601554730
1601555624
1601556070
1601556031
1601557218
1601559460
1601560838
1601560869
1601561534
1601562516
1601567313
1601568333
1601568133
1601570865
1601572060
1601572400
1601573253
1601573360
1601573915
1601576946
1601578397
1601578719
1601579026
1601580284
1601580920
1601581641
1601584526
1601587576
1601588033
1601588285
1601588776
1601589377
1601589978
1601595074
1601595121
1601595708
1601599919
1601602432
1601603555
1601609238
1601610802
1601611515
1601611924
1601613265
1601615546
1601616378
1601616514
1601617495
1601617778
1601619019
1601619715
1601620401
1601620955
1601621651
1601622512
1601622599
1601624487
1601627620
1601629280
1601630446
1601631424
1601633404
1601634268
1601635089
1601635306
1601638961
1601643721
1601644861
1601646499
1601646991
1601648436
1601648954
1601652297
1601656630
1601661601
1601663072
1601671372
1601671586
1601672814
1601674843
1601675501
1601675774
1601678426
1601678581
1601681525
1601682287
1601682772
1601684868
1601686098
1601687696
1601688447
1601688979
1601691134
1601691714
1601692188
1601693708
1601695657
1601698939
1601701879
1601702938
1601705329
1601706487
1601709421
1601709593
1601709706
1601713833
1601714946
1601715189
1601715286
1601715440
1601715545
1601717915
1601718520
1601722796
1601724642
1601725737
1601726211
1601726383
1601733797
1601733933
1601737348
1601737923
1601739205
1601743056
1601744553
1601745665
1601748347
1601750780
1600000134
1600000628
1600003854
1600003932
1600004674
1600006428
1600006570
1600007361
1600011535
1600011540
1600011682
1600012163
1600018678
1600021177
1600023230
1600026355
1600027481
1600029983
1600033029
1600036503
1600039152
1600040009
1600041009
1600042014
1600042314
1600043002
1600043512
1600046156
1600046226
1600049174
1600050292
1600052421
1600053743
1600055470
1600055704
1600056725
1600056910
1600057268
1600059373
1600060875
1600062749
1600067665
1600070369
1600070765
1600077702
1600078481
1600078965
1600079461
1600082347
1600085799
1600085999
1600086502
1600089393
1600090824
1600091376
1600091960
1600093477
1600100661
1600102745
1600104234
1600104519
1600109081
1600114502
1600116443
1600118243
1600121529
1600125055
1603066568
1603066809
1603067561
1603068778
1603069898
1603070136
1603073325
1603073940
1603076223
1603079095
1603079530
1603081149
1603081448
1603082166
1603084247
1603085722
1603086503
1603087387
1603090513
1603091592
1603091949
1603092526
1603095261
1603097370
1603097538
1603098694
1603099384
1603102743
1603106787
1603107562
1603109697
1603112095
1603115253
1603116000
1603117387
1603119643
1603120545
1603120475
1603120933
1603121702
1603122335
1603125313
1603126102
1603126272
1603126777
1603129957
1603131303
1603135981
1603136180
1603134670
1603137659
1603139274
1603140311
1603141370
1603143481
1603143665
1603148313
1603149236
1603150503
1603151885
1603151943
1603152460
1603152482
1603152952
1603154427
1603155640
1603155833
1603155842
1603156752
1603156715
1603161143
1603161664
1603163015
1603164856
1603165555
1603167247
1603167885
1603169230
1603169452
1603169630
1603170325
1603172347
1603172405
1603173595
1603174799
1603175199
1603178567
1603179805
1603180157
1603180131
1603180993
1603182359
1603186381
1603187369
1603189525
1603191474
1603193027
1603193222
1603196756
1603197484
1603198529
1603198661
1603198927
1603201001
1603203609
1603204020
1603204450
1603206486
1603207511
1603208884
1603208892
1603210566
1603210853
1603213906
1603213942
1603214218
1603216219
1603222071
1603224559
1603224823
1603225302
1603225270
1603227402
1603227662
1603228119
1603230348
1603230550
1603232729
1603235243
1603236366
1603236337
1603236408
1603236307
1603238855
1603239827
1603238952
1603240468
1603242228
1603242185
1603244725
1603246065
1603248679
1603249483
1603249875
1603251202
1603251338
1603255676
1603257670
1603258017
1603259332
1603259645
1603260933
1603261701
1603263880
1603265859
1603266047
1603266120
1603266456
1603266294
1603267738
1603268315
1603269040
1603269594
1603277251
1603277802
1603281856
1603284047
1603284763
1603287771
1603287948
1603288089
1603288609
1603289847
1603291642
1603291970
1603291971
1603294471
1603295002
1603297728
1603301113
1603301200
1603301569
1603301865
1603302650
1603306209
1603307384
1603307884
1603309622
1603311650
1603312821
1603313630
1603314558
1603314566
1603314786
1603314872
1603324771
1603327226
1603328625
1603330103
1603331036
1603333148
1603334887
1603335692
1603344002
1603345586
1603346624
1603348187
1603349039
1603352271
1603353535
1603354566
1603356376
1603358832
1603358909
1603359077
1603360379
1603362592
1603362886
1603363344
1603363895
1603364680
1603367314
1603367615
1603367717
1603368525
1603370535
1603374445
1603378590
1603379207
1603381278
1603382673
1603382891
1603385464
1603389577
1603390457
1603392998
1603394074
1603394233
1603395211
1603395770
1603398019
1603398395
1603399002
1603402765
1603403184
1603403493
1603404953
1603405823
1603406756
1603409417
1603411580
1603412404
1603412921
1603414506
1603416458
1603416784
1603417322
1603421143
1603422027
1603426756
1603427173
1603429536
1603431655
1603432702
1603432471
1603437419
1603438630
1603439151
1603439075
1603439734
1603440508
1603443095
1603446286
1603444321
1603448095
1603448385
1603451209
1603454336
1603458078
1603458557
1603460525
1603460702
1603461600
1603462624
1603467175
1603467892
1603468096
1603468876
1603472353
1603474350
1603474454
1603478057
1603478380
1603481412
1603482333
1603482383
1603482452
1603486010
1603488735
1603489151
1603489746
1603492153
1603494317
1603494573
1603496176
1603496820
1603498167
1603498188
1603505789
1603506120
1603507552
1603507734
1603507837
1603507956
1603509177
1603510249
1603510811
1603512508
1603513529
1603513533
1603513395
1603514656
1603515008
1603516566
1603517883
1603518828
1603519771
1603520190
1603521162
1603522266
1603522750
1603523313
1603530587
1603531841
1603535617
1603538170
1603539079
1603544306
1603544997
1603545193
1603545419
1603546366
1603546651
1603549972
1603550055
1603551905
1603551859
1603558785
1603558332
1603560880
1603561439
1603562211
1603564260
1603565841
1603568696
1603568947
1603570829
1603571578
1603572502
1603573249
1603574782
1603575344
1603575514
1603575529
1603575773
1603574844
1603576682
1603578658
1603578792
1603579289
1603580826
1603582127
1603582931
1603583881
1603584215
1603586500
1603587286
1603589331
1603590273
1603592926
1603594506
1603596811
1603598389
1603598315
1603599175
1603602835
1603603718
1603604201
1603606193
1603608922
1603611559
1603612479
1603613177
1603614859
1603617815
1603621427
1603622533
1603622951
1603623971
1603625947
1603626064
1603626607
1603627963
1603628205
1603628607
1603629440
1603630625
1603631877
1603632743
1603633064
1603636076
1603636157
1603636709
1603637100
1603638656
1603640029
1603641682
1603642218
1603644796
1603647633
1603647825
1603652869
1603654456
1603659074
1603659397
1603660974
1603662760
1603662952
1603664410
1603667234
1603668644
1603671846
1603672501
1603673413
1603673879
1603674655
1603676921
1603676849
1603681956
1603682171
1603682904
1603685073
1603691305
1603691800
1603692059
1603692578
1603696060
1603695841
1603697069
1603697136
1603699028
1603700689
1603704285
1603706933
1603708223
1603708560
1603708697
1603709646
1603710553
1603711783
1603711898
1603712627
1603712968
1603714015
1603713981
1603714868
1603715148
1603715631
1603716011
1603716620
1603717537
1603717955
1603719038
1603719321
1603720199
1603720524
1603722123
1603722692
1603725314
1603726097
1603731241
1603733116
1603733872
1603733925
1603736451
1603737833
1603739241
1603739752
1603741655
1603742127
1603742341
1603742563
1603745030
1603745034
1603745476
1603745609
1603745830
1603747225
1603748469
1603750931
1603752030
1603752365
1603755853
1603764286
1603764009
1603764583
1603765262
1603765451
1603766867
1603767559
1603772342
1603772395
1603773823
1603775015
1603775891
1603778372
1603778873
1603779891
1603780788
1603781675
1603781970
1603784063
1603785475
1603785741
1603786214
1603788933
1603790083
1603790197
1603790369
1603792713
1603793191
1603793688
1603793931
1603793958
1603793957
1603795379
1603796965
1603796920
1603797665
1603799135
1603799486
1603800866
1603800997
1603804342
1603804670
1603804253
1603809221
1603809424
1603815695
1603817395
1603819176
1603819801
1603820080
1603820482
1603820608
1603824224
1603828702
1603829732
1603831075
1603831974
1603836573
1603841223
1603847552
1603848539
1603848558
1603848918
1603858800
1603860056
1603862388
1603863715
1603866686
1603866878
1603867527
1603868239
1603871983
1603874619
1603881046
1603882055
1603886510
1603888654
1603888917
1603891991
1603894956
1603895467
1603898880
1603899109
1603899197
1603901301
1603901706
1603902807
1603903634
1603904843
1603909434
1603909715
1603910470
1603910839
1603912028
1603912970
1603913350
1603915372
1603915920
1603916379
1603917374
1603918815
1603921778
1603926457
1603930192
1603931296
1603932537
1603932699
1603935914
1603937919
1603940652
1603940677
1603943713
1603944494
1603944951
1603945111
1603946106
1603946236
1603952274
1603952795
1603954076
1603954301
1603955764
1603957265
1603957478
1603958544
1603959108
1603960409
1603960527
1603960925
1603961481
1603962597
1603962660
1603963294
1603963543
1603964484
1603965330
1603966069
1603966435
1603970899
1603972196
1603974954
1603975941
1603976310
1603976403
1603976708
1603976722
1603976806
1603977124
1603979693
1603981257
1603981395
1603981558
1603982613
1603982584
1603982639
1603983464
1603984269
1603984869
1603984978
1603985636
1603986667
1603986826
1603988972
1603991423
1603992855
1603994095
1603998226
1603998688
1603998694
1603999476
1603999884
1604001226
1604001031
1604002374
1604004669
1604005121
1604010645
1604016756
1604017627
1604017774
1604018084
1604019795
1604022935
1604023091
1604023938
1604024223
1604024484
1604025918
1604027102
1604027765
1604027914
1604030709
1604030878
1604033918
1604033981
1604039650
1604047994
1604050245
1604050817
1604051561
1604052088
1604054329
1604059027
1604059261
1604065367
1604066234
1604069019
1604072658
1604074349
1604076484
1604079703
1604082296
1604082939
1604083256
1604083734
1604083737
1604083791
1604084044
1604086076
1604090665
1604094501
1604094764
1604095839
1604099331
1604103006
1604102951
1604103305
1604104095
1604104113
1604105477
1604105474
1604106381
1604107729
1604110816
1604111034
1604111888
1604113214
1604114733
1604124054
1604124866
1604131716
1604131880
1604132816
1604133444
1604137853
1604140746
1604141295
1604142594
1604142758
1604140529
1604144280
1604144339
1604146935
1604148014
1604149053
1604149562
1604149638
1604150239
1604151421
1604153527
1604154874
1604155110
1604155862
1604160278
1604160671
1604161506
1604166091
1604166218
1604166786
1604167275
1604168095
1604171581
1604174552
1604176347
1604177267
1604178392
1604181279
1604183182
1604183758
1604184878
1604186086
1604187143
1604188603
1604188591
1604188598
1604191089
1604192342
1604195645
1604195863
1604197586
1604197961
1604198562
1604199966
1604200520
1604202637
1604203534
1604204205
1604206394
1604206485
1604209644
1604210131
1604210537
1604212005
1604214074
1604216271
1604216217
1604216381
1604217767
1604219982
1604221604
1604222941
1604224498
1604225290
1604227645
1604228080
1604228341
1604228579
1604230901
1604233264
1604234377
1604228343
1604244183
1604245493
1604246029
1604248697
1604249703
1604249676
1604251632
1604251859
1604252955
1604254023
1604254229
1604257366
1604258427
1604261204
1604265682
1604265697
1604267136
1604267532
1604268681
1604269301
1604269604
1604269642
1604270723
1604271868
1604282765
1604284364
1604285493
1604285743
1604290528
1604290831
1604291391
1604292081
1604292269
1604292577
1604293939
1604294139
1604298045
1604298781
1604303140
1604304480
1604306410
1604307637
1604308209
1604308866
1604309463
1604313515
1604316952
1604317097
1604317210
1604317458
1604319959
1604320731
1604322323
1604324255
1604328461
1604329646
1604331527
1604332007
1604332066
1604332345
1604333038
1604333674
1604334983
1604336727
1604336877
1604337627
1604337927
1604339097
1604341385
1604344985
1604345101
1604346246
1604346769
1604346967
1604347029
1604347257
1604348890
1604349205
1604350377
1604351368
1604351595
1604352502
1604354034
1604354900
1604354923
1604356552
1604357930
1604358624
1604360827
1604362106
1604362383
1604363204
1604365236
1604366396
1604368632
1604370206
1604372534
1604373027
1604373630
1604375997
1604376901
1604376526
1604378097
1604382705
1604378581
1604397997
1604400181
1604401324
1604401426
1604402388
1604403191
1604404001
1604406505
1604407681
1604409026
1604410040
1604410687
1604411326
1604412099
1604413087
1604418461
1604418525
1604424834
1604427451
1604431029
1604433393
1604439193
1604440179
1604440436
1604444020
1604445922
1604445817
1604451619
1604452129
1604453432
1604453254
1604456130
1604456651
1604460405
1604460571
1604461015
1604462556
1604465574
1604467623
1604470098
1604470591
1604475261
1604475628
1604477244
1604478226
1604480748
1604482505
1604482844
1604482875
1604488107
1604488976
1604490845
1604491383
1604492124
1604493947
1604496653
1604498632
1604502084
1604502799
1604506861
1604506779
1604507439
1604508028
1604513287
1604515750
1604515302
1604517053
1604517248
1604519559
1604519980
1604521846
1604523107
1604523153
1604525322
1604525489
1604526066
1604526065
1604526368
1604527106
1604527328
1604526408
1604527644
1604529926
1604531842
1604534325
1604535915
1604536389
1604539006
1604539172
1604540424
1604543255
1604543298
1604545399
1604550260
1604550265
1604551968
1604552729
1604555529
1604555269
1604556549
1604557294
1604558050
1604558936
1604560150
1604560873
1604560818
1604562154
1604562149
1604564809
1604566752
1604568508
1604569292
1604569842
1604571276
1604571502
1604573479
1604573661
1604574566
1604575260
1604575697
1604575952
1604576347
1604576852
1604577943
1604579059
1604580054
1604581479
1604581787
1604582273
1604584145
1604584611
1604585257
1604586762
1604587254
1604588333
1604588637
1604591343
1604592899
1604595563
1604598910
1604601665
1604603508
1604609087
1604610109
1604611823
1604611971
1604612167
1604612774
1604617051
1604618527
1604624353
1604624341
1604625429
1604627387
1604628530
1604628496
1604630154
1604631118
1604632056
1604632990
1604633539
1604634972
1604635107
1604636890
1604638153
1604638120
1604639439
1604639884
1604640818
1604643216
1604644036
1604645325
1604645633
1604647335
1604647589
1604650107
1604651291
1604651774
1604651808
1604653822
1604655710
1604655745
1604656231
1604657740
1604658085
1604659417
1604661932
1604662631
1604664326
1604664916
1604667339
1604670114
1604672721
1604672891
1604673124
1604673660
1604675314
1604676687
1604677219
1604677679
1604678997
1604679190
1604680678
1604681002
1604681212
1604682928
1604683502
1604689922
1604691305
1604693334
1604694158
1604694921
1604697318
1604705654
1604705892
1604706136
1604710406
1604715855
1604720695
1604721047
1604722049
1604722069
1604722693
1604725160
1604726537
1604726541
1604727033
1604727801
1604732167
1604732822
1604736298
1604737098
1604737927
1604740531
1604742070
1604742591
1604745538
1604746410
1604747780
1604749431
1604750733
1604752208
1604752532
1604756219
1604756427
1604764477
1604764865
1604765796
1604765812
1604766507
1604766584
1604767163
1604767715
1604767923
1604768584
1604768771
1604768856
1604768902
1604770702
1604773180
1604777356
1604777799
1604779534
1604782991
1604783511
1604783826
1604783944
1604784222
1604786591
1604787612
1604789047
1604790139
1604791755
1604794047
1604795156
1604795924
1604797098
1604797224
1604798071
1604800983
1604802053
1604802909
1604805433
1604806773
1604809700
1604810281
1604810385
1604811657
1604812792
1604814068
1604814305
1604816212
1604819748
1604821178
1604821451
1604822150
1604823483
1604828616
1604830023
1604830613
1604832568
1604833444
1604833923
1604833903
1604835581
1604836228
1604839503
1604842306
1604842604
1604842647
1604843515
1604844648
1604845167
1604845909
1604846505
1604846672
1604846968
1604847994
1604848549
1604850101
1604851251
1604851375
1604851954
1604854983
1604857727
1604859499
1604860039
1604860611
1604864468
1604865270
1604867181
1604869309
1604869653
1604869293
1604871278
1604871483
1604870889
1604871912
1604874698
1604875049
1604875973
1604876200
1604877016
1604877668
1604878561
1604878809
1604879478
1604879773
1604879848
1604879923
1604880273
1604882090
1604885609
1604889472
1604890428
1604892087
1604893112
1604893151
1604893236
1604894434
1604894548
1604897104
1604897238
1604898380
1604898670
1604899676
1604901295
1604903113
1604906594
1604906969
1604909176
1604910461
1604910840
1604913393
1604914236
1604914702
1604917377
1604918871
1604921187
1604924408
1604926042
1604926653
1604927350
1604927624
1604929981
1604930826
1604931290
1604931664
1604931900
1604932670
1604934943
1604935730
1604936029
1604936164
1604936972
1604939603
1604940067
1604940110
1604941329
1604941846
1604942578
1604944655
1604945732
1604946144
1604948002
1604948312
1604950436
1604951238
1604952472
1604955595
1604956444
1604959474
1604959974
1604961493
1604963065
1604963113
1604963146
1604963407
1604963584
1604964335
1604964603
1604965303
1604966248
1604967954
1604969566
1604969972
1604969759
1604974350
1604974943
1604975701
1604976162
1604977169
1604978090
1604980568
1604981080
1604983207
1604983493
1604988289
1604989075
1604990263
1604993315
1604994345
1604998590
1605000687
1605002984
1605003105
1605005924
1605007638
1605010118
1605011550
1605012789
1605012970
1605014742
1605014722
1605014850
1605015606
1605023346
1605024405
1605027235
1605027614
1605028724
1605030098
1605031720
1605032945
1605033873
1605035423
1605037757
1605038855
1605040148
1605041856
1605043599
1605043649
1605045034
1605046229
1605048122
1605049774
1605051283
1605052536
1605053476
1605053636
1605055551
1605056226
1605057862
1605058529
1605061523
1605061477
1605063124
1605063090
1605063945
1605064361
1605065142
1605066370
1605070042
1605071284
1605072825
1605073216
1605073742
1605074133
1605074444
1605078409
1605079273
1605079271
1605079519
1605079938
1605081009
1605082777
1605082877
1605083599
1605085425
1605087455
1605089514
1605089930
1605094898
1605096619
1605097052
1605096891
1605098033
1605098441
1605099054
1605099143
1605099322
1605104499
1605109925
1605114322
1605114624
1605115516
1605119544
1605121132
1605121273
1605121451
1605123726
1605124113
1605124324
1605124480
1605125480
1605125657
1605125787
1605129791
1605129836
1605130314
1605130582
1605132820
1605134866
1605136902
1605137712
1605138046
1605138767
1605141869
1605142303
1605143419
1605144444
1605144054
1605145439
1605148656
1605153614
1605153594
1605155047
1605156360
1605158808
1605158952
1605160892
1605160999
1605162497
1605163371
1605165115
1605165181
1605165230
1605165603
1605166404
1605167427
1605167544
1605167625
1605169588
1605168388
1605172094
1605172251
1605173597
1605175103
1605177885
1605178989
1605179857
1605180179
1605181957
1605184158
1605184208
1605184392
1605187128
1605188172
1605191360
1605191864
1605191995
1605192287
1605192123
1605193439
1605193786
1605194275
1605194549
1605196534
1605197171
1605197977
1605200056
1605200300
1605201911
1605203107
1605203668
1605204748
1605205135
1605207097
1605209685
1605213776
1605215227
1605216647
1605216830
1605219251
1605220418
1605221633
1605225577
1605225720
1605230136
1605231106
1605231736
1605232829
1605234329
1605237483
1605238493
1605240675
1605241448
1605243012
1605243742
1605245085
1605248489
1605249779
1605252370
1605252545
1605257312
1605259002
1605260390
1605261958
1605264142
1605265975
1605268621
1605269868
1605269950
1605276199
1605277398
1605277505
1605284876
1605288182
1605292828
1605296359
1605296084
1605297484
1605301439
1605304640
1605306725
1605307639
1605307860
1605308061
1605309144
1605311551
1605316316
1605316947
1605323082
1605323203
1605324237
1605331176
1605331293
1605333980
1605337814
1605337990
1605340244
1605341839
1605346994
1605348305
1605349857
1605350206
1605350964
1605352985
1605354198
1605355900
1605357026
1605360313
1605363401
1605363584
1605365339
1605365765
1605365937
1605366560
1605368617
1605370318
1605373433
1605373480
1605373857
1605375903
1605379265
1605380430
1605380997
1605384055
1605383965
1605385133
1605385622
1605388576
1605389550
1605391440
1605391555
1605394376
1605394830
1605395663
1605400615
1605401932
1605402284
1605402638
1605406436
1605408589
1605409242
1605411393
1605414805
1605416387
1605418740
1605420975
1605423690
1605425633
1605428439
1605429487
1605430228
1605433068
1605438640
1605438764
1605442285
1605445444
1605447067
1605448150
1605449719
1605450122
1605450492
1605451940
1605452638
1605458077
1605460486
1605461343
1605463885
1605468712
1605468879
1605469209
1605477569
1605480104
1605480517
1605480849
1605481110
1605482558
1605482786
1605483162
1605497623
1605500415
1605501333
1605504125
1605510928
1605511182
1605514950
1605515362
1605515554
1605515653
1605517688
1605517783
1605517958
1605520341
1605520546
1605523444
1605522965
1605525197
1605525750
1605526054
1605527525
1605527687
1605528526
1605529796
1605530019
1605530844
1605534572
1605534862
1605536329
1605539360
1605539903
1605540169
1605542239
1605550370
1605551191
1605551416
1605552328
1605558068
1605558339
1605560497
1605561576
1605573619
1605575601
1605581038
1605584805
1605585097
1605585310
1605589109
1605592023
1605593748
1605593885
1605594075
1605599071
1605599121
1605599728
1605600288
1605601984
1605602158
1605602164
1605603316
1605604387
1605604328
1605608156
1605608000
1605608428
1605609020
1605611065
1605616135
1605616394
1605619454
1605620478
1605627682
1605628860
1605629994
1605631432
1605631243
1605632307
1605632844
1605633009
1605634422
1605635852
1605637158
1605639817
1605646326
1605646495
1605646904
1605647617
1605650549
1605651488
1605654642
1605657030
1605657083
1605658484
1605658823
1605658469
1605660257
1605661465
1605665555
1605666752
1605667676
1605668309
1605668718
1605670603
1605674142
1605674983
1605676992
1605679019
1605678664
1605682652
1605682736
1605683422
1605683709
1605683875
1605686141
1605686751
1605687246
1605688939
1605690510
1605691316
1605694975
1605697340
1605702011
1605703983
1605703929
1605705426
1605705657
1605711208
1605711868
1605714410
1605714895
1605719458
1605726535
1605730041
1605731032
1605732302
1605735301
1605736595
1605737624
1605738762
1605741929
1605744991
1605745473
1605747346
1605748008
1605748560
1605749682
1605752759
1605753304
1605754269
1605756377
1605757546
1605757670
1605762017
1605763013
1605767144
1605769686
1605776367
1605784030
1605784101
1605784846
1605787020
1605788341
1605788486
1605789897
1605790020
1605790442
1605791412
1605793193
1605793700
1605798077
1605800684
1605804489
1605809202
1605813367
1605817967
1605818931
1605818853
1605819780
1605820711
1605820777
1605823907
1605826074
1605826546
1605827272
1605827776
1605829842
1605833510
1605833566
1605838764
1605839559
1605840806
1605844607
1605844968
1605848728
1605848943
1605850808
1605851196
1605852739
1605854440
1605862357
1605863943
1605866097
1605866903
1605867407
1605867694
1605869799
1605871396
1605875218
1605876316
1605877692
1605877674
1605877980
1605879523
1605882439
1605882556
1605886777
1605888812
1605889169
1605891512
1605892461
1605894321
1605895919
1605898119
1605898918
1605901418
1605904670
1605908036
1605912409
1605913125
1605914513
1605915423
1605916219
1605916554
1605918398
1605918562
1605918681
1605919745
1605920082
1605922485
1605922623
1605924108
1605923771
1605924778
1605925898
1605926196
1605926973
1605927591
1605928462
1605930853
1605931021
1605931196
1605934002
1605934727
1605935417
1605936356
1605938188
1605941158
1605942464
1605942688
1605946580
1605949514
1605954153
1605954992
1605959245
1605959603
1605960312
1605960741
1605961400
1605962542
1605967214
1605967849
1605970180
1605971178
1605973993
1605976523
1605979054
1605980763
1605981203
1605983715
1605984297
1605984845
1605991764
1605991845
1605995624
1606000630
1606000404
1606008354
1606009637
1606009725
1606011136
1606011351
1606012538
1606012759
1606012854
1606018149
1606019329
1606022275
1606023338
1606023572
1606027032
1606027397
1606027581
1606028798
1606029267
1606029815
1606033051
1606036445
1606038548
1606040954
1606042389
1606045188
1606048775
1606051737
1606053577
1606058130
1606059511
1606059885
1606062650
1606069810
1606071789
1606072327
1606074312
1606074382
1606075684
1606076242
1606079306
1606084142
1606085735
1606087198
1606088707
1606090046
1606091468
1606094789
1606095115
1606099085
1606103595
1606103658
1606105825
1606108490
1606110502
1606111407
1606111999
1606113832
1606115008
1606117854
1606118555
1606120404
1606120486
1606120634
1606130045
1606132274
1606133002
1606133512
1606142410
1606146664
1606147759
1606149998
1606151587
1606153966
1606158343
1606160213
1606162626
1606163468
1606168374
1606169642
1606169889
1606170092
1606172566
1606172606
1606172556
1606174199
1606175173
1606175370
1606180855
1606181493
1606182964
1606183953
1606184121
1606189661
1606191791
1606194787
1606195106
1606203504
1606205589
1606206261
1606206342
1606207113
1606207525
1606210923
1606212180
1606213033
1606214758
1606215087
1606215562
1606219253
1606224372
1606224723
1606227528
1606231951
1606234288
1606236332
1606237328
1606239446
1606240513
1606241769
1606243766
1606246416
1606246723
1606247440
1606249763
1606250003
1606250205
1606252629
1606258602
1606260569
1606260924
1606263817
1606265088
1606265990
1606267668
1606267720
1606268286
1606270380
1606270532
1606273345
1606273429
1606274021
1606281016
1606282696
1606284794
1606285463
1606287315
1606288216
1606287716
1606289346
1606292416
1606293682
1606293239
1606294891
1606295858
1606301354
1606302133
1606302639
1606303448
1606309801
1606310539
1606311691
1606311989
1606312040
1606312149
1606312792
1606314139
1606315505
1606315600
1606319439
1606321508
1606324685
1606324882
1606331699
1606333702
1606334163
1606334805
1606335482
1606337153
1606337354
1606337894
1606339876
1606345405
1606348901
1606350620
1606351833
1606352127
1606352108
1606352766
1606355273
1606357513
1606359602
1606361810
1606364630
1606365875
1606366440
1606367868
1606369259
1606370273
1606370458
1606378246
1606383047
1606384458
1606386633
1606389872
1606392058
1606392703
1606394872
1606396640
1606398639
1606399549
1606400937
1606403577
1606404693
1606405613
1606405830
1606405775
1606407975
1606407910
1606408881
1606408969
1606409744
1606411952
1606413292
1606414848
1606415589
1606420795
1606424925
1606427750
1606434795
1606437617
1606438529
1606440307
1606440354
1606443668
1606446174
1606452164
1606454639
1606457334
1606457916
1606458496
1606460223
1606464814
1606468346
1606468803
1606468815
1606471638
1606474628
1606478370
1606479010
1606479362
1606481597
1606481988
1606482224
1606483341
1606485454
1606486693
1606487316
1606487290
1606490725
1606491210
1606494742
1606496762
1606496944
1606501087
1606502211
1606504704
1606507664
1606508042
1606509343
1606510189
1606511428
1606511856
1606513306
1606514885
1606514938
1606515343
1606516953
1606517507
1606517662
1606520801
1606523579
1606524282
1606525512
1606527251
1606527994
1606529471
1606531612
1606536845
1606541300
1606547303
1606555137
1606555453
1606557716
1606560503
1606563807
1606567588
1606567620
1606568169
1606569280
1606572440
1606576119
1606579943
1606580384
1606582379
1606584538
1606584545
1606584129
1606585667
1606586682
1606586747
1606586764
1606586938
1606599045
1606599092
1606599480
1606599822
1606600315
1606601971
1606603198
1606603416
1606603392
1606604632
1606608136
1606611361
1606612592
1606613195
1606615097
1606615548
1606621353
1606624883
1606625531
1606627224
1606629363
1606629976
1606630375
1606630498
1606631430
1606633182
1606633428
1606636593
1606638700
1606645765
1606648077
1606648773
1606649457
1606650120
1606650782
1606651196
1606652637
1606653164
1606658109
1606659293
1606660194
1606661472
1606662477
1606664029
1606665696
1606665737
1606666266
1606670198
1606674470
1606684230
1606685494
1606687189
1606688781
1606689111
1606690111
1606691417
1606692583
1606692963
1606696154
1606696706
1606700438
1606704434
1606706246
1606707019
1606709965
1606714493
1606716867
1606716937
1606718361
1606723014
1606723110
1606724332
1606727969
1606729898
1606731919
1606734485
1606735011
1606735401
1606735814
1606736752
1606737824
1606739812
1606740067
1606740619
1606744348
1606744680
1606745978
1606746225
1606752179
1606752459
1606753653
1606753969
1606755779
1606756382
1606757348
1606759216
1606760313
1606760519
1606761171
1606767732
1606768381
1606770037
1606771846
1606773676
1606776583
1606782252
1606784526
1606784710
1606785835
1606789613
1606796982
1606798068
1606801005
1606801591
1606801597
1606802535
1606803941
1606805083
1606807628
1606810934
1606814782
1606817710
1606819698
1606819880
1606820932
1606825257
1606824947
1606825866
1606828373
1606830251
1606836275
1606837527
1606837505
1606838572
1606839805
1606840950
1606843966
1606844175
1606845147
1606845631
1606850608
1606854234
1606855369
1606855000
1606856262
1606858597
1606859278
1606866320
1606866822
1606867804
1606867796
1606868581
1606868342
1606872485
1606877680
1606879046
1606879120
1606880580
1606881853
1606884075
1606885070
1606890008
1606895966
1606897546
1606897309
1606899401
1606902778
1606903498
1606904302
1606904510
1606904758
1606906345
1606907564
1606907605
1606914568
1606918760
1606918718
1606920947
1606921322
1606923571
1606923626
1606928422
1606931604
1606933126
1606937223
1606937815
1606939775
1606942459
1606944350
1606945531
1606949401
1606950844
1606954676
1606955157
1606955253
1606958353
1606959927
1606967411
1606967473
1606968585
1606969699
1606970212
1606972383
1606972761
1606973320
1606973646
1606975805
1606979327
1606983366
1606983733
1606986163
1606986958
1606988340
1606989116
1606989130
1606991046
1606991381
1606995274
1606996995
1606997832
1606998100
1607003558
1607005158
1607005986
1607006063
1607006219
1607007045
1607008508
1607009698
1607009847
1607010112
1607012413
1607015535
1607015685
1607016108
1607021240
1607021190
1607021469
1607021847
1607025825
1607029375
1607030138
1607030648
1607031385
1607036260
1607036818
1607037627
1607037637
1607038765
1607039897
1607040133
1607040614
1607041644
1607041787
1607042281
1607042302
1607042864
1607045870
1607046050
1607047314
1607048457
1607049258
1607052009
1607055983
1607056328
1607057518
1607057734
1607063504
1607065664
1607066254
1607067540
1607067537
1607074339
1607075234
1607078275
1607078921
1607079205
1607079066
1607079800
1607080884
1607081129
1607081382
1607082545
1607083848
1607084488
1607086096
1607086493
1607086958
1607088385
1607091653
1607091871
1607095248
1607098925
1607099110
1607099459
1607100279
1607102826
1607106639
1607115355
1607116786
1607118053
1607119452
1607123393
1607126871
1607127253
1607128062
1607133811
1607135670
1607137123
1607138786
1607140526
1607140727
1607143090
1607146324
1607152025
1607153100
1607153923
1607154472
1607159097
1607160507
1607161102
1607164000
1607165092
1607165754
1607170015
1607172575
1607174172
1607174403
1607174722
1607184324
1607186603
1607187817
1607186982
1607189096
1607190196
1607193645
1607197884
1607201779
1607205655
1607206178
1607208380
1607209530
1607209900
1607211202
1607212194
1607212305
1607213372
1607214981
1607218388
1607222446
1607222333
1607223568
1607226335
1607228113
1607229564
1607230420
1607232502
1607232803
1607236386
1607236538
1607239786
1607239901
1607241240
1607241825
1607243690
1607245045
1607249043
1607250996
1607253598
1607254932
1607260941
1607262039
1607262854
1607270637
1607270886
1607273011
1607273931
1607275274
1607275339
1607275636
1607279272
1607281074
1607282501
1607285878
1607288516
1607289601
1607290481
1607291099
1607294975
1607295170
1607296633
1607296095
1607297620
1607298983
1607303446
1607305420
1607306621
1607307478
1607309479
1607311746
1607313417
1607314956
1607319961
1607320353
1607320939
1607322694
1607324080
1607327029
1607327466
1607328140
1607329370
1607329954
1607330823
1607331247
1607333009
1607337413
1607337734
1607340805
1607341787
1607343995
1607345314
1607346673
1607346844
1607347602
1607348832
1607348809
1607352665
1607358277
1607359140
1607359240
1607361105
1607365545
1607366980
1607368618
1607368912
1607370081
1607383580
1607386122
1607389007
1607392447
1607393689
1607400585
1607402341
1607402889
1607410482
1607410710
1607414154
1607416398
1607417250
1607420890
1607420977
1607421658
1607422600
1607426957
1607427656
1607428946
1607429336
1607429425
1607430409
1607431972
1607433266
1607435522
1607443158
1607443163
1607451351
1607452322
1607453702
1607454240
1607456108
1607456360
1607457206
1607462573
1607466166
1607467303
1607468284
1607469004
1607469721
1607470820
1607471771
1607477013
1607483141
1607483229
1607485933
1607486581
1607487836
1607491379
1607495412
1607498065
1607498508
1607500118
1607500396
1607512252
1607514946
1607515407
1607515444
1607515735
1607517862
1607519193
1607520728
1607521255
1607524176
1607527170
1607528792
1607530005
1607530812
1607532637
1607533770
1607535897
1607540661
1607540227
1607541935
1607542232
1607543381
1607547108
1607547356
1607549557
1607549528
1607553576
1607559130
1607565864
1607566428
1607567339
1607567267
1607572699
1607573992
1607573614
1607574821
1607576460
1607577179
1607577887
1607582572
1607583128
1607587127
1607588182
1607588783
1607589965
1607592754
1607598148
1607597639
1607599590
1607601001
1607601227
1607605344
1607607813
1607608224
1607613176
1607618544
1607621388
1607623054
1607623356
1607623996
1607628670
1607629560
1607638132
1607639669
1607640027
1607642924
1607643208
1607644225
1607645889
1607647154
1607654347
1607656778
1607658258
1607660415
1607660614
1607662622
1607663368
1607666580
1607669287
1607669842
1607670301
1607671198
1607672752
1607673844
1607674058
1607676409
1607682630
1607684781
1607684924
1607686096
1607687863
1607689444
1607694097
1607697417
1607699463
1607702002
1607703769
1607705511
1607712766
1607714910
1607715152
1607719745
1607720060
1607721879
1607724762
1607726640
1607730907
1607735514
1607736597
1607738306
1607739332
1607739660
1607741689
1607741679
1607743041
1607744062
1607744279
1607745223
1607746381
1607749041
1607758225
1607758944
1607758983
1607759105
1607760338
1607764522
1607765003
1607768697
1607769473
1607770463
1607775650
1607783941
1607785435
1607786858
1607787799
1607787954
1607788928
1607789100
1607789311
1607789599
1607792760
1607793669
1607793953
1607797755
1607797774
1607799611
1607801348
1607802776
1607803028
1607803212
1607803272
1607803637
1607804987
1607807030
1607807475
1607808172
1607808103
1607810694
1607813005
1607813371
1607815857
1607820114
1607823589
1607827032
1607828394
1607831011
1607832172
1607832677
1607833770
1607837137
1607838600
1607840251
1607843519
1607844707
1607848620
1607848839
1607849749
1607850482
1607854045
1607854841
1607858370
1607860286
1607862919
1607863318
1607873069
1607877063
1607877652
1607879830
1607883861
1607889236
1607890121
1607892552
1607893846
1607897893
1607898003
1607899800
1607903211
1607904627
1607906501
1607908960
1607910111
1607910953
1607912944
1607917695
1607919028
1607919784
1607920332
1607921711
1607922053
1607926605
1607927743
1607927877
1607927861
1607928771
1607929030
1607930299
1607931443
1607932291
1607937874
1607938163
1607939237
1607940008
1607940366
1607941938
1607942553
1607944165
1607948319
1607950410
1607953604
1607955683
1607955684
1607957213
1607957180
1607957505
1607962377
1607963445
1607963993
1607965347
1607965754
1607966645
1607967079
1607967487
1607967786
1607970378
1607974759
1607975221
1607975422
1607976863
1607981860
1607984317
1607987731
1607992339
1607994535
1607997656
1607997818
1607998330
1607999756
1608000482
1608000441
1608001236
1608003398
1608006018
1608008832
1608009363
1608010987
1608013940
1608015592
1608018976
1608019217
1608019679
1608024168
1608027596
1608029752
1608029678
1608031590
1608032279
1608038463
1608039720
1608040035
1608043602
1608050050
1608052751
1608053407
1608055265
1608058512
1608063611
1608065749
1608068823
1608069505
1608071664
1608073893
1608076377
1608078880
1608079050
1608079646
1608083375
1608085126
1608086314
1608087672
1608087956
1608089122
1608089904
1608092543
1608094331
1608096878
1608097609
1608104354
1608104856
1608106745
1608107517
1608109159
1608110120
1608110826
1608111318
1608115581
1608116440
1608118018
1608122003
1608121797
1608124453
1608127075
1608131637
1608132467
1608132780
1608142712
1608146883
1608148005
1608148807
1608150110
1608152590
1608152592
1608154476
1608156284
1608158647
1608159182
1608160250
1608164887
1608165341
1608167228
1608168293
1608172023
1608172758
1608174500
1608179963
1608182446
1608185018
1608186127
1608186895
1608191476
1608192567
1608193190
1608193523
1608196115
1608198530
1608201793
1608204860
1608206633
1608206516
1608213735
1608223416
1608225993
1608226443
1608226530
1608228390
1608228578
1608232885
1608234330
1608235097
1608236761
1608237210
1608237545
1608238061
1608238295
1608239444
1608243765
1608244941
1608246336
1608246957
1608248119
1608251563
1608255485
1608257571
1608264191
1608265067
1608266719
1608269052
1608271792
1608273770
1608275033
1608275486
1608275505
1608277310
1608278568
1608279120
1608281311
1608283014
1608284620
1608285127
1608289104
1608291223
1608293766
1608299526
1608300789
1608302580
1608303797
1608303773
1608306586
1608308401
1608309456
1608309813
1608310399
1608312771
1608322577
1608323463
1608326864
1608326971
1608326992
1608328422
1608330719
1608330715
1608331686
1608333407
1608334496
1608335497
1608335522
1608335739
1608337719
1608341473
1608342210
1608344596
1608348050
1608350892
1608353643
1608354734
1608355771
1608356586
1608362429
1608362442
1608364722
1608366222
1608366958
1608368301
1608368320
1608376737
1608377017
1608377521
1608378316
1608380076
1608379856
1608382348
1608383252
1608387536
1608390581
1608395745
1608396634
1608397620
1608399637
1608402097
1608404408
1608405394
1608406313
1608408967
1608410625
1608415441
1608420305
1608422839
1608424932
1608426324
1608426518
1608426590
1608426976
1608428847
1608429634
1608432165
1608432626
1608436084
1608436181
1608438002
1608437982
1608440492
1608444654
1608444659
1608446581
1608447635
1608450304
1608453176
1608454957
1608457263
1608460012
1608460390
1608463345
1608468090
1608469042
1608468793
1608469117
1608470545
1608473436
1608481114
1608483396
1608486034
1608486662
1608487723
1608489794
1608493821
1608499493
1608502436
1608505223
1608509279
1608511781
1608514852
1608515482
1608519212
1608521936
1608525458
1608525473
1608527015
1608528275
1608529248
1608529872
1608533033
1608535662
1608540886
1608544443
1608545582
1608545799
1608551108
1608552271
1608553484
1608558407
1608558539
1608559579
1608560431
1608564672
1608565093
1608566260
1608567584
1608570886
1608577325
1608577322
1608582317
1608583169
1608583760
1608585449
1608591888
1608592216
1608594138
1608594770
1608596690
1608601853
1608603311
1608604851
1608612564
1608618467
1608626213
1608627357
1608628784
1608632795
1608633185
1608635240
1608635098
1608635641
1608636031
1608636409
1608636757
1608639558
1608639653
1608643501
1608643170
1608644460
1608646050
1608645899
1608646889
1608647443
1608647518
1608647773
1608647914
1608650383
1608651179
1608657197
1608657522
1608666497
1608675495
1608677650
1608679975
1608682355
1608682415
1608682818
1608685543
1608696526
1608698975
1608702021
1608707064
1608708833
1608712620
1608713926
1608714200
1608714847
1608715713
1608717930
1608720050
1608721660
1608721844
1608723129
1608725205
1608729478
1608729865
1608732675
1608733741
1608733957
1608733826
1608733935
1608733509
1608734748
1608739717
1608740912
1608741309
1608742302
1608742993
1608745513
1608749588
1608750737
1608760208
1608761109
1608761431
1608762531
1608769126
1608769606
1608773204
1608776229
1608784345
1608790493
1608791210
1608791226
1608792500
1608793041
1608793264
1608793959
1608797790
1608799213
1608803107
1608805231
1608805938
1608807993
1608808503
1608809682
1608811205
1608811865
1608818847
1608822908
1608824236
1608825756
1608829988
1608833179
1608842731
1608845350
1608849809
1608851299
1608855407
1608859695
1608866213
1608873374
1608874596
1608874832
1608877786
1608878217
1608878786
1608878968
1608882472
1608882495
1608883028
1608883768
1608886732
1608887536
1608888238
1608890090
1608890856
1608891784
1608891938
1608896824
1608896885
1608897878
1608900903
1608904489
1608907225
1608909120
1608911081
1608912611
1608913757
1608915736
1608916291
1608918383
1608923875
1608923713
1608924771
1608931303
1608931352
1608932127
1608932823
1608934341
1608934437
1608934799
1608936006
1608937349
1608940980
1608941309
1608941735
1608943314
1608945380
1608950545
1608952595
1608954286
1608956317
1608958210
1608958569
1608960084
1608963567
1608965519
1608966515
1608966805
1608969160
1608969009
1608970211
1608973908
1608973656
1608974819
1608974803
1608977010
1608977525
1608977918
1608980017
1608981240
1608983200
1608989057
1608990083
1608992978
1608993295
1608996114
1608998775
1609000539
1609000956
1609004970
1609005413
1609007021
1609007297
1609010491
1609011862
1609016267
1609017377
1609017740
1609019053
1609019728
1609021478
1609023222
1609024010
1609024757
1609025373
1609026297
1609026672
1609028627
1609029476
1609030702
1609032493
1609035957
1609037757
1609037710
1609046430
1609046575
1609046588
1609047703
1609048575
1609049584
1609049695
1609051165
1609053199
1609054590
1609056799
1609057662
1609059765
1609067167
1609069325
1609070683
1609071769
1609072609
1609073360
1609077159
1609078826
1609079125
1609083337
1609085765
1609085983
1609090289
1609093932
1609094448
1609095131
1609097490
1609104602
1609107484
1609107736
1609108425
1609110833
1609113077
1609113386
1609114083
1609115658
1609117875
1609122670
1609124234
1609125109
1609125607
1609130739
1609133871
1609134001
1609135850
1609135868
1609142257
1609142427
1609145094
1609146637
1609146898
1609147762
1609148729
1609153724
1609154154
1609157411
1609159555
1609160413
1609161611
1609163526
1609163624
1609164579
1609164926
1609165898
1609173036
1609173139
1609173043
1609179739
1609180721
1609185179
1609187282
1609187869
1609189000
1609191145
1609191781
1609192859
1609193759
1609195238
1609195429
1609201328
1609203964
1609206717
1609208128
1609210492
1609213548
1609218455
1609220350
1609225815
1609226464
1609229228
1609230915
1609235578
1609235722
1609236578
1609238942
1609239096
1609240721
1609242011
1609244779
1609245422
1609248211
1609249380
1609254662
1609254620
1609255026
1609256228
1609258421
1609259325
1609259881
1609261700
1609263812
1609268713
1609268884
1609271836
1609274384
1609278718
1609280592
1609281420
1609284291
1609287565
1609287813
1609290132
1609293893
1609296369
1609297353
1609300884
1609303576
1609304235
1609305016
1609306664
1609315581
1609315956
1609318330
1609318574
1609318678
1609319239
1609319236
1609319702
1609321061
1609322526
1609322829
1609323915
1609325641
1609328625
1609329008
1609329358
1609330579
1609331016
1609333499
1609334878
1609336590
1609337617
1609340345
1609341080
1609343185
1609346266
1609346508
1609347717
1609349104
1609353055
1609356874
1609358705
1609360739
1609362579
1609364661
1609364945
1609365772
1609366155
1609367643
1609368845
1609368961
1609372802
1609373514
1609376012
1609376537
1609378315
1609380831
1609385446
1609386329
1609387444
1609389575
1609389713
1609392829
1609393417
1609397352
1609400269
1609404608
1609410686
1609412373
1609413165
1609413281
1609415763
1609415768
1609416505
1609417739
1609419198
1609419200
1609423811
1609424717
1609420553
1609425769
1609429650
1609430560
1609432766
1609433975
1609438053
1609440334
1609441136
1609442901
1609443629
1609444387
1609446228
1609448773
1609448887
1609450506
1609455136
1609457236
1609458362
1609462174
1609463111
1609464512
1609466390
1609468378
1609470076
1609470079
1609471093
1609471521
1609473291
1609474024
1609476403
1609476520
1609478246
1609479185
1609483139
1609483813
1609484374
1609485159
1609486687
1609487389
1609487386
1609487584
1609491848
1609492190
1609493655
1609493657
1609494957
1609495637
1609496369
1609498072
1609502624
1609504804
1609517832
1609518570
1609518543
1609519581
1609523781
1609524167
1609526679
1609528816
1609529570
1609530691
1609534052
1609534334
1609535101
1609540269
1609541947
1609542884
1609543572
1609544209
1609545902
1609548013
1609549659
1609551829
1609552399
1609553545
1609554038
1609554348
1609554773
1609555065
1609556539
1609557291
1609559299
1609564097
1609566642
1609572652
1609573252
1609574482
1609577054
1609577634
1609578080
1609591966
1609593278
1609605606
1609608017
1609613593
1609614116
1609614920
1609616209
1609617091
1609617247
1609617563
1609618381
1609621439
1609625965
1609629437
1609630590
1609632168
1609631915
1609633313
1609634210
1609634183
1609637341
1609638597
1609639776
1609641254
1609641659
1609643597
1609643857
1609645635
1609648799
1609650832
1609653015
1609653834
1609656026
1609670016
1609670680
1609670814
1609671735
1609679290
1609679259
1609681554
1609682423
1609683314
1609684672
1609688423
1609693045
1609693388
1609694111
1609695652
1609696909
1609707459
1609709135
1609715106
1609716262
1609716922
1609718478
1609719020
1609719363
1609721319
1609724424
1609724756
1609725324
1609725622
1609726778
1609726864
1609727201
1609734831
1609735729
1609738576
1609739434
1609741972
1609745971
1609745990
1609748320
1609749515
1609749637
1609751179
1609752749
1609760746
1609761265
1609762439
1609768121
1609770613
1609773049
1609775912
1609776905
1609778689
1609779742
1609782221
1609785282
1609786467
1609789601
1609790353
1609790480
1609791257
1609792311
1609794627
1609797208
1609798976
1609802046
1609802535
1609802877
1609802897
1609803153
1609804288
1609805256
1609808323
1609810697
1609811209
1609814812
1609814802
1609814984
1609815205
1609816693
1609818060
1609818186
1609819946
1609822098
1609822142
1609823318
1609824638
1609824882
1609829613
1609831033
1609831989
1609832730
1609834721
1609838778
1609840902
1609841208
1609844932
1609847037
1609848494
1609849206
1609851697
1609857343
1609858262
1609859981
1609861407
1609861727
1609863661
1609865209
1609869902
1609870745
1609871368
1609872727
1609878468
1609879789
1609880000
1609884372
1609885526
1609887452
1609892624
1609894087
1609894708
1609895776
1609878492
1609903847
1609903616
1609908961
1609912662
1609916639
1609918224
1609918406
1609918792
1609919752
1609920005
1609923587
1609927170
1609927646
1609928074
1609928850
1609930481
1609935534
1609942251
1609942933
1609944781
1609945304
1609948339
1609954658
1609954998
1609956521
1609957779
1609962133
1609963820
1609970012
1609972584
1609974873
1609979180
1609981694
1609981857
1609983551
1609989975
1609995875
1609998166
