710146171
710501599
710700477
710819312
710955962
711140259
711294484
711333220
711532515
712171670
712358656
712394872
712441360
712592442
712611187
712683242
712711185
712736499
712804778
712825306
713000304
713094690
713099750
713109442
713175379
713255524
713428724
713440554
