710063153
710249810
710394814
710493943
710597366
710612320
710795807
710930510
711061745
711209989
711944885
712171448
712186701
712202035
712321410
712733374
712925653
712979207
713027004
713084451
713326357
713384423
