731032777
731055734
731089940
731093800
731093571
731120794
731126382
731130648
731151205
731155144
731186624
731193067
731201288
731214874
731227230
731262541
731262621
731275102
731543145
731628816
731636798
731647691
731706094
731740324
731777148
731783198
731807623
731841143
731857260
731863148
731888083
731889783
731900769
731961060
731965453
732046338
732125188
732128865
