960017447
960048693
960051853
960053551
960180246
960204306
960227394
960295500
960312041
960370928
960400430
960431539
960481039
960544143
960545464
960591661
960604712
960639619
960669309
960694870
960695843
960704058
960738268
960811663
960935364
961017855
961022284
961042323
961069220
961116957
961131905
961137035
961138874
961154901
961157735
961177720
961215899
961250915
961281675
961293016
961306872
961394363
961424261
961434461
961486096
961559936
961662704
961714885
961791175
961810829
961821168
961886589
961908272
962017133
962116695
962139990
962141592
962151706
962170628
962228731
962287479
962340693
962342828
962464569
962524580
962545916
962559089
962568010
962664614
962706570
962728928
