800026535
801006461
800029262
800032641
801013353
800069587
800071427
800106033
801048008
801053357
801054784
801066752
800126485
801081361
800142997
802005981
800015942
800026535
800029262
800032641
800069587
800071427
800106033
800126485
800142997
800157421
800168233
800183394
800192830
800221067
800265319
800279765
800286936
800293850
800295233
800303407
800311251
800312523
800313277
800319873
800335497
800354926
800392182
800403060
800417595
800419737
800460353
800462420
800463722
800468375
800514033
800517045
800541793
800602003
800621032
800633399
800688677
800705521
800748305
800758398
800771968
800809268
800842183
800843982
800877902
800900806
800905126
800918387
800936609
800939614
800973631
800978347
800986204
800986574
800992157
800995246
801001425
801006461
801013353
801048008
801053357
801054784
801066752
801081361
801105749
801106115
801107869
801112147
801125940
801140953
801145867
801150632
801165429
801178643
801179546
801187979
801197202
801204041
801236207
801258436
801282759
801294871
801298553
801302618
801308017
801320345
801351663
801356592
801394399
801401306
801439779
801462381
801471421
801476052
801490927
801499531
801508192
801512367
801536217
801547457
801588499
801592051
801613477
801625374
801629594
801638699
801658357
801672791
801696719
801701592
801746225
801756021
801773776
801798663
