1600018139
1600021299
1600115563
1600161908
1600196049
1600238775
1600428402
1600678394
1600821475
1600850702
1601001340
1601009442
1601268125
1601750632
1603271416
1603377986
1603774270
1603952827
1604017577
1604213155
1604813149
1605114146
1605762450
1607554681
