960005828
960018033
960024711
960047377
960054454
960072388
960105022
960178219
960210762
960274307
960303805
960313348
960319870
960383576
960404975
960422655
960458704
960472978
960474593
960485720
960491221
960570186
960572408
960576667
960618599
960628976
960647692
960661598
960664581
960685009
960695692
960719342
960811658
960811915
960833137
960848490
960857704
960870472
960883663
960911130
960932988
960936633
960939443
961006768
961010419
961051553
961062665
961065708
961085430
961123083
961134760
961153107
961168591
961176260
961235874
961238306
961245667
961265991
961270185
961269673
961292883
961294224
961297820
961314537
961338572
961346442
961367991
961391733
961398116
961404112
961441165
961447157
961451347
961513281
961527843
961535526
961569754
961593621
961600318
961605552
961625314
961700306
961757413
961800064
961804498
961806777
961812444
961815624
961845285
961865719
961865693
961892946
961899342
961919984
961964432
961982218
961997002
962006582
962045591
962052560
962065331
962074813
962177366
962208497
962210458
962221550
962233698
962234159
962240566
962252090
962254075
962256720
962297107
962319170
962321952
962362897
962373905
962375879
962380933
962393081
962410015
962417356
962421663
962425828
962440223
962445534
962454143
962471722
962460129
962475970
962480584
962484980
962498702
962511567
962523680
962556472
962568323
962572220
962582407
962584655
962587732
962591710
962602116
962676045
962688024
962698096
962706701
962709675
962711316
962733016
962747340
962754816
962764146
962768109
962782576
962783327
