801005988
800074274
800076730
800081045
800084617
801099850
802001133
800074274
800076730
800081045
800084617
800233990
800243022
800244457
800273726
800322289
800456468
800553874
800554408
800612220
800621743
800688354
800740521
800764808
800847803
800861335
800905554
800930422
800936045
800950173
801005988
801099850
801158578
801182933
801211393
801213028
801224698
801278200
801388899
801425362
801444485
801480138
801495595
801544734
801562930
801563123
801564647
801585261
801590271
801700501
801744668
801762203
801765708
801767990
