1810005234
1810016538
950366892
950379019
950383750
950384585
950385930
950386320
950397792
950401268
950403162
950406403
950410410
950446941
950450723
950454567
950468506
950470017
950473830
950484235
950484282
950490998
950497623
1810005234
