960007692
960196677
960415276
960543794
960738106
960845838
960879479
960903698
960981292
960994956
961001831
961045946
961274438
961569353
961601494
961820228
961842768
961911939
962212400
962251561
962361518
962418136
962506981
