800016016
800026334
800031232
800035268
800038065
800047099
800057005
800058039
800065277
801014081
801022144
801022752
800082655
801035424
801037391
800105354
800111631
801053902
800118359
800118626
800119931
801072995
801073165
800144200
801093809
800154362
802005730
802007608
800016016
800026334
800035268
800038065
800047099
800057005
800058039
800065277
800082655
800105354
800111631
800118359
800118626
800119931
800144200
800154362
800177592
800179191
800190771
800190905
800194049
800202106
800221562
800222588
800243850
800252419
800274521
800319322
800331338
800333587
800345847
800348382
800348771
800348817
800379239
800393834
800398718
800403887
800410043
800419290
800452667
800466794
800479448
800484474
800503695
800535977
800544065
800558276
800567365
800590478
800598569
800600526
800615614
800620422
800624342
800625196
800641599
800644031
800657507
800704985
800715928
800742109
800755586
800763279
800772590
800772841
800785233
800786958
800804832
800821580
800821952
800826019
800829381
800835543
800859981
800864774
800870232
800875974
800882755
800886470
800889561
800904214
800910750
800924255
800983098
800995638
801014081
801022144
801022752
801035424
801037391
801053902
801072995
801073165
801093809
801126249
801162628
801167100
801171724
801181073
801187470
801209192
801214618
801216550
801230692
801232354
801234992
801259488
801264047
801289823
801293712
801296384
801300186
801337108
801344263
801348460
801349916
801365468
801372838
801381467
801405954
801407922
801413127
801416066
801436668
801440198
801444688
801449382
801478004
801497736
801498200
801503646
801512390
801516000
801519743
801555244
801560647
801579327
801584356
801593677
801613907
801633446
801638856
801664861
801673706
801678154
801689306
801730762
801741319
801749976
801757558
801761061
801781266
801807732
801815365
801816767
