730028695
731055057
730145580
731086088
730188428
730212023
730237741
730238373
731196756
730280210
731262604
731548837
730448350
730449473
730514876
730554672
731790338
731820372
731847541
731855188
730699764
730703289
731944648
731952904
731956113
731977218
730721359
730738347
732060907
730779967
730787330
732110264
1600022193
1600024055
1600033502
1600040469
1600068269
1600069861
1600090975
1600132004
1600136014
1600136684
1600144877
1600147284
1600150185
1600171209
1600172476
1600240349
1600246919
1600258212
1600258279
1600268614
1600271071
1600272508
1600278535
1600308734
1600310034
1600312183
1600316677
1600322463
1600334311
1600348651
1600364190
1600371040
1600406316
1600406797
1600420605
1600425896
1600436403
1600439718
1600447473
1600455049
1600467638
1600499481
1600508118
1600509537
1600523500
1600531966
1600533979
1600549196
1600551147
1600553926
1600586252
1600607848
1600613855
1600621595
1600668019
1600668542
1600670320
1600700034
1600713568
1600729833
1600734127
1600739578
1600757175
1600757181
1600758933
1600778896
1600791981
1600836205
1600859374
1600864463
1600865835
1600890693
1600904653
1600905234
1600941541
1600949539
1600955382
1600962420
1600963318
1600966409
1600972192
1600987233
1600987892
1601006050
1601012342
1601021749
1601032857
1601036339
1601042698
1601055386
1601065328
1601092478
1601107465
1601158596
1601160779
1601161350
1601192542
1601207389
1601208826
1601209386
1601209523
1601246110
1601283144
1601310220
1601316058
1601356654
1601374828
1601399765
1601400589
1601433088
1601455526
1601456938
1601463562
1601496982
1601507894
1601542127
1601551893
1601556370
1601568755
1601593290
1601613950
1601614309
1601637974
1601639215
1601639746
1601648015
1601648519
1601686328
1601695922
1601704642
1603065476
1603075550
1603114957
1603123945
1603133694
1603138710
1603141811
1603148905
1603151314
1603165602
1603181135
1603190037
1603190300
1603215375
1603220270
1603225620
1603237815
1603244900
1603276961
1603286207
1603288014
1603304822
1603307790
1603307838
1603320649
1603330356
1603335671
1603340115
1603353779
1603362196
1603393797
1603403715
1603418781
1603439107
1603439703
1603442089
1603457054
1603459583
1603464690
1603480858
1603482482
1603493751
1603493934
1603521819
1603528609
1603536640
1603548906
1603553118
1603556207
1603604478
1603652327
1603671497
1603700249
1603712524
1603734121
1603735948
1603748615
1603756906
1603758500
1603760260
1603766155
1603775751
1603782417
1603787619
1603790735
1603796727
1603910312
1603913592
1603936041
1603939079
1603958023
1603964752
1603972364
1603984068
1603986774
1603996599
1604025716
1604043991
1604049793
1604066567
1604077685
1604083741
1604085006
1604091302
1604098836
1604105206
1604112633
1604112783
1604123617
1604132081
1604143490
1604164374
1604195648
1604205536
1604206704
1604208203
1604209206
1604219873
1604237894
1604255739
1604265742
1604288572
1604290909
1604292460
1604294955
1604309716
1604322274
1604326572
1604343139
1604349495
1604354634
1604355630
1604362772
1604365873
1604468946
1604473826
1604511213
1604515818
1604524526
1604539987
1604553098
1604559261
1604564181
1604572832
1604577236
1604578319
1604596725
1604603697
1604594783
1604621073
1604623459
1604635031
1604650230
1604663543
1604663773
1604665570
1604675403
1604682370
1604684751
1604687253
1604697866
1604700084
1604703806
1604733853
1604745054
1604754212
1604756910
1604764177
1604791801
1604808751
1604843536
1604853370
1604858893
1604900465
1604901583
1604922349
1604930053
1605003320
1605016083
1605021181
1605072562
1605080690
1605121851
1605127334
1605127641
1605134734
1605139675
1605142136
1605146741
1605167054
1605190418
1605212677
1605218565
1605255193
1605328682
1605328340
1605359227
1605382794
1606028037
1606160941
1606190093
1606253461
1606441060
1606515654
1606680350
1606776745
1606888023
1607249241
1608010882
1608479909
1608742045
