730060294
731056297
731069122
731070643
731084810
730238193
731179857
730263187
730278967
731547306
731550127
731578880
731610451
731640316
731722289
730549339
730661254
730663982
731911676
1600145193
1601132333
