1600007348
1600007683
730001075
730031640
730042039
731019681
731043040
731090193
730170560
731161641
730237268
730256741
731192367
731235139
730318005
730320620
730322889
731254366
730405698
730416316
730421966
731561075
730447806
730465538
731605780
730505196
731665667
731671499
731689923
730532825
731729867
731735088
731767317
730588740
731795518
730617398
730629364
731851698
730686142
731888316
731898803
731899362
731904854
731912047
731927559
731949626
731965312
731967223
730730303
732029464
732055944
730779935
732083692
732089049
732092776
730801188
730801559
730822481
732122164
730834564
1600007348
1600007683
1600031184
1600034243
1600058722
1600079046
1600124501
1600126619
1600133512
1600153624
1600159744
1600169537
1600182115
1600187189
1600192946
1600215405
1600234770
1600274086
1600292063
1600311114
1600334558
1600355763
1600356863
1600421683
1600437291
1600455997
1600504308
1600518171
1600526348
1600546762
1600621640
1600633352
1600681886
1600710361
1600735004
1600742860
1600747490
1600749649
1600779188
1600787181
1600788554
1600789391
1600790086
1600808804
1600849645
1600965133
1600966684
1600967345
1601100808
1601104251
1601112385
1601175371
1601191451
1601206743
1601218986
1601242863
1601283443
1601330982
1601340421
1601350884
1601379004
1601389187
1601417591
1601438057
1601480639
1601496067
1601595308
1601634321
1601647876
1601674748
1601681405
1601710316
1600124501
1603075617
1603082153
1603118045
1603140078
1603140266
1603143769
1603246809
1603296582
1603328701
1603381743
1603409977
1603432954
1603486692
1603493958
1603498329
1603503565
1603520940
1603527048
1603539841
1603558522
1603560886
1603569711
1603637254
1603670961
1603677791
1603699505
1603750768
1603768719
1603786538
1603791592
1603834062
1603983017
1604094544
1604137462
1604159942
1604164332
1604172684
1604251158
1604279251
1604305500
1604338551
1604367775
1604458953
1604477280
1604481382
1604491926
1604516079
1604532740
1604547973
1604575602
1604601011
1604647567
1604653117
1604672381
1604672190
1604697064
1604718542
1604754680
1604763393
1604785078
1604881451
1604897428
1604899147
1604917028
1604924836
1604932049
1604933481
1604944743
1604954012
1604970933
1605003927
1605012418
1605099718
1605109316
1605140019
1605195419
1605224679
1605291652
1605310698
1605317011
1605334969
1605407180
1605436487
1605538663
1605651373
1605667114
1605714644
1605930608
1606121481
1606154308
1606167749
1606172273
1606223501
1606409754
1606652037
1606677545
1606678052
1606682714
1607028379
1607198566
1607211283
1607218302
1607290001
1607344440
1607505524
1607730606
1607774927
1607854271
1607932481
1608059925
1608061794
1608294963
1608685741
1608720319
1608820769
1608942498
1609018211
1609046788
1609067539
1609167171
1609175205
1609287739
1609408052
1609574484
1609602857
1609878592
1609954826
1609971317
1609977093
