730053891
1600002572
730053891
730077564
731021811
730100328
731102087
731103474
731231913
730458901
731644894
731698174
731721453
730572107
730586274
730627268
731844613
731848227
730660289
731901691
731938179
730710153
732023439
732032203
732108727
1600002572
1600019011
1600061320
1600065140
1600079090
1600094388
1600163433
1600186243
1600194869
1600232820
1600277422
1600289392
1600292025
1600310769
1600312159
1600398915
1600428338
1600479461
1600496317
1600524983
1600528464
1600528705
1600542942
1600550732
1600563462
1600572347
1600609658
1600613983
1600632027
1600635767
1600641186
1600641677
1600642595
1600680563
1600754534
1600761821
1600775773
1600796092
1600805025
1600827099
1600869721
1600909592
1600928502
1600955077
1600973921
1600976104
1600979244
1600984559
1601027445
1601083373
1601086532
1601094327
1601095172
1601106296
1601117845
1601119994
1601129856
1601132074
1601141346
1601143302
1601148249
1601158550
1601166658
1601184868
1601200311
1601226956
1601284358
1601305594
1601336546
1601351982
1601360088
1601362200
1601412063
1601419127
1601426727
1601450691
1601454552
1601456823
1601461660
1601485479
1601511440
1601524574
1601540715
1601559587
1601568787
1601583150
1601586955
1601593140
1601605306
1601621189
1601649381
1601670609
1601706262
1603078991
1603087738
1603088276
1603139261
1603166395
1603201786
1603206133
1603209851
1603211030
1603216978
1603267332
1603271844
1603280929
1603282922
1603299346
1603344071
1603352458
1603362419
1603380125
1603381928
1603416299
1603420959
1603429812
1603449098
1603451905
1603453410
1603498142
1603516710
1603549144
1603563072
1603577670
1603593034
1603700789
1603704984
1603718061
1603752269
1603767486
1603905859
1603911506
1603921988
1603961414
1603986773
1603995882
1604004644
1604006306
1604052182
1604078754
1604098242
1604105106
1604122022
1604124586
1604135155
1604188450
1604207563
1604213122
1604299915
1604320113
1604322056
1604326907
1604327908
1604346646
1604365272
1604372648
1604380898
1604459904
1604481769
1604533094
1604535993
1604568968
1604605514
1604678328
1604692841
1604742300
1604756316
1604792112
1604798315
1604829710
1604856632
1604869603
1604883921
1604887815
1604888749
1604916833
1604933330
1604956897
1604957374
1604973914
1605009445
1605038514
1605047868
1605065755
1605076245
1605102023
1605118390
1605163151
1605167384
1605203452
1605214659
1605305063
1605365905
1605375156
1605395873
1606558760
1606667356
1606993429
1607347932
1607560595
1607856775
1609547130
