960123993
960135144
960157844
960168800
960208912
960255734
960276484
960287484
960323017
960375935
960424717
960571792
960630925
960701108
960755889
960765626
960774814
960808354
960813599
960850318
960884089
960926035
960973602
960976928
960988425
960993623
961288313
961307805
961386477
961425825
961436030
961494213
961557352
961649371
961655913
961659520
961806578
961877948
961923241
962067355
962071323
962139691
962145712
962205942
962219285
962289827
962345482
962477519
962510362
962527864
962536640
962537839
962565059
962573118
962597540
962729334
