801034182
800103466
801057626
801059379
800139600
800103466
800139600
800298134
800334204
800352075
800369021
800472635
800562893
800681467
800752593
800821672
800962318
801034182
801057626
801059379
801108728
801189617
801216205
801256824
801366103
801379309
801450204
801568925
801708707
801751776
801755250
801772264
801798377
