1600006009
730005693
730030074
730033158
731018129
730037970
730049833
730059855
730074915
730078696
730079248
730081677
730082417
730084299
730085331
731020141
731025035
730094153
731029752
731031710
731033216
731037066
731041565
731048472
731051190
730114601
730117853
731056499
730118427
730120468
731061958
730130245
731068791
731070611
731071061
730136635
730138460
731086384
731086319
731090784
730154699
730155189
730157989
731094441
730159578
730159665
730160548
731100802
730165365
730166409
730169621
731105761
731108607
730173808
730173891
731112437
731113638
730179636
731115100
730187455
730189178
731130392
731130527
730197344
730198042
731137555
730207152
731142196
730211258
731146793
731148460
731148414
730216881
730228082
730231363
731166872
730237807
730238819
731174476
731174158
730244449
731176054
730247730
730250349
731182125
730255439
731188769
730258875
731193748
731194266
730269763
730270075
730270172
730276130
731209083
730280656
731210183
730282443
731212344
730285052
731213274
731216166
731220961
730300485
731233923
730314686
730317170
730318159
730325378
731257997
731259503
730335793
731264053
730338954
731264616
730340627
731268169
730344368
730344966
731270750
730345298
731275164
731538273
731541006
731543217
731545181
731549995
730419462
731570443
731571230
731572273
731574819
731576455
730438926
730439169
730442801
730449821
731589794
731591251
731593903
730458679
731600962
730465843
731608986
730469138
731609683
731610316
731611435
730472178
731614796
731617007
730477894
731618213
731619955
730482734
730483626
731625128
731626106
731630638
731631424
730501474
730509418
731651320
731653130
731654438
731667450
731668850
731671262
731674330
731681630
731685560
731688352
731689028
731697822
731705978
731710036
731710809
731715924
730528332
731724807
731728900
730539403
730541526
731734873
731735840
731737338
731737973
731738481
731739282
731740278
730552841
731746736
730555281
731752625
730562286
731757680
731758309
730566368
730568101
730568623
730582481
730584268
730584841
730585529
730586183
731779703
731781989
731785011
731788711
731789544
730597586
731792083
731794253
730600156
731794532
730602598
731799096
731799729
730614798
731810880
731811710
731814025
730620332
731815322
731815697
731816479
730624826
730626019
730628238
731823663
730631424
731829942
730635486
731833910
730640528
731837073
730641728
731838745
730644450
730648730
731853552
731853863
731857390
731857845
731857923
731861646
730667741
730669184
730669487
730674870
731870322
731874772
731880146
730690229
731886845
730693984
731890853
731892604
731892641
730697709
731894644
731896181
730699929
731910342
731910472
731913834
731921889
731929357
731932540
731935826
731935941
731939601
731947781
731953542
731962900
731967598
731973911
731980563
731983584
731988415
731991386
732004913
730710412
732010109
732010342
730715021
732013166
732014770
732018767
732018739
732020912
732021366
730728224
732030549
732034831
730739998
732045895
732048430
730761637
732060289
730769639
732065641
730774922
730774859
732069738
732070920
732071605
732078120
732080514
730804908
732101330
732102754
732106877
732111615
732112353
730816931
732114025
730825224
732127604
1600010211
1600017926
1600018619
1600020936
1600031059
1600038241
1600047968
1600053342
1600056147
1600058425
1600063392
1600073271
1600073415
1600074328
1600080360
1600093160
1600094909
1600096904
1600097472
1600125235
1600126987
1600129133
1600141359
1600152106
1600160768
1600176125
1600176578
1600183653
1600184786
1600201650
1600208544
1600212096
1600219569
1600223185
1600242024
1600245785
1600248173
1600253985
1600256127
1600294216
1600295274
1600296522
1600299735
1600299654
1600306754
1600307089
1600308778
1600309624
1600316510
1600317083
1600318434
1600331897
1600349914
1600356285
1600370148
1600377559
1600378847
1600385068
1600418966
1600420644
1600426835
1600429934
1600430331
1600446332
1600461373
1600471469
1600482878
1600488202
1600489092
1600491609
1600492419
1600499954
1600518453
1600529421
1600532261
1600553986
1600555339
1600567383
1600581407
1600584870
1600607163
1600611167
1600613447
1600623025
1600626748
1600631526
1600640374
1600640969
1600641275
1600658405
1600659210
1600669046
1600683650
1600684580
1600696144
1600708300
1600709952
1600744129
1600755707
1600762535
1600765473
1600768091
1600772259
1600774018
1600787110
1600820501
1600823493
1600830111
1600837771
1600844065
1600847287
1600847629
1600852860
1600864095
1600871001
1600883058
1600885883
1600887283
1600894031
1600907597
1600913009
1600917509
1600920583
1600926811
1600936042
1600937212
1600944168
1600955087
1600959212
1600960846
1600964113
1600964648
1600972239
1600973192
1600974640
1600996434
1601000460
1601004351
1601006616
1601007206
1601012957
1601024390
1601028882
1601029834
1601030529
1601032388
1601034978
1601038223
1601046323
1601049211
1601053189
1601066472
1601068396
1601073914
1601075235
1601079469
1601081420
1601087362
1601098087
1601099206
1601104079
1601105481
1601112847
1601121897
1601131245
1601143364
1601144286
1601145416
1601170527
1601179692
1601188856
1601192019
1601195375
1601199364
1601206751
1601207180
1601223258
1601233502
1601236052
1601243438
1601269787
1601279457
1601287075
1601298284
1601312747
1601313801
1601336692
1601346858
1601358087
1601377172
1601381374
1601383623
1601401240
1601411331
1601425757
1601432936
1601436241
1601451228
1601454464
1601458203
1601472135
1601477474
1601478974
1601483073
1601484023
1601486277
1601488903
1601496751
1601504191
1601510500
1601519841
1601520434
1601524979
1601531252
1601551312
1601552767
1601558318
1601581225
1601582775
1601589238
1601603421
1601605547
1601613158
1601614079
1601617655
1601619949
1601622684
1601632961
1601640631
1601641176
1601646234
1601662481
1601676291
1601678911
1601686529
1601693028
1601693634
1601695977
1601699336
1601705265
1601706122
1601707033
1601707878
1601709740
1601716185
1601722294
1601730418
1601732031
1600056147
1603064676
1603065026
1603073243
1603075436
1603077472
1603080220
1603087363
1603092235
1603098137
1603098196
1603116630
1603125716
1603129756
1603131669
1603141457
1603143307
1603143515
1603155443
1603156401
1603187974
1603191776
1603197025
1603197789
1603206608
1603209534
1603218398
1603222134
1603222886
1603231427
1603234791
1603244317
1603256179
1603269287
1603270146
1603279208
1603283496
1603294282
1603296817
1603308204
1603308330
1603320882
1603325748
1603326059
1603328636
1603330316
1603334387
1603336816
1603339629
1603342445
1603377101
1603377411
1603378454
1603405107
1603418642
1603431450
1603433094
1603436161
1603446207
1603450033
1603457253
1603461047
1603464970
1603468074
1603484195
1603487588
1603488256
1603490116
1603506392
1603511764
1603514829
1603517981
1603523297
1603524096
1603537644
1603548187
1603574965
1603577468
1603579604
1603587555
1603595991
1603599790
1603603015
1603617716
1603624440
1603626685
1603629799
1603630981
1603630980
1603631585
1603632353
1603632495
1603635989
1603646576
1603646924
1603647586
1603654284
1603657521
1603658082
1603662367
1603663456
1603665402
1603677456
1603690133
1603699519
1603706428
1603738140
1603742757
1603744270
1603746343
1603754108
1603757561
1603758144
1603759388
1603782979
1603789575
1603794227
1603795145
1603796854
1603812195
1603812519
1603900941
1603913097
1603917629
1603919351
1603930178
1603935382
1603943138
1603956159
1603988059
1603988689
1604006022
1604006726
1604021093
1604024320
1604045168
1604048295
1604063119
1604082746
1604109169
1604116323
1604118596
1604154779
1604157039
1604157868
1604165589
1604165973
1604166050
1604169762
1604178251
1604178307
1604184157
1604189965
1604195306
1604199432
1604206802
1604207164
1604208453
1604223702
1604228352
1604229641
1604231867
1604233238
1604249835
1604252641
1604257269
1604266553
1604270055
1604281149
1604281620
1604284977
1604299309
1604310969
1604319400
1604325628
1604330384
1604353812
1604359006
1604367382
1604379575
1604383808
1604431156
1604452440
1604481852
1604496861
1604499524
1604513325
1604532046
1604534527
1604541045
1604546206
1604550159
1604550366
1604557857
1604567447
1604581328
1604583380
1604588022
1604589738
1604603474
1604610300
1604631323
1604634139
1604651342
1604656690
1604673062
1604691928
1604696675
1604709147
1604722894
1604735144
1604735698
1604741993
1604744401
1604775642
1604790132
1604795861
1604797209
1604811446
1604828364
1604834087
1604834385
1604838831
1604855892
1604856836
1604878117
1604881169
1604895035
1604904871
1604912174
1604914131
1604919388
1604921057
1604929797
1604946313
1604958884
1604961367
1604967323
1604968830
1604968907
1604992818
1605005713
1605011246
1605027115
1605036975
1605044330
1605066397
1605071177
1605071480
1605074469
1605088807
1605089948
1605097598
1605098486
1605098779
1605117107
1605117311
1605117603
1605120336
1605132967
1605138342
1605141447
1605155339
1605156304
1605161065
1605167397
1605168628
1605170462
1605174677
1605187264
1605204304
1605207021
1605223393
1605305661
1605307377
1605315802
1605317853
1605336398
1605378517
1605390754
1605432995
1605496460
1605616626
1605657758
1605705150
1605840949
1605843323
1605914423
1606007380
1606072626
1606105914
1606270638
1606481205
1606500507
1606639379
1606760750
1606792184
1606877853
1606926481
1606959450
1607026802
1607043324
1607339806
1607350185
1607400937
1607722413
1607757892
1607867220
1607914302
1607922824
1608015640
1608048008
1608067956
1608179685
1608317577
1608374067
1608435350
1608561946
1608573111
1608658030
1608714977
1608717938
1608755301
1608860392
1609051030
1609188558
1609334312
1609612715
1609627121
1609831059
1609888650
1609907270
