840005689
840006685
840018661
840019904
840029660
840040065
840054284
840060068
840060248
840062150
840066689
840069380
840071938
840081326
840081420
840086932
840087348
840094627
840098400
840105957
840107961
840112997
840114334
840124074
840126679
840131510
840132360
840136989
840137336
840138958
840141956
840146277
840154368
840156048
840162039
840167291
840172231
840180357
840188793
840192734
840195487
840200263
840202634
840209353
840212072
840215713
840215915
840219057
840224652
840237527
840251434
840260098
840266846
840269595
840271857
840275505
840280222
840290120
840309783
840314297
840322816
840325044
840336856
840345218
840347663
840353355
840367132
840370016
840373218
840375825
840384333
840388659
840390702
840400784
840401161
840402750
840415398
840428325
840428242
840435803
840436540
840442440
840443365
840452516
840453148
840454805
840456525
840459859
840460158
840460696
840460678
840461516
840461954
840466906
840471488
840474545
840479619
840480492
