960002376
960005626
960005442
960007264
960007651
960007235
960013115
960015418
960022157
960025713
960034080
960034077
960035301
960046691
960057602
960061955
960066995
960071533
960072199
960076745
960077982
960077972
960080318
960083047
960088105
960094018
960101071
960105252
960105656
960106502
960109626
960113388
960121928
960126584
960131318
960131809
960137980
960143131
960149161
960149775
960150372
960161921
960170512
960176562
960187181
960193917
960202623
960204890
960209311
960209550
960211864
960214789
960217844
960226257
960229343
960231316
960237528
960239874
960244681
960249358
960252989
960256105
960258714
960258942
960266673
960266950
960267922
960270862
960271775
960274959
960280343
960281801
960283895
960289169
960292935
960299642
960312510
960314085
960316266
960320960
960323992
960325918
960332815
960335864
960339721
960351635
960352913
960356375
960362515
960367124
960371225
960379410
960384220
960389203
960390726
960395422
960396884
960400208
960400898
960401799
960404483
960404940
960413636
960414149
960417960
960423649
960427318
960427908
960432974
960435125
960436598
960436880
960437093
960442706
960454833
960456204
960457651
960463368
960466089
960469143
960471024
960474025
960474305
960473656
960475498
960478297
960489007
960489178
960490080
960491657
960494927
960509595
960510137
960512566
960513029
960517070
960518247
960524901
960527085
960532055
960532785
960533544
960534006
960534183
960536103
960540742
960541746
960547357
960547726
960553343
960559308
960559418
960566864
960567214
960570214
960571540
960573325
960577486
960577861
960584620
960586316
960587781
960593599
960594613
960595727
960598868
960603050
960605767
960605892
960608278
960612237
960624075
960625176
960631664
960633518
960643084
960646830
960655104
960659175
960659550
960659976
960661998
960664510
960666371
960666968
960669791
960673452
960674557
960677894
960680989
960681338
960683848
960684199
960686470
960688266
960689775
960690728
960699974
960704635
960710923
960712359
960716219
960718035
960718247
960724223
960729961
960740465
960741526
960742837
960744531
960751763
960753202
960753492
960758201
960761634
960762415
960764471
960765221
960769070
960774810
960775446
960783900
960790886
960791423
960794718
960794651
960803071
960815240
960838611
960841950
960844224
960844637
960851161
960852799
960856697
960877334
960878385
960878630
960880413
960883307
960892955
960894714
960896020
960899143
960901144
960901403
960911846
960916265
960916449
960918827
960925753
960935450
960943427
960949036
960949901
960953699
960954959
960955715
960957596
960962314
960964371
960964395
960965092
960966927
960968249
960993931
960995393
960996012
960996951
960998642
961004289
961004633
961005548
961008329
961009523
961012180
961011175
961015205
961019874
961022028
961026632
961029330
961032235
961032325
961036935
961041667
961041977
961049237
961050377
961058254
961059830
961066518
961073340
961084959
961093052
961105603
961107688
961107681
961114375
961114459
961115798
961116783
961120369
961120789
961121627
961126814
961128212
961137966
961138267
961138842
961144882
961147221
961148473
961149045
961151817
961152061
961153232
961153695
961156344
961158679
961168968
961171170
961181482
961181716
961182633
961183667
961191922
961193820
961201433
961207964
961213594
961222754
961224604
961224874
961227613
961232884
961232922
961235464
961273453
961277313
961278533
961285622
961287562
961295160
961296111
961310033
961318323
961321978
961322351
961326140
961329264
961331088
961330731
961357118
961359189
961361802
961363500
961364119
961366875
961368191
961369423
961372313
961379035
961391318
961395640
961395539
961395882
961396010
961395745
961402564
961416300
961420309
961427959
961429828
961431918
961434279
961435944
961440425
961442852
961442998
961443164
961449155
961449553
961455658
961456589
961458548
961462929
961463729
961464532
961475061
961480031
961487270
961500351
961502307
961514557
961517162
961522565
961526359
961531180
961534976
961537134
961550301
961556076
961562605
961564930
961572565
961583451
961585282
961607458
961611972
961612013
961613699
961616831
961616911
961617081
961639278
961649924
961651958
961652364
961653792
961654324
961654796
961655256
961671101
961672616
961699125
961710911
961712631
961713431
961728451
961731198
961733494
961737701
961741480
961741700
961746627
961750523
961753073
961765958
961768460
961781840
961782895
961785874
961796273
961796761
961800331
961801603
961802416
961802957
961807824
961810667
961815775
961821540
961821442
961828048
961835706
961836680
961843240
961860654
961861302
961865296
961866509
961868765
961870573
961876071
961877925
961883711
961883714
961884919
961886984
961894412
961902300
961902690
961902670
961904347
961907952
961919960
961923659
961925043
961929185
961934669
961936508
961941127
961941434
961949425
961949991
961958670
961959372
961959608
961961795
961962147
961966818
961968476
961973145
961979817
961980479
961987197
961989593
961999171
961999806
962003623
962011222
962018236
962027901
962030878
962031086
962032625
962033197
962041196
962041906
962047993
962052295
962053076
962055829
962059392
962063706
962068606
962069739
962072325
962072614
962074907
962075509
962086499
962089190
962091724
962095252
962096046
962097430
962099882
962108359
962114365
962115391
962125112
962135977
962137250
962143112
962153823
962159047
962162190
962180961
962181493
962187587
962196126
962196418
962197511
962197796
962200697
962208911
962218125
962220660
962223314
962223855
962224815
962227781
962227159
962229989
962231980
962232709
962233273
962233240
962252074
962256442
962256951
962258475
962259269
962261933
962264619
962268578
962269696
962274683
962275270
962277359
962277743
962278369
962283395
962291551
962314759
962320710
962321953
962321911
962324300
962324624
962332508
962340432
962342256
962346001
962355460
962357750
962361532
962369431
962372834
962373948
962374784
962380004
962383482
962385102
962392505
962402155
962403149
962411528
962412223
962428128
962431058
962435468
962446685
962451095
962453735
962464982
962467294
962479152
962480421
962483006
962484075
962484812
962489802
962498201
962500957
962503252
962505503
962506144
962508885
962510663
962512544
962517537
962521938
962522678
962531203
962534713
962536566
962542365
962550067
962552738
962553124
962559946
962562417
962567003
962571478
962574011
962577417
962582756
962585015
962599682
962599754
962601191
962610353
962610635
962627997
962636691
962636801
962639627
962647158
962657036
962666253
962666641
962669113
962670397
962670762
962672120
962672639
962678217
962684385
962685772
962685834
962688548
962692009
962697929
962700018
962700217
962702750
962704387
962704652
962707256
962709594
962713275
962715285
962717763
962718886
962720292
962721218
962726799
962728374
962731015
962734258
962734612
962739617
962750296
962754694
962755602
962758142
962758189
962758587
962765328
962769452
962769923
962775738
962776995
962780436
962785097
