922000488
922000488
922002260
922002564
922002450
922003746
922004232
922004693
922004770
922004723
922007049
922007403
922008949
922009455
922010647
922011400
922013469
922013343
922013893
922015506
922017056
922017485
922018259
922019429
922020447
922021694
922021820
922022954
922023289
922022921
922023986
922025663
922027246
922027746
922000488
922027746
922027997
922028621
920000016
920000837
921000275
920001469
920002279
921001101
920002640
921001162
921001373
921001490
920002883
921001379
921002089
921002438
920004083
920004224
920004678
920005103
920005664
921005163
921004749
921007210
921007822
921007946
921008405
920006906
921009024
921010337
921010452
920007391
921011064
921010656
920007740
920007799
920007989
920007989
921015284
920000016
920000837
920001469
920002640
920002883
920004224
920004678
920005103
920005664
920007391
920006906
920007799
920007740
920007949
920007989
920008830
920010383
920010816
920012031
920012328
920013887
920014126
920014645
920017374
920019941
920020055
920020503
920021937
920022641
920024679
920025075
920025678
920027667
920028368
920030084
920030338
920030940
920031171
920031218
920032043
920032087
920032075
920032176
920033092
920036684
920037291
920038109
920038819
920040139
920040178
920041833
920044532
920045713
920048503
920049556
920049966
920050094
920050620
920051155
920052259
920053312
920054092
920054697
920054679
920056393
920056371
920058222
920058684
920059024
920059179
920059517
920060386
920061210
920061700
920062846
920063227
920063879
920065265
920065742
920066555
920067079
920067065
920068733
920069747
920069672
920069790
920070342
920071317
920071823
920072144
920073884
920075389
920077041
920077806
920078763
920078859
920079889
920081164
920081428
920085236
920085492
920085970
920089418
920090266
920090816
920091681
920092294
920092997
920093370
920094522
920095138
920096147
920097286
920099691
920100096
920100522
920103464
920110456
920110446
920110676
920110748
920112881
920113109
920116604
920118484
920120899
920122704
920123610
920123836
920125884
920126304
920127169
920127870
920128381
920128406
920130360
920131509
