960010309
960017384
960023740
960023895
960026287
960034273
960036133
960044528
960046607
960045433
960049719
960065254
960073624
960080146
960084224
960092157
960092457
960093558
960106791
960109812
960109888
960126207
960132558
960138449
960152671
960158012
960163558
960169324
960175776
960177248
960189670
960196949
960209206
960215300
960229955
960249210
960251199
960265083
960266247
960268024
960280831
960287342
960301252
960305348
960315249
960332556
960346551
960361218
960363200
960383778
960386027
960386515
960389654
960398295
960413011
960427090
960429406
960430327
960438955
960451743
960452678
960456564
960465799
960471636
960482084
960482552
960492776
960495837
960495946
960498579
960503380
960510192
960524806
960528768
960529515
960546899
960549123
960550103
960554615
960555888
960555842
960558622
960559079
960573501
960575006
960581322
960599612
960608150
960611389
960625023
960632312
960635019
960635466
960637633
960644817
960651754
960665295
960672288
960673650
960675049
960680156
960694499
960696756
960717292
960720229
960722993
960734557
960737584
960749148
960752282
960757902
960758873
960766072
960774550
960779777
960785001
960787055
960801283
960812354
960812379
960812616
960820258
960820759
960823071
960824943
960860436
960872850
960873806
960875666
960879477
960882888
960886110
960887430
960918468
960920976
960924643
960926259
960930528
960932795
960937194
960947533
960956813
960959978
960970386
960982192
961008557
961017496
961028048
961030063
961036649
961039579
961051138
961055993
961072699
961072993
961084081
961085985
961090214
961107419
961107451
961113538
961115534
961115646
961126997
961130959
961137912
961139216
961155967
961161354
961162258
961162927
961163832
961165699
961175313
961187465
961191202
961194669
961198125
961204037
961204500
961205831
961226328
961226608
961229501
961232988
961238638
961245718
961251151
961258708
961262837
961265927
961268339
961275065
961291991
961308678
961316931
961322386
961329159
961329414
961340883
961347010
961353847
961361940
961364558
961366487
961369026
961385368
961398787
961411647
961422902
961424943
961426299
961440238
961441939
961443408
961456283
961459637
961472276
961477477
961478966
961488747
961499407
961504443
961510760
961519344
961525453
961535797
961537670
961538329
961548131
961557448
961565822
961568477
961578169
961580696
961581510
961589627
961592529
961605040
961611818
961624888
961636010
961646493
961651334
961655615
961656794
961660576
961668675
961681330
961695878
961697715
961698874
961714220
961715614
961717461
961720345
961724816
961725188
961725325
961725640
961735910
961739258
961741447
961750079
961767111
961770904
961779402
961780358
961790922
961798691
961805547
961809363
961823198
961835281
961840157
961843661
961866290
961872367
961879104
961882020
961900700
961908631
961926898
961930053
961932606
961935882
961939471
961950061
961951275
961957339
961971838
961979467
961982042
961982174
961985436
961986663
961991489
962012505
962012930
962013622
962032196
962043561
962047907
962056646
962076588
962080512
962081449
962085775
962089153
962095499
962104665
962106737
962117584
962118067
962121645
962129215
962141266
962146029
962147493
962148672
962149306
962165415
962181439
962184903
962185661
962187299
962193867
962194836
962207182
962213058
962213371
962213522
962216046
962220144
962242030
962244253
962250715
962254207
962255808
962255898
962257400
962259888
962265454
962266462
962278766
962286588
962290882
962306745
962308930
962311627
962312021
962315028
962319336
962326521
962346949
962352120
962359216
962370170
962374313
962381871
962383141
962395474
962400433
962416076
962417583
962425898
962426716
962438829
962447598
962447952
962449621
962451057
962452012
962476774
962490556
962501472
962503037
962506278
962517368
962519677
962530642
962538558
962542529
962556487
962569346
962586411
962588679
962600382
962605103
962609011
962627791
962631483
962637396
962637665
962641753
962642337
962644169
962646725
962660835
962670544
962682120
962684415
962685023
962687325
962687880
962688935
962689303
962702321
962711866
962722181
962735943
962736722
962740904
962745101
962746618
962748244
962755340
962756615
962759107
962761210
962767442
962771859
962775156
962791760
