710106163
710186488
710203847
710323405
710638573
710857869
710898002
710966634
711420054
711538802
711713877
711732663
711772625
712177238
712233937
712930082
712985681
713140924
713163628
713189777
713192716
713523829
