1600179647
1600530908
1601022395
1601192343
1601651520
1603490490
1603493156
1603613767
1603658126
1603756610
1604040553
1604288889
1604375419
1604524146
1604691633
1604693790
1604731149
1604779437
1604849602
