1600054241
1600198022
1600231560
1600237632
1600396896
1600550269
1600646725
1600814332
1600834897
1600994504
1601118237
1601221345
1601285218
1601324013
1601324796
1601427751
1601431739
1601640105
1601724570
1603094707
1603121561
1603217492
1603326222
1603330703
1603371767
1603384619
1603414019
1604038428
1604512030
1604627957
1604633973
1604659856
1604680361
1604792340
1604855772
1604894476
1604899723
1604925280
1604967558
1604968116
1604972072
1604996963
1605007590
1605093375
1605105796
1605179304
