640001369
640001369
640007161
1850000245
1850003608
1850004400
1850005482
1850006373
1850007325
1850012322
1850017309
1850017793
1850018177
1850021426
1850021719
1850023915
1850033052
1850034030
1850040310
1850043370
1850044710
1850044946
1850045635
1850045591
1850047881
1850050599
1850051960
1850052457
1850054443
1850058694
1850059250
1850059975
1850060836
1850064892
1850073521
1850073805
1850075218
1850075641
1850078404
1850080233
1850082367
1850087000
1850089156
1850092031
1850094352
1850100501
1850104124
1850106736
1850107609
1850107636
1850108484
1850108484
1850110063
1850110347
1850127008
1850129013
1850129148
1850129566
1850132287
1850133289
1850134937
610077297
610077508
610093651
610122846
610130621
610152313
610193455
610201265
610220836
610244206
610250182
610281284
610313429
610319699
610338736
610354258
610424968
610463251
610463235
610483973
610519053
610525157
610541281
610578649
610623781
610653959
