801016153
800072206
800073121
800121930
800127249
801089184
800072206
800073121
800121930
800127249
800239474
800305956
800498728
800551448
800634640
800765466
800829963
800929968
800939466
801016153
801089184
801168851
801398268
801563803
