710136714
710138972
710246062
710343766
710406946
710520112
710627410
710704295
710887529
710890637
711324895
711370014
711504531
711514384
711573558
711664839
711688341
711740031
711911291
712080526
712084703
712094618
712152636
712282283
712296078
712569784
712815411
713230977
713234728
713235747
713516567
