840005020
840005446
840013059
840015189
840018344
840028253
840039750
840041834
840042397
840050685
840058393
840061077
840064071
840066422
840067098
840068350
840068273
840068703
840069950
840075836
840078164
840082521
840082707
840082770
840084518
840085355
840086190
840087621
840089597
840094187
840097552
840097682
840100372
840102891
840108154
840115491
840122643
840124321
840125346
840126595
840131201
840138668
840140448
840145453
840148627
840148770
840149000
840152078
840154784
840169169
840170370
840172639
840174389
840186210
840196157
840197202
840200012
840201412
840202028
840204240
840204240
840207145
840210442
840213886
840214465
840216699
840222467
840225464
840225598
840226130
840229411
840233732
840233963
840235786
840236203
840246835
840249702
840260294
840267940
840268113
840275003
840278066
840278854
840280145
840283748
840284914
840292263
840299557
840309133
840310609
840313710
840315587
840322339
840323859
840325677
840327436
840328731
840332962
840334155
840334174
840335120
840336280
840340245
840351986
840352729
840355770
840356796
840358164
840358275
840362154
840362658
840369155
840370893
840373697
840376047
840379159
840390495
840397513
840401179
840401941
840410078
840413402
840418097
840420509
840423775
840425629
840427130
840431253
840434247
840440068
840444474
840445360
840452876
840453054
840453219
840458612
840462160
840469153
840470426
840472875
840480934
840484140
