840002903
840021522
840030881
840061281
840071728
840074461
840085747
840098535
840107076
840114599
840114980
840114875
840117985
840122259
840135742
840143902
840169185
840170115
840173966
840179666
840183456
840183677
840192478
840195569
840197319
840199385
840201214
840210704
840215317
840215474
840218739
840223592
840231934
840237413
840243999
840248421
840251627
840255408
840265941
840267411
840276933
840278480
840278973
840279835
840312869
840315120
840323637
840323637
840332054
840337346
840337348
840345360
840347195
840349176
840351225
840374323
840376405
840389812
840390900
840398324
840401661
840424140
840424618
840424734
840434678
840445952
840447387
840448850
840450540
840459873
840467449
