840001359
840004680
840014655
840015782
840017311
840018876
840022849
840022967
840033290
840041149
840041025
840041524
840041802
840041709
840052540
840059835
840065999
840070841
840080179
840083541
840085716
840087974
840088855
840094894
840100120
840100820
840102017
840103733
840108540
840114053
840114112
840120285
840122125
840124606
840129529
840133795
840135048
840135861
840137771
840145464
840146366
840149003
840148810
840151130
840157374
840166073
840167391
840168125
840168800
840172635
840173282
840175576
840183249
840196268
840197401
840197711
840198366
840198694
840203710
840206669
840208161
840215711
840227158
840231172
840234885
840235256
840236946
840241423
840246674
840249895
840277056
840277016
840277397
840277826
840281199
840287668
840294925
840296944
840298180
840303092
840307343
840307363
840312360
840320092
840321172
840321354
840322776
840330253
840331435
840331531
840337987
840339010
840341013
840343665
840344928
840346951
840348105
840349240
840353105
840362999
840363831
840366405
840366707
840367972
840374807
840375955
840378549
840379309
840381853
840404952
840410840
840415024
840415723
840416453
840421067
840424271
840435008
840437178
840445016
840448048
840451005
840454255
840456002
840456910
840456937
840457329
840463500
840469022
840473936
840479547
