1600123076
1600603804
1600711479
1600901558
1600980769
1601063648
1601083349
1601259188
1601449971
1601473850
1601537282
1601549518
1601571441
1601611612
1601646424
1603087902
1603290339
1603337666
1603472328
1603533335
1603785612
1604174665
1604175098
1604328531
1604537025
1604706497
1604883381
1605024053
1605052871
1605163375
1605367765
