730077655
731058567
730128983
730134830
730158646
730169644
731110974
731118205
731125954
731128605
730210812
731144547
730214328
731166781
730249741
730262292
731202480
731230432
731256332
731270444
731272499
730406382
731554624
730418984
731650371
730520413
731689473
731692273
731697015
730535508
730546790
731751153
731757308
730567568
731779896
730618609
731885057
731894042
731900911
731905731
730724766
730765239
730780961
730786670
730827365
730832897
1606852941
