1600007325
1600007325
1600007325
730192191
730548481
731816282
732059344
1600007325
1600019129
1600023996
1600027131
1600043738
1600048007
1600050842
1600072095
1600106282
1600128826
1600144713
1600153965
1600156977
1600162621
1600175176
1600182682
1600196444
1600209013
1600231380
1600231625
1600256110
1600264810
1600282749
1600287331
1600289526
1600300393
1600300393
1600308172
1600312922
1600320415
1600333932
1600342102
1600357885
1600358383
1600370540
1600372260
1600384995
1600483422
1600491292
1600507896
1600530374
1600534771
1600574357
1600578948
1600583571
1600584515
1600597704
1600598415
1600614291
1600618904
1600622421
1600622428
1600623154
1600624774
1600638299
1600646249
1600671173
1600677631
1600686123
1600690228
1600708689
1600737028
1600757213
1600773854
1600778364
1600794730
1600810476
1600814916
1600831721
1600836585
1600859533
1600884090
1600886666
1600890355
1600899014
1600918073
1600934546
1600946861
1600970415
1600986591
1600998052
1601006121
1601006428
1601019345
1601022010
1601023264
1601029095
1601056955
1601060703
1601066222
1601081761
1601091875
1601109908
1601125014
1601131165
1601157444
1601169085
1601172006
1601172739
1601174691
1601176672
1601192921
1601206531
1601220067
1601222939
1601226907
1601230022
1601248311
1601300166
1601300166
1601301443
1601334633
1601352854
1601366262
1601374493
1601381820
1601383619
1601467639
1601489189
1601493350
1601525389
1601532341
1601538337
1601547889
1601552271
1601554012
1601564333
1601607103
1601619846
1601639639
1601693320
1603076233
1603091905
1603132229
1603151355
1603155460
1603169957
1603181670
1603198360
1603209431
1603241919
1603253544
1603256131
1603259043
1603286814
1603290669
1603302079
1603310150
1603327927
1603333092
1603344073
1603353776
1603408763
1603435495
1603438149
1603450701
1603463048
1603503026
1603502477
1603506342
1603517574
1603532335
1603538124
1603565035
1603572452
1603600152
1603605009
1603621180
1603622515
1603631920
1603636742
1603653387
1603654485
1603667534
1603684897
1603730898
1603740909
1603746179
1603771990
1603794190
1603882653
1603922349
1603929318
1603931893
1603960000
1603961225
1604001521
1604018915
1604025040
1604027623
1604041890
1604043556
1604061149
1604061693
1604062470
1604068600
1604113827
1604140025
1604194918
1604201586
1604204699
1604277555
1604283402
1604317838
1604337589
1604355922
1604380584
1604461361
1604478924
1604497080
1604487573
1604534055
1604542939
1604556213
1604593432
1604596277
1604597750
1604626689
1604647799
1604652740
1604676282
1604678654
1604701688
1604702519
1604724082
1604740199
1604746938
1604762692
1604766976
1604769898
1604787340
1604793891
1604800627
1604811552
1604815760
1604827593
1604842976
1604842961
1604843554
1604851230
1604854527
1604867102
1604878932
1604914058
1604915956
1604916502
1604930120
1604963925
1604969609
1605026429
1605036966
1605037790
1605051448
1605069630
1605089499
1605114807
1605132046
1605135367
1605160915
1605179564
1605179932
1605181187
1605194118
1605206113
1605308787
1605315977
1605330480
1605347897
1605370659
1605406547
1605743998
1605790610
1605847399
1606067218
1606719219
1606724515
1606754170
1606957296
1607532526
1607537977
1607574737
1607672276
1607759225
1607787355
1607832952
1607852431
1607910470
1608254049
1608600655
1608604784
1608955084
1609297215
1609346513
1609358001
1609741792
1609866394
