400006162
800024920
800039020
800044050
800055405
800056472
800060685
800065955
800069082
800075607
801020827
801025538
801047321
801049207
801049227
800110991
801060265
800118767
800119540
801063966
801064354
800122311
800128019
800133955
801080915
801085423
801100533
800024920
800039020
800044050
800055405
800060685
800065955
800069082
800075607
800110991
800118767
800119540
800122311
800128019
800133955
800168795
800205621
800217740
800222446
800231277
800233915
800240125
800281743
800283458
800297985
800319393
800322536
800326383
800329800
800334377
800354663
800404883
800409462
800419340
800436964
800437201
800439136
800461789
800474844
800475636
800508532
800565733
800573143
800595020
800615938
800616136
800623031
800624468
800628444
800634180
800675991
800677977
800685507
800688507
800690585
800700013
800700472
800705242
800717224
800723028
800725414
800752170
800766885
800767561
800809150
800809661
800816913
800843028
800877510
800878192
800891067
800902308
800906051
800925950
800929402
800929607
800986430
801020827
801025538
801047321
801049207
801049227
801060265
801063966
801064354
801080915
801085423
801100533
801104463
801114128
801128648
801141538
801171528
801179502
801187488
801197362
801199166
801200831
801219923
801222861
801227007
801228712
801314576
801318774
801324993
801333942
801388251
801407255
801408355
801429198
801443818
801463052
801499524
801517888
801552441
801552665
801569861
801570102
801573206
801577494
801579576
801592854
801604205
801605603
801607976
801618392
801631550
801663746
801668059
801679259
801684366
801731964
801736256
801738561
801790876
801800758
