840001303
840001726
840003275
840026572
840042249
840046191
840046493
840048227
840059989
840060456
840064396
840067606
840076953
840077697
840080734
840083717
840092418
840094803
840096510
840107826
840113688
840122824
840135546
840139942
840145274
840184888
840195483
840202238
840209933
840228543
840250818
840254587
840257736
840260057
840276573
840284842
840296455
840299451
840301811
840305191
840311787
840319979
840334606
840347948
840349709
840357267
840367825
840385964
840396934
840397227
840401223
840401565
840404354
840409735
840419094
840431550
840432307
840434299
840436047
840437837
840438240
840438936
840444515
840446811
840447685
840449883
840450987
840460139
840461854
840464860
840477939
840482741
840482967
