590003561
590004068
590004497
590006017
590008787
590010157
590010564
590011118
590012218
590012401
590013331
590014197
590014385
590017115
590019832
590022207
590023272
590022950
590002741
590040818
590035353
590035211
590017115
590011118
590036359
590012218
590013331
590053939
590003561
590069614
590048482
590014197
590000274
590073381
590035113
590082929
590035260
590093365
590006017
590044698
590014385
590090771
590042343
590012218
590119125
590034105
590124168
590090860
590091127
590122431
590112631
590114616
590052126
590075980
590155002
590102755
590064576
590041696
590059712
590079390
590167344
590104602
590093234
590069833
590163357
590078774
590121319
590179304
590149777
590192876
590043182
590153420
590008787
590038602
590055349
590153261
590187848
590125680
590170164
590006017
590098479
590211840
590012401
590136231
590132686
590063698
590199032
590082915
590194651
590189786
590178956
590031388
590073478
590232346
590204127
590108305
590159598
590197268
590098958
590189229
590012401
590173890
590000641
590156483
590073522
590004068
590257956
590257081
590085962
590137768
590225967
590071955
590256731
590182784
590055153
590037598
590259866
590167240
590042976
590271778
590198797
590257957
590224966
590151154
590234162
590227210
590174634
590022950
590281692
590155927
590143251
590245529
590174930
590204127
590268592
590271668
590262566
590221568
590065150
590222564
590155787
590192256
590219111
590292413
590227736
590264375
590199562
590300710
590249861
590304118
590233285
590129235
590255332
590096550
590320373
590267386
590295907
590270661
590282710
590095008
590329003
590315466
590028900
590304168
590232159
590206619
590102801
590251785
590346198
590293280
590186984
590316916
590198069
590302205
590277133
590028512
590298527
590314743
590324348
590344875
590277148
590321275
590350805
590256168
590338690
590358915
590308461
590295671
590371004
590282420
590229092
590243702
590320055
590322203
590352840
590377785
590236295
590172096
590321686
590199302
590380532
590375861
590382390
590312250
590308944
590347195
590369085
590381207
590279064
590217509
590224642
590386440
590340158
590241813
590374856
590318999
590279159
590408969
590040131
590408250
590291679
590255206
590274490
590412155
590338449
590365780
590117840
590357558
590415040
590352182
590218732
590415750
590073983
590431044
590325565
590342014
590432981
590362083
590010157
590277052
590022207
590123077
590388392
590394816
590415914
590427090
590352090
590362697
590166897
590028462
590315268
590265874
590406668
590319388
590462701
590262299
590331160
590442661
590273785
590414282
590294280
590442120
590453838
590469381
590455030
590310040
590386593
590378053
590384450
590468498
590151431
590106455
590451145
590425560
590344988
590168647
590476393
590460321
590473689
590475495
590243862
590309726
590465523
590464101
590199299
590029752
590175773
590375018
590246308
590388943
590166210
590285964
590455885
590147798
590477387
590395001
590502403
590475095
590478285
590236076
590336897
590495509
590492225
590279839
590390080
590405012
590497498
590401284
590145145
590519053
590220020
590473977
590412045
590146182
590489308
590426149
590285768
590501238
590471078
590497735
590485351
590508088
590347351
590529783
590425262
590464736
590358804
590486375
590335792
590387266
590500484
590434693
590391098
590501237
590355170
590126085
590159477
590459267
590271453
590516054
590097072
590455807
590219049
590445588
590568101
590436885
590495209
590534628
590370778
590102330
590364662
590360055
590467103
590453055
590403967
590568129
590584341
590543140
590592990
590457396
590509867
590503160
590572916
590375504
590497498
590488284
590548634
590616648
590488178
590539106
590423886
590577055
590527323
590613884
590626074
590341055
590285866
590542910
590081733
590413785
590159732
590594786
590369680
590413625
590299762
590286877
590405993
590440518
590491328
590387699
590553369
590652378
590520621
590587976
590369510
590323267
590473394
590540385
590539053
590512307
590478635
590652575
590593816
590096397
590386817
590503291
590659417
590661142
590383555
590545010
590686309
590010564
590648978
590590361
590603830
590262280
590691793
590438062
590630040
590640953
590107652
590215327
590516877
590311644
590634411
590553770
590640606
590324080
590575392
590458645
590496051
590547820
590405747
590703584
590713418
590451016
590408516
590315186
590431278
590697853
590360085
590274375
590622063
590599880
590520019
590629864
590651339
590179844
590689917
590216734
590616681
590675049
590660862
590340693
590489377
590632988
590712711
590508724
590719674
590342169
590734886
590617666
590633220
590656653
590627168
590564075
590336810
590713015
590692468
590479680
590019832
590727018
590607367
590712148
590732872
590584223
590765591
590727832
590768910
590301548
590724978
590621880
590412089
590656719
590388743
590511331
590792988
590511209
590589358
590793634
590713673
590725575
590771559
590780051
590781600
590497735
590805930
590627657
590729898
590543398
590749306
590426886
590556950
590514156
590418920
590659733
590807092
590552082
590800149
590602460
590828403
590672481
590308135
590781671
590306974
590795163
590543143
590762530
590779269
590555211
590796697
590791342
590701058
590482637
590450021
590754821
590591772
590808026
590838341
590843551
590841045
590694385
590545543
590773309
590855116
590828070
590811590
590359037
590442524
590816917
590643268
590797829
590711733
590605396
590843569
590747330
590358734
590835160
590308169
590884802
590811315
590696113
590569215
590414306
590594878
590490921
590831713
590588395
590808994
590763768
590052895
590752301
590863758
590893025
590849060
590808805
590765226
590721685
590545930
590840835
590822242
590873567
590849677
590846228
590890186
590654644
590620405
590897124
590785233
590692156
590715757
590583303
590768188
590885782
590829615
590887037
590656653
590265211
590694740
590744869
590863639
590875516
590697834
590645470
590721774
590603830
590939504
590707545
590923982
590687351
590885549
590898020
590902948
590668767
590803611
590766397
590886547
590946125
590346877
590857635
590789342
590730704
590943012
590898919
590824210
590953752
590889153
590896453
590955988
590845259
590787331
590644279
590879017
590901767
590613961
590890992
590756294
590941826
590829768
590804278
590733751
590941156
590862866
590874286
590670887
590963178
590871924
590938318
590622335
590838922
590626652
590487442
590993999
590804595
590909848
590970923
590873983
590426668
590857957
590898020
590828070
590950936
590848213
590740674
590988693
590778703
590714672
590799274
590697577
590981988
590907628
590952527
590811315
590078942
590944270
590916736
590756326
590750856
590902053
590896397
590996469
590910730
590746670
590958230
590877730
590715757
590830704
590852207
590552236
590957596
590699925
590595432
590944351
590683416
590899380
590764216
590706234
590610822
590630821
590951035
590752517
590909186
590468711
590858507
590929597
590999016
590984503
590054653
590694700
590862219
590893517
590820183
590809988
590463049
590935012
590867306
590785851
590955203
590786504
590869350
590920086
590977669
590956510
590906444
590510687
590905957
590921580
590975244
590985938
590972628
590749691
590760351
590148334
590681106
590836286
590936582
590869932
590538755
590871386
590706480
590978653
590690553
590771419
590990143
590430796
590936890
590697933
590785624
590890645
590701082
590997182
590863294
590959630
590643380
590959711
590892241
590840072
590611995
590992469
590912775
590873549
590964544
590897367
590959057
590908197
590563223
590402813
590983314
590627907
590855167
590903564
590099847
590701304
592000813
592005641
