1600068531
1600106392
1600253858
1600388216
1600582325
1600594154
1600646389
1600736438
1600881174
1600950323
1601015951
1601080820
1601142202
1601171575
1601236277
1601330402
1601549695
1601563221
1601566485
1601729873
1603101167
1603145729
1603207519
1603265705
1603271465
1603308163
1603375444
1603495717
1603542004
1603702681
1603744694
1603751396
1603893245
1604137431
1604266180
1604486415
1604500830
1604567300
1604700264
1604780687
1604787001
1604823673
1605029401
1605113729
1605191411
1607473460
