800067827
800068822
801014329
801015401
800073541
800074439
801018944
801019765
800083175
800084657
801027075
800086598
801029761
800091329
801033108
801033275
800093562
800093959
801035094
801035221
800093945
800095338
800096745
801040275
801040875
801043028
800102031
800111566
800111647
801054152
801054440
801055770
801057306
801058187
801060957
801061707
800118066
800118379
801062749
800118663
800121148
800122810
800122889
800124176
801069469
800125505
801070451
800126788
800128335
800128624
801074106
801075338
801078233
800134504
801078932
800134868
801079386
800139589
801084242
800141805
801086811
800145102
801090167
801091290
801092236
800148316
801095150
800155475
800155697
801099866
800157030
800158812
801102907
800060997
800063627
800065762
800067827
800068822
800073541
800074439
800083175
800084657
800086598
800091329
800093562
800093945
800093959
800095338
800096745
800102031
800111566
800118066
800118379
800121148
800122889
800124176
800126788
800134504
800134868
800139589
800141805
800145102
800148316
800155475
800155697
800157030
800158812
800162416
800168162
800173280
800175218
800186736
800188044
800192730
800195761
800198789
800200303
800200417
800212145
800218021
800222354
800222788
800227798
800228261
800228493
800229511
800231592
800234367
800234954
800239747
800239995
800242113
800241970
800243238
800243843
800243504
800246130
800248161
800262290
800264189
800264337
800266087
800266563
800266918
800275441
800275670
800277018
800277876
800288752
800292679
800296383
800298528
800298714
800301587
800309951
800311202
800314904
800319551
800325133
800327591
800339197
800342828
800344100
800346880
800347416
800348524
800349452
800348474
800351693
800352772
800357150
800359079
800362741
800364605
800371089
800376889
800378245
800382783
800387579
800387788
800388811
800390362
800391279
800396864
800398603
800400956
800402224
800401914
800402669
800403796
800405630
800408930
800413909
800414635
800419618
800420247
800423216
800423956
800434132
800438557
800439073
800445847
800451904
800453802
800457930
800458186
800458481
800462736
800470435
800472258
800473983
800475445
800480054
800480532
800481455
800486104
800493380
800494718
800495000
800498825
800503376
800505173
800508007
800511138
800512162
800520242
800521190
800522509
800523612
800524324
800527500
800528732
800529664
800531147
800543294
800545973
800547080
800547152
800550728
800556974
800557182
800558301
800562059
800562865
800563431
800571106
800571512
800572786
800573265
800573584
800576336
800578101
800578198
800580034
800581279
800587892
800588255
800599444
800602161
800606838
800606847
800607154
800609097
800615266
800617841
800625203
800625335
800627846
800630871
800647953
800649817
800650057
800652072
800660932
800664225
800664818
800667384
800667321
800669456
800670533
800683097
800684430
800686084
800687065
800689149
800697224
800699809
800700582
800704001
800707438
800713416
800716455
800717025
800720976
800724969
800729243
800731221
800732586
800734374
800736573
800743878
800745138
800748675
800750796
800750983
800753635
800754238
800758162
800758518
800766628
800769151
800771845
800786780
800787781
800792244
800792385
800796027
800799764
800810440
800812411
800813832
800816688
800817738
800818935
800822484
800823204
800826359
800826880
800829077
800829554
800830959
800831381
800839048
800843008
800843068
800843966
800844004
800848066
800853424
800856739
800859333
800860181
800860098
800861578
800865036
800872710
800873707
800876113
800878798
800880042
800880240
800880176
800884953
800888799
800890257
800897109
800904188
800904510
800905317
800911438
800913329
800915825
800918691
800922117
800922004
800924362
800924701
800932583
800937228
800938005
800941773
800950579
800961081
800962802
800963384
800965834
800968598
800975664
800977470
800977742
800981834
800982034
800987579
800988247
800998365
800999763
800999996
801000807
801001659
801003195
801003717
801004384
801005526
801008895
801014329
801015401
801018944
801019765
801027075
801029761
801033108
801033275
801035094
801035221
801040275
801043028
801054152
801054440
801055770
801057306
801058187
801060957
801061707
801062749
801074106
801075338
801078233
801078946
801078932
801079386
801084242
801086811
801090167
801091290
801092236
801095150
801099866
801100075
801102907
801106384
801109396
801115884
801118669
801121310
801127580
801130173
801130356
801130936
801131092
801131472
801132458
801133073
801139219
801146211
801146752
801147182
801149042
801149281
801153641
801155043
801156185
801156513
801158665
801159411
801161998
801165804
801168649
801171797
801172170
801172348
801189621
801189418
801190470
801195931
801197187
801202049
801202710
801205348
801205556
801212784
801214552
801216195
801222969
801225721
801228609
801231049
801234679
801239135
801239777
801254998
801257645
801259221
801261845
801266487
801270264
801272492
801274618
801275687
801278632
801283641
801289229
801290622
801290851
801300865
801305348
801313032
801315693
801317502
801326095
801327107
801329886
801330229
801333629
801336072
801337365
801338347
801339014
801339936
801341260
801342921
801344353
801344816
801345233
801348031
801351032
801352633
801353167
801357356
801361612
801366821
801367179
801368375
801374126
801374667
801375963
801379825
801386507
801388130
801393922
801398993
801399957
801407875
801423044
801423502
801423470
801425062
801426957
801426989
801428443
801430288
801433470
801442799
801445124
801452268
801456122
801458957
801462422
801466120
801473571
801475905
801477617
801479899
801485235
801485741
801486638
801486635
801492879
801495844
801496335
801496273
801497451
801498838
801499366
801501953
801503897
801510650
801511311
801512938
801516680
801520548
801521250
801522544
801523663
801525321
801526327
801526852
801528749
801528512
801531047
801534924
801536485
801545473
801554239
801557380
801558344
801561781
801562455
801569305
801569536
801574597
801578652
801578652
801579546
801586694
801587063
801591525
801597285
801602318
801607416
801608281
801610313
801611409
801614842
801616323
801618706
801619359
801620588
801623694
801625868
801627827
801627950
801635165
801639280
801654205
801661454
801663450
801665959
801669523
801672322
801674747
801676935
801678105
801678672
801679756
801679871
801681974
801682857
801683090
801684598
801686632
801695297
801699522
801700328
801702093
801702485
801702912
801704558
801706495
801711894
801725259
801727491
801728795
801729583
801730315
801742825
801744052
801744307
801744838
801745732
801747703
801754862
801755781
801755674
801756459
801760301
801766045
801771417
801773266
801782377
801790333
801792205
801794857
801804025
801804922
801806846
801808227
801814243
