840011818
840011740
840013262
840013155
840017589
840020702
840024246
840047558
840047519
840052909
840053807
840054706
840085807
840089557
840095460
840098274
840101278
840101658
840110205
840112299
840117512
840127600
840133288
840140380
840146128
840152513
840154879
840159632
840166701
840167775
840173633
840173862
840179764
840184840
840185661
840187261
840189240
840213769
840217843
840226248
840227826
840237290
840239183
840245006
840251811
840256907
840262317
840263014
840266738
840268596
840275750
840281487
840299167
840311115
840311564
840312512
840313499
840317205
840321570
840331697
840332446
840333105
840335011
840336314
840339055
840341657
840345774
840348547
840348967
840358615
840363632
840375856
840377639
840380472
840386755
840391675
840397817
840399612
840402704
840402642
840412049
840412393
840415004
840428070
840436101
840436673
840456294
840457232
840462211
840463766
840464680
840470561
840475073
840479416
840479728
840481730
840484775
