610083149
610110146
610126406
610156158
610165639
610191238
610243980
610260518
610338647
610356329
610380477
610384195
610387924
610415057
610415761
610438575
610570466
610580498
610593558
610622626
610627226
610657035
610694793
610738449
