840000346
840000378
840002125
840003207
840004974
840005183
840006199
840006106
840007112
840007874
840009893
840009440
840009907
840010354
840011065
840011138
840011329
840011526
840011981
840012834
840015187
840015154
840016305
840016811
840017944
840018005
840018265
840018514
840018591
840020243
840019878
840022501
840022535
840022921
840023753
840024272
840025178
840025761
840027108
840027404
840028472
840028991
840029473
840029657
840030596
840031802
840031816
840032097
840032470
840032946
840033786
840034494
840034930
840035249
840035291
840037093
840037489
840037471
840037514
840039018
840039992
840040058
840040332
840040843
840041864
840042995
840043168
840043709
840044443
840045868
840046594
840047098
840047612
840047647
840047761
840047889
840048726
840048897
840049680
840050338
840053210
840055572
840055818
840056696
840057779
840057972
840058027
840058855
840061210
840062056
840062365
840062629
840063714
840064518
840066972
840067221
840068103
840068557
840069635
840069914
840070599
840070578
840072306
840074679
840075382
840075706
840076026
840075650
840077409
840077727
840077924
840078767
840082167
840082741
840083448
840083604
840083710
840084514
840086250
840086615
840089290
840089925
840091291
840091840
840092409
840093280
840094771
840095529
840095979
840096739
840097600
840097877
840098047
840100197
840100196
840100542
840100819
840101120
840101542
840101977
840103144
840102999
840103457
840103720
840104117
840104449
840106377
840106496
840107905
840108299
840108435
840108459
840109104
840110131
840110242
840110210
840110373
840111018
840111219
840112434
840112604
840113169
840113261
840114276
840114702
840115256
840115600
840116145
840117314
840117007
840119090
840119743
840120400
840121091
840120762
840120252
840121316
840121578
840122061
840122477
840123819
840124445
840124169
840125252
840125856
840125868
840127043
840126734
840127224
840129790
840130061
840130145
840130192
840130410
840131163
840131427
840132905
840133475
840133840
840134292
840134293
840134882
840135770
840135921
840136777
840136729
840136980
840137407
840137919
840139189
840139418
840139905
840140155
840140671
840141512
840142441
840142702
840143226
840143410
840144158
840146221
840146695
840146826
840146654
840146900
840148088
840148190
840148748
840149122
840150561
840150084
840150690
840151421
840151601
840152337
840152669
840153181
840153555
840154336
840154073
840155648
840155692
840157275
840157182
840157371
840157930
840158836
840159232
840159416
840160333
840161057
840161421
840161441
840162930
840163191
840164457
840165157
840165062
840165456
840165622
840166203
840166561
840166698
840167532
840169443
840169607
840169824
840171879
840172024
840171775
840172931
840175214
840175349
840175431
840175397
840176344
840176621
840177089
840179289
840179344
840179446
840179565
840180768
840180722
840180804
840180933
840180936
840180965
840181000
840181578
840182312
840182799
840182810
840182690
840183904
840184661
840184504
840185107
840185952
840186251
840186326
840188187
840190031
840190293
840190609
840190812
840191186
840192034
840192550
840192611
840194468
840195453
840195418
840196329
840196939
840196869
840197317
840197336
840197524
840197621
840197313
840197978
840198241
840198588
840200395
840200668
840201087
840201491
840203315
840203850
840204097
840204507
840204507
840205795
840205803
840206057
840206936
840207573
840207898
840211367
840211415
840211903
840213435
840215167
840215356
840215639
840215652
840216171
840216885
840217298
840217541
840218883
840219237
840220157
840220451
840220194
840220914
840221227
840221535
840222604
840222657
840222831
840224146
840224349
840223779
840224604
840225430
840225639
840225714
840226277
840227985
840228009
840229342
840230084
840230101
840230899
840231933
840232673
840233174
840233264
840234417
840234641
840234877
840234948
840235901
840236758
840237398
840237802
840238359
840239186
840239149
840242558
840242717
840243128
840245082
840246045
840246043
840246605
840247474
840247855
840249586
840250023
840250318
840251043
840252188
840252239
840253122
840254066
840254849
840254886
840255398
840255858
840255878
840255747
840257517
840257765
840258493
840259241
840259022
840260517
840261086
840261314
840261494
840263032
840264323
840264978
840265784
840267000
840267014
840267257
840268046
840268139
840268144
840269047
840269068
840269204
840269178
840269603
840270456
840271935
840272164
840272492
840273600
840274006
840274674
840274766
840275267
840274923
840276621
840276193
840277715
840277883
840278053
840278587
840278775
840279711
840280154
840280374
840280597
840280877
840280679
840281120
840281435
840282016
840282032
840282138
840282174
840282660
840283253
840283901
840284795
840285791
840286118
840286753
840286839
840287181
840286234
840288861
840293319
840293878
840293979
840293974
840294377
840294746
840295394
840295884
840296145
840296802
840297115
840296929
840297111
840297977
840298417
840298710
840298915
840299013
840299840
840300697
840300916
840301547
840301611
840303120
840303731
840304625
840305548
840306143
840306594
840307055
840307070
840308902
840309038
840309799
840309510
840310584
840310777
840311413
840312220
840312418
840313105
840314095
840314457
840315779
840316318
840316955
840318115
840318075
840318114
840320058
840320329
840320480
840321213
840321536
840322458
840322595
840322524
840323139
840323031
840323159
840323396
840324919
840326185
840326291
840328660
840328870
840329509
840329888
840329942
840330115
840330130
840330384
840330945
840331152
840331628
840331780
840332160
840332389
840332726
840332722
840334012
840334211
840334194
840335196
840335352
840335531
840335753
840336664
840336354
840337744
840338062
840337714
840341050
840341061
840341469
840342390
840342635
840344000
840344961
840345207
840346223
840347518
840347644
840347651
840348535
840348836
840348952
840349486
840350157
840350595
840352843
840353396
840353436
840353631
840353691
840354077
840354203
840356155
840356234
840356313
840357036
840357109
840357411
840357451
840358176
840360938
840360975
840361016
840361456
840362227
840363039
840363282
840364010
840364407
840366284
840367449
840367723
840369498
840369919
840370078
840370277
840371203
840370729
840371338
840371550
840371986
840371753
840374569
840374700
840375502
840374773
840375612
840375552
840375857
840376814
840377410
840377419
840378079
840378439
840378830
840379387
840380100
840380288
840380752
840380943
840382153
840383209
840385350
840386737
840387538
840387682
840388232
840389149
840389908
840390322
840390570
840390905
840390960
840392008
840392498
840392728
840393060
840393900
840394407
840395334
840395744
840396563
840396686
840396784
840398198
840398315
840399631
840400408
840400790
840401010
840401076
840402587
840402608
840404071
840404876
840405454
840406768
840406861
840407293
840408152
840408198
840410777
840411365
840412259
840412773
840414535
840415333
840415315
840416278
840419030
840419088
840419149
840419489
840420533
840422110
840421451
840422889
840424015
840424442
840426620
840426397
840427405
840427417
840428703
840429252
840429485
840430013
840430906
840432796
840432795
840434273
840434611
840434924
840435041
840435432
840435617
840435690
840436337
840436771
840437053
840437249
840437292
840438184
840438721
840438199
840440610
840441249
840442034
840442860
840443974
840446077
840447808
840447765
840449492
840449754
840450371
840451071
840450859
840451302
840451655
840451981
840452385
840452624
840452648
840452813
840452936
840454018
840454063
840454169
840455518
840455473
840455641
840455929
840456121
840458773
840459019
840459618
840461312
840462385
840462290
840465772
840467183
840467636
840468235
840468365
840468564
840468932
840469651
840471176
840471410
840472092
840472319
840472050
840472901
840473287
840473484
840473487
840474678
840476757
840477275
840478291
840478557
840478673
840480097
840480966
840481432
840481996
840482070
840481931
840482710
840482915
840483141
840483205
840484867
840485376
840485540
