730679309
1600012489
1600104187
1600299675
1600369793
1600486509
1600965714
1601049710
1601060617
1601081068
1601127750
1601144364
1601227001
1601300019
1601480630
1601603425
1601620964
1601709107
1603071508
1603074356
1603112771
1603201332
1603257366
1603324623
1603440434
1603477821
1604092874
1604141710
1604309424
1604320919
1604549838
1604565215
1604865110
1604936603
1604944601
1605057243
1606514258
1606850148
1607334940
1607686262
1609092014
