710169473
710169445
710171277
710363762
710453629
710460332
710642131
710726671
710812875
710893374
710956973
711058517
711484408
711726546
711822193
711847109
711890029
711955990
712200676
712217893
712273209
712399248
712661702
712769751
712797486
712866258
713066744
713074586
713385538
713534732
