730052543
1600003101
1600004230
1600006199
730052543
731148378
730279300
730400202
731551574
731552629
730433655
731601336
730462130
730475804
731666284
731965444
732014986
732019305
732068139
730836410
1600003101
1600004230
1600006199
1600016762
1600016796
1600025937
1600029863
1600033646
1600037427
1600037675
1600039643
1600060180
1600069317
1600083756
1600092596
1600104020
1600106424
1600146073
1600149250
1600167416
1600169157
1600169801
1600171021
1600172696
1600182669
1600194536
1600201930
1600202381
1600206965
1600210085
1600212441
1600214726
1600230240
1600237208
1600270696
1600275110
1600275526
1600279808
1600282121
1600291335
1600299358
1600301205
1600307563
1600320947
1600327190
1600332368
1600339039
1600346042
1600347454
1600350513
1600359163
1600362179
1600382080
1600384879
1600390101
1600396219
1600396859
1600409500
1600429048
1600429468
1600430401
1600440553
1600456182
1600466154
1600481257
1600482110
1600495139
1600496809
1600523107
1600525009
1600525079
1600533115
1600534005
1600553252
1600560756
1600563874
1600564042
1600566467
1600575568
1600595589
1600595825
1600616353
1600631256
1600636202
1600639547
1600640902
1600642355
1600647254
1600653502
1600668469
1600674464
1600677371
1600680862
1600694629
1600696651
1600710696
1600730183
1600734318
1600739451
1600747723
1600764215
1600812454
1600812671
1600850296
1600864288
1600873499
1600873644
1600877144
1600887889
1600893849
1600894787
1600903663
1600906497
1600922860
1600930576
1600934627
1600953010
1600969301
1600978916
1600979523
1600982043
1601005322
1601008876
1601013175
1601055371
1601056282
1601058711
1601063325
1601072192
1601074086
1601075007
1601081355
1601089086
1601089389
1601094521
1601097874
1601107119
1601109756
1601113600
1601117344
1601117508
1601118159
1601139469
1601150240
1601151997
1601163933
1601170067
1601172353
1601208386
1601210330
1601212493
1601224751
1601235008
1601245061
1601251550
1601279182
1601285192
1601300816
1601308038
1601309969
1601319697
1601333376
1601344209
1601355774
1601357399
1601364212
1601364381
1601387698
1601406401
1601410037
1601413656
1601417808
1601420602
1601428231
1601428798
1601441547
1601449030
1601477570
1601477694
1601480227
1601481350
1601488555
1601497118
1601500969
1601503544
1601506940
1601511921
1601512116
1601520547
1601529071
1601533490
1601538790
1601544039
1601548994
1601571777
1601583934
1601590693
1601593071
1601598147
1601604416
1601608890
1601627389
1601649224
1601657093
1601663778
1601668233
1601671997
1601673646
1601673797
1601676615
1601704772
1601708601
1601715282
1601721205
1601733227
1600037675
1603069154
1603073443
1603074797
1603082856
1603087227
1603098418
1603111433
1603126442
1603129618
1603132153
1603136492
1603137222
1603137616
1603138620
1603149606
1603158404
1603181204
1603194680
1603206772
1603214325
1603217044
1603223470
1603232107
1603232463
1603242518
1603262935
1603283316
1603287520
1603298784
1603299841
1603307339
1603308109
1603315379
1603327575
1603334587
1603337298
1603361970
1603377992
1603382480
1603389702
1603431276
1603431821
1603435230
1603450272
1603459688
1603464855
1603469770
1603482071
1603503002
1603512750
1603524012
1603530067
1603543627
1603546042
1603548305
1603549033
1603556923
1603566728
1603574396
1603584996
1603586084
1603586637
1603593973
1603620056
1603621733
1603621871
1603626036
1603636777
1603640442
1603656235
1603664756
1603670455
1603695653
1603698174
1603715153
1603718290
1603719246
1603725617
1603734997
1603750406
1603766897
1603769576
1603771470
1603786415
1603844415
1603885971
1603928244
1603934956
1603937441
1603946621
1603960236
1603965400
1603965864
1603986214
1603988057
1603990795
1603991099
1604008513
1604015986
1604026391
1604073830
1604085228
1604128309
1604141119
1604146079
1604154520
1604163824
1604165084
1604177381
1604177698
1604183527
1604182165
1604190367
1604193204
1604205317
1604210544
1604212702
1604223152
1604231908
1604232944
1604235796
1604237612
1604245434
1604280834
1604291093
1604312104
1604312636
1604316264
1604325520
1604339375
1604344903
1604347453
1604348781
1604356153
1604355892
1604363919
1604369074
1604374245
1604377881
1604382015
1604465010
1604470572
1604476926
1604484490
1604489778
1604499023
1604506943
1604512377
1604514211
1604531773
1604532753
1604546493
1604549227
1604553790
1604555133
1604556421
1604560407
1604563509
1604577977
1604596614
1604597251
1604599726
1604599877
1604618596
1604618384
1604623751
1604635149
1604638757
1604643914
1604648916
1604657949
1604671235
1604679026
1604699229
1604710070
1604727237
1604731180
1604734580
1604747084
1604758383
1604759501
1604772318
1604772328
1604783994
1604787898
1604790060
1604792054
1604792177
1604811342
1604842877
1604850457
1604853706
1604861866
1604898995
1604900627
1604907278
1604911636
1604913006
1604931000
1604933187
1604941151
1604945768
1604952587
1604969922
1604975161
1604976472
1604993858
1605009229
1605030883
1605036620
1605037791
1605037882
1605049935
1605053741
1605070708
1605078445
1605093900
1605095630
1605096532
1605097014
1605100706
1605104992
1605108240
1605111475
1605115818
1605116087
1605116932
1605117613
1605118084
1605123026
1605136300
1605173802
1605174956
1605187778
1605194949
1605215077
1605226935
1605315088
1605355165
1605361007
1605384486
1605509935
1605540722
1605807936
1606348483
1606460687
1607799743
1607840931
1607864161
1607929269
1608049596
1608080840
1608147162
1608341045
1608559338
1608597384
1608658236
1608804123
1608864414
1608879596
1608928660
1609209689
1609441755
