710002670
710003949
710028339
710069487
710072304
710085873
710133704
710169327
710195370
710203613
710209431
710266787
710275526
710323299
710365800
710410808
710422466
710443523
710463426
710464346
710473232
710496512
710516771
710560389
710573013
710601869
710650242
710678074
710802021
710807636
710909865
710926626
710932505
710958144
710967357
711015106
711178487
711247340
711292500
711344406
711356751
711383177
711411236
711413971
711434413
711463457
711474392
711478815
711498601
711527250
711540795
711543495
711605269
711626702
711629751
711653565
711655386
711671801
711685869
711828109
711832258
711857324
711867953
711883700
711887499
711895865
711899759
711929659
711957821
711975626
711996372
712041877
712045080
712078525
712098320
712113845
712121591
712158084
712183423
712188786
712249054
712264406
712277696
712336703
712400562
712415577
712427094
712449707
712468987
712549373
712555259
712556268
712557358
712599094
712601468
712619629
712621267
712628024
712668593
712671087
712675990
712682489
712710230
712714298
712726013
712729533
712730214
712749314
712805171
712829387
712881962
712897497
712923675
713033446
713052749
713056025
713097329
713100775
713117483
713173527
713201744
713227437
713271467
713391443
713398998
713403946
713485857
713534714
