840002992
840015529
840016730
840017150
840026366
840031930
840034762
840037537
840044755
840045131
840047431
840051277
840052308
840055792
840066312
840076716
840077886
840083410
840085238
840087584
840096125
840096198
840097874
840098178
840098244
840120330
840128693
840136809
840138686
840140193
840146347
840151350
840154291
840155353
840156455
840167674
840182590
840185057
840192817
840197853
840210091
840212247
840217093
840218033
840227230
840230073
840231079
840231623
840238779
840248738
840279382
840280655
840281624
840283078
840289375
840299711
840302521
840302723
840307267
840310491
840311527
840311573
840312012
840316703
840321862
840326351
840329617
840330365
840347796
840377421
840381570
840388431
840402281
840406544
840409543
840411908
840413066
840417130
840429052
840439533
840440110
840447360
840448488
840454506
840457040
840461623
840470057
840470716
