960042123
960078020
960090274
960094125
960193622
960193916
960289426
960307540
960315983
960321942
960388519
960438295
960469173
960470600
960515718
960555784
960597350
960721831
960748489
960785117
960808007
960832120
960855093
960894179
961002609
961016193
961019581
961070781
961070561
961116099
961166351
961169344
961192878
961278701
961337868
961343837
961349145
961359938
961362250
961443393
961459371
961475555
961520056
961544388
961550196
961615697
961672165
961719813
961726968
961782266
961819597
961830990
961834486
961836264
961864924
961890947
961894524
961976813
962005596
962056723
962061665
962127394
962140697
962146172
962195992
962229147
962266159
962270336
962304586
962344925
962465480
962481794
962492918
962524591
962559180
962572915
962579204
962580041
962587436
962587839
962595700
962694488
962703298
962713367
962740897
962752734
962781356
962784029
