730644978
731853395
731935878
1600022033
1600035669
1600046503
1600058564
1600082509
1600108234
1600108234
1600129443
1600135155
1600153787
1600160042
1600164254
1600186204
1600194990
1600241812
1600266353
1600267877
1600288817
1600358435
1600367332
1600372251
1600384097
1600389630
1600401642
1600427948
1600432593
1600441408
1600449575
1600454549
1600466216
1600469749
1600470825
1600480463
1600482864
1600489189
1600499433
1600508730
1600508976
1600510770
1600518309
1600519302
1600519780
1600520473
1600549038
1600557019
1600567979
1600576841
1600604461
1600635299
1600672961
1600728397
1600742782
1600756071
1600757043
1600763862
1600786756
1600807513
1600812666
1600812633
1600886833
1600905100
1600925817
1600929067
1600938593
1600942046
1600978148
1600987870
1601006930
1601013269
1601053982
1601059547
1601072881
1601091343
1601123933
1601150065
1601151506
1601169030
1601199526
1601210922
1601211665
1601226050
1601264020
1601289911
1601304527
1601314203
1601316390
1601320752
1601330122
1601377271
1601377214
1601398992
1601405386
1601407128
1601431391
1601444956
1601447272
1601449067
1601452829
1601453400
1601461987
1601482069
1601520579
1601555887
1601569433
1601604396
1601615064
1601616574
1601622786
1601659491
1601671657
1601680236
1601691058
1601699196
1601706977
1601716109
1601745635
1600035669
1600082509
1603080832
1603089314
1603092126
1603093005
1603127584
1603145442
1603150241
1603156324
1603157489
1603169778
1603197475
1603207490
1603220417
1603221985
1603238002
1603245726
1603247184
1603256855
1603259707
1603263644
1603268229
1603304419
1603311849
1603314737
1603328088
1603331153
1603335158
1603335563
1603337251
1603357123
1603377970
1603388175
1603397249
1603406210
1603419806
1603448499
1603464445
1603475899
1603492420
1603499408
1603509937
1603526531
1603547532
1603608664
1603618621
1603635186
1603656587
1603660762
1603666841
1603697059
1603706823
1603715425
1603728564
1603729655
1603740151
1603742888
1603743042
1603754700
1603756864
1603760208
1603773538
1603795093
1603816421
1603845897
1603854393
1603870964
1603885283
1603920650
1603969723
1603978987
1603986641
1603990078
1603997470
1604002914
1604043875
1604044723
1604045938
1604062438
1604065498
1604095615
1604118086
1604119351
1604167811
1604209586
1604227727
1604234474
1604238214
1604244477
1604260978
1604291248
1604314966
1604370895
1604376500
1604416740
1604429256
1604465266
1604552710
1604579991
1604580711
1604589718
1604593559
1604600025
1604607227
1604674088
1604680215
1604684299
1604685127
1604686931
1604687480
1604751040
1604757941
1604798788
1604836704
1604849769
1604864262
1604864450
1604866418
1604871641
1604899754
1604912077
1604923072
1604938691
1604946696
1604990946
1604997575
1605022825
1605027526
1605034372
1605035170
1605040200
1605044801
1605076280
1605086068
1605094133
1605127755
1605134167
1605138039
1605159261
1605162147
1605200690
1605208393
1605331163
1605355928
1605358664
1605361552
1605366550
1605396005
1605426957
1605435504
1605452980
1605454084
1605537361
1605565458
1605616414
1605705950
1605740756
1605755704
1605761209
1605768638
1605793773
1605902962
1605975139
1606026944
1606064468
1606129431
1606139532
1606239027
1606272204
1606400489
1606432560
1606510296
1606539522
1606550638
1606561710
1606629576
1606641912
1606804865
1606873428
1606878353
1606898239
1606906812
1606928081
1607023940
1607216343
1607221090
1607229157
1607251675
1607274527
1607298820
1607333253
1607356308
1607366054
1607473653
1607531394
1607546389
1607583459
1607631945
1607676682
1607818571
1607854458
1607870308
1607881339
1608097415
1608143994
1608210257
1608231913
1608233308
1608239297
1608272248
1608352680
1608411392
1608440256
1608453581
1608460474
1608489928
1608541504
1608565018
1608718786
1608740363
1608779362
1608780878
1608793923
1608854444
1608857985
1608865053
1608883807
1608930316
1608984308
1609035425
1609074178
1609093747
1609218520
1609226547
1609227027
1609236170
1609241740
1609265632
1609347582
1609387745
1609414876
1609427857
1609480408
1609506882
1609518037
1609605416
1609624468
1609641979
1609786294
1609855277
1609930884
1609938111
1609999357
