1600001691
1600002569
1601000723
1601002489
1601003027
1600001691
1600002569
1600009353
1600016711
1600022754
1600031566
1600034110
1600042108
1600042223
1600045159
1600045848
1600048600
1600050626
1600053850
1600054452
1600062594
1600073591
1600076346
1600079001
1600099426
1600099606
1600106368
1600108424
1600111741
1600119314
1600120597
1600144383
1600149926
1600153800
1600165796
1600185664
1600195160
1600198034
1600201794
1600202179
1600217417
1600218184
1600231766
1600232442
1600244122
1600245681
1600252254
1600254257
1600266765
1600275185
1600279550
1600286373
1600317516
1600320098
1600327732
1600328002
1600342079
1600345190
1600346617
1600347229
1600351577
1600354769
1600356276
1600357025
1600362822
1600378655
1600380555
1600385837
1600385927
1600391973
1600395203
1600404158
1600407850
1600412943
1600426265
1600432632
1600446636
1600450351
1600467190
1600467553
1600472249
1600474800
1600475846
1600477789
1600492373
1600508729
1600512008
1600521016
1600531568
1600547721
1600556886
1600565233
1600568630
1600577360
1600577787
1600595627
1600600429
1600615638
1600615965
1600621881
1600624294
1600634095
1600635172
1600646244
1600652623
1600653375
1600655523
1600659688
1600668782
1600678965
1600682291
1600682772
1600686586
1600691723
1600705119
1600707699
1600717904
1600718782
1600720908
1600739144
1600742930
1600746732
1600747126
1600768365
1600777014
1600784415
1600787882
1600793362
1600814641
1600821350
1600822524
1600835191
1600843783
1600849295
1600857519
1600865975
1600866704
1600871052
1600874238
1600883240
1600903516
1600907314
1600917778
1600919376
1600927575
1600936256
1600940008
1600942597
1600967302
1600981303
1601000723
1601002489
1601003027
1601006724
1601006901
1601019633
1601020218
1601030949
1601036605
1601045840
1601047322
1601054522
1601055707
1601070416
1601070992
1601072974
1601078249
1601082847
1601083730
1601090516
1601095692
1601096322
1601109432
1601117674
1601125076
1601129569
1601133502
1601158991
1601164269
1601164828
1601166652
1601175692
1601182023
1601184303
1601189310
1601198000
1601198952
1601201964
1601205072
1601209654
1601211863
1601215143
1601220221
1601222110
1601233288
1601239227
1601239609
1601242492
1601252413
1601286212
1601289915
1601296409
1601298684
1601301386
1601306091
1601308357
1601322672
1601331127
1601336072
1601337933
1601350435
1601352723
1601356657
1601357620
1601363636
1601364114
1601371142
1601372994
1601386930
1601392354
1601394480
1601395279
1601397754
1601397832
1601405319
1601408048
1601409321
1601410806
1601415289
1601418411
1601434990
1601444546
1601471028
1601472874
1601495483
1601506720
1601513346
1601533093
1601539653
1601544082
1601547892
1601549255
1601560760
1601566810
1601570755
1601591654
1601593122
1601594474
1601596529
1601599737
1601605385
1601611793
1601619016
1601637482
1601643410
1601645835
1601658653
1601682871
1601689826
1601689876
1601690698
1601692040
1601708627
1601711705
1601717370
1601718761
1601719434
1601720533
1600002569
1600009353
1600016711
1600022754
1600034110
1600042223
1600042108
1600045159
1600050626
1600053850
1600054452
1600076346
1600079001
1600099606
1600108424
1600111741
1603065364
1603073420
1603075002
1603078610
1603081461
1603087704
1603092831
1603094438
1603097688
1603111081
1603113372
1603115794
1603121685
1603133402
1603137460
1603137622
1603144396
1603145540
1603146538
1603154245
1603154733
1603157552
1603169056
1603175308
1603179289
1603179450
1603182504
1603195704
1603195323
1603204802
1603212175
1603212453
1603212929
1603214015
1603234193
1603233418
1603237432
1603244237
1603251696
1603254941
1603262356
1603266154
1603268795
1603272309
1603272868
1603277261
1603277365
1603282455
1603285331
1603286353
1603291047
1603307209
1603325058
1603325683
1603327970
1603335512
1603345810
1603358192
1603372742
1603375238
1603378465
1603383120
1603383242
1603385374
1603386138
1603389250
1603402447
1603402768
1603405941
1603406894
1603420928
1603431284
1603432725
1603432914
1603434491
1603444579
1603449676
1603450724
1603455597
1603456594
1603472991
1603474015
1603485259
1603502763
1603504230
1603505745
1603511104
1603512191
1603515586
1603525977
1603526973
1603529132
1603567295
1603577197
1603579837
1603585636
1603585968
1603589371
1603590025
1603585738
1603590826
1603592595
1603596512
1603613425
1603618793
1603632326
1603639731
1603660000
1603661319
1603666856
1603673390
1603674792
1603677979
1603678833
1603690682
1603692900
1603697449
1603699571
1603700367
1603712654
1603723425
1603726144
1603731208
1603737867
1603744089
1603744471
1603748400
1603748979
1603762937
1603768880
1603773334
1603773488
1603773569
1603777271
1603780022
1603785517
1603790184
1603797038
1603825776
1603856928
1603861118
1603863983
1603865135
1603866923
1603874685
1603880606
1603883806
1603911669
1603916305
1603920051
1603923542
1603925931
1603933382
1603936438
1603940221
1603946755
1603948951
1603959706
1603976524
1603978600
1604011351
1604018807
1604022860
1604024236
1604030190
1604031185
1604031172
1604031311
1604043592
1604052296
1604057951
1604068057
1604068964
1604069554
1604073576
1604076940
1604079990
1604086903
1604103324
1604119448
1604125644
1604133948
1604135040
1604137330
1604157111
1604158017
1604162671
1604167283
1604184482
1604184877
1604188281
1604204644
1604209930
1604215703
1604218485
1604219204
1604241946
1604252631
1604256395
1604258594
1604260007
1604265921
1604268571
1604278606
1604287200
1604292891
1604309897
1604313598
1604328360
1604333354
1604333423
1604343228
1604348658
1604350807
1604361009
1604363823
1604377709
1604377994
1604386876
1604400297
1604400321
1604401654
1604403672
1604405090
1604406758
1604408783
1604415833
1604419997
1604421004
1604421747
1604422171
1604433486
1604444738
1604446723
1604451826
1604465609
1604467053
1604467241
1604470076
1604486219
1604492795
1604497811
1604500397
1604501293
1604503580
1604504811
1604517303
1604518028
1604519151
1604524881
1604530275
1604533085
1604544384
1604551826
1604555521
1604556879
1604560115
1604564098
1604566427
1604570882
1604572783
1604592360
1604629504
1604639910
1604640541
1604649748
1604664604
1604667572
1604692456
1604694710
1604699401
1604701271
1604702973
1604703802
1604711830
1604716856
1604719482
1604726933
1604731075
1604739202
1604743095
1604747566
1604748759
1604751539
1604763272
1604767968
1604782455
1604784704
1604786028
1604792134
1604800408
1604802873
1604805101
1604808555
1604813545
1604819933
1604821956
1604834292
1604847809
1604854954
1604860483
1604866128
1604868293
1604875399
1604879790
1604882981
1604910440
1604912395
1604912717
1604912789
1604923675
1604932082
1604938531
1604954558
1604959194
1604961118
1604962907
1604969584
1604974660
1604976095
1604978260
1604982643
1604987762
1604989121
1604993449
1605022176
1605022287
1605022343
1605025085
1605043975
1605045774
1605052380
1605053468
1605053807
1605058211
1605072134
1605074474
1605121105
1605121798
1605122523
1605125282
1605126343
1605129345
1605134104
1605139115
1605142465
1605146470
1605153924
1605157076
1605161120
1605168645
1605186357
1605192044
1605201627
1605204943
1605209306
1605215480
1605222520
1605248672
1605287159
1605294486
1605305711
1605309431
1605312082
1605314748
1605325713
1605328193
1605333264
1605335158
1605345703
1605359160
1605372981
1605374510
1605382096
1605392293
1605394245
1605401417
1605405818
1605410337
1605416775
1605424510
1605434516
1605437052
1605450940
1605456238
1605460190
1605467597
1605477671
1605477736
1605478655
1605491668
1605496961
1605497541
1605505509
1605506676
1605518956
1605521872
1605523509
1605525359
1605535440
1605538152
1605545435
1605552823
1605556133
1605574550
1605577812
1605586091
1605585858
1605588110
1605590182
1605591553
1605614819
1605616402
1605623691
1605625102
1605632484
1605657976
1605658283
1605659953
1605676562
1605678696
1605681348
1605705795
1605737045
1605739356
1605750640
1605755253
1605755961
1605761167
1605761815
1605764660
1605771385
1605777500
1605790645
1605834071
1605839267
1605849625
1605869716
1605878388
1605892344
1605894732
1605903434
1605906856
1605910594
1605918557
1605923951
1605924915
1605929326
1605930169
1605935726
1605939838
1605960413
1605962139
1605965071
1605971871
1605974420
1605977101
1605984464
1605991810
1606012939
1606023206
1606030209
1606039300
1606044198
1606047764
1606060884
1606068842
1606070188
1606083720
1606107781
1606108289
1606127305
1606150698
1606155279
1606171109
1606186439
1606187279
1606193614
1606195316
1606197056
1606202099
1606202636
1606207646
1606236179
1606242537
1606244476
1606257039
1606267094
1606267577
1606269672
1606272445
1606274136
1606284346
1606288551
1606298699
1606325309
1606333254
1606348231
1606350139
1606351632
1606378446
1606383820
1606384743
1606393674
1606397513
1606407506
1606419411
1606428047
1606442163
1606442470
1606445224
1606454669
1606471598
1606491954
1606498589
1606499704
1606502027
1606506446
1606510248
1606512079
1606513421
1606538314
1606539735
1606546754
1606552879
1606555569
1606570012
1606575877
1606583787
1606584258
1606586732
1606590595
1606593418
1606599656
1606638091
1606656693
1606666548
1606675112
1606682419
1606683688
1606687591
1606694182
1606707816
1606719471
1606728541
1606731608
1606735560
1606750893
1606751911
1606759279
1606759927
1606760070
1606763954
1606768502
1606785453
1606787474
1606788287
1606788624
1606791516
1606792920
1606799278
1606808612
1606816805
1606831410
1606832397
1606836713
1606848306
1606857936
1606884990
1606896816
1606915468
1606920650
1606928287
1606933861
1606937663
1606942228
1606943227
1606949508
1606985415
1606993322
1606994055
1607009477
1607020732
1607078435
1607078731
1607081586
1607083596
1607086108
1607123339
1607126445
1607165286
1607169658
1607169702
1607186274
1607188292
1607197999
1607202210
1607205403
1607218645
1607223830
1607229799
1607254135
1607269244
1607272771
1607289170
1607294060
1607302601
1607311787
1607328165
1607335022
1607342168
1607345339
1607361360
1607362897
1607366781
1607367898
1607370698
1607384213
1607389743
1607392686
1607402123
1607404702
1607413874
1607418512
1607425562
1607439576
1607445996
1607455015
1607459746
1607474645
1607476591
1607487061
1607498831
1607506808
1607508331
1607508498
1607518427
1607535967
1607563763
1607579107
1607585590
1607591083
1607599757
1607603968
1607622380
1607624583
1607631561
1607634921
1607644599
1607661012
1607661161
1607711425
1607722663
1607734172
1607740170
1607743541
1607747036
1607756696
1607763581
1607787160
1607792636
1607792947
1607795101
1607810326
1607824966
1607836653
1607838515
1607844441
1607892322
1607895772
1607904051
1607915015
1607935628
1607938060
1607939056
1607939221
1607941053
1607951985
1607960065
1607968051
1607969769
1607987476
1607988674
1607989784
1607991874
1607992737
1608012377
1608022317
1608069479
1608096244
1608103159
1608104717
1608115443
1608118160
1608120079
1608121565
1608123766
1608132092
1608146013
1608151130
1608158353
1608169557
1608199398
1608213752
1608232141
1608232513
1608235254
1608259534
1608275493
1608285546
1608290889
1608295305
1608297183
1608305167
1608312883
1608323857
1608328869
1608337218
1608358290
1608361918
1608376970
1608389322
1608395206
1608399422
1608413950
1608422748
1608423318
1608427542
1608446178
1608486323
1608513774
1608528799
1608532230
1608533309
1608561959
1608567147
1608575859
1608577366
1608606394
1608606818
1608632735
1608662748
1608670171
1608681481
1608692681
1608726419
1608730038
1608730461
1608733370
1608743246
1608755855
1608766441
1608772200
1608777343
1608781376
1608789483
1608794057
1608810760
1608811895
1608811995
1608813876
1608842305
1608842980
1608873156
1608875243
1608886007
1608893783
1608894872
1608914560
1608923414
1608925181
1608927787
1608934282
1608935478
1608939197
1608941034
1608952314
1608955815
1608958406
1608971680
1608993913
1609013752
1609020749
1609023622
1609030961
1609031065
1609035455
1609035955
1609043709
1609046165
1609056485
1609080113
1609122674
1609123958
1609129208
1609131317
1609142206
1609145682
1609146512
1609148743
1609171427
1609172676
1609175768
1609183854
1609197668
1609201874
1609221080
1609223530
1609226709
1609232800
1609233224
1609238588
1609242007
1609255128
1609258808
1609260369
1609279384
1609287686
1609291288
1609291864
1609298864
1609302184
1609306907
1609325652
1609337222
1609344175
1609373756
1609386311
1609390329
1609406577
1609416186
1609424032
1609426801
1609430071
1609434093
1609443214
1609452359
1609461316
1609477382
1609481321
1609485089
1609489739
1609490791
1609506151
1609508143
1609511677
1609513534
1609517779
1609527501
1609530771
1609544800
1609549083
1609572144
1609593593
1609601527
1609609762
1609617354
1609625267
1609647063
1609648690
1609656470
1609658591
1609669141
1609669461
1609695239
1609732347
1609742619
1609758641
1609778863
1609779246
1609795913
1609802420
1609801914
1609809448
1609827799
1609829245
1609838340
1609842295
1609850099
1609890157
1609892216
1609897352
1609904793
1609913292
1609918907
1609919723
1609926250
1609926430
1609927145
1609943461
1609956560
1609969105
1609969465
1609970855
1609971958
1609982000
1609990197
1609999149
