731110709
731616096
1600008836
1600146502
1600180981
1600273830
1600297972
1600332245
1600337848
1600341138
1600344376
1600347800
1600349831
1600399670
1600414986
1600447979
1600463207
1600473200
1600475939
1600554507
1600592107
1600615894
1600625606
1600700369
1600735787
1600767187
1600818236
1600839111
1600869699
1600891259
1600910195
1600911049
1600989531
1601014647
1601042063
1601053137
1601102271
1601106301
1601166020
1601215452
1601234121
1601316491
1601318186
1601328340
1601339851
1601376062
1601383455
1601388881
1601421493
1601595851
1601598188
1601645517
1601661076
1601727394
1601734477
1603067566
1603159600
1603213514
1603280736
1603392354
1603394461
1603405370
1603481444
1603622066
1603658556
1603673079
1603762085
1603786786
1603968067
1604012464
1604132172
1604177413
1604199213
1604209407
1604222828
1604341211
1604363382
1604452631
1604501027
1604578960
1604830905
1604883286
1604958113
1605002989
1605030033
1605146874
1606629089
1606713956
