800017225
800061983
800089106
801038765
800106832
800113155
801060485
800141204
800017225
800061983
800089106
800106832
800113155
800141204
800176675
800203186
800208424
800223349
800252599
800293874
800348719
800466835
800484842
800503033
800544017
800559842
800570365
800605840
800662442
800734588
800841747
800847698
800852082
800908062
800923041
800969755
800989739
801038765
801060485
801119636
801127647
801144305
801171367
801181735
801197636
801198082
801230845
801247432
801248581
801265465
801287805
801332497
801338938
801365510
801402574
801414571
801506413
801556343
801574776
801617924
801619905
801646592
801678773
801709266
801763288
801772736
801788996
