710006258
710045075
710054495
710072124
710078316
710098585
710110637
710155410
710158189
710158419
710158898
710180039
710183750
710201106
710207088
710213265
710216121
710216673
710222424
710231560
710242183
710279192
710305656
710334972
710342922
710350314
710355295
710371243
710376252
710386515
710404277
710412370
710420471
710438919
710490844
710567304
710572601
710573942
710575379
710600151
710616142
710623924
710627624
710648164
710685888
710687981
710688881
710693478
710704365
710724121
710734039
710776364
710778763
710791476
710800596
710802960
710807312
710821186
710821591
710841046
710843325
710869541
710870527
710876599
710907503
710909107
710909372
710930005
710933195
710947760
710948747
710951928
710958141
710989611
711013423
711016252
711033771
711034482
711034609
711041823
711043198
711091938
711116132
711119641
711134057
711154665
711155843
711159274
711188144
711193679
711196876
711200825
711200919
711204772
711207205
711227581
711234879
711243900
711247629
711271049
711285524
711293992
711331973
711340242
711361366
711366035
711370959
711375522
711384275
711384448
711390702
711416635
711434456
711439236
711441545
711468037
711477321
711479036
711491588
711492050
711495882
711500121
711511702
711513413
711557803
711564243
711651396
711653838
711675251
711716790
711719948
711727618
711738970
711756336
711760979
711763302
711777676
711778338
711790879
711795240
711798180
711801876
711806476
711837124
711844494
711848724
711853850
711860586
711880628
711892536
711898750
711912621
711913704
711918892
711934896
711958863
711959862
711969317
711974474
711996245
712003547
712010240
712011656
712018875
712033650
712122188
712123903
712131477
712146109
712148349
712151509
712162769
712167720
712181175
712182706
712185391
712185773
712196832
712204347
712206280
712217104
712221274
712230432
712232912
712241358
712260779
712302893
712312178
712350062
712398589
712410020
712413607
712415742
712417823
712424898
712431894
712437523
712442177
712471101
712478787
712481869
712499568
712511467
712543149
712547605
712550531
712575659
712590321
712610859
712637851
712658379
712660255
712661462
712688830
712691106
712691182
712691992
712696630
712699562
712707602
712727587
712731408
712736728
712741173
712741173
712769314
712769706
712782616
712785060
712809851
712818500
712840751
712849357
712865167
712887215
712897300
712900795
712911999
712931808
712933645
712955857
712958934
712965509
712971190
713007787
713007891
713008247
713022023
713025557
713032933
713036032
713041328
713043187
713077479
713079397
713097742
713098413
713098609
713112755
713115689
713116118
713121364
713138664
713178155
713179688
713181992
713194029
713199243
713207393
713208598
713209843
713224371
713226247
713226212
713259547
713269121
713271218
713274314
713276653
713284625
713284534
713339819
713340503
713349461
713352732
713382498
713384943
713394721
713410782
713412690
713412986
713429473
713435528
713442942
713454532
713465003
713478472
713479309
713483384
713492495
713535153
