960218084
960223051
960230406
960334556
960390021
960409052
960439862
960447225
960507799
960538199
960553684
960566636
960716065
960883995
960947367
960949739
961206946
961263417
961365657
961407778
961418709
961435465
961475310
961556114
961611926
961668790
961673581
961760287
961921864
962016384
962016530
962064074
962108674
962193825
962419072
962645621
962659861
962695891
962716227
962727401
962729598
962731345
