710025555
710060513
710390189
710485008
710612075
710671735
710790110
710935743
710945999
711199342
711275845
711408426
711575695
711595041
711637818
711664196
711710987
711756827
711854524
712132303
712185882
712225315
712288258
712369165
712482967
712597515
712701645
712880806
712921822
712971266
712981643
713084725
713354602
713355840
713416887
713464122
713512810
