710003871
710213024
710240051
710307177
710325261
710383044
710591269
710822679
710907426
710922005
710970081
711068864
711166893
711203366
711220716
711305336
711467043
711494498
711738436
711840203
711931848
711940067
712025831
712108108
712239723
712400228
712826104
712893016
713200843
713308676
713328981
713411745
713480939
713523134
