922009116
922018110
922023309
922023351
922024175
921001109
920005348
921006586
920007642
921013154
920005348
920007642
920012361
920020889
920024085
920030121
920034568
920039113
920039622
920041418
920043296
920047608
920053641
920054027
920065099
920073941
920085719
920098719
920102926
920103043
920104419
920108278
920115813
920116589
920131653
