800012845
800014474
800033042
800083889
801041063
801050514
801059836
801060730
800119394
801071116
800151542
800156057
801102421
800012845
800014474
800033042
800083889
800119394
800151542
800156057
800162394
800218392
800228422
800232614
800236263
800249929
800261913
800278386
800288486
800332810
800367357
800381080
800383141
800390229
800415315
800432470
800449880
800467727
800494817
800545279
800704233
800746835
800776639
800778026
800797697
800835526
800932645
800933595
800934486
800936049
800959122
800962364
800964076
800972531
800987899
800989442
801041063
801050514
801059836
801060730
801071116
801102421
801129726
801151680
801167323
801193295
801203239
801215781
801250178
801311890
801370716
801400685
801419411
801436294
801448487
801475757
801492359
801503095
801513027
801542815
801559737
801586198
801587740
801605216
801607284
801607681
801639179
801644860
801645699
801649396
801650891
801660663
801707663
801738696
801749930
801760391
801774987
801788897
801790959
