731045897
731068457
730147869
731099285
730168092
730213902
731183300
731184131
730295025
731228531
730316700
730319526
731246783
731263891
730436533
731604749
731634140
731740048
730602609
731820153
731884521
730710531
730764078
1600507387
1601334802
1601659418
1603238339
1603293118
1603498371
1603561409
1603630747
1604111138
1604823436
1605178138
1605202698
1605251965
1605491993
1605613412
1606437821
1606443798
1606491773
1606493012
1607935787
1607947978
1608169200
1608450351
1608538577
1608544521
1608915845
1609200020
1609763651
1609786377
