731146421
1600019339
1600033435
1600089815
1600242466
1600358504
1600385310
1600446895
1600484372
1600549979
1600550372
1600574096
1600627770
1600735020
1600814092
1601066029
1601079958
1601180465
1601183680
1601339582
1601409216
1601574622
1600019339
1600033435
1600089815
1603138821
1603270186
1603354328
1603483396
1603515790
1603537769
1603619126
1603678128
1603694675
1603850133
1603982326
1604037819
1604165588
1604179307
1604210274
1604211766
1604213341
1604239589
1604241555
1604391195
1604479609
1604486560
1604490566
1604522626
1604524789
1604672284
1604703666
1604710700
1604722588
1604723238
1604728379
1604793191
1604853289
1604918955
1605019539
1605049591
1605154998
1605220964
1605235507
1605320485
1605337670
1605442176
1605447385
1605477750
1605565421
1605609467
1605680677
1605707067
1605852110
1605977780
1606084009
1606125113
1606144873
1606207253
1606263233
1606467711
1606479591
1606504866
1606521709
1606596374
1606725614
1606838320
1606970388
1606988890
1607037150
1607138104
1607366522
1607384039
1607389623
1607705206
1607711217
1607717749
1607755734
1607828693
1607929482
1607979923
1608075693
1608448670
1608516678
1608600951
1608651982
1608655387
1608912204
1609005340
1609043483
1609126666
1609155437
1609157767
1609215845
1609225527
1609361300
1609441689
1609565173
1609574318
1609729077
1609767329
1609819869
1609820880
1609937847
