710009534
710159749
710637192
710684387
710846444
710884865
711187616
711201866
711230576
711396228
711496011
711634107
711643095
711772404
711795573
712284760
712345486
712491795
712569904
712635069
712675417
713201373
713223530
713236243
713274594
713477434
