710470396
710476484
710554487
710762677
710911496
710938142
711030427
711144369
711201298
711475220
711482646
711492624
711753274
711826154
711889472
712624477
712681959
712714158
712842688
713019554
713166018
713327802
713330940
