730054957
730088731
730103129
731093844
730159701
730205424
731152706
731197002
731221473
730332988
730344552
730420086
731574831
731680271
731684414
731768255
731812435
732021665
730750676
732083073
732086889
1600052162
1600076639
1600171314
1600190778
1600199869
1600255084
1600285960
1600369047
1600488253
1600531489
1600534173
1600599595
1600656217
1600961957
1601203279
1601334090
1601450252
1601493046
1601668433
1601692482
1601728811
1603098541
1603357684
1603440169
1603576799
1603723814
1603732344
1603739617
1604041037
1604119616
1604124011
1604490801
1604565071
1604571695
1604645809
1604684812
1604756928
1604811748
1604995774
1605043162
1605135043
1605144402
1605348847
1607446871
1608297821
1609016042
