1600000026
1600000184
1600000184
1600000646
1600000699
1600000184
1600000184
1600002652
1600002874
1600003130
1600003130
1600002782
1600004378
1600004378
1600004909
1600004909
1600006532
1600006810
1600006810
1600006810
1600007463
1600007463
1600007463
1600007463
730239902
731657576
730598772
730750666
730763602
732076358
1600000026
1600000184
1600002782
1600003130
1600002652
1600004378
1600004909
1600006532
1600006810
1600007463
1600008027
1600008144
1600008200
1600008504
1600009210
1600009352
1600009556
1600010216
1600010784
1600011093
1600011749
1600012321
1600013645
1600013771
1600014049
1600014528
1600014674
1600014767
1600016236
1600018822
1600019033
1600019299
1600019498
1600019637
1600020023
1600020617
1600020943
1600021078
1600020883
1600022021
1600022674
1600023234
1600023628
1600024289
1600024590
1600025265
1600025388
1600025642
1600026037
1600026078
1600027652
1600028452
1600028557
1600030003
1600030087
1600030590
1600031200
1600031463
1600031512
1600032023
1600032583
1600033148
1600033223
1600033380
1600033704
1600033892
1600034255
1600034169
1600034774
1600035083
1600035175
1600035242
1600036025
1600036298
1600038016
1600039322
1600039624
1600039848
1600040227
1600040563
1600040734
1600040708
1600040692
1600043716
1600043942
1600045945
1600047070
1600047741
1600047701
1600047755
1600047166
1600048102
1600050194
1600051332
1600051763
1600051602
1600051874
1600051870
1600051870
1600051874
1600052038
1600052612
1600052626
1600052768
1600053647
1600056926
1600057227
1600057178
1600058061
1600059463
1600059563
1600060710
1600061045
1600062046
1600062171
1600061821
1600065232
1600065536
1600066439
1600068425
1600068934
1600069647
1600070163
1600071080
1600071321
1600071834
1600072278
1600072523
1600073184
1600073563
1600073572
1600073910
1600074147
1600074470
1600075025
1600075222
1600075884
1600076009
1600075982
1600075988
1600076624
1600076641
1600077677
1600078392
1600081696
1600082054
1600082232
1600082396
1600082428
1600083096
1600083749
1600083984
1600085519
1600085757
1600087195
1600087840
1600087911
1600088574
1600089154
1600089717
1600090574
1600090875
1600090890
1600091275
1600091819
1600092185
1600092782
1600092955
1600093326
1600093789
1600094373
1600094844
1600094765
1600094949
1600095061
1600096526
1600096940
1600097921
1600097983
1600098378
1600099531
1600100007
1600100185
1600100277
1600100581
1600100881
1600101515
1600102257
1600102303
1600103071
1600103093
1600104500
1600104833
1600107668
1600107967
1600108372
1600108723
1600110272
1600110398
1600110315
1600110372
1600112014
1600112149
1600112256
1600112523
1600112917
1600113764
1600113890
1600114135
1600115237
1600115364
1600115430
1600117147
1600119594
1600120448
1600121131
1600121413
1600122234
1600122543
1600124677
1600126390
1600127058
1600127626
1600128038
1600128147
1600128227
1600128274
1600128533
1600129980
1600130163
1600130854
1600130936
1600131192
1600131546
1600131762
1600132028
1600133227
1600133148
1600135453
1600136184
1600136910
1600138014
1600139474
1600140201
1600140756
1600141024
1600141507
1600141934
1600142368
1600142735
1600142821
1600143115
1600143640
1600144207
1600144237
1600144857
1600144994
1600146261
1600146594
1600147049
1600147054
1600147260
1600150543
1600150910
1600152606
1600152843
1600153199
1600153714
1600153953
1600153880
1600154321
1600155151
1600155231
1600155679
1600156092
1600156310
1600157047
1600157657
1600158437
1600159527
1600159865
1600160250
1600161001
1600161323
1600162193
1600162202
1600163069
1600165242
1600166916
1600167342
1600167330
1600168176
1600168123
1600168906
1600169533
1600169709
1600169689
1600170071
1600170728
1600171085
1600172673
1600172756
1600172855
1600173296
1600173214
1600173754
1600174047
1600176035
1600176213
1600176474
1600176519
1600177877
1600180163
1600180112
1600181171
1600182262
1600182423
1600183012
1600183321
1600183241
1600183433
1600184067
1600184736
1600185902
1600185472
1600185993
1600186033
1600186207
1600188100
1600188674
1600188803
1600188750
1600188906
1600189917
1600190136
1600190273
1600190495
1600190614
1600191293
1600191484
1600191907
1600192916
1600193626
1600193692
1600194812
1600195307
1600195412
1600195946
1600196318
1600196811
1600197591
1600198811
1600199673
1600199616
1600199982
1600200067
1600200675
1600201321
1600202144
1600202434
1600202795
1600203078
1600203281
1600203357
1600203528
1600203802
1600204761
1600205030
1600205216
1600205526
1600206150
1600206888
1600207041
1600207432
1600207386
1600207650
1600209062
1600209079
1600209265
1600209198
1600211351
1600211131
1600211675
1600211929
1600212196
1600212293
1600213126
1600213384
1600213609
1600213767
1600214483
1600214644
1600214853
1600215778
1600216014
1600216892
1600217579
1600217558
1600218566
1600219228
1600219718
1600220256
1600220661
1600220855
1600221754
1600222808
1600224420
1600225082
1600225758
1600227216
1600227280
1600228661
1600229435
1600229547
1600229697
1600230274
1600230718
1600230679
1600232907
1600233271
1600233448
1600235230
1600235699
1600236152
1600237490
1600237500
1600240112
1600240909
1600241950
1600242166
1600242737
1600243359
1600244999
1600248696
1600249080
1600250466
1600250707
1600250651
1600251610
1600251602
1600252444
1600252792
1600254977
1600255341
1600256268
1600256224
1600256937
1600257360
1600258896
1600258937
1600259042
1600259352
1600259631
1600260520
1600261058
1600261313
1600262915
1600263236
1600263247
1600263741
1600265532
1600265935
1600267947
1600268136
1600268228
1600268347
1600268629
1600268879
1600272296
1600273132
1600273247
1600273803
1600273929
1600274755
1600274874
1600274772
1600275206
1600275368
1600276495
1600277210
1600277504
1600278553
1600280697
1600280798
1600281088
1600281342
1600281883
1600281921
1600282149
1600282897
1600283820
1600284455
1600285000
1600284885
1600285313
1600285445
1600285502
1600286534
1600286971
1600287325
1600287390
1600288122
1600288415
1600288631
1600290946
1600291244
1600291402
1600291501
1600292397
1600292886
1600293276
1600293841
1600295321
1600297050
1600297481
1600297696
1600297913
1600298017
1600298021
1600298273
1600298792
1600299664
1600299933
1600300217
1600300384
1600300774
1600302486
1600304034
1600304984
1600305899
1600306020
1600307401
1600307383
1600308293
1600308361
1600308654
1600309393
1600309394
1600309596
1600310632
1600310992
1600311177
1600311509
1600312158
1600312460
1600313310
1600314112
1600314603
1600315248
1600315877
1600315980
1600316292
1600316571
1600316982
1600317390
1600317447
1600317850
1600318520
1600318488
1600320266
1600321386
1600322194
1600323293
1600323567
1600324070
1600324110
1600324425
1600324854
1600324872
1600325909
1600328897
1600329452
1600330680
1600331086
1600332530
1600333137
1600333428
1600333795
1600333992
1600334279
1600334381
1600334731
1600335203
1600336619
1600339785
1600341852
1600342101
1600344139
1600344185
1600344467
1600344782
1600345804
1600346165
1600347092
1600347223
1600347665
1600348360
1600350024
1600350083
1600352770
1600354143
1600354279
1600354480
1600354835
1600355748
1600356978
1600357713
1600358918
1600359068
1600359681
1600361036
1600362204
1600362756
1600362670
1600363156
1600363516
1600363657
1600363953
1600365711
1600366622
1600367155
1600367429
1600367683
1600368132
1600368675
1600370002
1600370764
1600371477
1600371713
1600371768
1600372039
1600373290
1600373977
1600374097
1600374243
1600374438
1600374891
1600375629
1600375724
1600376034
1600376291
1600377404
1600377670
1600378165
1600379869
1600380623
1600381280
1600381822
1600382500
1600383090
1600383170
1600383532
1600383432
1600383874
1600383639
1600384189
1600384233
1600384403
1600384684
1600385464
1600386011
1600386079
1600386743
1600387054
1600390037
1600390258
1600390481
1600390920
1600391116
1600391075
1600392092
1600392653
1600393004
1600393528
1600393783
1600393952
1600394455
1600395170
1600398392
1600398439
1600398546
1600399227
1600399574
1600400067
1600400530
1600402694
1600403102
1600403684
1600405005
1600405066
1600405823
1600406520
1600406620
1600406916
1600406873
1600407339
1600408255
1600408388
1600408507
1600408597
1600409048
1600409261
1600410159
1600411704
1600412265
1600414610
1600414992
1600415517
1600415685
1600416084
1600417635
1600418680
1600418912
1600420925
1600424530
1600425473
1600425525
1600425436
1600425662
1600426094
1600426930
1600427319
1600427993
1600429119
1600429408
1600429755
1600430351
1600431024
1600430943
1600431219
1600431678
1600432601
1600432890
1600433297
1600434492
1600434539
1600435329
1600435433
1600435787
1600435990
1600436002
1600436133
1600436354
1600436844
1600437131
1600437973
1600438838
1600439090
1600439002
1600439413
1600439499
1600439665
1600441618
1600442192
1600442142
1600442963
1600443129
1600443654
1600443757
1600444233
1600445505
1600446122
1600446203
1600448009
1600447998
1600448174
1600448232
1600448603
1600450346
1600450358
1600450755
1600451361
1600451942
1600452172
1600453809
1600454598
1600454874
1600456439
1600456961
1600457310
1600457832
1600458368
1600458891
1600459401
1600459944
1600460194
1600460554
1600461911
1600462921
1600462918
1600463050
1600463404
1600466825
1600466800
1600467089
1600467463
1600468898
1600469764
1600472604
1600473798
1600474483
1600475016
1600475225
1600476212
1600477434
1600477662
1600478143
1600478126
1600479008
1600479191
1600479833
1600480539
1600480526
1600481357
1600481512
1600481523
1600481616
1600482357
1600482817
1600483205
1600484592
1600485492
1600486540
1600486872
1600487341
1600488695
1600491027
1600491714
1600492018
1600492713
1600493676
1600494259
1600494521
1600494696
1600495860
1600495918
1600496672
1600496779
1600496631
1600497669
1600498181
1600498664
1600498204
1600499335
1600499717
1600500102
1600500128
1600501396
1600501757
1600501503
1600503515
1600503564
1600503573
1600504018
1600505012
1600505394
1600505679
1600505677
1600505729
1600507405
1600507389
1600508586
1600508910
1600509058
1600509031
1600511301
1600511521
1600511960
1600512172
1600512117
1600512991
1600513491
1600513948
1600514960
1600515361
1600516252
1600516559
1600516630
1600517476
1600519327
1600519691
1600520343
1600520720
1600521035
1600521041
1600521054
1600521669
1600522180
1600522968
1600522932
1600523055
1600525532
1600527044
1600527126
1600528906
1600528992
1600530796
1600531118
1600531257
1600531327
1600533223
1600533177
1600533210
1600534332
1600534627
1600534818
1600534850
1600536002
1600536100
1600535838
1600536344
1600536499
1600537087
1600537222
1600537671
1600537939
1600538460
1600538708
1600539098
1600539320
1600539381
1600540493
1600540583
1600540907
1600541695
1600541984
1600543096
1600543455
1600544432
1600544841
1600545209
1600545523
1600546122
1600546622
1600546700
1600547090
1600547561
1600547250
1600548129
1600548356
1600549245
1600549752
1600549910
1600550312
1600550562
1600551176
1600551535
1600551545
1600552588
1600553726
1600554262
1600555364
1600556347
1600557270
1600557383
1600558241
1600558689
1600559275
1600560732
1600560786
1600560882
1600561504
1600563264
1600563410
1600563569
1600563587
1600563716
1600566208
1600566692
1600567228
1600568023
1600568238
1600568794
1600569959
1600571014
1600570923
1600571356
1600570923
1600571831
1600573861
1600575022
1600575244
1600575529
1600577687
1600578086
1600581963
1600582475
1600583909
1600584507
1600585030
1600585136
1600586322
1600586361
1600587474
1600590551
1600592298
1600592812
1600593552
1600593823
1600594333
1600595478
1600596362
1600596679
1600597216
1600597432
1600598080
1600598573
1600599874
1600601511
1600601584
1600602072
1600602062
1600602444
1600603755
1600603812
1600604435
1600604414
1600606537
1600607213
1600607730
1600607823
1600608657
1600608828
1600608933
1600609358
1600609524
1600610820
1600611982
1600612736
1600613237
1600613300
1600613354
1600613478
1600614221
1600614920
1600615063
1600615239
1600615859
1600615803
1600615926
1600618421
1600618499
1600619425
1600619983
1600620958
1600621244
1600621230
1600622157
1600622704
1600622858
1600624291
1600625508
1600625872
1600626254
1600626514
1600626654
1600627669
1600627855
1600628033
1600628113
1600629060
1600629152
1600630653
1600632304
1600633926
1600635369
1600635572
1600637081
1600637497
1600637880
1600638543
1600638762
1600638783
1600638943
1600638855
1600639270
1600639625
1600639798
1600639875
1600639970
1600640668
1600640777
1600640841
1600640843
1600643184
1600643259
1600644444
1600644926
1600645083
1600645688
1600646014
1600647279
1600647449
1600647457
1600648217
1600648618
1600649533
1600650528
1600650944
1600651239
1600651672
1600652097
1600652902
1600653224
1600653728
1600654276
1600654374
1600654517
1600654729
1600655041
1600656650
1600656900
1600657036
1600657163
1600657213
1600657757
1600658117
1600660450
1600661243
1600662053
1600662844
1600662973
1600662857
1600664047
1600664178
1600664100
1600664627
1600664828
1600664967
1600665850
1600666604
1600667205
1600667306
1600667828
1600668285
1600669434
1600670107
1600670567
1600670981
1600672537
1600675734
1600677486
1600677773
1600678282
1600679213
1600679554
1600679982
1600681445
1600682065
1600682122
1600682376
1600682511
1600683249
1600684196
1600685094
1600685819
1600687363
1600687533
1600687864
1600687867
1600688102
1600689484
1600689666
1600689597
1600689956
1600691253
1600692535
1600693068
1600693080
1600694660
1600695681
1600695857
1600696380
1600697449
1600698362
1600698607
1600698663
1600698733
1600700245
1600700315
1600700516
1600701622
1600701945
1600702187
1600702987
1600703074
1600703223
1600703305
1600704335
1600704372
1600706307
1600706466
1600706681
1600709084
1600709889
1600711275
1600713057
1600713463
1600713811
1600713829
1600714254
1600714288
1600714460
1600715053
1600716390
1600716453
1600716826
1600717278
1600717303
1600717419
1600717885
1600717907
1600719021
1600719663
1600720462
1600720633
1600721317
1600722233
1600722388
1600722799
1600722562
1600724514
1600724744
1600725253
1600725898
1600727328
1600728689
1600728747
1600729196
1600729800
1600731196
1600732558
1600733301
1600733661
1600735799
1600736672
1600736858
1600738685
1600740106
1600740162
1600740954
1600741748
1600742408
1600743625
1600743982
1600744535
1600744793
1600745614
1600745960
1600746544
1600746727
1600747377
1600747539
1600747886
1600750317
1600750752
1600753014
1600754104
1600754359
1600755337
1600756632
1600758138
1600759293
1600759805
1600760741
1600760922
1600761680
1600762552
1600762680
1600763085
1600763965
1600764962
1600765626
1600765904
1600766782
1600766881
1600766964
1600767536
1600768822
1600769919
1600770094
1600770454
1600770634
1600774690
1600775617
1600776190
1600777007
1600777586
1600778079
1600778203
1600778370
1600779315
1600780967
1600781975
1600782400
1600784531
1600784809
1600785797
1600786856
1600787202
1600787199
1600787752
1600788356
1600788618
1600788627
1600789296
1600790050
1600790089
1600790069
1600792161
1600792583
1600793781
1600793932
1600795232
1600795788
1600795962
1600796630
1600796612
1600797695
1600798994
1600799809
1600800443
1600801108
1600802190
1600802377
1600802346
1600802478
1600802611
1600803030
1600803842
1600804083
1600805476
1600807462
1600808779
1600808880
1600809601
1600810397
1600812175
1600812799
1600813138
1600813312
1600814532
1600814580
1600815083
1600815387
1600816475
1600816781
1600817003
1600817081
1600817520
1600817815
1600817826
1600818982
1600819135
1600819207
1600819446
1600821300
1600822331
1600823800
1600824199
1600824489
1600824670
1600825075
1600826026
1600826422
1600828019
1600828442
1600828422
1600828435
1600830475
1600830661
1600832187
1600832798
1600834935
1600836038
1600836973
1600837080
1600837438
1600837544
1600838808
1600839459
1600839553
1600840377
1600841454
1600842065
1600842401
1600842785
1600843673
1600844120
1600844163
1600844795
1600844968
1600845349
1600846302
1600847800
1600848440
1600850610
1600850763
1600851307
1600854452
1600855139
1600856189
1600856369
1600858402
1600860482
1600860909
1600860983
1600862085
1600862939
1600863025
1600863182
1600864318
1600864693
1600864716
1600865182
1600865484
1600865813
1600868775
1600868930
1600869648
1600870278
1600871442
1600871504
1600871679
1600872693
1600872892
1600873276
1600873586
1600873753
1600875415
1600877064
1600878191
1600878720
1600880858
1600882081
1600882431
1600882439
1600884073
1600887520
1600887881
1600888476
1600888839
1600890322
1600891338
1600891706
1600892011
1600893110
1600894381
1600896995
1600897735
1600898247
1600899319
1600899318
1600899623
1600900007
1600900236
1600900444
1600901068
1600901355
1600902659
1600903131
1600903625
1600903743
1600904911
1600905144
1600905456
1600906113
1600906822
1600908306
1600910425
1600912280
1600912505
1600913276
1600913885
1600915250
1600916676
1600917176
1600918557
1600918670
1600918989
1600919208
1600919607
1600921137
1600922364
1600926792
1600927060
1600928016
1600929136
1600929503
1600930853
1600931258
1600931613
1600932111
1600932589
1600932920
1600933014
1600933362
1600933475
1600933635
1600934201
1600935596
1600937092
1600938262
1600938558
1600939148
1600939337
1600939351
1600940116
1600940710
1600942633
1600944104
1600946013
1600946587
1600946784
1600946961
1600947520
1600947692
1600947856
1600948489
1600949022
1600949112
1600949666
1600950992
1600951411
1600951456
1600951639
1600952299
1600952988
1600955177
1600955281
1600955656
1600956668
1600956841
1600958836
1600958625
1600959076
1600959249
1600959704
1600960056
1600960235
1600960315
1600961036
1600961239
1600961885
1600962576
1600962871
1600962884
1600963846
1600964017
1600963983
1600964339
1600964819
1600966021
1600966784
1600967336
1600967440
1600967550
1600968016
1600968273
1600968462
1600968540
1600969394
1600971157
1600971665
1600972283
1600973003
1600973072
1600973554
1600973870
1600974485
1600974769
1600974929
1600975286
1600975591
1600975965
1600975974
1600976231
1600976591
1600976967
1600977486
1600977958
1600979257
1600980127
1600981056
1600981253
1600981854
1600982046
1600982489
1600983215
1600985656
1600986299
1600986566
1600988069
1600989012
1600989148
1600989849
1600990301
1600990602
1600990773
1600990893
1600990943
1600991872
1600994815
1600995214
1600995255
1600996384
1600996579
1600996609
1600997396
1600998647
1600998800
1600998827
1600998913
1600999266
1600999678
1600999845
1601001185
1601001787
1601002412
1601002756
1601002887
1601004753
1601004769
1601004960
1601005873
1601006977
1601007472
1601007937
1601008114
1601008349
1601008783
1601009919
1601010935
1601011645
1601012132
1601013009
1601013188
1601013430
1601013691
1601015865
1601016206
1601016513
1601016476
1601016987
1601017507
1601017974
1601019788
1601019831
1601020256
1601020325
1601020732
1601020846
1601022001
1601024315
1601024922
1601025001
1601025238
1601025490
1601028627
1601028713
1601028746
1601029620
1601030357
1601030433
1601030946
1601031528
1601032209
1601032284
1601032531
1601033180
1601033529
1601034313
1601034588
1601035662
1601035964
1601036263
1601036547
1601036755
1601038091
1601038255
1601038872
1601039024
1601040215
1601040448
1601041084
1601041927
1601042059
1601042688
1601042736
1601043109
1601043215
1601044280
1601045613
1601046408
1601046624
1601047254
1601049786
1601049870
1601049977
1601050105
1601050739
1601051237
1601053415
1601053547
1601053560
1601053857
1601054378
1601055584
1601055921
1601057006
1601057518
1601057501
1601057854
1601058008
1601058338
1601060555
1601060581
1601062091
1601062479
1601062897
1601063396
1601063519
1601063617
1601063946
1601064125
1601064432
1601064491
1601065638
1601065714
1601067536
1601068307
1601068407
1601070990
1601071851
1601072489
1601073588
1601075077
1601075620
1601075697
1601076825
1601078787
1601080165
1601080458
1601080655
1601081938
1601082056
1601082409
1601084860
1601085141
1601085604
1601085814
1601085926
1601086262
1601086317
1601086909
1601088576
1601090297
1601090471
1601090483
1601090684
1601091453
1601092113
1601092158
1601094650
1601097007
1601098997
1601099222
1601099305
1601100584
1601101078
1601101092
1601101327
1601103239
1601103406
1601106954
1601107464
1601107652
1601109825
1601110537
1601113512
1601114086
1601114832
1601114820
1601115343
1601115354
1601115514
1601115659
1601116055
1601118038
1601119475
1601120580
1601120887
1601121357
1601121377
1601122489
1601122659
1601122859
1601123377
1601123623
1601124083
1601124165
1601124452
1601124829
1601125118
1601125170
1601125479
1601125638
1601126278
1601127583
1601127883
1601128562
1601129031
1601129287
1601129519
1601130099
1601130532
1601132330
1601133080
1601133134
1601133165
1601134762
1601135120
1601135893
1601136069
1601137167
1601138313
1601138931
1601139702
1601141873
1601143017
1601143821
1601144358
1601144730
1601145115
1601145339
1601145718
1601145957
1601146053
1601147887
1601148089
1601148380
1601149383
1601149891
1601150355
1601150981
1601151045
1601153353
1601153610
1601154161
1601154338
1601154610
1601155064
1601156504
1601156681
1601156979
1601158242
1601158498
1601158515
1601159117
1601159372
1601160181
1601165323
1601166300
1601169788
1601170192
1601170596
1601170600
1601171877
1601172244
1601173098
1601173410
1601173526
1601173619
1601174401
1601176464
1601177976
1601178460
1601179537
1601179568
1601180592
1601180931
1601181391
1601182303
1601182670
1601182828
1601183537
1601183547
1601184205
1601184809
1601185092
1601185141
1601185167
1601185164
1601188112
1601188935
1601190922
1601192566
1601192772
1601192884
1601194085
1601195682
1601196033
1601196764
1601197001
1601197460
1601197771
1601198561
1601198708
1601200071
1601200274
1601200610
1601200988
1601202208
1601204368
1601204944
1601205430
1601207212
1601207608
1601207839
1601207976
1601208644
1601208747
1601208920
1601209232
1601209337
1601209532
1601209711
1601210723
1601211047
1601211582
1601213172
1601213096
1601213926
1601214612
1601214904
1601215903
1601216272
1601216431
1601216735
1601217716
1601218311
1601218503
1601219196
1601219634
1601219917
1601220132
1601220184
1601220825
1601221142
1601221410
1601221622
1601222268
1601222402
1601224629
1601225546
1601225525
1601225737
1601226021
1601226745
1601226823
1601227070
1601227101
1601227142
1601227812
1601228864
1601229823
1601229903
1601230379
1601230543
1601230663
1601231410
1601233868
1601234838
1601235373
1601236124
1601236535
1601236745
1601237382
1601237937
1601239089
1601239882
1601239906
1601241082
1601241214
1601241372
1601241700
1601242016
1601242851
1601244372
1601244522
1601244895
1601245485
1601245635
1601245991
1601246225
1601247026
1601247693
1601249145
1601249739
1601250664
1601250785
1601250974
1601251469
1601252393
1601252473
1601252505
1601253084
1601253570
1601253566
1601253959
1601254205
1601254447
1601256423
1601256603
1601257825
1601259314
1601259294
1601260033
1601260486
1601260685
1601261497
1601261572
1601262448
1601263001
1601264834
1601266628
1601268425
1601270498
1601271420
1601271988
1601272917
1601272929
1601273790
1601274009
1601274173
1601274910
1601276018
1601277527
1601278680
1601278823
1601278904
1601279530
1601280308
1601280355
1601280586
1601280735
1601280962
1601281275
1601281668
1601282556
1601282905
1601283498
1601285255
1601285282
1601285972
1601286789
1601287268
1601287431
1601287720
1601288429
1601288600
1601288782
1601291003
1601291001
1601291597
1601291726
1601292318
1601292930
1601293696
1601294219
1601296371
1601296439
1601296465
1601298061
1601299396
1601299573
1601301368
1601303633
1601304722
1601304933
1601306017
1601306070
1601306123
1601307337
1601307510
1601308256
1601308736
1601308719
1601309361
1601310335
1601310578
1601310925
1601311101
1601311536
1601311877
1601312923
1601313058
1601313442
1601313943
1601314022
1601314261
1601316014
1601316335
1601316408
1601316861
1601317077
1601317886
1601318652
1601320176
1601322670
1601323287
1601323424
1601323458
1601324698
1601324715
1601325288
1601325621
1601325803
1601326327
1601326499
1601328342
1601328626
1601328925
1601329068
1601329795
1601330258
1601330758
1601331216
1601331470
1601332870
1601333534
1601333658
1601334045
1601334527
1601335689
1601337239
1601338131
1601340395
1601341263
1601341685
1601343421
1601343407
1601348508
1601348924
1601349110
1601349180
1601349235
1601349535
1601349847
1601349961
1601350379
1601350592
1601351094
1601353492
1601353646
1601354104
1601355025
1601356444
1601357956
1601358572
1601359443
1601359501
1601360573
1601361152
1601361445
1601362195
1601362602
1601362644
1601363588
1601365167
1601365627
1601366940
1601367522
1601367677
1601369188
1601369775
1601370739
1601371188
1601371793
1601372265
1601372619
1601372704
1601373931
1601374649
1601375271
1601375082
1601375649
1601375762
1601376070
1601376371
1601376434
1601376442
1601377130
1601377368
1601377924
1601378323
1601380470
1601381150
1601381356
1601381811
1601381951
1601383585
1601384635
1601386743
1601387206
1601389316
1601389566
1601390325
1601390970
1601391436
1601391699
1601392028
1601392372
1601392915
1601393571
1601394036
1601395653
1601396904
1601397223
1601397492
1601398383
1601398982
1601399361
1601399409
1601400936
1601402662
1601404214
1601404384
1601408582
1601409327
1601410622
1601411206
1601411498
1601411695
1601414523
1601415544
1601416166
1601416515
1601417152
1601417520
1601418221
1601418867
1601419018
1601419336
1601419675
1601420699
1601421718
1601421876
1601422525
1601422716
1601423192
1601423439
1601423800
1601424617
1601425062
1601425296
1601426487
1601428134
1601428332
1601428485
1601429583
1601429958
1601430097
1601430544
1601431675
1601431699
1601432098
1601432638
1601433116
1601435050
1601435947
1601436126
1601438965
1601439671
1601440335
1601440729
1601440835
1601442643
1601442890
1601443656
1601444469
1601444822
1601445151
1601445328
1601445069
1601446037
1601446468
1601447492
1601447957
1601448200
1601450186
1601450483
1601450613
1601452142
1601453186
1601457049
1601457205
1601458841
1601458873
1601459869
1601459957
1601460105
1601460234
1601460143
1601460401
1601460569
1601462403
1601463024
1601463266
1601465473
1601465690
1601465821
1601466387
1601466611
1601466862
1601462725
1601467888
1601468139
1601468618
1601468674
1601469041
1601469474
1601469694
1601471913
1601472341
1601473455
1601473561
1601473955
1601474022
1601474011
1601473938
1601475745
1601479584
1601479847
1601480554
1601481152
1601481282
1601481490
1601481456
1601483462
1601484372
1601484995
1601485857
1601486061
1601486357
1601486647
1601487063
1601487273
1601487667
1601488240
1601489376
1601489406
1601489900
1601490250
1601492921
1601494621
1601495046
1601496034
1601496986
1601497404
1601497502
1601497941
1601498289
1601499675
1601500137
1601501761
1601502150
1601502717
1601502859
1601503320
1601503637
1601504484
1601504689
1601506044
1601506311
1601506303
1601506938
1601508741
1601509138
1601510842
1601512017
1601513052
1601514700
1601514819
1601515288
1601515358
1601515673
1601516671
1601516743
1601517552
1601517520
1601519017
1601519331
1601519314
1601519644
1601520135
1601519997
1601520692
1601520568
1601520714
1601520808
1601521189
1601522723
1601523572
1601524815
1601527417
1601527820
1601528061
1601528342
1601529170
1601530178
1601530679
1601530715
1601531051
1601531126
1601532277
1601532676
1601533798
1601534374
1601535617
1601536257
1601537436
1601538262
1601538526
1601539146
1601540058
1601540502
1601541300
1601543346
1601543587
1601545696
1601545872
1601545886
1601546312
1601546834
1601547726
1601548839
1601549311
1601549863
1601549998
1601550662
1601550971
1601551179
1601551571
1601551841
1601552683
1601553283
1601554258
1601555489
1601556660
1601558504
1601559364
1601559509
1601559699
1601560792
1601561374
1601563218
1601563399
1601563525
1601564280
1601566019
1601567441
1601569263
1601570675
1601571017
1601571491
1601571551
1601571540
1601571864
1601571940
1601572088
1601573719
1601575420
1601576484
1601577570
1601578415
1601579581
1601579804
1601580018
1601581231
1601581697
1601583255
1601583499
1601584171
1601584707
1601584644
1601586023
1601586102
1601586825
1601587384
1601587408
1601587835
1601588019
1601588967
1601590308
1601590666
1601591459
1601591507
1601591579
1601591588
1601592133
1601593019
1601593476
1601594440
1601595204
1601595449
1601595616
1601595685
1601596573
1601598344
1601598985
1601599279
1601599894
1601599944
1601600136
1601600802
1601603353
1601604124
1601604183
1601604455
1601605820
1601606352
1601607074
1601607168
1601607297
1601607466
1601608627
1601610204
1601611400
1601611455
1601612509
1601613856
1601615468
1601615697
1601615762
1601616430
1601616859
1601616961
1601619097
1601619438
1601619523
1601619886
1601620069
1601620257
1601621316
1601621573
1601622004
1601623529
1601623842
1601624124
1601625249
1601625512
1601625523
1601627943
1601628463
1601629920
1601629907
1601631799
1601631852
1601631905
1601632073
1601632299
1601632610
1601632908
1601633285
1601633297
1601634839
1601635043
1601635620
1601636634
1601636920
1601636978
1601637119
1601637638
1601638753
1601639400
1601640357
1601640461
1601641539
1601641624
1601641780
1601642349
1601643563
1601645189
1601645857
1601646284
1601647913
1601648383
1601649141
1601649702
1601650501
1601652156
1601652810
1601652954
1601653031
1601653185
1601653398
1601654177
1601654056
1601654867
1601655474
1601656183
1601656827
1601658352
1601659257
1601661074
1601661237
1601661718
1601662015
1601662433
1601662679
1601662836
1601663061
1601663108
1601663477
1601664513
1601665040
1601666650
1601667525
1601668130
1601668236
1601668317
1601671568
1601671723
1601672257
1601672361
1601672325
1601672427
1601674018
1601674257
1601675912
1601676243
1601676308
1601676532
1601676990
1601677518
1601677989
1601678675
1601679406
1601679777
1601680539
1601680570
1601680934
1601680969
1601681905
1601681828
1601683380
1601683352
1601685132
1601685414
1601685944
1601687287
1601687588
1601687565
1601687877
1601688807
1601690728
1601691688
1601693658
1601693885
1601694418
1601694532
1601694622
1601695163
1601696042
1601696665
1601696901
1601697537
1601699551
1601699774
1601700231
1601701825
1601702542
1601702949
1601703077
1601704594
1601706795
1601706875
1601707425
1601707439
1601707554
1601708528
1601708590
1601709404
1601709714
1601710002
1601711274
1601712372
1601713222
1601713240
1601713677
1601713809
1601714732
1601714892
1601715322
1601715550
1601715752
1601716679
1601716953
1601716700
1601718888
1601718971
1601719102
1601720073
1601720207
1601721020
1601723282
1601723397
1601723527
1601723751
1601724313
1601724743
1601727649
1601727725
1601730063
1601729980
1601731540
1601731941
1601731994
1601732243
1601733455
1603065812
1603065907
1603066805
1603067926
1603069157
1603069205
1603070130
1603070392
1603070390
1603070630
1603071201
1603071145
1603071951
1603073577
1603074271
1603074555
1603075655
1603076341
1603077404
1603078171
1603079478
1603080454
1603080302
1603082391
1603082894
1603083217
1603083410
1603083861
1603084698
1603085737
1603085812
1603086600
1603091400
1603091562
1603091838
1603091931
1603092109
1603092068
1603093803
1603094074
1603094449
1603096404
1603097567
1603098306
1603098905
1603099086
1603101110
1603101979
1603102186
1603102386
1603103243
1603103428
1603104303
1603104690
1603105488
1603105480
1603105606
1603106709
1603106908
1603107277
1603107874
1603108211
1603108750
1603109000
1603108955
1603109453
1603109761
1603111360
1603111386
1603112561
1603112643
1603113424
1603114916
1603115426
1603115667
1603116746
1603116964
1603117446
1603117615
1603117967
1603118382
1603119199
1603120032
1603120616
1603121070
1603121675
1603123384
1603124191
1603125555
1603125781
1603125888
1603126291
1603126103
1603126802
1603127740
1603128098
1603128439
1603128717
1603129508
1603129790
1603129416
1603130549
1603133644
1603137488
1603139309
1603139570
1603140016
1603140649
1603140640
1603141343
1603141748
1603142372
1603143432
1603143928
1603144108
1603144159
1603144423
1603144963
1603146931
1603147125
1603147578
1603147908
1603148283
1603148398
1603148405
1603149029
1603149869
1603150548
1603152375
1603153394
1603154249
1603154937
1603155874
1603156032
1603157115
1603157509
1603157696
1603158943
1603159070
1603160631
1603161012
1603161102
1603161477
1603162022
1603163821
1603164052
1603165782
1603166115
1603166915
1603167794
1603168701
1603169810
1603170621
1603170347
1603172151
1603172772
1603173862
1603174172
1603174229
1603175069
1603175511
1603175609
1603175719
1603176158
1603177794
1603178491
1603178995
1603180308
1603181962
1603184413
1603185616
1603187667
1603187213
1603187666
1603187947
1603188316
1603189893
1603190349
1603190438
1603191052
1603191518
1603192157
1603192649
1603192837
1603193146
1603194825
1603194855
1603196967
1603197178
1603197991
1603199040
1603199516
1603200970
1603203652
1603204062
1603205194
1603206214
1603206599
1603207191
1603207329
1603207619
1603207817
1603207794
1603208117
1603208298
1603208642
1603209613
1603210839
1603212322
1603212450
1603212665
1603212873
1603215151
1603215256
1603215722
1603216350
1603216563
1603216729
1603216919
1603217769
1603218767
1603220301
1603221011
1603222868
1603222982
1603223418
1603223920
1603224634
1603224609
1603225061
1603226301
1603226543
1603226856
1603227839
1603229465
1603229541
1603229701
1603229344
1603231871
1603232061
1603232860
1603233430
1603233565
1603233417
1603235098
1603235864
1603235934
1603236261
1603237422
1603238981
1603239583
1603239711
1603241164
1603241384
1603242432
1603243774
1603244217
1603245732
1603245801
1603246824
1603248721
1603248425
1603249062
1603250472
1603251161
1603251000
1603251804
1603251993
1603253159
1603253263
1603255141
1603255501
1603256020
1603256103
1603257400
1603258690
1603259117
1603260950
1603260686
1603262112
1603262469
1603262444
1603262643
1603263761
1603264370
1603264022
1603264777
1603265186
1603265996
1603266217
1603267372
1603267345
1603269165
1603269296
1603269471
1603270147
1603270494
1603270705
1603271047
1603271312
1603271325
1603271597
1603272088
1603273543
1603273609
1603273890
1603274069
1603274829
1603274897
1603275332
1603274989
1603275489
1603275680
1603275788
1603275886
1603276729
1603278053
1603278386
1603278907
1603279384
1603279767
1603280192
1603281145
1603281226
1603282789
1603283334
1603283395
1603283895
1603284174
1603284518
1603286552
1603287101
1603287210
1603287676
1603288108
1603288198
1603289443
1603290189
1603291758
1603293822
1603294279
1603295243
1603295351
1603295731
1603297281
1603297803
1603297745
1603298552
1603299467
1603300076
1603300640
1603301434
1603301576
1603301500
1603302843
1603302899
1603303098
1603303541
1603304107
1603304811
1603304917
1603305076
1603306621
1603307029
1603307864
1603307935
1603308042
1603308355
1603308700
1603308609
1603309142
1603309006
1603309670
1603310516
1603310831
1603312576
1603313351
1603313461
1603313771
1603314646
1603314922
1603315025
1603315011
1603315490
1603316107
1603316608
1603317276
1603317559
1603317758
1603317829
1603317831
1603317718
1603318233
1603318830
1603319016
1603319440
1603319839
1603320562
1603320800
1603322620
1603325092
1603325180
1603326080
1603326322
1603326782
1603328976
1603332028
1603333178
1603333430
1603333641
1603334114
1603334174
1603334737
1603334794
1603335348
1603335382
1603336384
1603336386
1603337397
1603337621
1603338229
1603339112
1603339290
1603339890
1603340550
1603340828
1603341020
1603342561
1603342456
1603342586
1603343241
1603344334
1603344623
1603346085
1603346095
1603346636
1603346744
1603347003
1603347298
1603347395
1603347638
1603347897
1603347958
1603348231
1603348436
1603350085
1603350117
1603350237
1603350437
1603351384
1603351797
1603352550
1603352910
1603353605
1603355035
1603356156
1603357288
1603357666
1603358209
1603358536
1603359492
1603359031
1603360538
1603361124
1603362596
1603362754
1603364280
1603365046
1603364851
1603365707
1603366308
1603366455
1603368121
1603369408
1603369747
1603369775
1603370760
1603371223
1603372628
1603374716
1603375736
1603376136
1603377530
1603377895
1603378173
1603378937
1603379034
1603379595
1603380137
1603380412
1603380814
1603381217
1603381396
1603381737
1603382922
1603384800
1603385136
1603385642
1603386266
1603388253
1603388355
1603390432
1603391151
1603390291
1603391717
1603392373
1603393197
1603393877
1603394231
1603394176
1603394786
1603394834
1603396254
1603396572
1603396785
1603396756
1603398331
1603400683
1603401679
1603403391
1603403446
1603403754
1603403855
1603403847
1603404134
1603404432
1603404812
1603404854
1603405707
1603405839
1603407541
1603408669
1603408992
1603409354
1603409997
1603410229
1603410925
1603412259
1603412886
1603414555
1603415860
1603416847
1603417667
1603419150
1603419191
1603419352
1603419660
1603419019
1603420099
1603420315
1603422420
1603423008
1603423260
1603423535
1603423031
1603423597
1603423901
1603424329
1603424337
1603424641
1603424911
1603424983
1603426336
1603427612
1603427784
1603427551
1603428716
1603428514
1603429769
1603430470
1603430628
1603432864
1603433744
1603434283
1603435421
1603435953
1603436611
1603436939
1603437369
1603437673
1603438529
1603439036
1603439930
1603439971
1603441416
1603443585
1603443551
1603444267
1603444932
1603445113
1603445861
1603446323
1603447307
1603448578
1603448518
1603449650
1603450555
1603450606
1603451200
1603451521
1603453975
1603455090
1603457019
1603457311
1603457681
1603457794
1603458182
1603458576
1603459082
1603460060
1603460433
1603461445
1603461589
1603462106
1603462643
1603463166
1603464147
1603465776
1603465976
1603467303
1603467424
1603468120
1603468213
1603468272
1603469847
1603469932
1603470471
1603470545
1603470571
1603471821
1603473017
1603473512
1603474998
1603475301
1603475815
1603475533
1603477493
1603477934
1603479237
1603479154
1603480343
1603480493
1603480895
1603481439
1603481927
1603484945
1603485117
1603485142
1603485603
1603486208
1603487678
1603488497
1603489839
1603490076
1603493043
1603494252
1603494368
1603494574
1603495906
1603496410
1603498953
1603499388
1603500081
1603500537
1603500327
1603501742
1603501812
1603502610
1603504158
1603504705
1603505078
1603505272
1603506290
1603507117
1603507615
1603507610
1603508933
1603509762
1603509947
1603510256
1603510923
1603512351
1603514543
1603514752
1603514620
1603515952
1603516687
1603517482
1603517812
1603517850
1603517946
1603518115
1603518814
1603518869
1603518811
1603519282
1603519693
1603521024
1603520943
1603521236
1603521411
1603522129
1603522950
1603523208
1603523261
1603523910
1603524001
1603524415
1603524978
1603524981
1603525518
1603526654
1603526887
1603526959
1603529450
1603529873
1603530343
1603532033
1603532936
1603533347
1603534134
1603535304
1603535700
1603536148
1603537781
1603538286
1603538608
1603539447
1603540451
1603540723
1603540801
1603541893
1603542086
1603542503
1603544013
1603544702
1603544854
1603545076
1603546230
1603546336
1603546286
1603547230
1603548260
1603548476
1603549221
1603549882
1603549659
1603550114
1603550117
1603549703
1603551693
1603551353
1603551618
1603553626
1603553804
1603554413
1603554521
1603554872
1603555075
1603555402
1603556411
1603556704
1603557640
1603557945
1603557993
1603559161
1603559088
1603559059
1603559702
1603562511
1603563728
1603563839
1603565139
1603566442
1603566551
1603566780
1603566922
1603567451
1603567442
1603567358
1603567639
1603568410
1603569309
1603570033
1603570053
1603570116
1603570295
1603570425
1603570634
1603570908
1603571090
1603571324
1603571425
1603571678
1603571503
1603572383
1603573492
1603574357
1603575202
1603575687
1603575869
1603578157
1603578930
1603580076
1603583120
1603583127
1603584349
1603585251
1603585969
1603586530
1603586526
1603586400
1603587909
1603588450
1603589057
1603588840
1603590762
1603590898
1603591211
1603591330
1603591810
1603591996
1603594602
1603594881
1603595172
1603595570
1603595964
1603597919
1603598262
1603598267
1603599525
1603599687
1603600688
1603601564
1603601770
1603603492
1603604311
1603604928
1603605156
1603606589
1603606485
1603607026
1603607200
1603607973
1603609317
1603609660
1603611127
1603612542
1603613792
1603614724
1603615928
1603616309
1603617547
1603617600
1603617869
1603618826
1603619674
1603621085
1603621153
1603621747
1603622024
1603622588
1603623398
1603623490
1603623686
1603623865
1603624475
1603624728
1603625080
1603624878
1603626769
1603627378
1603627450
1603627885
1603627835
1603628946
1603629475
1603629763
1603630605
1603630711
1603631219
1603631532
1603631688
1603632465
1603632181
1603633333
1603635146
1603636210
1603636524
1603637164
1603638126
1603638744
1603638746
1603638890
1603639072
1603639717
1603640282
1603640634
1603641616
1603642128
1603643038
1603643717
1603643783
1603644026
1603646730
1603647672
1603648866
1603649724
1603650771
1603650803
1603651700
1603651896
1603654256
1603654548
1603655502
1603655735
1603656602
1603656783
1603657160
1603657023
1603658536
1603658789
1603662016
1603662140
1603661253
1603662408
1603663066
1603663332
1603663921
1603664789
1603665544
1603665624
1603665827
1603666331
1603667129
1603667683
1603668077
1603669446
1603670767
1603670907
1603672640
1603672013
1603673034
1603674003
1603675430
1603675381
1603676654
1603677018
1603678768
1603678871
1603678948
1603680414
1603680725
1603680710
1603682328
1603682650
1603682697
1603685126
1603685621
1603686040
1603685903
1603686510
1603686822
1603688316
1603690011
1603691898
1603693140
1603693168
1603693634
1603694750
1603694662
1603695673
1603696308
1603698337
1603699648
1603700852
1603700951
1603702638
1603703503
1603703592
1603703470
1603703965
1603705024
1603706254
1603706905
1603707130
1603708610
1603708981
1603709580
1603709795
1603710048
1603711223
1603712183
1603712755
1603713152
1603713689
1603713762
1603713964
1603714087
1603714728
1603714950
1603715171
1603716965
1603718313
1603719101
1603720484
1603720736
1603721629
1603722365
1603722373
1603723263
1603725898
1603726108
1603726456
1603726469
1603727505
1603727979
1603729204
1603728805
1603729891
1603730476
1603730670
1603731101
1603732429
1603732767
1603733072
1603733099
1603733108
1603733939
1603734558
1603734846
1603735024
1603737975
1603738278
1603738339
1603738436
1603740351
1603740724
1603741018
1603741505
1603741587
1603741905
1603742613
1603742787
1603743068
1603743617
1603743899
1603745545
1603746682
1603746723
1603748133
1603748599
1603748632
1603749017
1603749588
1603750936
1603751215
1603751287
1603752382
1603753139
1603753829
1603754618
1603754622
1603754897
1603755011
1603757709
1603758469
1603758992
1603759370
1603760342
1603760275
1603760346
1603761108
1603761151
1603763566
1603763623
1603764222
1603765128
1603765070
1603765610
1603765383
1603767607
1603767781
1603768665
1603769222
1603770210
1603771040
1603771555
1603772392
1603772792
1603773330
1603774100
1603773438
1603774455
1603774941
1603775409
1603775602
1603775712
1603776431
1603777340
1603777207
1603778113
1603778630
1603778866
1603779055
1603780207
1603780408
1603781021
1603781551
1603782345
1603782420
1603782453
1603782669
1603782906
1603783409
1603784413
1603784750
1603784823
1603785359
1603786690
1603788172
1603788898
1603789466
1603789687
1603790648
1603791089
1603792630
1603793808
1603794403
1603795219
1603795435
1603796792
1603796930
1603876186
1603879654
1603880725
1603883108
1603894910
1603896205
1603897507
1603897750
1603897993
1603898233
1603899007
1603902812
1603905606
1603906544
1603907873
1603911137
1603912265
1603912374
1603913309
1603913806
1603915771
1603916647
1603918158
1603918226
1603918137
1603918609
1603920136
1603920415
1603921841
1603922536
1603923368
1603924260
1603926229
1603927996
1603932023
1603935087
1603935223
1603936259
1603936575
1603937952
1603938696
1603938285
1603939976
1603940055
1603940456
1603940551
1603940854
1603941494
1603942054
1603942400
1603942279
1603944622
1603945368
1603945676
1603945696
1603948429
1603949552
1603950504
1603950861
1603950863
1603952194
1603952798
1603954535
1603956236
1603957131
1603957492
1603958384
1603960624
1603962155
1603962434
1603962688
1603962748
1603963668
1603964957
1603966635
1603967637
1603967914
1603970275
1603970732
1603970929
1603971632
1603972911
1603973222
1603973184
1603974409
1603974236
1603974307
1603975582
1603976442
1603976837
1603977072
1603977244
1603977710
1603978043
1603978897
1603979624
1603981727
1603984643
1603987044
1603987217
1603987699
1603988148
1603988536
1603988572
1603989804
1603990811
1603992933
1603993703
1603993746
1603993803
1603994392
1603996898
1603997273
1603997432
1603997962
1603998508
1603998952
1604003306
1604003488
1604003574
1604003676
1604003723
1604005819
1604006457
1604006859
1604008771
1604008950
1604010539
1604010705
1604010934
1604012637
1604012641
1604013710
1604014056
1604015693
1604017027
1604018430
1604019318
1604019624
1604021729
1604022396
1604022888
1604023550
1604023322
1604025052
1604026279
1604025991
1604027138
1604027172
1604028002
1604028185
1604028555
1604028792
1604029628
1604029676
1604029612
1604030726
1604030714
1604031601
1604032132
1604033179
1604033178
1604033334
1604033824
1604034109
1604033791
1604034783
1604035056
1604035318
1604036610
1604036721
1604036750
1604037185
1604038072
1604038155
1604038267
1604038575
1604038687
1604038792
1604040285
1604041125
1604041557
1604041984
1604042562
1604042868
1604042979
1604044781
1604047375
1604048167
1604048344
1604047999
1604048756
1604050289
1604051067
1604051150
1604052506
1604052534
1604052893
1604053341
1604053512
1604053727
1604054793
1604055485
1604055580
1604056078
1604056360
1604056472
1604057193
1604057815
1604060153
1604061017
1604061361
1604061925
1604062143
1604063482
1604064062
1604064681
1604065906
1604066056
1604067006
1604067755
1604070551
1604070588
1604070972
1604071148
1604071382
1604071366
1604072109
1604073285
1604074394
1604074716
1604075201
1604077664
1604078033
1604077073
1604078829
1604079168
1604080320
1604080847
1604081102
1604081542
1604082630
1604083199
1604083700
1604085052
1604086386
1604086771
1604088035
1604088468
1604088885
1604089757
1604090010
1604090618
1604092287
1604093161
1604093399
1604093602
1604093481
1604094386
1604094742
1604095020
1604095279
1604095323
1604097814
1604097973
1604100280
1604100385
1604101835
1604102751
1604102811
1604103079
1604103501
1604104471
1604104528
1604104564
1604105044
1604105693
1604106671
1604107244
1604108114
1604108176
1604108415
1604109346
1604109371
1604110101
1604110920
1604111784
1604111854
1604113199
1604114129
1604114062
1604115185
1604115700
1604115979
1604116506
1604117255
1604117258
1604119203
1604119457
1604119699
1604119744
1604120349
1604121450
1604121617
1604122562
1604124377
1604124976
1604127019
1604127246
1604127908
1604128303
1604128022
1604128435
1604129024
1604129147
1604129423
1604130259
1604130261
1604130799
1604131162
1604131729
1604132086
1604132263
1604132520
1604133278
1604133073
1604134191
1604134940
1604136850
1604136916
1604137234
1604137357
1604138888
1604139078
1604139532
1604140896
1604141266
1604141345
1604141960
1604142148
1604143342
1604143466
1604144155
1604144510
1604144898
1604145356
1604147158
1604147467
1604148435
1604151587
1604152223
1604152640
1604153222
1604153667
1604153762
1604154422
1604155396
1604155944
1604155958
1604156069
1604156302
1604157851
1604158480
1604158734
1604158908
1604161762
1604161998
1604164052
1604164142
1604164538
1604164726
1604165262
1604165748
1604167822
1604167871
1604168240
1604169201
1604171775
1604172447
1604172800
1604172961
1604173362
1604173647
1604174733
1604174811
1604175666
1604177125
1604178482
1604178520
1604179576
1604181390
1604181405
1604182137
1604182474
1604183452
1604183807
1604184080
1604184297
1604185363
1604185714
1604185720
1604186052
1604187137
1604187781
1604187847
1604188343
1604188388
1604187000
1604190016
1604190083
1604192378
1604193027
1604193640
1604195368
1604195767
1604196190
1604196352
1604196797
1604197121
1604199416
1604200704
1604201146
1604201510
1604201796
1604202120
1604203389
1604204352
1604204525
1604204691
1604205043
1604206166
1604206401
1604206182
1604207117
1604207268
1604208817
1604209300
1604209441
1604209713
1604210178
1604211318
1604212672
1604214517
1604214464
1604214546
1604214845
1604216504
1604216604
1604216960
1604219061
1604219297
1604219372
1604219957
1604220595
1604220710
1604222107
1604222127
1604222423
1604222756
1604223687
1604225001
1604225576
1604225967
1604226156
1604226400
1604226580
1604228698
1604230292
1604230379
1604231081
1604231680
1604232347
1604232417
1604233826
1604234386
1604234735
1604234871
1604235557
1604237967
1604238310
1604238507
1604238766
1604238740
1604239201
1604240238
1604241022
1604241310
1604242612
1604242716
1604243403
1604243434
1604243712
1604244253
1604244858
1604244661
1604245506
1604245840
1604247906
1604249420
1604250235
1604250450
1604249512
1604250625
1604251250
1604252026
1604253279
1604253753
1604254544
1604254632
1604255440
1604255803
1604256663
1604257122
1604257152
1604258504
1604258727
1604258954
1604260934
1604261083
1604263571
1604264530
1604265410
1604265770
1604266276
1604266589
1604266526
1604266820
1604268127
1604268257
1604268435
1604268982
1604269425
1604269551
1604269798
1604269969
1604270140
1604270762
1604272123
1604272963
1604273401
1604273839
1604273906
1604274596
1604273390
1604275868
1604277145
1604277724
1604277818
1604277995
1604278147
1604279054
1604281972
1604283401
1604283542
1604284265
1604284334
1604287347
1604287917
1604288690
1604289300
1604289348
1604289867
1604291791
1604292668
1604292687
1604292633
1604293682
1604294351
1604295537
1604298588
1604299530
1604299850
1604300567
1604301586
1604303813
1604303969
1604305097
1604306835
1604307606
1604308537
1604309353
1604309910
1604311005
1604311041
1604312106
1604312598
1604314330
1604314974
1604315777
1604315815
1604317548
1604318145
1604318208
1604319651
1604322535
1604323276
1604323537
1604323784
1604325269
1604325556
1604326345
1604327139
1604328041
1604329241
1604329480
1604333387
1604335757
1604335897
1604335991
1604337388
1604337850
1604338001
1604338057
1604338538
1604339487
1604339403
1604339546
1604340770
1604340885
1604341623
1604342573
1604342947
1604342970
1604343265
1604344892
1604349403
1604349407
1604349208
1604350802
1604351088
1604352749
1604353069
1604353065
1604354191
1604354273
1604354803
1604355828
1604356862
1604356974
1604356799
1604357254
1604357836
1604358538
1604359118
1604360901
1604361749
1604362917
1604363777
1604365747
1604366331
1604366452
1604366964
1604367823
1604367797
1604370662
1604371918
1604373848
1604373900
1604375008
1604377611
1604377713
1604381355
1604440546
1604441216
1604443474
1604444950
1604445229
1604447792
1604447852
1604448071
1604451172
1604452862
1604453206
1604453661
1604455262
1604456925
1604458131
1604458526
1604459445
1604461216
1604461999
1604463663
1604463945
1604464296
1604464902
1604465252
1604465725
1604468592
1604468746
1604474215
1604475038
1604476034
1604476641
1604478545
1604479484
1604481050
1604481506
1604481489
1604482156
1604482689
1604483029
1604483324
1604484227
1604484704
1604484850
1604485674
1604485852
1604488581
1604488503
1604490184
1604490866
1604490705
1604491208
1604491971
1604494124
1604494998
1604495031
1604495814
1604496431
1604496669
1604496701
1604497871
1604498255
1604498333
1604498563
1604498971
1604499057
1604499611
1604499936
1604501149
1604501388
1604503253
1604503281
1604503764
1604503365
1604505904
1604506012
1604506093
1604506856
1604506932
1604508411
1604509617
1604511488
1604512372
1604512817
1604512868
1604513042
1604513939
1604514153
1604514331
1604514450
1604514427
1604514601
1604514743
1604515031
1604515643
1604515803
1604516044
1604516307
1604516750
1604516831
1604517186
1604519176
1604519435
1604519730
1604521871
1604522421
1604522565
1604522902
1604523294
1604523984
1604525921
1604526119
1604526637
1604526922
1604526732
1604528468
1604528595
1604529905
1604530868
1604531637
1604531753
1604533180
1604534426
1604534980
1604534695
1604536165
1604536293
1604536290
1604536581
1604537936
1604538158
1604538466
1604539341
1604539698
1604539646
1604539829
1604541687
1604541831
1604542177
1604542543
1604542563
1604543571
1604545795
1604545928
1604545982
1604546972
1604548493
1604548703
1604548721
1604548895
1604549298
1604549943
1604549912
1604550773
1604552955
1604553194
1604553867
1604554362
1604556571
1604556600
1604556564
1604556719
1604556299
1604556942
1604557477
1604557865
1604558456
1604558557
1604558880
1604559327
1604559780
1604559859
1604559935
1604560083
1604560690
1604560705
1604561876
1604562930
1604564095
1604564115
1604566036
1604566678
1604567899
1604568877
1604571169
1604571392
1604571721
1604572051
1604572369
1604572439
1604572485
1604572591
1604573587
1604576369
1604576535
1604576597
1604577662
1604577975
1604578698
1604579891
1604580247
1604581718
1604581896
1604582412
1604582328
1604582871
1604584103
1604585121
1604586166
1604586444
1604587204
1604587208
1604587927
1604588267
1604588908
1604590316
1604590840
1604591246
1604591323
1604592619
1604593015
1604593399
1604593799
1604593863
1604593841
1604594207
1604594387
1604596826
1604597802
1604598341
1604600165
1604600772
1604601046
1604601292
1604601311
1604603131
1604603814
1604603926
1604604523
1604604920
1604605294
1604605918
1604605185
1604607445
1604607991
1604607946
1604608957
1604609113
1604609500
1604609740
1604611867
1604611894
1604612016
1604614287
1604614224
1604615493
1604615852
1604615976
1604616238
1604618339
1604618337
1604619127
1604619873
1604620240
1604621122
1604622864
1604623433
1604624654
1604625224
1604625443
1604625487
1604625754
1604626858
1604627208
1604627401
1604627030
1604627587
1604628598
1604628751
1604628870
1604629343
1604629788
1604631375
1604631481
1604631442
1604632157
1604632958
1604633542
1604633786
1604633846
1604634571
1604635268
1604635764
1604636429
1604637227
1604637345
1604638687
1604639491
1604640513
1604640869
1604642585
1604642959
1604643240
1604643372
1604643605
1604643729
1604644225
1604645115
1604645473
1604645988
1604646753
1604646748
1604647794
1604648171
1604648301
1604648415
1604648508
1604648810
1604649749
1604651208
1604651784
1604652036
1604652305
1604653128
1604653971
1604655158
1604655364
1604655053
1604655735
1604656254
1604657241
1604657650
1604658002
1604658206
1604658480
1604658491
1604658976
1604659270
1604659849
1604659930
1604660557
1604661183
1604663338
1604664529
1604665800
1604666095
1604669487
1604669598
1604669899
1604670997
1604671316
1604671802
1604672456
1604672646
1604673046
1604674104
1604674969
1604675500
1604675775
1604676059
1604676113
1604677188
1604677273
1604677604
1604677671
1604678633
1604678547
1604678763
1604679105
1604679296
1604680231
1604680943
1604680997
1604680987
1604681473
1604681246
1604682264
1604682427
1604682667
1604683060
1604684107
1604684200
1604684329
1604685166
1604685850
1604685976
1604687316
1604687519
1604687996
1604688000
1604688682
1604688968
1604689509
1604689433
1604689926
1604690015
1604690040
1604691119
1604691318
1604692774
1604693214
1604692753
1604694014
1604694212
1604694034
1604695937
1604695342
1604696079
1604697342
1604697554
1604697620
1604698606
1604698565
1604699669
1604701813
1604701716
1604702325
1604702549
1604704413
1604704520
1604704552
1604704649
1604704998
1604705696
1604706111
1604707322
1604709050
1604709257
1604709068
1604710449
1604711027
1604710935
1604711532
1604711814
1604711904
1604713046
1604713593
1604714006
1604714173
1604714887
1604715467
1604715534
1604715589
1604716131
1604716117
1604716219
1604717323
1604717372
1604717957
1604719010
1604720445
1604722902
1604723358
1604723504
1604724553
1604725154
1604726308
1604727742
1604728056
1604728436
1604729071
1604729531
1604730673
1604731976
1604731982
1604733247
1604734121
1604735937
1604736133
1604736685
1604736925
1604737016
1604737410
1604737839
1604738922
1604739098
1604741783
1604741942
1604742051
1604742436
1604743087
1604742967
1604742291
1604743296
1604743865
1604744689
1604745756
1604746427
1604747036
1604748391
1604750091
1604750506
1604751058
1604751389
1604751574
1604753661
1604754867
1604754845
1604754875
1604756173
1604756440
1604756837
1604756930
1604757297
1604757837
1604759050
1604759252
1604760403
1604761407
1604761610
1604763885
1604764539
1604764595
1604765001
1604765683
1604768904
1604769174
1604769805
1604770121
1604770194
1604771137
1604772453
1604773352
1604773565
1604773451
1604774842
1604776591
1604777875
1604778796
1604778938
1604779086
1604780397
1604782188
1604783077
1604783745
1604784632
1604784677
1604785425
1604785490
1604786507
1604786482
1604786619
1604787245
1604787144
1604787970
1604789941
1604791014
1604791125
1604790911
1604791476
1604792806
1604793218
1604793724
1604794638
1604794657
1604795690
1604796948
1604797276
1604798264
1604798211
1604798143
1604798421
1604798935
1604799582
1604800972
1604801231
1604801771
1604802647
1604803698
1604803535
1604803937
1604803963
1604804768
1604804963
1604806025
1604806148
1604806580
1604806612
1604806796
1604807690
1604807851
1604808587
1604809780
1604812541
1604812614
1604813589
1604813864
1604814534
1604814728
1604814938
1604815273
1604815400
1604816629
1604817676
1604817715
1604817844
1604818442
1604819396
1604820227
1604822021
1604822439
1604823058
1604823392
1604824298
1604824873
1604826725
1604827406
1604827465
1604827772
1604828160
1604829035
1604829127
1604829505
1604829513
1604831098
1604831442
1604831843
1604832401
1604833374
1604835623
1604837052
1604838884
1604838872
1604839400
1604840488
1604840520
1604841422
1604841927
1604842543
1604842718
1604843173
1604843188
1604843618
1604843728
1604844449
1604846493
1604847394
1604847406
1604847791
1604847319
1604848738
1604849892
1604850024
1604850271
1604850512
1604852710
1604852826
1604853404
1604853542
1604853986
1604854313
1604854609
1604856036
1604856304
1604858178
1604859233
1604859604
1604860265
1604860296
1604862726
1604862793
1604863369
1604863438
1604864182
1604864604
1604865057
1604866044
1604867250
1604867737
1604871651
1604872119
1604872423
1604872362
1604872588
1604872655
1604872927
1604873176
1604873399
1604873942
1604874023
1604874741
1604875256
1604875423
1604876384
1604877702
1604878160
1604878444
1604878811
1604878931
1604881344
1604881260
1604882293
1604882377
1604884355
1604884508
1604886284
1604887854
1604888302
1604889591
1604892041
1604892694
1604893402
1604893471
1604893705
1604894360
1604895339
1604895726
1604896007
1604896295
1604896323
1604897149
1604896907
1604897951
1604898072
1604898231
1604898714
1604899307
1604900628
1604900841
1604901028
1604901318
1604901519
1604901602
1604902154
1604902288
1604902576
1604905538
1604906091
1604907781
1604908453
1604909148
1604909619
1604910464
1604910880
1604911437
1604911683
1604912093
1604912068
1604912744
1604913066
1604913159
1604913455
1604913491
1604914319
1604914590
1604915033
1604915818
1604916020
1604916078
1604916953
1604917078
1604917556
1604918884
1604919321
1604919689
1604920196
1604920287
1604920628
1604920670
1604921884
1604922576
1604925360
1604925994
1604925919
1604926173
1604926774
1604926716
1604926753
1604929370
1604931630
1604932201
1604932469
1604932829
1604934000
1604934372
1604934425
1604934761
1604935550
1604935720
1604935867
1604935924
1604935967
1604937254
1604937897
1604938026
1604938153
1604939519
1604939504
1604940252
1604940785
1604941350
1604941819
1604942017
1604942356
1604943721
1604944132
1604943670
1604944191
1604945431
1604946187
1604947202
1604948145
1604948139
1604948916
1604950683
1604951177
1604951453
1604951590
1604954029
1604954226
1604956804
1604956939
1604958084
1604958271
1604959006
1604959115
1604960307
1604960563
1604960598
1604961048
1604961433
1604962054
1604962161
1604963200
1604963373
1604963425
1604964484
1604964823
1604964895
1604966550
1604966547
1604967877
1604969112
1604969869
1604970783
1604972459
1604973184
1604974125
1604974462
1604974675
1604975431
1604976125
1604976514
1604976525
1604978308
1604979050
1604979761
1604979795
1604980129
1604980261
1604980465
1604982135
1604984021
1604985691
1604986137
1604986457
1604986491
1604986496
1604986998
1604990482
1604991163
1604991865
1604994381
1604994819
1604995614
1604995670
1604999022
1604999807
1605000427
1605000349
1605002108
1605004811
1605005759
1605006503
1605006758
1605007711
1605008408
1605008438
1605008908
1605009071
1605009135
1605009238
1605009241
1605009456
1605009626
1605009741
1605009733
1605010008
1605011135
1605013098
1605013396
1605013499
1605014148
1605016031
1605016194
1605016725
1605017129
1605017184
1605017258
1605021514
1605021851
1605022743
1605023236
1605023470
1605024563
1605024795
1605025515
1605026124
1605026201
1605026725
1605026781
1605028051
1605028482
1605028698
1605028942
1605029433
1605030385
1605030282
1605030719
1605031156
1605031197
1605031378
1605031605
1605031638
1605031992
1605032049
1605032670
1605033823
1605034172
1605034873
1605035502
1605035615
1605036199
1605037561
1605037610
1605037600
1605038783
1605040062
1605040404
1605040427
1605041029
1605041561
1605041721
1605041493
1605042760
1605042861
1605043211
1605043446
1605045005
1605045488
1605045860
1605046050
1605047710
1605048457
1605048739
1605049722
1605049874
1605050889
1605051855
1605052000
1605052523
1605053303
1605053936
1605053901
1605054139
1605054954
1605055035
1605055341
1605055355
1605055546
1605056635
1605057130
1605057521
1605059725
1605060262
1605060926
1605060965
1605061068
1605062958
1605063085
1605063847
1605064644
1605065143
1605065951
1605065974
1605071994
1605072445
1605072694
1605073048
1605073317
1605074238
1605075807
1605076010
1605076138
1605077480
1605077670
1605078342
1605079971
1605080099
1605080471
1605080759
1605081089
1605082103
1605082455
1605082831
1605082978
1605083351
1605083658
1605084074
1605084332
1605084433
1605084120
1605084996
1605085850
1605085922
1605086082
1605086892
1605087450
1605087643
1605088088
1605090194
1605090602
1605090549
1605090726
1605091884
1605092222
1605092235
1605092249
1605092320
1605092651
1605093153
1605094860
1605095836
1605098335
1605098683
1605099056
1605099076
1605099213
1605099448
1605100121
1605100321
1605100494
1605101793
1605102203
1605102616
1605103213
1605103697
1605103668
1605106884
1605108299
1605108343
1605109050
1605109612
1605109812
1605109923
1605110298
1605111929
1605112751
1605113310
1605113385
1605113002
1605113863
1605113904
1605114663
1605114724
1605114856
1605115440
1605116376
1605118365
1605119401
1605120877
1605121688
1605122594
1605122819
1605123146
1605123220
1605123628
1605123711
1605124121
1605124264
1605124802
1605124726
1605125260
1605125503
1605125614
1605125658
1605127206
1605127289
1605126928
1605128308
1605129287
1605129337
1605130047
1605130222
1605131221
1605131584
1605131639
1605133313
1605133514
1605133864
1605134885
1605135032
1605135575
1605135796
1605136886
1605137805
1605138526
1605138832
1605139202
1605139152
1605139620
1605139645
1605141132
1605141300
1605142417
1605142994
1605143698
1605144049
1605144408
1605144507
1605144942
1605146342
1605146321
1605147129
1605147460
1605148120
1605148762
1605148972
1605149166
1605150846
1605150957
1605151255
1605150846
1605150957
1605151255
1605151464
1605151738
1605152415
1605153902
1605155411
1605155649
1605156937
1605157042
1605157332
1605157684
1605157857
1605157922
1605158116
1605157989
1605158255
1605158348
1605159525
1605160612
1605162544
1605162550
1605162707
1605163410
1605163683
1605163730
1605163881
1605168160
1605168874
1605168991
1605169780
1605170518
1605170523
1605171295
1605171828
1605172028
1605173443
1605174246
1605174800
1605176543
1605178220
1605179099
1605180122
1605180559
1605180623
1605181153
1605182248
1605183037
1605184195
1605184569
1605188190
1605189233
1605189442
1605189831
1605190926
1605190391
1605191516
1605191668
1605191790
1605192376
1605192417
1605193186
1605194290
1605194601
1605195039
1605195636
1605196791
1605197501
1605198815
1605200686
1605201191
1605201803
1605203994
1605203925
1605204332
1605204361
1605207004
1605207564
1605208773
1605208896
1605208922
1605209266
1605210692
1605211434
1605211954
1605213311
1605213406
1605216648
1605217379
1605219381
1605220991
1605222097
1605228262
1605305456
1605306077
1605306179
1605307596
1605308141
1605309463
1605311380
1605311268
1605311726
1605312553
1605315136
1605315270
1605315652
1605316042
1605316023
1605316658
1605317192
1605316577
1605320528
1605322737
1605323576
1605324692
1605325411
1605325857
1605326210
1605326284
1605327059
1605327267
1605327691
1605328756
1605328828
1605332843
1605334694
1605335691
1605336760
1605337070
1605337524
1605338315
1605341728
1605341593
1605342709
1605350279
1605350471
1605352084
1605354611
1605355117
1605355675
1605363269
1605367868
1605369336
1605376252
1605379149
1605417932
1605536352
1605600673
1605611346
1605870019
1605990261
1606217044
1606321946
1607946646
1607949781
1609376659
1609638070
