710124132
710166390
710221759
710223854
710333004
710449649
710532636
710580112
710708374
710853544
710923211
710947248
710986711
710988315
711096859
711146938
711452121
711459469
711511185
711538853
711572069
711624105
711780763
711803491
712233316
712252950
712335678
712382983
712427345
712481026
712492213
712556118
712727806
712810197
713013050
713043674
713052196
713089611
713357245
713362220
713430719
713433047
713486085
713529707
