960051248
960061708
960075091
960079009
960080695
960082262
960082191
960082541
960091517
960098636
960110187
960141658
960155894
960170203
960180538
960182772
960194514
960216041
960228247
960230071
960231183
960261027
960275739
960298623
960300616
960301747
960307257
960311687
960431835
960448382
960455260
960457578
960463410
960465040
960482945
960505474
960539491
960541699
960548882
960549670
960553833
960568760
960572740
960583540
960658991
960663939
960718554
960745816
960760719
960767680
960778411
960791187
960798327
960801110
960824058
960856272
960861081
960889062
960929975
960990412
961037456
961026660
961057890
961061250
961106838
961242418
961250403
961276160
961296176
961327401
961339107
961398513
961400504
961410728
961430875
961437569
961501980
961514069
961527579
961555684
961565023
961581411
961601111
961609830
961646463
961657125
961669771
961680714
961682940
961684810
961712705
961714802
961737839
961751135
961789955
961793980
961809463
961815419
961825848
961829348
961845710
961847619
961869041
961913086
961930204
961943942
961959894
961962170
961971373
961989314
961998184
962015357
962030394
962063274
962063541
962063880
962065219
962071411
962088521
962117160
962150995
962191975
962193272
962213324
962220557
962243355
962281493
962320276
962358071
962365870
962367491
962378143
962381500
962410704
962420819
962447421
962455392
962459261
962461331
962470853
962478644
962479612
962481208
962496311
962500202
962533742
962553803
962562244
962595406
962595475
962640128
962646559
962654307
962670705
962685244
962703523
962722348
962724651
962727914
962727890
962741182
962789734
