710010780
710025451
710052730
710086569
710121462
710142751
710145531
710153231
710154842
710185196
710227284
710246770
710270343
710278756
710284404
710291289
710308606
710358205
710393835
710410137
710437355
710445889
710521568
710542972
710548428
710549683
710552410
710578584
710582813
710607410
710608882
710611623
710635419
710663353
710691362
710702343
710717744
710731401
710742585
710750443
710799794
710823664
710832653
710883070
710898469
710929532
710931717
710962836
710968043
710968043
710968856
710968887
710973204
711003377
711035812
711051347
711051237
711063955
711108336
711143773
711193322
711196916
711243245
711250496
711254561
711272076
711271741
711321850
711325678
711345396
711355119
711363602
711390558
711396492
711397437
711404169
711404126
711413985
711477362
711497582
711515193
711594446
711609375
711612974
711643425
711675112
711694924
711732220
711757779
711765464
711805961
711808871
711814038
711826061
711862904
711866276
711877405
711884136
711904359
711916700
711975393
711979491
712005902
712027377
712055893
712064945
712066957
712098764
712110681
712118501
712124294
712187062
712192807
712210072
712241156
712259500
712279696
712286232
712313643
712333555
712370033
712379179
712419639
712429007
712436723
712515585
712522106
712555303
712586077
712623211
712671246
712705004
712707902
712708507
712710914
712738391
712741658
712745646
712780642
712788894
712795187
712799675
712815466
712835398
712859092
712861196
712867511
712879075
712879597
712880575
712952333
712982877
713012768
713072766
713085471
713148157
713190635
713202311
713204652
713211022
713238711
713241014
713250870
713261277
713265377
713266899
713273569
713275357
713278795
713302863
713304739
713305508
713335936
713348781
713361834
713388449
713472783
713477780
713501839
713514322
713526992
