730186937
730403971
730479177
731643371
730629227
1600056839
1600060732
1600126541
1600139480
1600152887
1600185663
1600191489
1600206871
1600239174
1600246765
1600256332
1600365395
1600375376
1600413601
1600430553
1600463597
1600488950
1600559712
1600583444
1600597233
1600621473
1600667684
1600677211
1600694858
1600717765
1600728551
1600915758
1600944196
1600952668
1600971464
1601042300
1601116005
1601120627
1601147617
1601152301
1601238499
1601255464
1601341111
1601466847
1601493597
1601524134
1601575117
1601581447
1601609445
1603089521
1603100424
1603153434
1603180402
1603257310
1603404447
1603442604
1603475740
1603503733
1603508589
1603544523
1603602568
1603629952
1603641997
1603680839
1603695080
1603697567
1603732264
1603754371
1603757760
1603770808
1603938715
1603993453
1604031164
1604084779
1604099073
1604155350
1604158823
1604224448
1604234091
1604239350
1604266736
1604291845
1604335618
1604452541
1604506838
1604511284
1604515823
1604551717
1604561288
1604569596
1604574838
1604636489
1604704765
1604709372
1604716526
1604997196
1605047747
1605108359
1605123687
1605177979
1605180099
1605324952
1605328235
1605352561
1605554827
1605555787
1607415501
1609251621
