840007508
840008403
840019379
840047622
840059366
840063041
840069976
840071821
840099674
840122120
840128197
840189045
840202016
840214872
840220687
840228349
840235784
840260915
840264094
840332422
840334378
840346005
840358066
840378529
840380125
840446757
