730002336
730002461
730002511
730003377
730004550
730008568
730009617
730015230
730016010
730017889
730022312
730030344
730030999
730032692
730033619
730034146
730034638
730037118
730037213
730037865
730038112
730037804
730039230
730040667
730042121
730042981
730043667
730044923
730052199
730053291
730054352
730054512
730056223
1200000861
1200005972
1200007442
730059055
730059966
730060493
730061219
730061344
730061341
730061050
730002336
730002511
730003377
730004550
731007513
730030344
730030999
730032692
730033619
730034146
730034638
731018344
730037118
730037213
730037804
730037865
730038112
730039230
730040667
730042121
730042981
730042985
730043667
730044923
730045209
730047213
730052199
730053291
730053381
730054352
730054512
730056223
730059055
730059966
730060493
730061050
730061219
730061344
730061341
730062136
730064517
730063894
730066651
730066964
730067415
730067960
730068710
730069666
730070082
730072059
730073994
730076837
730077023
730080441
730080883
730082714
730083089
730083147
731018687
730085931
731019935
730085714
731020602
731021879
730088184
731023411
731023471
731024366
731024417
730089741
730090240
730091373
730092483
730092915
730092807
731026499
730093678
731028601
731028816
731028922
731030455
731030977
731032588
731032418
731033225
730097054
731034161
730097052
730097779
730098288
731036499
730098967
730100122
731038796
731039377
730102974
731042031
731041682
731042187
730103834
731043359
730104472
730105277
730106168
731047323
730108183
731047275
730108574
731048542
731049421
731051459
731052984
730114703
731053642
731053922
730116043
730115979
731056012
731056543
730119839
731059689
730121157
730122066
730121916
730122943
731060919
731061830
730126384
731063722
730127027
731065092
730127893
731067234
731067103
730129646
730130460
731069344
731069419
730133430
730133622
731072077
730135043
731072625
730137388
731077456
730141504
730142280
731080377
730144069
731081527
730144787
731081901
731082373
730145268
731083516
730146736
731083836
730147796
731084522
730148058
730148707
730150104
731087339
730153020
731091362
731091960
730156760
731094259
730159287
730159333
730159918
730161170
731096854
731097349
730161408
731097999
730162887
731099131
730164044
730164114
731104234
730168783
730169625
731105383
731106812
730171548
730171422
730171971
731108708
730173575
730174445
731110528
730177301
730179470
730180030
730180125
730180869
730180851
730181695
730182844
730183976
731118667
730184699
730184867
730185196
731120372
730186748
731123149
731123261
731123765
730189690
730191060
730190571
730191279
731125909
730191805
731127582
731127952
731131289
730197917
730198823
730198882
730198023
730198687
730199522
731133439
731134409
731134664
731135309
730202171
731136342
730202804
730203842
731138377
731138769
730205029
730205835
730208814
730208959
730209238
730210157
731143437
731143688
730211612
730212257
730212423
731145396
731145721
731145564
730213936
730214121
731146919
730215841
731148326
730215552
731148068
730216669
730217912
731150558
730218984
730219577
730219585
731152232
731153436
731153304
730221539
730221303
730221384
730222504
731155488
731156272
731156390
731157821
730227419
731159497
730228123
730228689
731162395
730230938
731162656
731163905
731164991
730233842
730233991
730235613
730236244
731167755
731168661
731169858
730238792
730241297
731173451
730242752
730245000
731176304
730245998
731177767
731177877
730248790
731179563
731180785
730250419
730253519
730254655
730257457
730257197
730257728
730258152
731188133
730258625
730258521
731190076
730261116
730261538
730262085
730262335
731192888
730264409
731193659
731194002
730265513
731194228
730267163
730267220
731196135
730267493
730269071
730269761
730270241
731199291
730270930
731200099
730272260
730272511
730272824
730272835
730273240
731202028
730273573
730274080
730274167
731205328
730277310
731206986
730278782
730279057
731208037
730281516
731210222
731211149
731211706
730283344
730283985
730284248
731212903
730285676
731215126
730287352
731215840
731216383
731216391
731217465
730290045
731218157
731218660
731219755
730293426
731220792
731221305
730294980
731222022
731222048
730295757
731222852
731224053
731224706
730299463
731227166
731227408
730301114
730301791
730302321
730303069
731230469
730303575
731233380
731234519
730308572
730309854
730310418
730311536
731239899
730313973
731244324
730318613
731244456
731244748
730319209
731246696
730322108
730322783
730322164
730323651
731249808
730324671
730325642
731251616
731251948
730326804
730327705
731253845
731254620
731256761
730331534
730333249
731258422
730336155
731261770
730337369
730339613
731265349
730340633
731266462
731266985
731267551
731270022
730345642
730346605
731272922
730347640
730348437
731274689
731536383
731537032
731537496
730401249
731540513
730401963
730403545
731543328
731544773
730407249
731546453
731547169
731547216
730408612
730409006
730409663
730409883
730410913
730411244
731550433
730412237
730413587
730414009
731554268
731554341
730417261
730417478
731557049
730419909
731559417
731560567
731561021
730423076
731562528
730423598
730423738
730423790
731563759
730425321
731564522
730425499
731565039
730426249
730428602
730428807
730429047
730428987
730430844
731570424
731570459
730431473
731570852
730431992
730431881
731571822
730432581
730432457
731572483
731572861
730433783
730434185
731574350
730435132
731574427
731574595
730435811
730436068
731575531
731575591
730436366
730437822
730438541
730439155
731580459
731582571
731582750
731583369
731583560
731583844
730444333
731584902
730445353
731587061
731587348
730447811
730449024
731592278
730455425
731599225
731599692
731600039
730460224
731603061
731603102
731603546
731604059
730464314
731607578
730468627
731608937
731609876
731610490
730470786
730470878
731611646
731613385
731613055
731613756
731615323
730476179
730477474
731619047
731620141
731620309
731620884
731621226
731621459
730480895
731621493
731622233
730481680
731623600
730483160
730485869
731626772
730486746
731627658
731628042
730488656
730489161
730490325
730490877
731631446
731631837
730491924
730492197
730493459
731635864
730496825
730498629
730499237
731642045
731643574
731643610
730502534
731644865
731645105
730503750
731648059
731648172
730506669
731648688
731648933
731649137
730509026
731652343
730510860
731653191
730512349
731654733
731654867
731655614
731656189
730515542
730516108
731657717
731660825
730518880
730519396
730519433
730520201
731661507
730521053
731663263
730521525
730523263
730524189
731666838
731670345
731673516
731674164
731675371
731676411
731677663
731685216
731685167
731686512
731688199
731690091
731690125
731691389
731695483
731698435
731699680
731701633
731702514
731703019
731703877
731704494
731706494
731710211
731711522
731711803
731712969
731713569
731714236
731716311
731717110
731716509
730528278
730528440
730528283
731720190
731719868
730528910
730529768
730531619
730533465
731725516
731726046
730534751
730535135
730536083
730537042
730537275
730537808
730538953
730540002
730540440
731732250
731732816
730542323
731734218
731738833
731739110
731740096
730548775
730550731
730551253
730551461
731743999
731744905
730555710
731747706
730555221
731748431
730557819
731750393
730558962
730561275
731753074
730561218
730561896
731755069
731756102
731757870
731758955
730572119
730572513
730572601
731767724
730575253
730575351
731769511
730576962
731770039
731770125
730577866
731771674
730579084
730578695
731772268
731772340
731774361
730583741
731777994
731778127
731778837
731779339
730586369
730586397
730586833
731780323
730588268
730588542
730588706
730590163
730590353
730591182
730591249
731785430
731786075
730593886
730595151
731789640
730596743
730597458
731792086
730598585
731792950
731793507
731793287
730600011
730600337
731794840
731795339
730601598
731795682
730602072
731796798
730603133
730604361
731799942
730605975
730605997
731801082
731801751
731801976
731804702
730609821
731805067
731806351
730612886
731807568
730613473
731808411
731808803
730613999
731810270
730616570
730618151
730620113
730620618
730620845
730621190
730622292
730623181
730624295
731820544
731820640
730626998
731823223
731823363
730629344
731827218
731828103
731828188
730633195
731829085
730634497
731830189
730634740
730635563
730636191
730637146
731834542
730639771
731835758
730640085
731836661
730640973
730641647
730642762
731839759
731840121
730644175
730644866
730644885
730645752
731842762
731843017
731843701
730648103
731843748
731844659
731845049
730649841
730652523
730653606
730656101
730656114
730656222
731852122
730656558
731852451
730657331
730658324
731854506
731855073
731856332
731857514
731859044
730662956
731860861
731863960
730671118
731867105
731868823
731868934
731870924
731870828
731872602
731874144
731874164
731874312
731875444
731876115
730682057
730683021
731880141
730685206
730686116
730687146
731883743
731884139
730689410
730690504
731887347
730691430
730692623
730693648
730693904
731890135
730695069
731891817
730697348
730697471
730697965
730698739
730699690
731896888
731897200
730700470
731897853
730701699
731899569
731899622
730701978
730702156
731901716
731903163
731904382
731905401
731907177
731913325
731913696
731914382
731917290
731919100
731921379
731921509
731921525
731921948
731922047
731922245
731922412
731922489
731924932
731925719
731927733
731928306
731932688
731934072
731936093
731937155
731940068
731946976
731949375
731951846
731953272
731954825
731955076
731954958
731955599
731955575
731956527
731956560
731957619
731960196
731961517
731962071
731963431
731967633
731971185
731971584
731972437
731973993
731975236
731975648
731976859
731982463
731982796
731984196
731987173
731987465
731987580
731989814
731989886
731990878
731993933
731994296
731997027
731997541
730706140
730706902
730706402
732005794
732006778
730713249
732010341
732010534
732011022
732014369
730718503
732013717
732014839
730720088
732015478
732016866
730721298
730722404
730723709
732020340
730727677
730727685
730727963
732024472
730730259
732025621
732027689
732028137
732028173
732028232
732028781
730733466
730734292
730736427
732033794
732034461
730739966
732036127
732036747
730741278
730742149
730744717
732040024
732042205
732042879
732043918
730749465
732045787
732046750
732047860
732048082
730754790
730755005
732049519
730755549
732050875
730757558
730757676
732051746
730758505
732052250
732053171
732053661
730762677
732057020
732058348
732059226
730767165
730767709
732061963
732062433
730769265
732063355
730770504
730770747
732064812
732065616
730776495
730777725
732072013
730778524
732073027
732073826
730780432
732074738
732074278
732075904
730782427
732076873
732077401
730783626
732078662
732078168
730785347
732079079
730786393
730786622
732080743
730787023
730788440
730788321
732082231
732083185
730789764
732083789
730790552
730791006
732085468
732085615
730791884
732085907
732086165
732086646
732087331
730793806
732088834
732089018
730794801
732089227
730795612
732091073
730798841
732093864
732094822
732095698
732095928
732096122
730803732
730803897
730804248
732099049
732099975
732100706
732100759
730804976
732101738
732102822
732102891
730807263
730807137
730808093
730808733
732105750
732105750
730810387
732106560
730812962
732109440
732109506
730814941
732111832
730817094
730817697
730818953
732115162
732116818
732117137
730822796
730825794
732122869
730827160
732123476
732125460
730829965
730830843
732128837
730833650
730836475
1600023293
1600063209
1600075789
1600129926
1600184570
1600209427
1600237886
1600287370
1600326741
1600385105
1600392103
1600397101
1600403685
1600406362
1600412389
1600440815
1600449430
1600547864
1600558859
1600593001
1600612838
1600615973
1600637077
1600663084
1600666850
1600667458
1600694887
1600700371
1600713113
1600714441
1600763442
1600778132
1600782597
1600802266
1600822795
1600857920
1600886070
1600920911
1600936657
1600972930
1600987824
1600991288
1600995068
1601009014
1601105973
1601107132
1601123236
1601130748
1601234358
1601244460
1601257244
1601276533
1601287814
1601288328
1601314545
1601316978
1601344663
1601345641
1601366914
1601406080
1601413806
1601442122
1601493975
1601498907
1601510389
1601521888
1601569324
1601587285
1601602939
1601604054
1601628575
1601650478
1601684939
1601699077
1601715127
1601725148
1600063209
1600075789
1603105716
1603158330
1603185213
1603192816
1603218191
1603235327
1603280970
1603304370
1603313517
1603402449
1603411097
1603420735
1603446390
1603566675
1603588794
1603614861
1603652612
1603663254
1603671159
1603674714
1603693508
1603697805
1603700561
1603778894
1603825992
1603974639
1604035474
1604047147
1604162032
1604184752
1604215463
1604238605
1604285880
1604286351
1604302454
1604313648
1604391809
1604491984
1604557240
1604560594
1604676603
1604724083
1604728614
1604824275
1604896170
1604946914
1604959914
1605074452
1605129474
1605178468
1605187120
1605340580
1605386878
1605429506
1605442211
1605454718
1605471359
1605620452
1605665604
1605668135
1605747833
1605799599
1605822434
1605828829
1606094731
1606179611
1606182512
1606281260
1606324567
1606330322
1606349450
1606368277
1606372234
1606400262
1606421574
1606438123
1606457477
1606522390
1606556683
1606622008
1606647517
1606722227
1606787426
1606806138
1606900473
1606905874
1606912675
1606963691
1607044294
1607105402
1607140164
1607205448
1607278556
1607405033
1607473800
1607523551
1607571384
1607585146
1607597408
1607629080
1607630443
1607633669
1607644210
1607647813
1607702765
1607782330
1607836487
1607854723
1608041937
1608263834
1608285709
1608300872
1608314123
1608322185
1608326876
1608422319
1608579464
1608586177
1608778617
1608783496
1609018566
1609039339
1609062176
1609127024
1609160616
1609181930
1609225690
1609244945
1609328776
1609338288
1609429589
1609461388
1609471307
1609509501
1609614676
1609715032
1609872338
1609892797
1609981138
1609994103
1609995903
