800002452
800007923
1330000334
801039131
801061536
800131776
800136059
800156493
800002452
800007923
800131776
800136059
800156493
800166931
800197828
800208865
800209356
800275517
800288970
800351569
800412758
800462223
800637919
800763691
800842781
800869233
801039131
801061536
801148098
801155408
801176506
801319739
801333583
801386549
801394620
801452047
801548310
801577054
801593555
801743359
801750471
801784832
801794374
