731018185
730040994
730058450
730116901
731066940
730129489
730143436
731088171
731101969
731149768
731155537
731193195
730295420
731238160
731243972
731244168
730344090
731542709
730412092
730477892
730498318
730534967
731783451
731808852
731853224
730695028
730701670
731959363
731983115
731987300
731994839
730740615
732043348
732071287
732074902
732122560
730834957
1600381381
1601436315
1601569915
1601639669
1603276863
1603437694
1603478220
1604560254
1604782691
1604798727
1604891371
1605337540
1605406368
1606633661
1606714607
1606906810
1607085617
1607790448
1609258664
1609332936
1609388334
