731041862
731046105
730112068
731053836
730124246
730137707
730175541
730210799
731148233
730229950
730249982
731184652
730271653
731202551
730276137
731207210
730285768
730314350
730315035
731264296
731546956
731556394
730442742
731590873
731601083
731610777
731655447
731672320
731683984
731709233
731737867
730603967
730618839
730619318
730625283
731832228
730651724
730667276
731878400
731891982
731905543
731990758
730711869
730741584
732064841
732066640
730773239
732079439
732100277
730812492
732123037
1600024700
1600062002
1600079005
1600078813
1600092393
1600096864
1600126047
1600127937
1600160965
1600162510
1600203076
1600205399
1600245066
1600251626
1600312623
1600339581
1600396514
1600426825
1600454514
1600454908
1600461458
1600482310
1600486523
1600519962
1600533664
1600543050
1600561755
1600563258
1600644916
1600654757
1600705736
1600711321
1600718071
1600762454
1600770781
1600823255
1600824052
1600885060
1600887295
1600887615
1600913182
1600922307
1600924812
1600983672
1600984136
1601011602
1601023159
1601075000
1601125414
1601130887
1601136654
1601206465
1601226498
1601251332
1601287169
1601295806
1601311833
1601343615
1601385814
1601487959
1601497250
1601543677
1601557629
1601705767
1601738830
1600078813
1603171138
1603172878
1603230581
1603276085
1603295045
1603302813
1603323856
1603327049
1603428787
1603470100
1603474260
1603506161
1603520489
1603520932
1603542863
1603588011
1603614567
1603636002
1603648374
1603648474
1603659269
1603660631
1603672631
1603686591
1603687324
1603688519
1603744079
1603816294
1603954133
1603968584
1603976851
1603991058
1604019887
1604085800
1604128001
1604265206
1604304349
1604311473
1604318771
1604324297
1604365585
1604369739
1604375240
1604390238
1604421177
1604485684
1604490071
1604500604
1604511369
1604518610
1604535288
1604670429
1604681228
1604736575
1604777398
1604798662
1604810666
1604876642
1604877143
1604920734
1604988624
1605001113
1605047963
1605051282
1605057993
1605110218
1605188691
1605309589
1605329260
1605347930
1605362212
1605362292
1605475019
1605710770
1605791403
1606316936
1606365847
1606507201
1606532950
1606546133
1606666037
1606678499
1606748565
1606939955
1606976726
1607012661
1607154006
1607378584
1607593523
1607631999
1607840606
1607844643
1607887412
1607893033
1607918644
1608339595
1608437477
1608469441
1608513999
1608548425
1608636302
1608713257
1608847542
1608870855
1608966607
1609017271
1609148911
1609457219
1609465322
1609745948
1609889785
1609965375
