800074652
800128338
800150522
800074652
800128338
800150522
800236610
800279144
800388625
800479942
800505824
800608464
801315781
801425040
801437527
801451811
801509986
801614558
801671410
801680334
