1600002505
731201965
730787909
1600002505
1600012753
1600014178
1600064214
1600081185
1600098590
1600103777
1600106138
1600129171
1600174545
1600203434
1600210379
1600215141
1600223409
1600227943
1600246319
1600278385
1600281450
1600286316
1600299379
1600326955
1600338306
1600340407
1600340643
1600340733
1600385731
1600395103
1600409026
1600410382
1600447576
1600470346
1600484495
1600508880
1600511122
1600520758
1600530671
1600551131
1600572071
1600575490
1600581181
1600627292
1600627680
1600658073
1600674111
1600689732
1600713494
1600728770
1600764124
1600792777
1600801415
1600808553
1600822596
1600860721
1600922875
1600923871
1600926049
1600930682
1600933949
1600935607
1600947677
1600950300
1600987626
1600993085
1601033046
1601035518
1601063362
1601115189
1601127952
1601137528
1601152223
1601152661
1601156302
1601170083
1601171372
1601184209
1601186130
1601202326
1601207708
1601209113
1601212861
1601302906
1601320071
1601322272
1601323191
1601330655
1601356492
1601368503
1601393698
1601398420
1601406939
1601426411
1601442717
1601446419
1601478288
1601488373
1601507112
1601539135
1601539803
1601548463
1601549302
1601563002
1601570310
1601623822
1601631610
1601642110
1601647414
1601689210
1601689369
1601695437
1601703976
1601725089
1600002505
1603082993
1603092567
1603106536
1603113343
1603128558
1603128988
1603143771
1603146135
1603149168
1603153012
1603189601
1603209990
1603229728
1603230296
1603248006
1603252498
1603266620
1603298175
1603309259
1603318770
1603322183
1603335538
1603374192
1603379878
1603425042
1603457877
1603461140
1603468938
1603479699
1603492059
1603533085
1603550013
1603594385
1603606922
1603635279
1603656131
1603680377
1603688528
1603691798
1603692199
1603739260
1603767874
1603782715
1603807869
1603821387
1603854722
1603903030
1603976481
1603981362
1603984019
1604002655
1604005531
1604007955
1604105368
1604118352
1604125224
1604134122
1604139152
1604150510
1604155443
1604161266
1604171799
1604177442
1604229853
1604231686
1604252541
1604271935
1604319539
1604344277
1604347381
1604375010
1604481761
1604488729
1604502569
1604509540
1604518456
1604534846
1604560397
1604571503
1604574044
1604578358
1604593491
1604646891
1604693254
1604694083
1604699750
1604720395
1604723097
1604723633
1604746267
1604758063
1604759021
1604787997
1604842940
1604848581
1604873319
1604930899
1604933199
1604975039
1605019811
1605038278
1605067330
1605103506
1605118148
1605120925
1605167994
1605190879
1605330481
1605342901
1605454612
1605595301
1606516650
1606740462
1606773259
1606882292
1607078846
1608188710
1608407617
