960031039
960160336
960220157
960283685
960306009
960459963
960485897
960517500
960616472
960723267
960736397
960851652
960937301
960944872
960960134
961144621
961197228
961291682
961448938
961450224
961486180
961493549
961537957
961563160
961563155
961714514
961738016
961740930
961771333
961787525
961820162
961851548
961945668
962046020
962046692
962113402
962139594
962217840
962273243
962281452
962287024
962339307
962421690
962629984
