730052003
731001316
730052003
730076425
731143056
730308119
731585740
730536115
731774475
731929170
732066037
1600303839
1600342870
1600439470
1600584470
1600859625
1601014209
1601073757
1601095989
1601211753
1601232396
1601273617
1601315931
1601416432
1601528920
1603081207
1603100034
1603149146
1603172799
1603268715
1603272108
1603622232
1603673797
1603747810
1604264094
1604305315
1604322507
1604555792
1604580193
1604801289
1605028637
1605164233
1605356345
1606509937
1607126854
1608274947
1608525881
