731728180
1600100369
1600398293
1600605777
1600780515
1600928987
1601030723
1601053821
1601117563
1601562928
1603161171
1603576257
1603784924
1604201013
1604487588
1604496181
1604547335
1604575378
1604641562
1604856609
1604909632
1604988271
1605049954
1605305958
