710023303
710043525
710091425
710132653
710360662
710366513
710383895
710425377
710497865
710529072
710558508
710561674
710606560
710661903
710733256
710743781
710966401
711138218
711281715
711288579
711368490
711414221
711556634
711607674
711623525
711653077
711694787
711775350
711868389
711871869
711885839
711967303
711980885
712004679
712048679
712145243
712214575
712233364
712247682
712315557
712338140
712421339
712467081
712490156
712593358
712802459
712912186
713011919
713018234
713057909
713084978
713120976
713202140
713536309
