731070304
731073326
730180453
731190100
731199256
730316781
730406371
731605169
731615487
731645254
731675615
731682972
730527694
730547490
731820673
730649589
730653197
731923014
731929066
731978323
730740767
730745465
730796014
730821940
1600583769
1601169885
1601239200
1601360187
1601494786
1601662444
1603162724
1603168786
1603365033
1603511889
1603536250
1603887814
1604078765
1604214929
1604220413
1604681620
1605073717
1605338688
1606138764
