1850000226
1850005555
1850005807
1850005564
1850008540
1850015010
1850015326
1850019466
1850020886
1850029705
1850039887
1850042812
1850049036
1850049576
1850050457
1850051490
1850057495
1850059502
1850063832
1850081801
1850088887
1850095389
1850108517
1850113483
1850119684
1850121989
1850124241
1850126885
610008155
610008363
610034425
610047100
610047834
610048772
610056124
610061657
610061794
610071815
610076187
610083221
610088820
610093083
610094698
610095250
610100630
610106988
610113964
610115433
610131328
610140815
610145732
610153669
610195698
610197961
610200228
610204600
610213517
610220758
610220787
610223158
610228596
610233909
610240841
610243806
610248218
610251671
610253679
610258818
610263000
610268248
610273769
610280743
610286564
610292049
610292856
610295492
610302798
610310483
610314647
610326173
610334640
610334953
610341582
610352716
610362204
610377528
610388328
610390213
610393625
610397409
610399848
610417217
610420636
610435397
610435551
610437113
610441477
610454327
610467952
610474999
610478700
610486901
610497124
610514357
610528009
610536530
610549676
610557303
610572842
610577174
610581797
610594298
610594516
610598139
610602568
610603541
610603561
610608531
610616403
610623520
610636461
610638535
610643106
610646371
610658922
610660623
610661923
610704218
610718800
610754213
