840012699
840015447
840023909
840045811
840049622
840073924
840077832
840080176
840085662
840092932
840099416
840100860
840119460
840131048
840133246
840136327
840151362
840160024
840174045
840187908
840197408
840199853
840222928
840225985
840241487
840246259
840251454
840255819
840263824
840264293
840270148
840282698
840293855
840300214
840303647
840305710
840309100
840309454
840337998
840340038
840343596
840344776
840374224
840382533
840383393
840388630
840391468
840408328
840427643
840428722
840456634
840466987
840466828
840471672
840485295
