800003324
801007383
800071175
801020550
801025676
801034997
800098980
800148412
800003324
800071175
800098980
800148412
800239019
800243113
800300105
800332607
800378914
800418009
800425870
800591074
800628747
800635755
800786372
800798728
800839997
800893440
800969070
801007383
801020550
801025676
801034997
801122641
801136222
801137111
801230747
801232548
801237137
801240062
801256773
801344686
801350798
801377687
801537407
801628067
801727441
801759807
