800025602
800029582
800073242
800116401
801070145
801079604
801090135
800025602
800029582
800073242
800116401
800218733
800366006
800438798
800526910
800531403
800535361
800564934
800587372
800595894
800621451
800629566
800638125
800645760
800659099
800685807
800689874
800790421
800811752
800816089
800825780
800897848
800975155
801079604
801090135
801130583
801133279
801165812
801169088
801180273
801229214
801273600
801407583
801441222
801444662
801474924
801476865
801480080
801504126
801533419
801575583
801642632
801740225
801777831
801810398
801814251
801814717
