800028045
800053132
800067822
800094855
800015670
800028045
800053132
800067822
800094855
800248080
800300999
800434818
800444566
800533239
800559737
800617273
800640950
800739856
800766960
800812937
800815315
800850540
800882666
800934327
801213224
801274405
801294109
801381890
801445242
801564896
801620651
801622628
801745762
