1600004325
1600004362
1600004325
1600006355
1600007002
1600007002
1600007152
1600007152
1600007507
731021082
730650646
731971323
1600004325
1600004362
1600006355
1600007002
1600007152
1600008555
1600009197
1600011146
1600011640
1600014166
1600016125
1600016123
1600019795
1600020440
1600020485
1600023793
1600025150
1600026635
1600029425
1600033888
1600034956
1600035415
1600035905
1600039449
1600041219
1600041433
1600042245
1600042642
1600043278
1600044410
1600044617
1600044674
1600045921
1600046644
1600048019
1600049516
1600052541
1600052730
1600052820
1600052978
1600053717
1600053745
1600053914
1600057709
1600059415
1600060174
1600061361
1600061632
1600063378
1600067105
1600067321
1600067933
1600070710
1600071983
1600077019
1600077698
1600079502
1600081080
1600082149
1600083172
1600085776
1600087316
1600088365
1600090055
1600091137
1600094845
1600096259
1600098954
1600099491
1600100607
1600101013
1600103136
1600105316
1600106440
1600106739
1600107815
1600110442
1600110508
1600110784
1600110880
1600112844
1600113089
1600114883
1600116975
1600118044
1600118804
1600118815
1600120042
1600122473
1600123705
1600128102
1600128874
1600129131
1600131013
1600130994
1600132254
1600133054
1600133178
1600134650
1600135962
1600138528
1600139619
1600143680
1600144188
1600144290
1600144633
1600144905
1600148361
1600150685
1600150665
1600150860
1600153190
1600157251
1600158282
1600160052
1600163855
1600164741
1600164850
1600165349
1600167447
1600167625
1600168346
1600168484
1600171890
1600172488
1600176576
1600178387
1600178502
1600178851
1600179711
1600180653
1600183101
1600183458
1600187496
1600187681
1600191996
1600192367
1600192921
1600194927
1600195978
1600197430
1600198955
1600199182
1600199147
1600202754
1600204500
1600204676
1600205517
1600207541
1600210020
1600211579
1600212430
1600220305
1600220804
1600222054
1600222129
1600222627
1600222957
1600225573
1600225911
1600226333
1600226793
1600227136
1600230466
1600234532
1600234727
1600235815
1600236888
1600242545
1600246023
1600246290
1600246316
1600246538
1600246654
1600250366
1600250476
1600250442
1600250777
1600252391
1600253600
1600253680
1600253784
1600255550
1600256438
1600256638
1600257100
1600258192
1600258271
1600258633
1600260367
1600261147
1600265095
1600266959
1600268411
1600268734
1600269002
1600271197
1600271308
1600272625
1600272676
1600273711
1600273860
1600274306
1600275700
1600279045
1600279657
1600280559
1600281604
1600281963
1600282224
1600282630
1600286557
1600287047
1600287149
1600287668
1600290840
1600290862
1600291289
1600291417
1600292891
1600292983
1600293738
1600294560
1600294838
1600296911
1600300663
1600301316
1600302120
1600302190
1600302498
1600303849
1600305804
1600306561
1600307176
1600307318
1600307924
1600309695
1600313094
1600313477
1600315585
1600316968
1600318393
1600318868
1600319902
1600321977
1600322335
1600323928
1600324094
1600325462
1600326725
1600326892
1600327014
1600327280
1600327511
1600328481
1600330842
1600333223
1600335340
1600335706
1600337522
1600337674
1600337732
1600337858
1600341115
1600342813
1600344233
1600346412
1600348509
1600348590
1600351989
1600354085
1600354885
1600356004
1600356306
1600356786
1600358111
1600360306
1600361132
1600367258
1600367851
1600370005
1600370260
1600370572
1600371298
1600372052
1600372214
1600372233
1600374733
1600375521
1600375533
1600376185
1600378832
1600379246
1600381476
1600384225
1600385957
1600386548
1600392009
1600393516
1600393864
1600395032
1600395792
1600396136
1600398487
1600399071
1600400024
1600400503
1600400997
1600402153
1600403227
1600407939
1600409130
1600410350
1600415259
1600419852
1600420058
1600420361
1600421838
1600424005
1600425405
1600426784
1600427031
1600427789
1600428291
1600429337
1600429675
1600430812
1600431525
1600432345
1600435705
1600435781
1600439436
1600441517
1600443142
1600448435
1600448382
1600449014
1600449514
1600450445
1600451111
1600453516
1600455062
1600455116
1600457027
1600459258
1600459829
1600461873
1600463798
1600464250
1600464566
1600464402
1600466141
1600467245
1600467309
1600467988
1600470362
1600470673
1600472732
1600474561
1600476635
1600477722
1600478045
1600480346
1600481832
1600486273
1600486556
1600487376
1600489525
1600490688
1600492115
1600491339
1600493783
1600499569
1600500529
1600502191
1600503737
1600503864
1600504064
1600504688
1600504956
1600505429
1600505948
1600506044
1600506222
1600506798
1600506821
1600507486
1600509339
1600513458
1600513679
1600516344
1600518563
1600519092
1600519498
1600521125
1600524550
1600525764
1600526098
1600529570
1600530832
1600532086
1600532756
1600533123
1600533257
1600536721
1600537640
1600540279
1600540419
1600540894
1600542163
1600543061
1600545402
1600549112
1600551951
1600552404
1600554206
1600555854
1600560453
1600561010
1600561207
1600561381
1600563947
1600565867
1600566157
1600567649
1600567707
1600567838
1600572245
1600572836
1600573357
1600573686
1600578547
1600579150
1600582521
1600582566
1600584209
1600584783
1600584956
1600589298
1600590871
1600595832
1600596074
1600598106
1600598291
1600601223
1600602875
1600603087
1600603712
1600603994
1600605348
1600605470
1600607402
1600607448
1600607430
1600607750
1600611195
1600613257
1600614457
1600614806
1600616983
1600618208
1600618828
1600619686
1600621181
1600621701
1600623456
1600625419
1600625943
1600627862
1600628509
1600630750
1600630870
1600632488
1600634244
1600634319
1600638194
1600640129
1600642051
1600642376
1600645564
1600646070
1600646586
1600648059
1600652033
1600652882
1600653363
1600654081
1600656984
1600660316
1600660737
1600661191
1600662905
1600663269
1600665267
1600665966
1600666801
1600667499
1600668948
1600669661
1600669722
1600670697
1600674764
1600676442
1600676621
1600677797
1600679492
1600679719
1600679890
1600681705
1600682950
1600683132
1600683301
1600686292
1600688649
1600688805
1600689925
1600690577
1600691133
1600691757
1600692678
1600700926
1600701745
1600703993
1600705053
1600705751
1600705797
1600707948
1600710461
1600711571
1600712408
1600712862
1600713378
1600717229
1600720466
1600721363
1600721910
1600722345
1600724007
1600724594
1600726636
1600727636
1600729875
1600730068
1600730210
1600732261
1600733283
1600733439
1600734367
1600734376
1600737694
1600740936
1600741109
1600743726
1600743693
1600748029
1600749750
1600751508
1600752385
1600752473
1600754713
1600755912
1600756423
1600756552
1600757621
1600759584
1600760603
1600761526
1600761845
1600766847
1600768482
1600771134
1600773025
1600773962
1600774042
1600774204
1600774878
1600779949
1600785781
1600786000
1600786242
1600791651
1600795416
1600795894
1600796147
1600799785
1600801937
1600802759
1600805535
1600807314
1600809765
1600809943
1600810410
1600814032
1600814914
1600819809
1600821693
1600822348
1600822511
1600827070
1600827611
1600828361
1600828732
1600829045
1600830436
1600830411
1600831298
1600833096
1600834124
1600839069
1600839990
1600840723
1600843903
1600845396
1600845634
1600846266
1600847062
1600849053
1600849163
1600849163
1600849161
1600852221
1600853536
1600854630
1600857119
1600858026
1600858597
1600858794
1600863587
1600864385
1600868640
1600869655
1600871909
1600872018
1600874955
1600875414
1600877164
1600882962
1600884007
1600886324
1600886436
1600887946
1600888750
1600889390
1600891153
1600891369
1600892499
1600893091
1600894781
1600895032
1600896764
1600897391
1600899958
1600900627
1600900872
1600901410
1600901600
1600902855
1600904955
1600905009
1600905300
1600906061
1600908705
1600910113
1600910207
1600911248
1600914962
1600916290
1600917551
1600917744
1600919221
1600920093
1600920314
1600922837
1600924157
1600924274
1600926053
1600930529
1600932762
1600934767
1600935383
1600937055
1600937179
1600939752
1600940107
1600943119
1600943548
1600945227
1600947038
1600949935
1600952610
1600955470
1600956386
1600957242
1600957602
1600960212
1600960708
1600966608
1600968149
1600970814
1600971385
1600971731
1600973479
1600973604
1600973965
1600973994
1600974076
1600974715
1600977134
1600978210
1600979814
1600980555
1600984275
1600985056
1600985109
1600985897
1600985870
1600987238
1600987106
1600987770
1600988140
1600989139
1600989479
1600990082
1600991039
1600993392
1600993439
1600995057
1600997505
1601001446
1601001534
1601001584
1601004940
1601006474
1601007795
1601007946
1601008229
1601011450
1601012330
1601012695
1601019350
1601020581
1601023184
1601026358
1601026734
1601028369
1601028580
1601031941
1601032949
1601036105
1601036327
1601036499
1601038470
1601038733
1601041073
1601045098
1601045347
1601047371
1601047579
1601048709
1601049889
1601050229
1601051279
1601054393
1601055391
1601055879
1601056378
1601058507
1601061197
1601061951
1601064578
1601066840
1601073312
1601073958
1601074272
1601075296
1601075559
1601078969
1601082204
1601084312
1601085183
1601085664
1601086018
1601089688
1601090926
1601091239
1601091985
1601093088
1601094203
1601099198
1601100134
1601100336
1601100818
1601101161
1601101265
1601101946
1601102875
1601108139
1601112101
1601113138
1601115744
1601116257
1601116742
1601120569
1601122009
1601123436
1601124269
1601124288
1601125071
1601126509
1601126572
1601127404
1601127681
1601128770
1601131560
1601131780
1601132413
1601133122
1601139464
1601140854
1601142235
1601143858
1601145085
1601147608
1601149651
1601149664
1601150038
1601151159
1601151632
1601155602
1601156959
1601164463
1601165945
1601166162
1601167007
1601168509
1601168481
1601168588
1601169579
1601169781
1601170784
1601173014
1601173587
1601176605
1601179341
1601180131
1601181150
1601185546
1601185659
1601186098
1601186467
1601187983
1601188350
1601188714
1601189791
1601190072
1601190375
1601191136
1601192967
1601193665
1601197845
1601198165
1601200736
1601201219
1601201326
1601202127
1601202103
1601204262
1601204374
1601207461
1601207420
1601209665
1601211514
1601211682
1601212306
1601214541
1601218631
1601218898
1601219727
1601220751
1601222528
1601223286
1601223513
1601223440
1601224626
1601225025
1601228687
1601231740
1601231765
1601233792
1601235226
1601237257
1601237690
1601239479
1601239759
1601240915
1601241987
1601243077
1601243463
1601244615
1601245841
1601246251
1601247175
1601247727
1601248969
1601251447
1601252573
1601253696
1601254629
1601256913
1601257443
1601257865
1601260672
1601265121
1601266295
1601269015
1601269346
1601270987
1601271291
1601271758
1601272552
1601274314
1601275287
1601278334
1601278845
1601281811
1601283752
1601284084
1601286267
1601286991
1601288640
1601289121
1601290239
1601291283
1601291410
1601292114
1601292568
1601293828
1601294117
1601295243
1601298053
1601305960
1601306078
1601306648
1601306893
1601310791
1601310859
1601311227
1601312809
1601319945
1601321110
1601321068
1601321416
1601323367
1601323488
1601324379
1601325436
1601329433
1601330905
1601332455
1601336390
1601336723
1601340295
1601342500
1601343000
1601344440
1601344828
1601345255
1601349232
1601349374
1601349696
1601349676
1601350357
1601350477
1601352405
1601352592
1601354422
1601354787
1601354846
1601356874
1601357250
1601358627
1601359314
1601359534
1601360255
1601362181
1601365933
1601367902
1601368224
1601368334
1601368564
1601368907
1601371728
1601371789
1601373051
1601373088
1601373119
1601373564
1601373923
1601376775
1601378818
1601379126
1601379546
1601379811
1601380709
1601381939
1601384940
1601385320
1601386541
1601391906
1601392055
1601392066
1601396689
1601398910
1601405702
1601406984
1601407440
1601408096
1601408171
1601410379
1601412191
1601413759
1601417367
1601417640
1601420571
1601422344
1601422817
1601423151
1601424166
1601424973
1601425726
1601430202
1601430543
1601432064
1601432474
1601434512
1601436335
1601438178
1601439521
1601441726
1601445373
1601445734
1601447689
1601450089
1601450291
1601451407
1601452510
1601455003
1601456178
1601457962
1601458285
1601458680
1601461905
1601462161
1601466563
1601467897
1601469036
1601469141
1601471482
1601475968
1601476306
1601478904
1601480260
1601482065
1601482121
1601483020
1601483521
1601485769
1601486349
1601486750
1601486872
1601488568
1601493009
1601493464
1601496455
1601496852
1601497026
1601497573
1601498324
1601501431
1601502309
1601503270
1601505688
1601506461
1601506571
1601506958
1601508115
1601510203
1601510912
1601512062
1601513756
1601514613
1601516201
1601516911
1601518434
1601518722
1601519914
1601520875
1601521059
1601521539
1601522603
1601524281
1601525408
1601526614
1601527199
1601527536
1601527675
1601531030
1601531604
1601531930
1601532671
1601533550
1601534238
1601537175
1601539493
1601540033
1601540627
1601540712
1601542404
1601545487
1601547917
1601548441
1601551528
1601554291
1601555478
1601556054
1601556661
1601557032
1601559734
1601561058
1601562329
1601563926
1601563972
1601566956
1601567793
1601572461
1601572631
1601573820
1601574229
1601574468
1601576374
1601576885
1601579164
1601579345
1601583804
1601585626
1601588045
1601588970
1601591509
1601594058
1601595070
1601595530
1601597084
1601600071
1601602972
1601603490
1601603898
1601605095
1601605672
1601606378
1601609956
1601611188
1601614402
1601615807
1601616225
1601617494
1601619852
1601622070
1601622198
1601622564
1601622938
1601623576
1601623992
1601624292
1601625755
1601625972
1601626821
1601629640
1601636130
1601637335
1601637372
1601639687
1601640677
1601641026
1601641543
1601642774
1601646724
1601647243
1601647405
1601649920
1601650179
1601651870
1601652907
1601655989
1601656499
1601657301
1601658832
1601659569
1601659678
1601661159
1601662490
1601662983
1601663567
1601666620
1601670922
1601671589
1601671765
1601671884
1601672705
1601672867
1601673315
1601673368
1601673713
1601674153
1601675815
1601678949
1601679005
1601681372
1601685093
1601688121
1601690225
1601692435
1601692881
1601693136
1601697003
1601699219
1601700028
1601701189
1601701898
1601702027
1601703354
1601703858
1601704211
1601705933
1601706573
1601706656
1601707566
1601711548
1601713277
1601713867
1601717227
1601718284
1601718903
1601719230
1601719562
1601720319
1601720892
1601721277
1601721861
1601723044
1601725141
1601726092
1601727479
1601727898
1601728411
1601730898
1601731543
1601732803
1601734330
1603065472
1603066935
1603067114
1603067365
1603067603
1603068835
1603068802
1603068946
1603068788
1603070946
1603071441
1603071834
1603072090
1603072382
1603078028
1603079156
1603079876
1603080414
1603080383
1603082405
1603082820
1603086164
1603086671
1603086487
1603088406
1603088560
1603090761
1603091445
1603093351
1603094714
1603097155
1603100469
1603102527
1603102864
1603104750
1603106985
1603108210
1603108862
1603110171
1603110347
1603111450
1603112855
1603117781
1603120320
1603120737
1603121248
1603122046
1603122776
1603127062
1603128452
1603132901
1603133064
1603139487
1603139614
1603140537
1603142137
1603142464
1603142581
1603142735
1603143715
1603145009
1603147105
1603148655
1603151507
1603151588
1603153534
1603154328
1603156511
1603158640
1603161458
1603164344
1603164792
1603167217
1603168236
1603173933
1603175171
1603175918
1603176285
1603176803
1603176997
1603177547
1603178481
1603179021
1603180605
1603186939
1603187592
1603192889
1603194124
1603196876
1603198623
1603199369
1603205087
1603205248
1603206075
1603205963
1603206067
1603209771
1603210402
1603215903
1603219092
1603220436
1603220705
1603220866
1603221301
1603222733
1603223763
1603224664
1603226583
1603230484
1603232062
1603233495
1603234618
1603238650
1603240292
1603240407
1603239957
1603240602
1603241192
1603243236
1603244307
1603246033
1603248328
1603248407
1603248834
1603253973
1603254358
1603254755
1603256274
1603257382
1603257901
1603258226
1603258538
1603258660
1603259414
1603260351
1603260798
1603262972
1603263750
1603264532
1603264610
1603266322
1603266576
1603266599
1603267458
1603267466
1603267813
1603269290
1603269324
1603270152
1603270213
1603272122
1603273490
1603273532
1603273739
1603275035
1603275202
1603275990
1603277100
1603280627
1603282433
1603284327
1603284395
1603285960
1603287217
1603288893
1603288901
1603290883
1603292387
1603292697
1603294078
1603296415
1603297184
1603297338
1603297521
1603298776
1603299057
1603300757
1603304741
1603304874
1603304986
1603307478
1603307834
1603309252
1603309866
1603310297
1603311055
1603312166
1603312216
1603312871
1603317039
1603317129
1603317711
1603317792
1603318184
1603318157
1603318445
1603320312
1603320722
1603323120
1603328261
1603330491
1603331851
1603332426
1603332526
1603332797
1603332861
1603333143
1603333754
1603334279
1603337011
1603338407
1603339768
1603339838
1603339961
1603340575
1603351429
1603355863
1603358759
1603362361
1603363123
1603366124
1603366492
1603368274
1603368590
1603369350
1603369636
1603370118
1603368662
1603372348
1603376426
1603377531
1603379972
1603380668
1603383366
1603384183
1603390299
1603391129
1603394505
1603397796
1603399823
1603400698
1603400872
1603401211
1603401359
1603401676
1603403229
1603403401
1603404408
1603406503
1603410578
1603411008
1603411326
1603411986
1603414932
1603417345
1603417700
1603418005
1603418760
1603420670
1603421435
1603422491
1603423799
1603424974
1603430119
1603430339
1603432623
1603434007
1603433376
1603437988
1603438387
1603438632
1603438974
1603440233
1603440325
1603442304
1603444673
1603449148
1603449365
1603449827
1603454434
1603457472
1603458240
1603458888
1603460182
1603461253
1603461848
1603463384
1603464391
1603464720
1603466016
1603468417
1603468423
1603470186
1603471125
1603471786
1603472550
1603475426
1603476156
1603478771
1603479541
1603479972
1603481782
1603484725
1603486454
1603487873
1603489777
1603489700
1603493436
1603493974
1603501501
1603504070
1603504471
1603506747
1603507684
1603507652
1603508251
1603508554
1603511895
1603511961
1603516144
1603516193
1603517274
1603517562
1603519032
1603519476
1603520016
1603521927
1603524373
1603527505
1603528965
1603529814
1603530369
1603531433
1603532464
1603533562
1603538285
1603541660
1603542852
1603543746
1603544076
1603545695
1603549514
1603549810
1603549981
1603550032
1603549603
1603550322
1603550650
1603550873
1603551044
1603553496
1603554964
1603555310
1603556147
1603557323
1603558405
1603565355
1603566289
1603567236
1603567482
1603568334
1603568391
1603569071
1603569088
1603570498
1603573901
1603574656
1603576293
1603576984
1603577624
1603579032
1603579926
1603579805
1603583692
1603585082
1603585225
1603589466
1603590401
1603596361
1603595927
1603597295
1603597499
1603600352
1603603463
1603603964
1603604171
1603604598
1603605980
1603606721
1603607269
1603607836
1603609894
1603610236
1603610601
1603610990
1603612744
1603614174
1603616802
1603616886
1603619229
1603622567
1603623232
1603623860
1603624486
1603625003
1603625462
1603625590
1603625824
1603632069
1603634152
1603636271
1603637351
1603639489
1603639867
1603642144
1603642425
1603643156
1603643390
1603646114
1603647838
1603653251
1603654334
1603654387
1603659558
1603661591
1603661822
1603665171
1603666249
1603666912
1603667359
1603667532
1603668438
1603668097
1603673895
1603673917
1603674110
1603676529
1603677293
1603680174
1603680133
1603680750
1603681024
1603682592
1603680637
1603683469
1603688081
1603689471
1603691546
1603693046
1603694624
1603694657
1603695194
1603696358
1603699343
1603701024
1603702196
1603705041
1603707543
1603708479
1603708789
1603708781
1603709219
1603709902
1603711412
1603712507
1603712767
1603713478
1603714631
1603720310
1603721819
1603721936
1603722158
1603723917
1603724827
1603724892
1603724930
1603725549
1603725607
1603726992
1603727350
1603727973
1603730739
1603730700
1603730835
1603731396
1603732833
1603733539
1603734778
1603735282
1603735009
1603736553
1603737656
1603738311
1603739080
1603741040
1603743468
1603745144
1603745594
1603746484
1603748840
1603749870
1603751000
1603751284
1603752225
1603753497
1603754327
1603754935
1603756590
1603758285
1603762445
1603762694
1603763267
1603764486
1603764506
1603765952
1603768402
1603768727
1603769263
1603771426
1603773327
1603778916
1603779738
1603781212
1603783023
1603785674
1603786087
1603788432
1603789304
1603789449
1603790854
1603792341
1603794464
1603796199
1603883648
1603889782
1603897622
1603907095
1603908563
1603909824
1603910114
1603910451
1603910635
1603912244
1603913026
1603913356
1603915245
1603919201
1603921291
1603922372
1603922981
1603925939
1603914925
1603927998
1603930208
1603931044
1603931086
1603930696
1603934073
1603934319
1603938123
1603939751
1603940424
1603948307
1603949152
1603950809
1603952061
1603953674
1603960556
1603964701
1603969880
1603970303
1603971436
1603975882
1603977207
1603978724
1603979199
1603980679
1603980866
1603982275
1603983335
1603983560
1603983270
1603983778
1603985011
1603984340
1603988484
1603993510
1603993857
1603993412
1603996412
1603997556
1604001285
1604005951
1604011477
1604012482
1604012793
1604013189
1604015833
1604016869
1604016891
1604017925
1604020057
1604021910
1604028255
1604031858
1604032826
1604032901
1604032990
1604033289
1604040647
1604041240
1604046988
1604047037
1604048143
1604048118
1604048557
1604050825
1604051168
1604053210
1604055122
1604057924
1604058321
1604059831
1604060551
1604062403
1604062703
1604065936
1604068923
1604069503
1604070895
1604071134
1604072747
1604074222
1604074283
1604074152
1604075235
1604076667
1604079565
1604080074
1604080974
1604081158
1604081315
1604082677
1604082605
1604084696
1604087725
1604088974
1604089612
1604093810
1604097171
1604100174
1604108882
1604108939
1604109033
1604110427
1604111066
1604113050
1604113990
1604117682
1604121234
1604122312
1604124218
1604125203
1604125690
1604133793
1604134003
1604135852
1604136370
1604137765
1604138827
1604138935
1604141681
1604142422
1604143768
1604143967
1604145469
1604152139
1604152438
1604152897
1604153320
1604153903
1604154934
1604155294
1604156816
1604159138
1604159319
1604160247
1604162086
1604163551
1604163729
1604166677
1604166773
1604169606
1604169972
1604171415
1604175010
1604175514
1604178487
1604180107
1604182402
1604184592
1604184751
1604185071
1604190266
1604192711
1604194688
1604195425
1604195716
1604200059
1604202220
1604204340
1604204436
1604207061
1604206877
1604208047
1604210262
1604210416
1604212238
1604213357
1604214182
1604214779
1604212871
1604219901
1604221050
1604221302
1604221327
1604222068
1604223755
1604228928
1604229401
1604232127
1604233130
1604235382
1604237598
1604237580
1604242731
1604244406
1604246840
1604247186
1604248735
1604251480
1604253624
1604255219
1604255953
1604257965
1604261347
1604261411
1604263208
1604264309
1604265394
1604265758
1604266241
1604267659
1604268709
1604269198
1604272124
1604274481
1604276688
1604279571
1604282312
1604284835
1604284909
1604284966
1604287024
1604288239
1604290269
1604290794
1604290774
1604291852
1604292838
1604294087
1604294481
1604294813
1604294827
1604296396
1604297325
1604297669
1604298307
1604299468
1604300143
1604301221
1604302363
1604308255
1604308881
1604310171
1604310993
1604311791
1604312376
1604313858
1604314021
1604314348
1604315299
1604318191
1604319966
1604321774
1604326125
1604326445
1604327098
1604327836
1604328302
1604328715
1604328966
1604332324
1604333189
1604333766
1604335573
1604335868
1604338917
1604339033
1604339477
1604343463
1604344149
1604346575
1604347683
1604348143
1604347923
1604350106
1604350370
1604352398
1604356751
1604357321
1604357924
1604360867
1604362365
1604362722
1604363536
1604364557
1604366461
1604367153
1604373688
1604374772
1604375370
1604375799
1604375981
1604377286
1604377422
1604377782
1604378131
1604378378
1604378936
1604380606
1604380856
1604381622
1604449959
1604451571
1604452151
1604452964
1604453682
1604455661
1604458338
1604463144
1604465412
1604466571
1604467699
1604469384
1604470902
1604475211
1604476901
1604480618
1604481015
1604487928
1604488366
1604488979
1604489407
1604489639
1604489968
1604491889
1604492010
1604492836
1604493247
1604493696
1604493934
1604494607
1604496494
1604498461
1604501072
1604501839
1604502641
1604503690
1604504926
1604506173
1604507811
1604509713
1604509677
1604510169
1604511093
1604515710
1604517324
1604526527
1604531194
1604531855
1604532421
1604535140
1604538144
1604538646
1604539979
1604541278
1604542369
1604545361
1604545780
1604545158
1604549817
1604552838
1604554462
1604555170
1604555857
1604556602
1604558719
1604559383
1604559652
1604559967
1604560092
1604561924
1604562924
1604564065
1604566578
1604571208
1604572521
1604574670
1604575308
1604575784
1604575897
1604576268
1604577682
1604577764
1604579111
1604579482
1604580086
1604581023
1604581753
1604582622
1604582393
1604586061
1604588402
1604588305
1604588643
1604589322
1604589501
1604591644
1604591960
1604592100
1604594471
1604597045
1604598357
1604598479
1604600151
1604601270
1604601533
1604601864
1604602320
1604602542
1604604590
1604606528
1604608069
1604608315
1604609307
1604609696
1604613815
1604613407
1604614056
1604614854
1604616278
1604618192
1604618318
1604623650
1604623931
1604624188
1604624954
1604626125
1604627686
1604629255
1604630300
1604635306
1604635401
1604636129
1604636503
1604639469
1604639713
1604644551
1604648038
1604650059
1604651298
1604652536
1604655795
1604658861
1604659091
1604659862
1604661184
1604661218
1604663738
1604663783
1604665504
1604665709
1604667948
1604669229
1604670019
1604670792
1604670410
1604670862
1604671394
1604671620
1604671778
1604672785
1604674703
1604675671
1604677353
1604678386
1604681150
1604684784
1604685042
1604686639
1604688584
1604689023
1604689812
1604691485
1604692323
1604692611
1604693299
1604697411
1604698838
1604699168
1604707881
1604708031
1604708143
1604709565
1604712027
1604715980
1604717222
1604717400
1604717867
1604718520
1604719756
1604720806
1604720807
1604721052
1604722294
1604723513
1604725078
1604725140
1604726699
1604726919
1604731642
1604734153
1604734204
1604735605
1604735799
1604735893
1604738898
1604742255
1604750572
1604751639
1604752402
1604753680
1604753766
1604753724
1604754462
1604755302
1604757216
1604758805
1604759013
1604761038
1604762168
1604764332
1604766014
1604766412
1604768005
1604768916
1604769424
1604772504
1604774365
1604777106
1604778231
1604778982
1604780469
1604782589
1604790896
1604791195
1604792771
1604793865
1604794832
1604794954
1604795586
1604796758
1604799363
1604799262
1604801389
1604802653
1604804141
1604804184
1604804337
1604804928
1604806329
1604808033
1604809932
1604810257
1604811586
1604812090
1604814738
1604816409
1604816398
1604816808
1604818192
1604820131
1604821868
1604822165
1604822854
1604823345
1604824271
1604824725
1604828031
1604831873
1604832489
1604832893
1604834181
1604834685
1604835602
1604841812
1604842040
1604842770
1604843253
1604843346
1604844258
1604845579
1604848481
1604849815
1604851424
1604852983
1604853277
1604854439
1604855110
1604855545
1604859894
1604860321
1604860668
1604861847
1604864665
1604864911
1604864859
1604866015
1604867339
1604868538
1604871923
1604873332
1604873486
1604875884
1604878091
1604878956
1604882664
1604886912
1604887641
1604887794
1604888536
1604893395
1604894353
1604896816
1604898988
1604899732
1604899768
1604900624
1604901238
1604903627
1604903849
1604904710
1604907608
1604907507
1604908466
1604908945
1604910552
1604910765
1604911824
1604914231
1604914668
1604915492
1604916767
1604917152
1604922715
1604927088
1604928167
1604928668
1604930632
1604932759
1604935518
1604935913
1604937640
1604942518
1604943702
1604943693
1604944055
1604944648
1604946394
1604946552
1604948446
1604948791
1604949953
1604953044
1604954247
1604956776
1604959228
1604959613
1604962834
1604965221
1604965802
1604968754
1604969353
1604969297
1604969802
1604971628
1604973756
1604973841
1604978970
1604979469
1604979953
1604986530
1604987684
1604993384
1604995033
1604996812
1604997279
1605002259
1605002572
1605003725
1605004768
1605009056
1605010260
1605011754
1605012963
1605014266
1605014773
1605019347
1605020780
1605021288
1605023060
1605023741
1605025506
1605026805
1605027035
1605030359
1605033610
1605038299
1605038725
1605038389
1605041995
1605042625
1605042708
1605045093
1605045722
1605047844
1605049643
1605049882
1605057001
1605063471
1605065270
1605066331
1605067037
1605071032
1605071920
1605072404
1605073716
1605074318
1605076723
1605079580
1605080807
1605081916
1605083644
1605084475
1605085804
1605088572
1605089178
1605089723
1605091563
1605093531
1605094678
1605094706
1605097748
1605099537
1605101271
1605102376
1605103123
1605105102
1605105658
1605107929
1605111168
1605113399
1605115549
1605116963
1605116828
1605117343
1605120450
1605120698
1605120771
1605121248
1605123010
1605123470
1605124762
1605124994
1605126120
1605127428
1605129758
1605132224
1605132264
1605133517
1605136727
1605136718
1605140686
1605143308
1605144036
1605144132
1605146085
1605146610
1605146785
1605149069
1605150831
1605150831
1605151595
1605153581
1605153826
1605153971
1605155845
1605156418
1605158301
1605158804
1605164904
1605165206
1605165283
1605168283
1605168416
1605168984
1605170073
1605170901
1605171486
1605172701
1605172750
1605173194
1605173426
1605173488
1605173906
1605174437
1605176722
1605177720
1605179159
1605182065
1605182923
1605185797
1605186420
1605189080
1605189832
1605190395
1605190757
1605194373
1605194584
1605195768
1605195917
1605196035
1605198492
1605198735
1605201472
1605203540
1605206021
1605206458
1605206639
1605211528
1605212413
1605216421
1605218109
1605307984
1605310816
1605311458
1605311716
1605311929
1605313889
1605319915
1605323395
1605327650
1605332326
1605333648
1605334490
1605335604
1605338034
1605338039
1605349359
1605350140
1605353953
1605356104
1605357690
1605358005
1605358924
1605363689
1605363067
1605373119
1605373812
1605375276
1605473141
1605512103
1605563052
1605651327
1607384221
1609247510
