960020064
960226131
960275715
960320882
960322573
960342139
960412967
960418873
960420396
960579408
960685063
960699253
960743539
960766230
960952245
960993056
961090468
961126701
961252123
961264913
961480388
961483362
961488858
961500465
961540055
961650032
961895044
961903862
961944753
961947926
961983978
962186695
962276739
962367634
962435555
962459681
962685206
962716555
962726504
962756274
962784856
