801010620
800082618
801039714
801057303
800082618
800272842
800309005
800334310
800415643
800589592
800680188
800834846
801010620
801039714
801057303
801175878
801203672
801456009
801475915
801617085
801693018
801790343
