1600043229
1600222151
1600387997
1600608314
1600670184
1600679349
1600856211
1600947741
1600960243
1600997949
1601004421
1601605105
1601653602
1601709202
1603089977
1603106411
1603420287
1603482439
1603505299
1604016102
1604056914
1604078481
1604109624
1604716123
1604872172
1604953207
1605068025
1608163466
