1600007648
730592710
1600007648
1600020581
1600030159
1600049702
1600050610
1600086518
1600094420
1600097623
1600136126
1600188979
1600200668
1600210033
1600301660
1600311219
1600321102
1600348395
1600351008
1600432148
1600482251
1600563786
1600597114
1600604600
1600605262
1600612495
1600649931
1600651215
1600692300
1600703239
1600709770
1600811837
1600872000
1600942260
1600978918
1600979271
1600984893
1601051903
1601096625
1601098246
1601103915
1601113190
1601147539
1601147596
1601216163
1601255666
1601272351
1601276435
1601291855
1601349418
1601357461
1601454460
1601531138
1601560055
1601561657
1601588810
1601601670
1601668939
1601704171
1603070843
1603070963
1603123748
1603143291
1603167779
1603169294
1603170042
1603208971
1603213616
1603237122
1603327568
1603346204
1603346385
1603357883
1603381104
1603428570
1603454355
1603455962
1603474014
1603480694
1603488154
1603493163
1603508133
1603687723
1603691665
1603713332
1603736949
1603749267
1603767310
1603924161
1603940064
1603967997
1603979794
1604032242
1604052369
1604055447
1604055889
1604109472
1604129971
1604148864
1604181157
1604197237
1604213245
1604237255
1604315150
1604328261
1604467481
1604522089
1604621370
1604673545
1604680583
1604692419
1604692777
1604717081
1604758369
1604792152
1604795400
1604847610
1604860687
1604873904
1605028173
1605039912
1605043419
1605065733
1605102977
1605108025
1605158698
1605171133
1605189406
1606201408
1609189719
1609376586
