730213020
730261543
731243124
730506817
730562080
731776009
731844031
731883230
731920081
732016183
730732413
732047759
732065176
732095821
732127142
1600089722
1601659878
1600089722
1604037785
1604723104
1605252827
1607949647
1608090877
1608707960
1609282965
