800000395
800001884
800009798
800011560
801001752
800013466
800014629
801002742
801002954
801004159
800018438
800018734
800020961
800022265
800025168
800025973
801007345
801007813
800034690
800036487
800040076
800040915
800051728
800051836
800053015
800053590
800060665
800060863
800061276
801011681
801012078
800065732
800068192
800070390
801016416
800076739
801020308
800077073
801022042
801024039
800082964
801025978
801025209
800085649
801028877
800088602
801031777
801031961
801033100
801033267
801033481
801034721
800094095
801037674
800096747
801040581
801042752
801045367
800108159
801050806
800109623
801052684
800112165
800118213
800121382
801065685
800121907
801067840
800124170
801073056
800128636
800129995
801074802
800132722
800132760
800133830
801078310
800134784
800134995
800136645
800136811
800138545
801082886
801083901
801085385
800141369
800141352
800142086
800142239
800144413
800144776
801090526
801094840
800151616
800154440
800154994
800157414
801101873
800158562
800160434
800161897
802003125
802003557
802006644
802007300
800000395
800001884
800009798
800011560
800013466
800014629
800018438
800018734
800020961
800022265
800025168
800025973
800034690
800036487
800040076
800040915
800051728
800051836
800053015
800053590
800060665
800061276
800060863
800065732
800068192
800070390
800076739
800077073
800082964
800085649
800094095
800096747
800108159
800109623
800112165
800118213
800121382
800121907
800124170
800128636
800129995
800132760
800132722
800133830
800134784
800134995
800136645
800136811
800138545
800141352
800141369
800142086
800142239
800144413
800151616
800154440
800154994
800157414
800158562
800160434
800161897
800165272
800170065
800172491
800175925
800177688
800182578
800189478
800192636
800199946
800200666
800202027
800202462
800203777
800205833
800205794
800207154
800211605
800215696
800216959
800217863
800219250
800226305
800227627
800228040
800229668
800234436
800234999
800235242
800236304
800242056
800241654
800245934
800248293
800248514
800249503
800250102
800258293
800260072
800260090
800265820
800269249
800270010
800277393
800280971
800281458
800282192
800284499
800287600
800288913
800289536
800291447
800292574
800296917
800299058
800303374
800304040
800309972
800314425
800316987
800317690
800319935
800327780
800331807
800333366
800337517
800337645
800347622
800353466
800357549
800358172
800361223
800361511
800364166
800366525
800368108
800370016
800376759
800382818
800388430
800390473
800396836
800398346
800403009
800404808
800405143
800409640
800411012
800414685
800421979
800425690
800425575
800426178
800428424
800428503
800432658
800434172
800436281
800438673
800441405
800446563
800447121
800447716
800447680
800451176
800451860
800453390
800456745
800458981
800458923
800460031
800461505
800462778
800471380
800472333
800477154
800477095
800483334
800487887
800489696
800492020
800497013
800497523
800498259
800502204
800503083
800503499
800505776
800506907
800507640
800508293
800508684
800517050
800519640
800522093
800526766
800527234
800529786
800537776
800544725
800545373
800546238
800552486
800552502
800552874
800555199
800555831
800556609
800558536
800560940
800561027
800562244
800564489
800566894
800569583
800574663
800576145
800582905
800583104
800584210
800585693
800586285
800589809
800592159
800594120
800595212
800594938
800604390
800605239
800608298
800608383
800616767
800623172
800625125
800626155
800626874
800627500
800630907
800643234
800646984
800648733
800649934
800652652
800653884
800653995
800655336
800656381
800657184
800655004
800668510
800671178
800671679
800673680
800677382
800678144
800680287
800683481
800687561
800689082
800689653
800702322
800709506
800709992
800712171
800712506
800712859
800713811
800715539
800715480
800717159
800720287
800724387
800730296
800730448
800732529
800734073
800738917
800741068
800741507
800743420
800743506
800747497
800755641
800758749
800758833
800765281
800767412
800769192
800769315
800768091
800772147
800772375
800778562
800780447
800780887
800780808
800789285
800790014
800790414
800796157
800796808
800797612
800801064
800801753
800801862
800803358
800803845
800805688
800812350
800815927
800816790
800816324
800820257
800822100
800822654
800825216
800828923
800830205
800830777
800834269
800844479
800845152
800846700
800848318
800856380
800856843
800859621
800859776
800863112
800870295
800870791
800873118
800875115
800879046
800883270
800887176
800887581
800890489
800892247
800894923
800900625
800900577
800900817
800902928
800903750
800910661
800919324
800922132
800925881
800926007
800926927
800933396
800934946
800937473
800937654
800938001
800943959
800944620
800946336
800949588
800949764
800951157
800960171
800960850
800964279
800967712
800969857
800971479
800978414
800979466
800984829
800984872
800987481
800988068
800990009
800991105
800994073
800995466
800995839
800997009
801001752
801002742
801002954
801004159
801007345
801007813
801011681
801012078
801016416
801020308
801022042
801024039
801025209
801025978
801028877
801031777
801031961
801033100
801033267
801033481
801034721
801037674
801040581
801042752
801045367
801050806
801052684
801065685
801067840
801073056
801074802
801078310
801082886
801083901
801085385
801090526
801094840
801101873
801104696
801105587
801107879
801108678
801111320
801117745
801118090
801118609
801119996
801128567
801129231
801130108
801146993
801147295
801156733
801161033
801163848
801168375
801170222
801175935
801180271
801183243
801185566
801185630
801186695
801187641
801189016
801192110
801193216
801192937
801196282
801197652
801201674
801202311
801206053
801211850
801213095
801217627
801227281
801234969
801236756
801249344
801255558
801260546
801261877
801266104
801275806
801276059
801277420
801281271
801281689
801284089
801286464
801286769
801292725
801292925
801300586
801308971
801309489
801315353
801317430
801317933
801320632
801320922
801321609
801323320
801323691
801326550
801326503
801330160
801330423
801332704
801335259
801338748
801339579
801339979
801341486
801341708
801350051
801350208
801350328
801354166
801355489
801357888
801360389
801362210
801369826
801370612
801370648
801373223
801373893
801374001
801378538
801378805
801379113
801380489
801380962
801383985
801385478
801386796
801391974
801398345
801400660
801401252
801403572
801404725
801408470
801408606
801411820
801412609
801414978
801416673
801423962
801426001
801428232
801429468
801430612
801432455
801432977
801437477
801439005
801441565
801449502
801455699
801456444
801456525
801465965
801475804
801482422
801484670
801489126
801493152
801493320
801500841
801501184
801509252
801510127
801511652
801512720
801514881
801519927
801524975
801531180
801534157
801540037
801540921
801546357
801556193
801559620
801562599
801565790
801568260
801568705
801574606
801575805
801581091
801581979
801583245
801583277
801587256
801588854
801593673
801594687
801598229
801600063
801609824
801611137
801617632
801621855
801632443
801634905
801634934
801635636
801635883
801646490
801647480
801648110
801648361
801648947
801653717
801654035
801654013
801655012
801658638
801659761
801659872
801662487
801666401
801671043
801672382
801673868
801675113
801676557
801681163
801682741
801685147
801686282
801692088
801695052
801697821
801698575
801699266
801700694
801701435
801705898
801705880
801706873
801707538
801709628
801712242
801712796
801714956
801720206
801721711
801726934
801740904
801743215
801747422
801756028
801758181
801760104
801762608
801764252
801767055
801768773
801773486
801774112
801780158
801783287
801786317
801787544
801789771
801789999
801791809
801795354
801795617
801797803
801798924
801800858
801802372
801804606
801811590
801812267
