590002755
590003156
590003299
590003236
590003540
590003351
590003674
590003960
590004037
590004477
590004503
590005085
590005105
590005821
590006313
590006971
590007409
590007409
590007638
590007738
590007701
590007751
590008423
590008558
590008892
590008791
590009029
590009136
590009367
590009434
590009362
590009291
590009735
590009451
590009834
590010408
590010082
590010565
590011063
590010902
590011228
590010777
590011366
590011571
590011855
590011986
590012012
590011834
590012797
590012178
590013057
590012643
590013129
590013586
590013620
590013636
590013986
590014049
590013498
590014250
590014568
590014272
590014024
590013991
590015203
590015773
590015626
590016025
590015380
590015765
590016299
590016592
590016905
590017027
590017676
590017832
590018128
590018527
590018499
590018990
590019478
590018659
590019599
590018902
590019562
590019843
590020360
590019972
590020507
590020645
590020433
590020354
590020854
590021138
590020853
590021550
590020997
590022194
590022089
590020960
590021518
590022889
590022436
590022957
590023011
590022980
590022859
590022543
590023443
590023609
590023661
590023681
590024140
590024379
590024665
590024795
590024025
590025023
590024648
590023343
590025390
590025755
590025393
590024668
590025893
590002619
590007751
590008558
590003156
590007738
590005821
590011063
590007638
590008892
590009029
590003540
590009367
590009362
590009362
590015380
590000719
590009735
590013498
590019478
590017832
590005105
590003960
590001359
590019562
590013620
590018527
590019599
590009291
590023343
590003299
590004037
590030396
590026825
590014024
590030656
590034725
590013991
590024648
590022889
590026543
590009451
590025023
590028127
590009451
590022089
590030627
590029615
590023661
590002107
590033462
590016592
590037736
590036659
590041767
590027231
590018659
590024140
590005821
590033178
590012178
590043727
590041205
590029205
590036897
590044071
590043551
590047544
590043263
590020645
590033699
590048032
590041892
590022436
590050100
590024025
590014272
590036042
590000655
590035045
590033246
590025949
590045006
590030519
590041822
590016905
590028093
590039871
590011986
590010082
590046078
590000937
590045572
590020997
590054895
590047503
590011986
590056168
590020854
590051796
590026747
590044801
590020507
590043860
590015203
590038944
590040556
590036231
590024379
590060024
590022543
590062867
590020853
590028503
590011834
590053202
590038798
590061806
590059141
590029970
590052501
590053145
590043322
590016025
590030538
590057035
590056090
590042166
590058024
590057376
590054909
590063110
590030692
590023443
590070603
590049411
590052733
590008791
590061062
590057647
590069703
590058395
590064502
590053775
590007751
590053373
590071060
590076606
590055022
590017027
590053906
590066836
590067741
590065594
590057000
590049614
590045913
590077286
590041819
590067352
590054903
590025023
590075938
590074969
590055087
590058821
590081780
590069845
590057226
590078868
590041107
590066152
590082183
590001712
590082480
590043559
590050503
590082280
590077821
590066274
590086351
590003674
590085538
590081935
590064462
590089847
590083089
590085140
590032953
590067741
590081780
590076215
590081935
590074447
590082183
590057226
590078868
590085140
590056505
590063110
590088863
590074978
590063706
590088348
590057035
590064916
590078809
590078979
590091452
590065564
590088925
590061806
590086077
590082138
590091785
590071320
590067255
590094486
590089847
590091726
590084731
590080084
590086351
590094237
590081846
590066274
590082280
590098238
590054895
590085538
590077112
590092785
590076606
590083089
590056168
590061062
590094754
590097913
590057376
590067239
590065755
590067999
590065750
590060024
590091663
590095784
590089996
590099066
590071060
590102398
590102688
590065414
590068681
590077885
590104124
590104003
590065333
590096051
590076606
590102845
590107111
590065594
590106193
590057647
590054909
590073271
590097068
590059507
590107339
590067352
590056090
590108351
590078759
590071193
590108033
590074969
590084397
590065378
590060908
590100922
590102892
590064502
590114984
590055166
590106109
590113519
590103507
590069845
590093059
590102976
590091972
590099404
590058821
590064462
590062590
590101310
590082617
590117766
590101112
590114549
590082480
590117033
590100371
590090143
590108119
590086807
590099155
590093029
590112394
590114925
590100308
590085654
590085986
590072943
590117234
590097065
590069703
590066152
590097971
590125034
590126584
590106605
590111020
590077286
590086571
590127570
590097181
590101408
590115718
590075938
590100100
590082911
590112634
590091012
590062727
590097077
590090911
590066836
590111369
590119840
590135455
590118409
590093982
590090808
590058076
590102277
590105586
590109202
590077821
590129834
590122297
590139926
590108561
590128912
590129732
590093433
590093868
590131484
590100280
590055087
590073866
590141671
590140737
590126594
590142416
590117005
590076296
590058045
590143950
590074994
590117592
590114261
590099696
590122803
590144681
590119625
590100101
590062867
590127262
590128407
590144056
590113129
590143201
590098983
590102478
590144496
590059141
590105684
590153628
590102413
590140007
590112205
590126517
590124709
590065724
590058395
590088093
590105610
590153785
590058024
590081502
590131242
590151930
590153406
590147149
590152418
590122921
590110509
590150398
590135061
590134670
590116691
590133847
590129862
590149602
590122604
590150879
590121631
590075460
590160325
590139097
590131813
590147451
590160504
590115546
590118723
590105542
590153733
590165577
590158325
590150377
590056535
590155054
590162331
590148256
590111500
590098813
590107797
590168580
590146097
590119411
590172446
590107311
590138568
590157687
590146309
590115587
590142540
590096714
590135183
590139465
590167073
590148450
590141746
590179720
590149196
590179833
590121618
590058118
590137085
590154568
590106220
590162135
590138248
590177212
590164994
590176431
590175635
590185720
590128686
590182769
590142527
590147993
590180585
590173581
590177966
590184140
590146684
590164535
590161906
590161826
590081527
590162854
590176670
590107451
590167054
590103821
590128249
590175195
590162154
590156719
590170595
590165990
590152341
590163448
590191741
590180200
590171958
590126506
590165012
590188565
590189895
590179650
590197738
590124264
590196183
590142839
590114258
590198947
590191882
590178302
590186515
590182709
590161876
590190849
590054903
590189627
590201212
590185027
590185154
590178078
590057000
590153113
590107133
590176920
590161153
590178370
590203584
590183586
590203535
590181697
590189071
590174175
590199694
590201280
590136524
590200538
590183895
590183810
590207526
590198653
590142800
590194706
590203661
590101376
590084489
590174185
590204920
590168589
590198605
590164219
590190459
590101205
590199705
590202030
590211027
590193739
590157153
590204558
590208904
590211361
590194507
590172109
590187048
590193916
590126288
590138252
590173919
590180138
590190271
590195840
590165263
590095657
590215506
590214406
590204812
590187399
590202451
590182348
590203407
590118800
590210944
590151790
590168701
590213620
590190265
590211517
590207547
590199557
590148609
590214989
590221319
590220044
590211941
590186882
590222866
590131019
590207000
590218759
590219053
590210880
590221743
590209101
590213620
590226605
590183028
590200811
590194480
590155752
590181298
590214823
590193948
590216671
590216795
590154209
590165035
590217256
590221206
590215053
590105996
590100038
590230503
590207902
590216931
590187062
590222361
590160254
590210136
590169533
590175604
590229501
590207784
590218924
590231108
590215838
590232809
590223814
590204869
590189704
590204685
590232045
590195669
590235450
590147788
590233271
590222959
590217377
590178461
590243064
590224650
590207008
590229163
590241101
590214773
590230831
590216326
590178273
590214714
590139816
590243482
590179008
590234432
590183113
590244969
590155175
590247884
590220538
590187002
590232130
590220111
590198775
590239699
590249110
590245922
590217174
590241525
590224981
590237281
590235553
590123733
590222726
590249135
590240568
590239038
590220655
590174582
590214573
590241616
590214750
590247463
590202629
590246610
590243014
590177820
590255037
590186334
590197751
590187974
590255775
590168960
590244910
590238915
590204920
590232821
590250070
590247078
590190708
590261644
590238275
590212048
590224875
590235152
590215232
590222264
590191268
590257507
590262276
590229686
590256059
590258106
590253369
590258485
590225753
590187696
590261710
590146804
590256464
590257767
590267246
590224048
590249180
590210177
590204685
590112110
590232540
590210270
590208284
590229635
590251142
590256058
590274742
590155218
590262448
590264362
590204869
590255800
590261863
590190794
590247073
590226810
590279434
590271242
590254613
590281635
590229973
590239924
590189842
590254591
590214708
590233004
590260055
590275453
590228438
590161530
590279469
590278074
590262186
590250283
590232051
590282580
590282910
590251430
590269170
590269523
590255953
590264166
590285915
590245846
590269730
590267784
590128449
590224605
590294738
590202520
590266842
590256308
590242320
590272408
590256427
590291098
590289397
590237895
590244479
590225728
590228536
590286585
590248212
590247419
590247246
590290837
590274940
590296211
590169186
590273996
590253598
590298298
590282072
590285994
590281129
590254489
590199914
590275577
590204239
590289413
590302116
590301773
590289403
590302549
590293439
590282052
590289389
590256306
590300418
590265447
590308292
590307350
590278797
590282441
590301087
590282247
590230207
590271952
590254611
590311229
590278881
590301957
590305650
590258925
590296512
590310039
590312528
590268772
590282770
590306179
590275142
590299300
590306428
590302105
590313785
590237713
590282441
590307739
590300084
590311295
590262161
590314146
590270951
590310579
590314106
590284796
590278440
590318893
590276407
590262487
590310968
590315178
590299067
590311752
590254457
590310023
590297032
590324093
590298658
590271796
590288660
590325514
590266118
590281220
590308087
590326772
590304126
590324077
590319722
590315057
590302356
590302076
590294489
590296555
590287985
590290890
590289477
590254957
590290137
590280869
590333599
590316895
590302100
590281245
590250309
590258061
590321035
590298228
590178692
590282247
590274101
590333498
590333299
590124166
590273850
590329343
590336141
590225836
590298956
590247424
590275892
590328732
590339508
590283619
590332811
590292473
590329494
590312877
590283825
590334848
590332594
590308739
590334286
590268820
590268897
590296551
590328568
590333820
590253243
590337408
590334265
590317099
590279225
590345103
590335978
590316935
590337596
590267259
590331051
590343225
590311439
590289047
590347888
590318662
590348547
590348577
590295764
590296871
590288516
590327327
590287219
590217710
590298142
590336698
590315972
590335623
590350123
590352989
590278400
590312325
590323453
590321711
590342331
590349708
590353288
590355063
590351017
590353404
590319671
590330966
590321777
590356744
590302396
590326859
590323342
590303728
590322467
590356380
590291720
590318165
590345757
590356147
590354332
590354098
590294232
590299044
590334603
590310134
590362497
590324493
590352862
590262454
590364556
590358518
590351331
590290436
590334044
590327979
590339676
590324753
590335821
590329855
590354287
590369703
590351534
590215748
590346337
590322205
590356314
590257284
590357037
590348187
590338372
590370105
590355100
590373676
590369548
590326665
590257560
590360738
590367270
590369225
590382320
590380199
590375645
590373040
590379634
590334283
590375393
590379057
590334337
590286915
590280659
590388068
590361724
590299096
590334582
590383667
590301801
590310006
590363715
590343507
590377154
590366491
590368372
590387038
590332051
590391526
590204812
590349935
590372211
590380851
590354525
590334445
590373108
590270709
590326737
590393254
590328561
590386849
590387218
590361509
590251484
590344499
590352979
590348671
590351358
590325960
590364820
590353020
590384067
590372542
590391257
590396223
590373857
590389960
590333558
590386787
590343160
590374073
590302682
590384954
590396676
590374385
590372636
590388871
590388166
590386243
590406293
590376453
590213645
590406756
590368582
590404399
590388049
590197660
590372141
590396022
590380642
590374929
590339299
590338274
590386798
590378369
590406580
590408125
590402364
590406990
590361098
590377090
590360441
590349322
590331890
590394257
590405043
590395283
590393983
590391941
590401332
590406496
590288956
590412373
590407323
590356155
590398202
590316540
590410254
590411001
590412764
590413064
590328800
590320863
590352333
590369693
590407787
590361666
590378759
590407296
590395335
590417290
590396520
590405466
590345700
590396355
590414082
590418035
590382491
590405774
590330035
590410192
590355285
590419663
590343066
590340636
590406089
590414515
590377096
590411007
590387932
590353785
590394515
590408165
590381494
590322566
590423732
590408062
590409102
590281190
590391801
590398776
590420003
590422219
590412990
590366374
590378347
590387600
590400632
590425188
590338825
590419847
590387130
590426095
590399780
590317905
590389730
590389769
590416541
590416748
590417984
590429065
590407807
590425627
590425666
590401274
590414930
590426837
590421271
590414020
590427448
590401698
590401783
590427215
590423371
590423453
590406621
590341522
590417112
590325747
590425051
590324473
590395444
590392200
590429411
590357053
590395245
590423788
590386806
590436187
590428242
590388871
590404937
590433456
590435941
590436779
590410482
590409791
590414263
590412050
590415818
590437411
590248644
590381605
590399613
590394853
590408699
590429815
590423551
590433778
590340725
590442159
590435134
590436925
590419391
590404335
590428228
590438172
590435586
590342651
590387915
590433727
590424868
590434905
590382130
590363415
590444027
590423923
590433544
590432629
590425063
590430852
590416579
590435594
590345747
590447723
590439699
590445210
590437544
590448244
590410571
590437733
590444046
590433959
590407290
590429977
590435732
590444433
590454803
590438408
590304966
590438628
590428307
590322356
590368558
590400570
590455386
590375190
590450034
590408474
590433360
590449917
590419978
590426007
590446659
590452903
590449813
590450110
590424944
590392452
590399868
590396617
590390884
590455758
590358576
590456552
590458687
590419210
590464968
590448991
590448230
590446733
590418201
590419957
590414604
590428872
590460799
590467543
590431576
590438529
590468571
590450966
590462221
590420807
590393722
590447128
590453228
590454484
590445966
590402380
590447169
590414331
590409980
590460477
590460246
590428885
590400607
590441679
590466034
590474199
590440497
590439930
590419501
590445965
590470868
590417657
590445834
590440664
590417571
590409850
590461871
590435725
590373048
590426073
590451664
590479111
590457909
590439889
590460352
590463085
590480907
590454500
590483568
590479403
590381382
590388998
590472885
590477795
590432761
590446240
590461136
590372424
590440842
590366208
590396268
590471213
590237213
590445614
590459730
590465764
590455379
590476968
590467555
590476200
590468910
590475639
590493020
590478151
590464458
590445132
590486869
590471477
590496639
590493194
590471609
590433762
590454595
590496851
590422418
590479637
590421852
590482847
590419863
590465417
590494404
590465713
590500150
590472499
590438244
590493033
590454492
590473683
590471359
590466914
590505382
590449744
590419069
590505325
590507024
590503514
590490206
590456962
590499848
590427043
590498438
590489879
590496667
590495802
590464577
590413285
590506993
590476115
590483747
590494550
590503982
590440197
590484234
590485699
590465594
590511490
590485501
590478649
590462283
590510352
590458570
590496114
590504546
590500019
590478106
590480914
590509884
590508995
590515019
590516490
590474369
590507794
590517490
590430023
590498438
590467274
590496010
590521067
590432884
590506613
590456296
590495918
590515069
590507055
590423247
590450234
590509114
590448637
590521962
590514370
590523180
590521936
590514570
590502290
590525080
590473771
590509225
590462677
590524948
590517597
590472624
590476234
590437041
590523958
590442193
590486464
590425450
590464971
590491687
590512511
590480093
590514076
590512065
590522639
590522421
590508183
590516581
590500189
590532630
590527896
590508781
590532028
590499613
590525665
590466851
590515468
590493889
590531036
590485760
590534120
590537488
590467353
590536947
590510956
590472197
590504758
590539318
590529965
590528527
590433972
590538061
590512997
590451957
590524520
590532136
590515198
590500792
590539749
590510085
590519963
590504009
590541216
590541827
590545696
590530876
590534580
590527742
590537646
590546342
590504365
590540882
590547522
590530439
590452505
590499631
590505431
590532067
590482106
590551002
590450811
590497309
590532747
590501337
590547350
590548433
590519359
590514198
590520962
590555633
590465777
590551863
590486728
590552169
590518289
590471936
590516012
590543646
590467748
590544887
590521728
590458297
590552954
590494929
590516798
590531850
590491297
590478454
590525433
590542770
590538128
590563210
590562995
590560827
590530514
590426773
590442905
590533793
590545021
590488943
590548693
590558971
590553529
590514031
590508533
590533067
590554185
590558334
590537623
590544024
590557479
590470366
590556408
590569712
590458731
590564992
590552546
590571491
590572475
590522256
590562806
590559608
590546662
590563809
590559992
590469071
590562364
590565810
590546858
590572731
590576786
590564648
590525651
590571494
590575518
590573526
590524736
590574528
590574243
590539653
590577786
590580299
590573692
590523213
590507675
590510155
590545287
590582661
590581116
590582572
590537342
590516047
590558063
590527540
590487711
590571647
590558254
590526706
590578997
590570043
590548152
590521245
590580303
590580841
590519076
590548096
590534698
590587669
590584385
590582072
590590774
590513654
590593828
590585031
590528962
590580299
590514301
590575622
590588324
590430480
590501476
590581462
590567557
590573204
590578676
590585420
590519136
590580108
590551417
590516981
590531893
590557252
590546325
590534420
590537281
590582355
590586139
590550916
590562083
590562819
590591106
590586622
590533648
590554009
590575222
590560284
590596758
590571148
590544159
590594566
590593340
590502412
590584640
590570726
590609213
590499495
590549570
590489232
590591053
590578997
590603614
590546561
590608171
590580987
590520264
590592385
590599143
590517437
590512115
590611266
590596539
590607208
590496234
590548286
590605331
590611395
590614772
590603134
590539913
590542972
590613036
590610751
590555528
590619041
590613394
590617909
590555810
590619558
590590118
590515828
590615813
590612782
590618127
590582963
590575431
590570522
590564848
590613277
590547387
590617984
590499261
590582980
590607136
590621840
590595512
590600248
590626360
590623218
590629729
590617563
590625794
590609378
590554141
590608317
590604229
590630205
590620250
590624309
590549414
590602226
590597097
590620610
590579985
590601299
590604229
590621904
590603614
590630740
590517723
590603449
590634004
590603449
590528223
590631779
590555659
590601936
590622333
590613256
590509813
590635548
590516443
590637481
590639583
590616824
590571038
590470468
590632154
590558847
590631601
590624193
590586788
590638614
590577786
590637198
590637620
590633815
590459029
590599311
590635311
590640860
590613037
590626616
590592013
590627714
590623850
590641705
590643509
590638104
590585882
590627409
590618597
590647651
590602690
590628450
590578676
590609501
590581738
590634723
590579102
590647721
590615749
590636788
590648014
590638504
590639115
590622041
590630865
590643055
590568033
590652605
590607123
590656187
590572653
590650785
590556554
590620776
590645257
590609536
590619644
590631299
590652150
590644760
590645452
590625485
590660310
590635238
590632255
590658954
590561863
590587055
590622890
590640116
590653244
590579985
590618294
590619488
590650840
590585721
590618923
590638290
590664598
590596857
590627778
590662775
590645023
590530733
590613449
590569482
590662754
590662804
590664830
590638114
590611524
590668134
590667512
590668006
590650975
590653305
590670875
590665378
590589832
590656383
590660761
590663938
590673254
590610562
590625077
590653642
590610259
590612558
590670908
590666928
590669059
590662214
590671859
590679444
590592854
590642345
590646730
590638663
590594472
590667751
590654777
590674949
590682455
590600153
590524705
590614402
590565099
590675564
590488702
590681784
590661117
590607722
590673500
590643999
590640427
590658446
590667216
590612650
590666421
590670713
590630604
590687751
590665439
590649701
590684154
590615174
590595334
590630206
590627395
590633752
590693467
590685483
590655677
590691491
590649740
590664822
590685474
590695559
590680260
590681426
590686362
590644965
590692899
590698033
590681483
590661331
590673305
590656383
590686490
590678042
590697539
590695523
590694375
590617467
590693701
590674410
590617342
590631948
590700649
590699980
590689781
590685703
590655590
590706310
590707290
590707074
590692941
590668615
590689420
590664137
590608825
590608083
590709161
590634849
590685862
590627441
590690836
590685812
590634647
590715337
590639756
590663443
590667680
590712056
590708517
590654435
590686905
590670842
590709586
590678925
590666414
590707568
590699519
590717934
590675220
590658234
590671373
590709423
590639111
590677906
590680801
590677386
590631202
590680862
590684754
590710227
590708648
590706445
590665532
590690845
590724610
590705436
590707584
590692684
590710904
590645443
590722493
590676938
590703104
590689226
590722106
590645216
590653425
590665952
590626161
590733171
590713950
590635444
590659055
590717812
590660888
590717934
590689033
590734025
590710455
590729638
590696795
590680648
590689261
590704052
590717825
590716920
590716866
590739788
590685872
590663815
590700775
590695950
590739857
590705517
590726332
590741839
590716431
590739703
590749029
590649857
590736602
590717825
590741625
590749399
590749296
590630342
590752481
590665730
590722107
590744571
590709668
590738988
590674396
590705927
590741643
590642623
590689409
590753896
590714710
590706667
590726915
590747621
590744183
590729921
590758872
590740766
590665472
590729747
590748165
590744183
590752904
590725752
590689655
590760132
590726727
590759502
590759766
590716264
590724903
590723567
590707861
590740303
590666771
590727656
590763538
590756328
590689229
590741134
590745249
590643620
590764514
590751251
590727924
590696044
590769257
590744602
590739921
590692599
590691741
590765432
590732358
590644579
590672359
590722669
590748275
590763068
590626357
590766694
590732386
590741930
590755862
590769647
590750191
590772174
590744166
590764424
590777085
590668645
590765845
590767460
590732079
590775497
590772304
590779457
590778737
590770029
590783507
590767230
590763109
590777028
590773804
590650135
590729778
590749399
590703507
590696299
590719073
590779637
590776993
590638048
590760886
590716920
590766789
590714214
590773256
590660553
590788166
590736341
590715453
590789773
590742588
590789675
590708566
590789118
590780093
590767052
590792080
590758944
590790685
590762996
590632742
590771425
590780568
590747761
590793204
590799153
590791673
590676847
590798956
590774538
590800720
590720099
590649762
590782090
590780742
590778632
590778620
590695588
590584752
590727750
590781915
590762926
590678618
590707080
590805366
590798257
590772019
590755401
590703794
590777331
590785053
590765157
590598970
590767169
590799980
590663489
590784693
590740531
590767253
590807119
590734049
590810407
590808483
590766722
590801664
590805581
590813816
590813738
590768751
590788681
590792447
590718190
590815674
590765202
590773774
590816745
590804813
590813964
590818711
590805861
590810065
590649078
590800712
590761316
590816425
590810407
590779405
590780087
590788996
590815369
590813503
590807525
590810752
590821509
590729921
590820981
590780105
590823756
590816151
590767358
590804125
590802184
590764702
590785262
590676441
590806173
590821533
590809132
590821268
590753027
590812737
590755880
590765038
590734179
590817780
590774293
590822891
590787517
590718512
590749750
590753653
590823152
590821801
590640269
590816866
590755461
590799477
590767526
590824913
590807910
590690092
590819498
590825460
590833788
590797432
590823932
590821960
590809598
590776432
590823991
590828743
590818801
590761339
590827571
590829347
590832982
590816582
590833831
590825397
590809259
590715176
590839913
590818974
590809293
590810065
590823042
590787972
590757750
590797206
590722003
590831882
590838128
590810752
590727817
590829735
590809687
590840486
590800618
590840591
590775952
590801639
590848524
590828020
590842297
590832058
590833435
590842148
590820066
590727533
590735398
590839382
590832383
590843153
590768231
590850417
590846127
590854744
590785737
590832293
590834897
590846068
590819073
590799747
590852976
590855896
590828625
590856690
590840024
590857710
590825995
590776985
590796115
590778834
590854326
590856496
590816132
590859112
590859571
590843295
590833974
590817812
590843538
590849057
590865108
590805537
590768740
590821695
590861901
590823122
590793082
590854980
590863872
590863018
590866120
590870178
590817460
590844513
590856867
590861035
590825391
590808527
590773408
590826108
590870124
590832023
590855124
590851651
590789784
590872186
590870856
590828737
590818598
590830073
590860662
590634077
590866443
590870370
590866085
590830783
590821617
590768391
590880013
590780407
590872716
590750432
590796202
590855792
590878034
590765108
590861441
590818786
590864773
590834754
590833448
590884571
590816732
590887065
590862744
590861822
590863766
590789246
590887716
590883501
590888535
590883478
590865981
590830274
590882853
590845677
590799807
590862893
590856128
590828020
590840082
590874460
590858649
590863786
590862662
590840831
590892606
590891182
590861765
590797442
590804882
590864787
590883547
590889957
590757545
590871228
590824279
590838288
590849612
590898443
590879776
590898217
590859628
590896088
590866310
590872217
590872416
590844244
590891841
590861176
590821859
590900160
590875037
590900175
590899514
590808459
590831800
590860091
590897218
590877876
590873735
590885502
590887580
590870525
590906332
590901782
590902040
590874044
590811945
590900994
590899049
590898616
590877589
590872653
590875336
590895087
590834536
590824346
590898217
590909960
590830782
590900658
590905924
590799181
590874797
590891819
590903733
590856148
590674223
590905470
590909840
590900193
590909504
590905494
590896993
590914548
590832964
590846012
590900777
590827055
590854986
590912103
590793681
590922680
590915494
590824224
590921984
590924918
590768236
590841680
590919243
590884707
590912302
590931718
590912302
590853264
590893651
590853536
590916103
590905789
590858751
590901393
590872379
590913974
590932430
590913554
590935860
590899202
590871706
590925364
590936033
590936524
590935916
590886027
590937018
590894511
590913330
590936815
590877855
590903986
590919736
590882867
590938344
590936307
590916651
590940857
590911797
590888013
590891647
590878662
590896927
590917237
590896696
590934591
590930007
590847195
590907813
590903168
590904262
590908251
590925651
590918445
590931162
590888598
590940274
590864618
590861573
590907775
590948535
590953040
590881231
590953279
590862211
590916163
590904129
590884072
590948304
590940243
590940264
590901162
590894147
590954690
590952374
590953177
590947449
590956651
590949855
590945563
590898443
590953159
590955931
590896818
590958239
590937268
590935371
590954109
590918549
590953681
590898616
590918587
590918945
590944931
590912103
590933608
590917264
590927359
590939012
590892334
590949630
590950845
590927386
590953507
590959367
590861648
590892290
590937591
590952871
590882878
590942992
590904062
590951678
590873410
590878662
590896993
590874044
590906690
590911797
590872186
590904246
590881231
590912302
590891990
590898217
590904262
590872416
590909960
590892492
590900175
590877589
590877855
590909152
590901782
590906332
590892606
590888598
590916163
590885502
590891182
590913974
590874460
590889957
590912103
590905470
590912556
590898217
590904471
590878034
590896088
590913554
590898443
590918587
590904129
590916911
590921860
590895568
590873121
590898616
590891295
590879178
590908974
590914755
590901162
590873735
590909504
590927359
590883501
590912103
590883547
590886027
590916797
590900193
590916651
590917237
590896927
590891841
590928378
590928361
590905494
590918445
590888013
590917264
590896696
590893651
590900094
590933608
590936141
590918018
590875828
590882276
590925364
590934591
590930007
590927386
590933076
590892334
590899100
590935860
590903733
590900160
590903168
590884571
590931718
590902040
590899202
590907487
590894511
590894147
590920913
590937018
590921984
590935371
590892288
590925651
590907230
590912556
590915494
590913330
590916960
590884072
590882345
590936033
590935256
590899665
590888535
590907146
590936307
590932430
590916103
590936871
590877876
590896818
590872653
590934692
590905789
590940857
590937080
590934799
590918549
590874733
590903986
590944246
590919523
590931697
590943727
590944281
590880013
590951678
590875037
590942992
590949738
590949863
590875336
590939012
590893029
590949077
590956651
590882867
590927919
590957103
590919748
590954902
590891647
590959067
590906635
590953507
590943756
590954946
590898616
590907813
590953040
590895087
590902037
590948535
590939694
590957314
590884707
590945563
590949630
590960487
590891819
590948304
590887716
590958817
590953159
590919736
590961162
590887580
590899100
590962687
590963038
590933804
590880303
590924918
590918945
590963087
590958239
590904221
590882853
590956623
590922117
590914932
590971981
590945445
590901393
590966438
590931506
590904062
590973135
590900777
590937591
590955931
590965004
590940274
590905924
590937860
590968185
590952374
590963110
590958262
590954865
590930781
590922680
590887065
590941227
590971267
590898443
590970159
590969580
590963656
590972900
590945099
590974836
590876538
590879776
590875801
590936815
590966822
590964275
590977408
590965208
590942723
590964533
590977154
590882878
590961677
590892290
590974401
590972387
590963963
590981047
590978663
590953681
590976767
590897218
590981219
590956886
590936618
590954109
590899049
590972188
590996110
590967057
590953397
590995829
590961173
590949855
590921082
590992194
590998455
590999975
590998138
590978073
590989973
590991000
590959378
590949960
590952871
590931162
590962716
590995969
590978157
590957135
590957942
590975037
590993336
590974057
590954690
590874797
590979716
590944163
590975531
590959367
590935916
590962448
590992997
590994671
590968825
590980890
590962263
590977412
590994864
590991038
590998721
590994873
590963508
590908251
590982971
590984372
590985690
590984756
590980210
590993626
590961060
590970390
590943253
590979431
590964726
590970058
590947449
590970078
590986381
590926765
590999279
590999382
590997571
590994269
590940243
590944712
590966188
590999020
590969545
590914172
590978352
590904271
590950254
590975628
590978398
590962948
590967454
590883478
590953279
590940264
590984301
590996081
590984607
590990243
590971160
590985909
590950309
590937268
590982297
590996687
590994974
590900658
590914548
590978366
590961733
590981088
590900994
590936630
590978557
590939969
590985887
590936524
590970202
590954204
590997159
590953177
590960981
590944931
590993941
590991567
590941212
590899514
590980456
590960551
590964637
590985956
590974055
590983635
590999975
590984057
590945099
590944314
592000393
592001161
592001814
592002467
592002928
592002641
592003602
592003495
592003858
592003605
592004093
592004205
592004404
592004266
592004586
592004966
592005169
592005221
592005207
592005344
592005475
592006031
