730021702
730028772
730030523
730035033
730054061
1600003180
1600003180
730059695
730030523
730035033
730054061
730059695
730064926
730065486
730068010
730068865
731030076
730105634
730107474
730112643
731058651
731064744
731069324
730134417
730137422
730147636
730151315
731091948
731092598
731092997
731096913
730167565
731105457
731114739
730187213
730188143
731126374
731127706
730196018
731133317
731133249
730209017
731170401
731172650
731172940
730248499
730250536
730269156
731197970
730270670
731202691
731203230
731203297
730274742
730278583
731208009
731211215
730282711
731213238
730289508
731221880
730297143
731229907
730306162
731238248
731240318
731241526
731241998
730317957
730318203
730318646
731246285
731249678
730325636
731252259
730330422
730334932
730337479
730339439
730340349
731265774
731273148
731276613
730406057
730416295
730423002
730424739
731569384
731572722
730434197
731575556
731578434
731589589
731591790
730455822
730458784
730459965
730463004
731607357
730467442
731619465
730481606
730487316
730492160
730493281
731636549
730502186
730504466
731653345
730513445
730517969
731670198
731688503
731695924
731708269
730538269
731738420
730553980
731747545
731749575
731754453
731754695
731764141
730574194
731774915
730582848
730585620
730594162
731789229
731792207
731800241
731802281
730611987
731818027
731826772
730644844
730649277
731851512
730657686
730663057
731864133
731865801
731871118
731873541
731875582
730685583
731883999
730694701
730695945
731895212
731908748
731928924
731940943
731949634
731951210
731967691
730711184
730717520
732013288
730725873
730734761
730735188
732033365
732039733
730754009
732056804
732057946
732073607
730790289
730796629
730797085
732107939
732112339
732114602
732120857
732120907
732127261
732128049
1600003180
1600009771
1600013821
1600014930
1600015384
1600015908
1600020986
1600021178
1600021661
1600022993
1600023842
1600024375
1600025221
1600026114
1600026976
1600031970
1600033706
1600034143
1600035773
1600036442
1600039977
1600040689
1600040790
1600042453
1600044216
1600044799
1600049155
1600051358
1600052905
1600065651
1600066067
1600067555
1600078244
1600080323
1600085035
1600086454
1600087284
1600087333
1600090619
1600091446
1600093259
1600093507
1600099392
1600099444
1600099905
1600102441
1600104559
1600109953
1600112194
1600116279
1600121397
1600123588
1600123600
1600124230
1600130599
1600131486
1600132309
1600133478
1600134213
1600135123
1600146574
1600155458
1600155580
1600157441
1600158443
1600158775
1600162465
1600163239
1600164582
1600169497
1600174184
1600177458
1600179500
1600180742
1600182207
1600183896
1600184489
1600185365
1600188941
1600189768
1600192134
1600196452
1600199518
1600204267
1600206997
1600211080
1600211709
1600213800
1600217821
1600225019
1600235455
1600240262
1600240713
1600243713
1600244555
1600247597
1600250562
1600251249
1600252703
1600259070
1600261924
1600267771
1600268359
1600271173
1600272009
1600277280
1600278943
1600285478
1600288833
1600292070
1600293533
1600296549
1600301298
1600301678
1600303609
1600304217
1600308024
1600309103
1600312856
1600324817
1600326258
1600330745
1600334588
1600335652
1600337045
1600338826
1600338906
1600342549
1600351084
1600353665
1600355535
1600359308
1600360921
1600365534
1600366358
1600367409
1600368220
1600372183
1600379533
1600382328
1600384059
1600384671
1600392271
1600392488
1600394558
1600398065
1600400391
1600400652
1600403784
1600407943
1600409725
1600410022
1600410298
1600412431
1600412816
1600414301
1600415903
1600420599
1600421497
1600422205
1600429510
1600431208
1600437454
1600439557
1600440025
1600450936
1600453147
1600456259
1600460328
1600467028
1600467335
1600467432
1600470959
1600477909
1600481859
1600482009
1600483435
1600487099
1600487840
1600490490
1600495706
1600495724
1600499902
1600502857
1600513759
1600519289
1600520630
1600528669
1600528549
1600537084
1600538500
1600553233
1600560520
1600563267
1600563558
1600566032
1600566493
1600567627
1600571762
1600574589
1600575267
1600575804
1600576818
1600577645
1600585187
1600595208
1600600598
1600605099
1600605993
1600617931
1600626516
1600627246
1600630293
1600635535
1600636115
1600638796
1600639683
1600640359
1600641363
1600659075
1600662162
1600663940
1600672834
1600676473
1600680035
1600687935
1600694621
1600715376
1600715743
1600715980
1600718550
1600719566
1600719789
1600723165
1600724740
1600737923
1600742849
1600747266
1600750772
1600763401
1600771491
1600771487
1600777794
1600779202
1600780522
1600782240
1600785178
1600787840
1600791186
1600791265
1600798585
1600803931
1600804782
1600807555
1600810941
1600817518
1600818062
1600829121
1600829587
1600831985
1600836324
1600853461
1600854117
1600854722
1600857929
1600863862
1600869839
1600872967
1600874159
1600874560
1600875254
1600875521
1600878857
1600880038
1600883685
1600884949
1600885126
1600885138
1600886046
1600886927
1600898903
1600901579
1600901998
1600904367
1600905684
1600908740
1600920906
1600921484
1600922685
1600933580
1600939609
1600939724
1600941612
1600943586
1600943839
1600950707
1600953658
1600956052
1600963778
1600966182
1600968411
1600970600
1600971642
1600973652
1600973747
1600975479
1600978610
1600981300
1600983571
1600983662
1600986662
1600987588
1600992737
1600992841
1600993151
1600993714
1600997869
1601000218
1601001826
1601002624
1601009704
1601011756
1601013484
1601014984
1601015959
1601018357
1601022484
1601023592
1601031825
1601033204
1601039947
1601042995
1601044108
1601049463
1601054064
1601057202
1601061294
1601062412
1601062805
1601062822
1601069021
1601071944
1601074254
1601086294
1601088660
1601090370
1601101375
1601102355
1601102876
1601105136
1601110658
1601110831
1601112128
1601114571
1601116322
1601120657
1601123837
1601124301
1601126165
1601127078
1601128599
1601129137
1601133996
1601136662
1601139589
1601141465
1601143375
1601144910
1601150685
1601157595
1601159573
1601161524
1601162931
1601167521
1601170076
1601175976
1601176227
1601180728
1601180967
1601184812
1601185401
1601188354
1601191201
1601192585
1601195188
1601197553
1601198232
1601198236
1601203416
1601206226
1601206651
1601211354
1601213773
1601218066
1601221765
1601224950
1601228927
1601229958
1601230077
1601230552
1601235639
1601239266
1601240806
1601242340
1601243851
1601245580
1601247115
1601248739
1601250218
1601250321
1601252111
1601252592
1601253119
1601254303
1601254946
1601255649
1601256167
1601260867
1601262083
1601263094
1601265148
1601268062
1601271517
1601271794
1601273516
1601279437
1601285379
1601287024
1601291513
1601295943
1601296368
1601301128
1601304677
1601310087
1601310968
1601320943
1601324807
1601327133
1601328458
1601329624
1601330787
1601338518
1601339106
1601340844
1601341579
1601344177
1601353880
1601355958
1601364520
1601367177
1601368605
1601370685
1601372828
1601379272
1601379658
1601382869
1601388412
1601400851
1601402592
1601404687
1601406274
1601410019
1601411955
1601415902
1601419099
1601421690
1601423230
1601424438
1601426561
1601427343
1601432853
1601435904
1601440698
1601449147
1601449719
1601454101
1601455703
1601458937
1601462816
1601466074
1601467370
1601468569
1601468802
1601478455
1601478736
1601479628
1601486815
1601487185
1601489292
1601490785
1601495916
1601497139
1601500784
1601513769
1601525125
1601525412
1601525689
1601527815
1601528544
1601528621
1601531560
1601531613
1601531903
1601538387
1601540969
1601542222
1601551813
1601552184
1601553249
1601560239
1601561132
1601561693
1601565824
1601566615
1601567934
1601567967
1601570055
1601570863
1601573041
1601576763
1601577636
1601580269
1601581103
1601584236
1601584744
1601587763
1601590629
1601590873
1601594557
1601595120
1601601545
1601616623
1601617373
1601618178
1601618193
1601620887
1601621006
1601633619
1601635206
1601642018
1601643864
1601644713
1601645412
1601654976
1601658136
1601661410
1601663169
1601672868
1601673560
1601674983
1601677588
1601678212
1601684029
1601687188
1601687712
1601690348
1601699690
1601708974
1601713129
1601715594
1601717641
1601719937
1601720790
1601725384
1601732193
1601732756
1601745407
1600003180
1600066067
1603065683
1603068622
1603069663
1603070112
1603079709
1603082340
1603084886
1603086857
1603092105
1603092550
1603101367
1603107482
1603112607
1603114443
1603118060
1603120843
1603122803
1603123577
1603123784
1603125730
1603130576
1603134730
1603135489
1603136932
1603140891
1603141302
1603142906
1603142949
1603145024
1603149005
1603151599
1603158331
1603161298
1603162317
1603165219
1603166895
1603169127
1603177941
1603178644
1603179312
1603181792
1603184401
1603189455
1603191374
1603193172
1603198022
1603200454
1603203639
1603204397
1603205386
1603205387
1603211185
1603211898
1603217830
1603220525
1603221420
1603222011
1603224615
1603231012
1603233269
1603234638
1603234758
1603236896
1603239629
1603241725
1603241751
1603249545
1603250445
1603253890
1603255167
1603262439
1603269461
1603271954
1603279835
1603283598
1603284071
1603294627
1603297149
1603298674
1603304292
1603304176
1603304063
1603317565
1603322414
1603322465
1603327670
1603328029
1603328864
1603331235
1603332608
1603334898
1603338600
1603338676
1603342236
1603342548
1603342750
1603350475
1603358361
1603359352
1603360466
1603362568
1603365100
1603367361
1603367639
1603368684
1603370025
1603378904
1603379398
1603381308
1603383247
1603385044
1603387923
1603388159
1603389834
1603391577
1603395390
1603396912
1603396963
1603397212
1603404862
1603406553
1603406837
1603410839
1603417178
1603418094
1603419567
1603420346
1603420439
1603421138
1603422194
1603424723
1603427379
1603428594
1603429342
1603434376
1603435178
1603438615
1603440361
1603445252
1603451849
1603455548
1603458566
1603459395
1603463217
1603463602
1603464020
1603464406
1603473832
1603474172
1603475994
1603480534
1603481769
1603484344
1603489103
1603489289
1603489726
1603489973
1603494281
1603501254
1603506426
1603510483
1603516823
1603517606
1603525035
1603526822
1603529923
1603533661
1603534648
1603540229
1603543499
1603545683
1603549497
1603557981
1603559697
1603562303
1603565089
1603571696
1603576909
1603577108
1603577663
1603581875
1603582695
1603583472
1603583468
1603587524
1603591607
1603592844
1603593943
1603598951
1603600879
1603627037
1603627592
1603629301
1603629964
1603633972
1603634430
1603640938
1603645662
1603648534
1603651848
1603652560
1603652831
1603659714
1603660105
1603665330
1603666238
1603667060
1603667519
1603670364
1603677177
1603678521
1603678455
1603681677
1603686395
1603688244
1603690652
1603697117
1603697464
1603697701
1603699223
1603702948
1603707759
1603708043
1603709853
1603711069
1603712196
1603712614
1603713862
1603718560
1603719621
1603727065
1603731739
1603732123
1603734822
1603736952
1603738759
1603741039
1603742963
1603743739
1603744542
1603751158
1603758064
1603765390
1603766407
1603766915
1603770350
1603772599
1603774595
1603781896
1603787283
1603789147
1603790041
1603793461
1603795462
1603846913
1603904050
1603908843
1603919548
1603920253
1603921578
1603935041
1603939583
1603940802
1603954461
1603968488
1603969278
1603970370
1603980914
1603981794
1603984950
1603987292
1603990269
1603995407
1603995772
1604000718
1604000929
1604004156
1604006860
1604009614
1604013230
1604013498
1604016585
1604018218
1604018242
1604020993
1604022988
1604022811
1604024022
1604025062
1604032177
1604033212
1604035155
1604035797
1604036228
1604037633
1604041178
1604041167
1604043830
1604048748
1604054735
1604056210
1604059465
1604068056
1604070539
1604071812
1604076585
1604085412
1604087683
1604097202
1604098104
1604099304
1604100165
1604101980
1604104211
1604105826
1604105988
1604107002
1604109629
1604129043
1604131963
1604137293
1604138306
1604138387
1604139154
1604141907
1604144582
1604148848
1604148827
1604162041
1604162445
1604162972
1604165426
1604166940
1604169378
1604172303
1604176297
1604177783
1604180529
1604190841
1604192139
1604194171
1604194765
1604195594
1604198088
1604198864
1604206155
1604211424
1604211602
1604220912
1604222530
1604224585
1604224837
1604227203
1604230853
1604234141
1604236434
1604240913
1604244481
1604246204
1604247952
1604251360
1604259268
1604260366
1604261164
1604265079
1604268062
1604271686
1604274787
1604276841
1604288498
1604289749
1604291738
1604294722
1604297914
1604299714
1604306313
1604307505
1604308746
1604311805
1604317963
1604319760
1604331817
1604340549
1604340846
1604347535
1604347517
1604352330
1604354328
1604357890
1604358239
1604372569
1604375088
1604457973
1604460163
1604462192
1604463976
1604472872
1604473702
1604495390
1604504264
1604506200
1604511891
1604513575
1604517913
1604521429
1604521873
1604526271
1604533412
1604535511
1604536115
1604536397
1604536464
1604537180
1604537708
1604538193
1604546536
1604551365
1604558148
1604560739
1604561904
1604563399
1604566247
1604569792
1604570052
1604570629
1604571767
1604571964
1604573665
1604575426
1604579065
1604580439
1604580862
1604584424
1604585590
1604589700
1604592190
1604592290
1604593695
1604595989
1604596536
1604596560
1604603893
1604604754
1604608358
1604609181
1604609359
1604611605
1604616226
1604617578
1604625592
1604627878
1604629905
1604630825
1604632104
1604632091
1604637023
1604637689
1604643816
1604645429
1604653536
1604655037
1604654105
1604656813
1604659162
1604660304
1604661254
1604662915
1604667310
1604671140
1604671633
1604674510
1604674964
1604685791
1604687252
1604695943
1604699964
1604700364
1604701747
1604701877
1604706016
1604706586
1604711422
1604716936
1604720442
1604720917
1604721806
1604722144
1604721881
1604723443
1604728993
1604745668
1604747403
1604748070
1604749617
1604749776
1604751673
1604758054
1604758144
1604764796
1604769585
1604770105
1604775745
1604777815
1604778439
1604779463
1604782017
1604788766
1604791635
1604796792
1604800042
1604807272
1604809239
1604810819
1604815159
1604815305
1604817279
1604822081
1604824337
1604825254
1604831723
1604836059
1604838321
1604843925
1604846611
1604850557
1604853688
1604861152
1604862064
1604864689
1604865205
1604869160
1604872667
1604877998
1604879867
1604884010
1604887253
1604888797
1604890939
1604891969
1604896972
1604902780
1604907531
1604908192
1604910683
1604911179
1604918925
1604918951
1604920143
1604920445
1604924265
1604927372
1604928667
1604929878
1604931023
1604932222
1604942013
1604942127
1604942649
1604944092
1604954732
1604955950
1604961636
1604962805
1604963356
1604964038
1604964278
1604969040
1604969140
1604970479
1604971552
1604973927
1604974068
1604974008
1604975315
1604982183
1604991335
1605016248
1605015548
1605017114
1605017945
1605019110
1605020502
1605021173
1605021515
1605027354
1605030999
1605032545
1605041042
1605045369
1605049292
1605052175
1605053963
1605054428
1605058759
1605062137
1605062418
1605065518
1605069758
1605073704
1605076532
1605078650
1605082140
1605085766
1605087475
1605088745
1605089681
1605095283
1605098752
1605107214
1605112531
1605126246
1605129907
1605131341
1605131848
1605131902
1605143151
1605144817
1605154285
1605157573
1605159780
1605161544
1605162063
1605164564
1605165416
1605168713
1605171098
1605172247
1605173165
1605173427
1605174777
1605175819
1605179150
1605186615
1605186651
1605190638
1605193665
1605195095
1605201402
1605202261
1605202741
1605207043
1605208520
1605222305
1605269166
1605304836
1605307075
1605312836
1605315437
1605326341
1605335610
1605335782
1605336722
1605338455
1605343117
1605345458
1605346070
1605352168
1605360533
1605361994
1605364971
1605369161
1605624874
1605733384
1605735510
1605745595
1605884153
1606076485
1606117257
1606189553
1606211519
1606266022
1606639688
1606974625
1607066441
1607137139
1607358300
1607390356
1607391200
1607593134
1607659389
1607804280
1607863182
1607925544
1607987996
1608042328
1608368237
1608507857
1608559150
1608752521
1608789090
1609118986
1609152596
1609224632
1609386214
1609847902
1609866588
1609956468
1609997994
