1600000422
1600004741
730195409
731156806
731658562
730572564
1600000422
1600004741
1600013641
1600017022
1600076120
1600088559
1600093287
1600115168
1600187727
1600204123
1600208390
1600214121
1600220680
1600224720
1600270635
1600272599
1600283167
1600285607
1600307678
1600338639
1600403445
1600414865
1600430836
1600470228
1600485329
1600546208
1600576929
1600611463
1600639361
1600642808
1600664042
1600672971
1600702707
1600705711
1600717728
1600719993
1600737592
1600758433
1600774007
1600821515
1600828357
1600859655
1600873500
1600883345
1600908150
1600914264
1600930214
1600932137
1600950636
1600959858
1600963561
1600975724
1600976382
1600987493
1600999419
1601005603
1601016989
1601071663
1601073054
1601096853
1601105078
1601122440
1601136173
1601170862
1601191060
1601216346
1601270760
1601280685
1601286226
1601289476
1601291908
1601326998
1601328670
1601364385
1601368831
1601392132
1601408277
1601420478
1601422236
1601460114
1601482529
1601499465
1601515678
1601527532
1601560080
1601568368
1601602192
1601603944
1601604537
1601606703
1601612220
1601614368
1601619389
1601623267
1601625592
1601630195
1601660288
1601686973
1601696711
1601708991
1603073399
1603073889
1603091571
1603093332
1603108425
1603122492
1603142285
1603145679
1603150392
1603183066
1603189469
1603190404
1603200981
1603207726
1603214417
1603231408
1603244538
1603255291
1603263378
1603269103
1603278043
1603293201
1603297864
1603299309
1603300532
1603305781
1603322501
1603342097
1603365174
1603368607
1603377500
1603397509
1603416471
1603422335
1603433255
1603445656
1603451013
1603464709
1603475538
1603480867
1603483343
1603492366
1603508182
1603510479
1603519791
1603534464
1603575790
1603580198
1603582026
1603582364
1603593417
1603596000
1603603484
1603619896
1603648996
1603669993
1603680745
1603681492
1603691874
1603723649
1603736460
1603748164
1603753991
1603755484
1603762818
1603771068
1603911238
1603919372
1603920636
1603931740
1603933976
1603953993
1603962363
1603967130
1603969327
1603971510
1603990658
1604000126
1604027164
1604043477
1604075939
1604080567
1604085495
1604107825
1604115674
1604118282
1604138315
1604147656
1604149477
1604153178
1604154115
1604185906
1604186432
1604187412
1604188155
1604207701
1604214125
1604221375
1604228676
1604240143
1604263687
1604282260
1604324645
1604327399
1604331586
1604341112
1604354051
1604360773
1604368723
1604465915
1604486447
1604522809
1604526795
1604530136
1604532980
1604542465
1604554304
1604570691
1604576243
1604577927
1604594730
1604617867
1604619185
1604637330
1604641344
1604673108
1604689845
1604699611
1604710082
1604711503
1604728685
1604733872
1604742164
1604750626
1604755171
1604755316
1604757925
1604766918
1604768942
1604793954
1604794516
1604812039
1604813011
1604824826
1604846404
1604861564
1604914459
1604922645
1604926397
1604949205
1604980904
1604986775
1604998087
1605041056
1605043575
1605046637
1605078646
1605081311
1605102893
1605106920
1605120513
1605124075
1605187863
1605188010
1605306716
1605327239
1605338599
1605346409
