1600000230
1600000230
1600004379
731103456
730512761
731800127
732113616
1600000230
1600004379
1600058600
1600064720
1600125191
1600130440
1600143574
1600152047
1600304800
1600362514
1600364128
1600398863
1600413215
1600437751
1600501320
1600517244
1600556194
1600646894
1600725292
1600760305
1600777036
1600779231
1600822400
1600822561
1600846943
1600879327
1600935775
1601015129
1601138846
1601141222
1601187910
1601214443
1601235846
1601311178
1601349259
1601360002
1601380235
1601567282
1601603968
1601640911
1601655444
1601658881
1601689028
1601739538
1600004379
1600058600
1600064720
1603086950
1603120309
1603120894
1603126033
1603154811
1603174930
1603189114
1603253528
1603284376
1603322069
1603397844
1603410548
1603421302
1603425854
1603433699
1603527071
1603608060
1603667340
1603703514
1603766103
1603795998
1603835408
1603857866
1603885986
1603938411
1603940681
1603948988
1603988887
1604058969
1604067428
1604090402
1604131317
1604132856
1604141237
1604146517
1604151023
1604161342
1604167807
1604185484
1604187976
1604218310
1604240117
1604259295
1604280899
1604314447
1604319466
1604319749
1604328044
1604444803
1604561303
1604571582
1604571608
1604602262
1604607466
1604661245
1604667022
1604725345
1604742726
1604812786
1604825434
1604825836
1604956018
1604970616
1605059887
1605142446
1605178382
1605183714
1605238486
1605286497
1605327750
1605330017
1605359964
1605378293
1605378385
1605641562
1605643750
1605655832
1605677806
1605731800
1605756735
1605786745
1605861354
1605894549
1605912892
1606095973
1606097964
1606115067
1606156211
1606252933
1606260022
1606283551
1606340103
1606469356
1606492492
1606538676
1606551195
1606600421
1606604107
1606623492
1606661304
1606726049
1606754844
1606782939
1606804119
1606828427
1606839898
1606844833
1606845520
1606851679
1606854252
1606915486
1606938666
1606944771
1606983376
1606986230
1606989203
1607001673
1607043224
1607150233
1607213608
1607306138
1607327666
1607328952
1607371228
1607381695
1607453580
1607481262
1607488053
1607506610
1607514670
1607522432
1607545759
1607600394
1607615932
1607628504
1607635564
1607641967
1607681248
1607699182
1607796753
1607822839
1607958918
1608048108
1608092738
1608161600
1608377696
1608439229
1608474671
1608501555
1608563513
1608584556
1608605431
1608610561
1608658285
1608681373
1608700405
1608774779
1608777004
1608857574
1608859854
1608865599
1608968118
1608970141
1609002869
1609124982
1609137907
1609184546
1609186506
1609254508
1609297250
1609437569
1609440303
1609487177
1609508671
1609534789
1609622395
1609625087
1609644414
1609656338
1609717926
1609757490
1609930693
1609961133
1609967354
