731765390
730577904
730672896
1600026358
1600060731
1600116592
1600125685
1600155309
1600240485
1600339329
1600402477
1600404578
1600475833
1600491549
1600493246
1600518009
1600520123
1600522178
1600596995
1600597582
1600620166
1600651746
1600687113
1600693506
1600867054
1600867059
1600918922
1600922353
1600948700
1601013541
1601022323
1601055469
1601119106
1601162634
1601164717
1601214097
1601239736
1601245990
1601288823
1601329101
1601336876
1601497709
1601500876
1601592771
1601598548
1601696479
1601701408
1601701410
1601710541
1601724253
1601728177
1603073207
1603079853
1603106639
1603122483
1603172876
1603257316
1603261038
1603283055
1603305459
1603332703
1603394023
1603482799
1603552502
1603607352
1603635247
1603668106
1603730380
1603754197
1603782759
1604006658
1604070584
1604115956
1604129271
1604219875
1604221915
1604328899
1604523741
1604581116
1604602596
1604688599
1604745445
1604756367
1604772422
1604807277
1604815681
1604868589
1604877876
1604918515
1604969400
1604993144
1605066377
1605079823
1605168654
1605171305
