710000269
710001415
710004503
710037151
710037931
710040012
710045811
710058357
710061651
710062292
710063600
710088000
710093453
710095536
710095605
710106041
710106407
710113636
710115890
710116017
710124958
710127681
710128992
710136603
710141091
710161882
710167324
710169287
710171963
710172140
710182485
710184639
710192830
710193193
710195884
710200159
710205459
710207597
710225281
710235425
710242622
710243037
710244935
710255077
710257328
710264956
710272592
710275201
710275506
710278976
710291408
710291599
710295340
710297828
710299537
710302846
710309236
710310663
710311754
710317405
710332140
710333160
710350046
710358960
710363308
710374604
710382525
710386075
710394642
710402248
710405321
710414950
710426357
710432187
710439442
710440939
710442079
710446159
710455165
710459950
710462581
710465929
710468768
710472511
710476056
710486005
710492349
710500253
710512289
710528057
710528316
710532021
710542492
710544566
710553330
710554429
710559659
710561220
710566042
710586039
710591943
710598705
710603184
710636635
710636702
710638928
710642632
710654824
710658014
710672545
710673818
710680816
710682631
710696454
710701334
710715526
710716734
710721471
710741554
710750445
710754531
710757666
710760806
710764003
710764822
710768849
710783170
710786896
710790968
710804226
710808592
710834514
710835241
710840389
710840970
710840736
710841387
710846075
710849400
710858926
710865952
710873154
710876872
710883906
710889246
710890633
710893354
710895882
710922199
710929756
710932250
710934467
710935397
710946210
710946642
710947344
710952289
710952803
710953282
710958732
710968672
710991420
711001081
711001157
711021559
711032473
711040040
711053482
711055110
711060330
711063727
711065137
711077695
711087258
711096179
711099745
711103900
711107695
711108593
711112056
711112258
711123981
711125622
711128176
711141366
711151959
711155601
711162069
711163435
711192332
711196022
711197868
711222715
711226363
711230761
711231747
711243402
711252764
711261360
711262741
711266480
711267581
711272324
711288772
711290200
711291270
711297215
711306461
711319287
711321506
711322416
711326207
711326392
711329987
711332283
711347794
711353442
711355910
711380596
711386147
711387065
711389632
711389778
711394265
711408335
711436464
711441566
711444468
711461105
711461982
711463961
711466868
711486589
711492421
711517837
711521478
711525474
711528106
711528935
711529381
711530978
711539678
711540600
711542638
711544191
711551200
711554062
711564750
711566808
711577562
711584305
711584355
711588424
711592175
711597925
711601211
711608310
711608712
711610265
711615260
711622799
711625496
711630031
711634174
711643723
711645978
711646771
711653722
711655577
711663020
711665190
711682111
711687219
711690837
711690825
711692789
711697740
711705196
711706282
711711800
711722258
711755311
711756744
711761203
711775296
711779660
711798101
711817914
711833400
711855639
711857292
711858903
711862175
711869891
711870263
711893709
711894689
711907261
711911954
711922958
711926972
711943984
711945344
711947709
711950346
711955073
711955522
711957995
711960844
711964183
711964187
711966835
711970401
711978174
711979493
711984323
711984935
711991782
712002228
712013007
712033226
712034520
712036461
712036970
712038798
712039646
712040154
712044855
712048492
712052011
712053907
712054125
712056277
712056466
712070030
712071247
712082920
712088690
712091217
712091483
712098747
712099537
712101983
712104828
712118918
712133759
712137609
712152680
712165775
712165830
712166129
712165799
712172827
712177645
712184994
712187265
712187805
712214753
712222006
712223500
712238445
712243288
712246379
712262852
712263234
712268085
712269437
712270533
712283613
712288366
712292898
712297284
712299686
712305855
712328406
712331078
712333121
712334843
712337013
712340558
712345102
712352215
712358142
712377887
712381172
712383296
712398465
712403422
712422010
712455987
712457701
712458467
712484201
712494515
712496588
712502303
712505509
712516348
712527020
712530106
712537030
712549122
712558094
712580789
712584319
712592114
712593691
712613584
712618879
712620533
712621805
712629868
712637834
712638883
712644592
712644263
712656468
712658516
712662685
712662504
712674722
712681415
712687295
712690083
712693127
712704183
712716046
712725101
712737431
712740811
712744134
712751404
712754842
712757469
712778851
712780654
712800221
712803313
712806296
712805646
712810207
712820457
712825340
712826720
712827695
712828586
712836755
712847538
712861676
712868030
712887457
712897192
712903880
712903886
712907728
712911805
712915829
712916857
712929537
712959295
712963885
712965660
712981056
712983679
712987371
712994878
713000478
713003926
713017894
713022389
713038033
713038502
713040257
713051884
713055786
713073604
713082703
713095877
713108550
713108748
713109617
713114133
713116670
713140210
713154844
713155668
713155652
713156798
713170850
713186577
713197809
713201256
713205627
713212506
713218527
713250249
713268912
713271798
713273303
713275978
713285569
713303104
713306197
713314127
713318088
713318726
713320853
713330768
713331189
713337573
713340501
713343700
713346878
713347651
713353836
713371948
713370802
713375144
713376773
713377376
713383034
713402509
713419519
713422023
713425962
713442295
713461422
713465670
713480759
713485341
713496835
713502923
713503549
713519478
713519630
713527453
713537581
