1600049459
1600052636
1600085976
1600121686
1600158257
1600177618
1600197107
1600200806
1600235460
1600238604
1600250334
1600254524
1600264075
1600285412
1600316853
1600336287
1600348035
1600379997
1600422219
1600423945
1600443130
1600444366
1600469377
1600474613
1600486159
1600538021
1600568573
1600577726
1600586216
1600602376
1600629939
1600655037
1600658825
1600662139
1600675587
1600687570
1600756293
1600790986
1600841003
1600849437
1600850109
1600854944
1600899368
1600903861
1600904581
1600913419
1600917792
1600932081
1600983778
1600993075
1601031797
1601055046
1601056877
1601066967
1601069161
1601071164
1601077516
1601090468
1601091936
1601111161
1601115424
1601123305
1601128312
1601163602
1601187520
1601191357
1601192974
1601219964
1601242841
1601257693
1601267188
1601318245
1601323279
1601329712
1601334601
1601346474
1601370117
1601453832
1601453721
1601501933
1601527145
1601545866
1601572597
1601577770
1601580832
1601582957
1601589075
1601604152
1601619729
1601623678
1601633039
1601635357
1601640583
1601682276
1601702731
1601705071
1603075519
1603146332
1603158669
1603167746
1603186768
1603189023
1603202375
1603227976
1603238820
1603243067
1603265351
1603356209
1603385303
1603415430
1603427666
1603435768
1603441838
1603448591
1603478997
1603481095
1603485938
1603524739
1603571178
1603588657
1603599112
1603612167
1603625387
1603630378
1603633337
1603641840
1603642504
1603660602
1603672082
1603776111
1603923975
1603933903
1603956561
1604015400
1604033003
1604037570
1604051172
1604062941
1604066285
1604073428
1604093861
1604114866
1604118640
1604160548
1604185373
1604191131
1604192003
1604192842
1604238943
1604272628
1604330651
1604348820
1604354156
1604378509
1604452878
1604562779
1604564036
1604579971
1604651378
1604670708
1604681802
1604693531
1604721289
1604737109
1604774074
1604774319
1604800225
1604812517
1604815226
1604830272
1604835304
1604837286
1604903731
1604915641
1604919943
1604980719
1604992570
1605000717
1605025013
1605034636
1605050903
1605093118
1605133723
1605172143
1605179568
1605210921
1605307177
1605329579
1605357649
