730038347
730042616
730043963
1600002634
1600002634
730038347
730042616
730043963
730081408
730082881
730083651
731040006
730102868
730109017
731050526
731061270
731065958
731070428
730138706
731104207
730169161
730170346
730174870
730178884
731114310
730180803
730193834
730194879
730202215
731138139
730220194
731157252
730233801
730247028
731178688
731186458
730257770
730263599
730264868
731210861
730289813
730293835
730294667
731233128
731241147
730316314
731249116
730325812
730331166
731256422
731257738
731258845
731265967
730345540
731271641
731272334
731277007
731536598
731538260
731545364
731547021
730412885
731554441
731555178
730424745
730431613
730433543
731578376
730463916
731610783
731615741
730476418
731620195
731626348
731628975
731632865
730504810
730505043
730509805
731658893
730518183
731663730
731669395
731672334
731675452
731694213
731697113
731704650
731721388
731727038
731741753
731743872
731744747
731751169
730570916
731779810
731787642
731788758
730597725
731792917
731797902
731805853
730634092
730639948
731843612
731843977
731870337
730682801
730683254
731886629
731916946
731925075
731928268
731943117
731946906
731963250
731979608
731983814
732005039
732006282
732007325
732008985
732012959
730734162
732038640
732042356
732060432
730779747
730779869
732093708
730799918
732106394
732112649
730819164
730820876
732122250
732122735
1600002634
1600022422
1600026080
1600033676
1600064726
1600069640
1600076550
1600082679
1600087458
1600091040
1600115624
1600144885
1600145931
1600148277
1600163580
1600174567
1600177366
1600191235
1600224999
1600230645
1600234181
1600262944
1600272606
1600273340
1600284606
1600292066
1600295904
1600297317
1600304967
1600314677
1600353159
1600391150
1600437572
1600468940
1600509887
1600529991
1600552479
1600553799
1600560260
1600589102
1600594571
1600597186
1600597885
1600605510
1600608223
1600614565
1600637774
1600640637
1600652461
1600659013
1600663680
1600678124
1600688354
1600704666
1600708820
1600708972
1600747562
1600753618
1600776269
1600779106
1600791123
1600803261
1600825036
1600831474
1600874589
1600881668
1600886504
1600888560
1600889789
1600898586
1600938049
1600944495
1600966082
1600968509
1601000251
1601010329
1601043300
1601049931
1601055374
1601059665
1601064410
1601098226
1601099576
1601137369
1601141482
1601147595
1601152844
1601211220
1601220127
1601221155
1601224671
1601237056
1601245096
1601257279
1601298027
1601304594
1601321815
1601339765
1601339873
1601344398
1601351074
1601351548
1601356560
1601363508
1601365897
1601367517
1601387556
1601395588
1601443383
1601470579
1601474456
1601508465
1601534476
1601555355
1601558734
1601561929
1601571896
1601591143
1601596050
1601607478
1601607478
1601632179
1601641474
1601651827
1601653330
1601656273
1601661403
1601662152
1601669890
1601688522
1601698546
1601699837
1601703596
1601708173
1603117403
1603128203
1603140645
1603143648
1603144604
1603177428
1603178653
1603198148
1603217051
1603261113
1603296820
1603312574
1603320932
1603323211
1603324068
1603352465
1603354526
1603356989
1603368032
1603368096
1603384942
1603413558
1603426322
1603446670
1603448477
1603448988
1603460393
1603465623
1603485723
1603488412
1603489305
1603507053
1603508178
1603530316
1603547466
1603550160
1603567205
1603574001
1603574008
1603590499
1603594963
1603597282
1603598462
1603599070
1603599609
1603605979
1603631346
1603636317
1603664718
1603681680
1603698545
1603717110
1603722343
1603738843
1603739698
1603750539
1603763683
1603770575
1603771522
1603792279
1603793132
1603796529
1603860844
1603907306
1603911811
1603912747
1603937992
1603949473
1603966084
1603990482
1603993683
1604020116
1604027781
1604040119
1604045647
1604059202
1604062094
1604086206
1604088980
1604095838
1604097217
1604104337
1604114423
1604116507
1604142809
1604142955
1604147022
1604155188
1604161020
1604165006
1604172335
1604182857
1604203551
1604208153
1604211811
1604218452
1604256976
1604260238
1604262879
1604288991
1604291239
1604304451
1604312083
1604321693
1604331183
1604341648
1604370669
1604374981
1604450373
1604465378
1604511079
1604537218
1604540652
1604560976
1604582904
1604601896
1604619810
1604634802
1604650131
1604652301
1604653614
1604657214
1604666385
1604670692
1604675997
1604678490
1604692601
1604703235
1604718320
1604737270
1604757291
1604813917
1604840043
1604840801
1604847836
1604857673
1604866904
1604870972
1604874841
1604879363
1604889814
1604893762
1604898120
1604916251
1604952980
1604973922
1604976013
1604978271
1604983008
1604996658
1605017319
1605019698
1605022916
1605032730
1605034523
1605044456
1605050780
1605051592
1605052146
1605060843
1605065075
1605081954
1605086339
1605133349
1605160766
1605185347
1605185453
1605186312
1605193433
1605219264
1605310446
1605317462
1605323231
1605348126
1605370036
1605546245
1605607060
1605829966
1605856478
1605938701
1605969755
1606046641
1606143778
1606214397
1606308001
1606410029
1606639972
1606709723
1606805710
1606900873
1606947868
1607060435
1607136951
1607311596
1607452578
1607620725
1607675108
1607802721
1607843041
1607943072
1607964596
1608042472
1608089555
1608145943
1608265799
1608287952
1608306019
1608328624
1608443007
1608492498
1608720002
1608902170
1608903453
1609021747
1609100504
1609126319
1609154363
1609154384
1609236654
1609321773
1609353900
1609355354
1609708108
1609766234
1609766457
1609939334
