730026221
730037345
730050686
1600001009
1600001001
1600001009
1600001208
1600001801
1600002042
1600002155
1600002155
1600002321
1600002321
1600002646
1600002678
1600002724
1600002678
1600002646
1600002823
1600002678
1600002967
1600003935
1600004481
1600004481
1600004740
1600005494
1600005643
1600005892
1600005925
1600005965
1600005892
1600006308
1600006473
1600006473
1600006679
1600006679
1600006679
1600006679
1600007016
1600007016
1600007124
1600007124
1600007413
1600007496
730050686
731032363
730144495
730148605
730154139
731131633
730213642
731158105
730232622
730287605
731241055
731266636
731566623
731570181
731597480
731629684
731636113
731647012
731713232
730533981
730549739
730585321
731783218
730608996
730617959
731821620
730638103
731834840
731837943
730643668
731868875
731870594
731879165
731904750
731946157
731962068
730711700
730711947
732036629
732037215
732055606
730767241
732080722
732081704
730792371
732105483
1600001208
1600001801
1600002042
1600002155
1600002321
1600002646
1600002724
1600002678
1600002967
1600002823
1600003935
1600004740
1600005892
1600005925
1600005965
1600006308
1600006473
1600006679
1600007016
1600007124
1600007413
1600007496
1600008389
1600008479
1600008454
1600009224
1600009447
1600009986
1600010642
1600011446
1600011794
1600011776
1600012129
1600012946
1600013158
1600013459
1600013514
1600013974
1600014348
1600015211
1600017045
1600017075
1600017222
1600017640
1600017849
1600017860
1600018064
1600018522
1600018773
1600019162
1600019441
1600020473
1600021379
1600021437
1600021482
1600021587
1600021716
1600021953
1600021953
1600022611
1600022884
1600023137
1600023277
1600023392
1600023534
1600024116
1600024696
1600024840
1600025211
1600025821
1600026081
1600026161
1600026246
1600026303
1600026497
1600026733
1600027159
1600027544
1600028465
1600028710
1600028890
1600028950
1600028594
1600029775
1600029993
1600031167
1600031820
1600032175
1600032456
1600033205
1600033300
1600033510
1600033661
1600033561
1600034768
1600034809
1600034984
1600034961
1600036002
1600036380
1600036335
1600036565
1600037786
1600038201
1600038425
1600038357
1600038693
1600039131
1600039388
1600039938
1600041528
1600041596
1600041868
1600042408
1600042874
1600044629
1600044851
1600045377
1600046006
1600046483
1600046570
1600047148
1600047328
1600048122
1600048951
1600049150
1600049607
1600049150
1600050165
1600050668
1600051055
1600051502
1600051982
1600052836
1600053611
1600053854
1600055820
1600056146
1600058198
1600058349
1600058396
1600058628
1600059038
1600059507
1600059733
1600060888
1600062270
1600062547
1600063382
1600063834
1600065136
1600065983
1600066103
1600066222
1600066269
1600066991
1600067243
1600067324
1600067852
1600068575
1600069002
1600069372
1600069771
1600069847
1600070506
1600070802
1600071556
1600071938
1600072087
1600072883
1600073197
1600073562
1600073496
1600074163
1600074240
1600074822
1600074863
1600075430
1600075439
1600075573
1600075603
1600075634
1600075812
1600076712
1600076786
1600078626
1600078832
1600078994
1600079151
1600079264
1600079665
1600080880
1600082745
1600083649
1600084382
1600084442
1600085120
1600086013
1600087798
1600088000
1600088767
1600088868
1600088916
1600090711
1600090962
1600091162
1600091705
1600092016
1600092320
1600092665
1600093919
1600094232
1600095109
1600099858
1600099922
1600099941
1600100286
1600100874
1600100985
1600101789
1600102848
1600103166
1600103288
1600103477
1600103840
1600103876
1600104161
1600104701
1600105074
1600105215
1600105798
1600105824
1600106316
1600106880
1600106856
1600106907
1600107388
1600107864
1600107962
1600108240
1600108487
1600108857
1600109126
1600109146
1600109704
1600110124
1600110368
1600112065
1600112330
1600112529
1600113564
1600113888
1600115070
1600115180
1600115894
1600115849
1600116412
1600116777
1600117624
1600117883
1600118201
1600118354
1600118688
1600119553
1600120045
1600120533
1600122562
1600123030
1600123862
1600124267
1600124427
1600124564
1600125588
1600125983
1600127844
1600128357
1600129102
1600129665
1600130647
1600131118
1600131658
1600132145
1600132620
1600132688
1600132951
1600133440
1600133447
1600134480
1600134947
1600135120
1600135948
1600136079
1600136258
1600137102
1600137436
1600137554
1600138591
1600138938
1600139204
1600139308
1600139394
1600140547
1600141220
1600141275
1600141487
1600145028
1600145738
1600145760
1600146068
1600146105
1600147250
1600148098
1600148630
1600148693
1600148264
1600148831
1600149304
1600149647
1600150756
1600151101
1600151205
1600151542
1600151574
1600152578
1600152985
1600154707
1600154792
1600155024
1600155978
1600156719
1600157152
1600157166
1600157169
1600157989
1600158648
1600160351
1600160910
1600161033
1600161537
1600161881
1600161939
1600162292
1600162209
1600163247
1600162670
1600163717
1600163834
1600164036
1600164142
1600164098
1600164233
1600166297
1600166412
1600167947
1600168218
1600168647
1600168963
1600169508
1600169691
1600170466
1600172805
1600173190
1600173271
1600173375
1600173323
1600173725
1600173713
1600173993
1600174005
1600174253
1600174363
1600173993
1600174841
1600174917
1600175084
1600175577
1600176905
1600177497
1600177865
1600177991
1600178123
1600178160
1600178181
1600179683
1600180375
1600180458
1600180681
1600180821
1600180852
1600180877
1600181397
1600181386
1600181845
1600182122
1600183624
1600184270
1600184348
1600185510
1600185532
1600185752
1600185503
1600186142
1600186147
1600186937
1600187273
1600187670
1600188388
1600188545
1600189154
1600189272
1600189380
1600189635
1600190428
1600190641
1600191313
1600192187
1600192382
1600192788
1600193532
1600193640
1600193648
1600193784
1600193963
1600194210
1600194321
1600195709
1600195813
1600196232
1600196333
1600196691
1600196427
1600197581
1600197953
1600200034
1600200231
1600200338
1600201108
1600201390
1600201705
1600202451
1600204824
1600205468
1600206770
1600207047
1600207266
1600207896
1600208091
1600208011
1600209102
1600213049
1600213041
1600214344
1600215594
1600215805
1600215827
1600215943
1600216236
1600216432
1600216607
1600217881
1600217891
1600218486
1600219128
1600219594
1600220290
1600220266
1600221483
1600222403
1600222376
1600222890
1600223949
1600224036
1600224058
1600224667
1600224598
1600225214
1600225698
1600225975
1600226116
1600226430
1600226673
1600226751
1600226756
1600227131
1600228005
1600228979
1600229026
1600229038
1600229479
1600229773
1600230104
1600230660
1600231124
1600231210
1600231805
1600232171
1600232333
1600232587
1600233044
1600232963
1600233488
1600233488
1600234337
1600234733
1600235250
1600235181
1600235474
1600235729
1600236757
1600236939
1600237274
1600237941
1600237989
1600238261
1600238290
1600238868
1600239314
1600239431
1600240108
1600240454
1600241508
1600241867
1600242356
1600242498
1600242898
1600242921
1600243348
1600243996
1600244016
1600244836
1600244933
1600245448
1600245897
1600246341
1600247272
1600247247
1600247281
1600247619
1600247856
1600248266
1600248507
1600248591
1600248700
1600249928
1600250068
1600250164
1600250331
1600252558
1600253770
1600253856
1600254110
1600254128
1600254820
1600254905
1600255246
1600255075
1600255649
1600255720
1600256738
1600257041
1600258021
1600258469
1600259447
1600260334
1600260864
1600260989
1600260965
1600260869
1600261186
1600261641
1600261931
1600262048
1600262414
1600263730
1600264065
1600264407
1600264708
1600264694
1600265085
1600265600
1600265550
1600265713
1600265654
1600265658
1600266416
1600267177
1600267266
1600267393
1600267774
1600267909
1600268231
1600268924
1600269120
1600269476
1600269914
1600270714
1600270762
1600271921
1600272435
1600273976
1600274075
1600275029
1600275106
1600276562
1600276612
1600276880
1600277519
1600277985
1600278237
1600278912
1600279311
1600280653
1600280648
1600281825
1600282256
1600282264
1600282591
1600282711
1600283450
1600284211
1600285898
1600287605
1600288160
1600288455
1600289227
1600289806
1600289969
1600289704
1600289957
1600290525
1600291028
1600291589
1600291993
1600292302
1600292319
1600292791
1600293465
1600293556
1600294371
1600294571
1600294843
1600294938
1600296545
1600296657
1600297667
1600298177
1600298477
1600298522
1600298498
1600298900
1600298995
1600299669
1600300244
1600300777
1600300862
1600301241
1600301809
1600302370
1600303337
1600303996
1600304519
1600306141
1600306063
1600306622
1600306870
1600307196
1600308013
1600308247
1600308218
1600308647
1600308903
1600309763
1600310387
1600312006
1600312084
1600312409
1600312615
1600313157
1600313283
1600313449
1600313546
1600313896
1600314125
1600314413
1600314592
1600315265
1600315362
1600315805
1600316674
1600318568
1600318734
1600319165
1600319516
1600320340
1600320731
1600320972
1600320883
1600321148
1600321203
1600321620
1600321661
1600321751
1600323623
1600324571
1600325018
1600326692
1600327244
1600327234
1600328007
1600329392
1600329171
1600330288
1600331062
1600331272
1600331363
1600332911
1600332639
1600332951
1600333059
1600333292
1600333895
1600334219
1600334386
1600334462
1600335156
1600336690
1600337736
1600338225
1600338353
1600338766
1600338879
1600339516
1600339597
1600339661
1600339813
1600340021
1600340075
1600340178
1600340262
1600340317
1600340401
1600340694
1600341027
1600341379
1600343495
1600343762
1600343906
1600345390
1600346534
1600346611
1600346717
1600348209
1600348927
1600349135
1600349430
1600350272
1600350524
1600350501
1600351162
1600352857
1600353644
1600353682
1600353832
1600354207
1600354553
1600354647
1600354838
1600355122
1600355961
1600356344
1600356402
1600356643
1600357572
1600357657
1600357819
1600358306
1600358808
1600358939
1600360294
1600361377
1600361449
1600361892
1600362732
1600364099
1600364370
1600365784
1600365776
1600367096
1600367031
1600367628
1600367779
1600368047
1600369371
1600369417
1600369516
1600369940
1600370039
1600370479
1600371740
1600372096
1600372420
1600372481
1600372522
1600372632
1600372801
1600372858
1600373920
1600374790
1600375060
1600375544
1600375588
1600376027
1600376720
1600377961
1600378019
1600378753
1600378775
1600379432
1600379724
1600379911
1600379937
1600380763
1600380665
1600381221
1600381281
1600381674
1600382073
1600382319
1600382025
1600384032
1600384327
1600384371
1600384495
1600384319
1600385128
1600385432
1600385393
1600385905
1600386356
1600387371
1600387449
1600388312
1600388752
1600389036
1600389248
1600389502
1600389610
1600389762
1600390365
1600390581
1600390763
1600391171
1600391268
1600391330
1600391655
1600391735
1600391919
1600392287
1600393388
1600393824
1600394459
1600394616
1600394738
1600394960
1600394966
1600395188
1600395477
1600395738
1600396225
1600396177
1600396899
1600397161
1600397361
1600397322
1600397923
1600398697
1600398688
1600400168
1600400666
1600400709
1600400887
1600401638
1600401856
1600401988
1600403466
1600404678
1600404756
1600404981
1600405847
1600405979
1600406055
1600406223
1600406474
1600406788
1600407015
1600407165
1600407731
1600407824
1600408442
1600409206
1600410315
1600410427
1600410859
1600410848
1600411008
1600411894
1600413273
1600413597
1600413968
1600414660
1600414988
1600415321
1600416023
1600416342
1600416584
1600417063
1600417198
1600418617
1600418711
1600419748
1600419797
1600419469
1600420604
1600420655
1600420872
1600421646
1600421821
1600422101
1600423020
1600423619
1600423830
1600424159
1600424430
1600425444
1600425553
1600425687
1600426406
1600426386
1600426606
1600426995
1600426971
1600427423
1600428333
1600428464
1600429185
1600429465
1600430295
1600430252
1600430509
1600431389
1600431900
1600433416
1600434209
1600434396
1600434986
1600435469
1600436231
1600436276
1600436407
1600436526
1600437661
1600438307
1600438231
1600439060
1600438973
1600439856
1600440188
1600440560
1600442565
1600442670
1600443567
1600444106
1600444806
1600445506
1600445883
1600445877
1600445951
1600446391
1600446920
1600447038
1600447030
1600448715
1600448761
1600448952
1600449087
1600449276
1600449837
1600451246
1600451345
1600451665
1600451767
1600452018
1600452065
1600452401
1600452833
1600453384
1600453825
1600453995
1600454003
1600454703
1600455571
1600455904
1600457385
1600458710
1600458928
1600459053
1600459359
1600459598
1600459788
1600460303
1600460362
1600460908
1600461890
1600462182
1600463299
1600463343
1600463969
1600464248
1600465328
1600466208
1600466211
1600466269
1600466416
1600466914
1600467858
1600468965
1600469687
1600470011
1600470842
1600471062
1600471372
1600472000
1600471975
1600473423
1600473925
1600474118
1600474146
1600475498
1600475665
1600476011
1600476094
1600476719
1600476765
1600477101
1600477990
1600478957
1600479970
1600480512
1600481615
1600481970
1600482900
1600483523
1600483888
1600483921
1600484329
1600484438
1600484547
1600484663
1600485092
1600485695
1600485723
1600485942
1600486301
1600487238
1600487680
1600487933
1600488372
1600489068
1600489222
1600489961
1600490722
1600490882
1600491665
1600492305
1600492869
1600493357
1600493907
1600494742
1600495119
1600495159
1600495195
1600495158
1600495413
1600495442
1600495839
1600495962
1600496131
1600496299
1600496962
1600498723
1600500190
1600500537
1600500983
1600501234
1600501543
1600502373
1600502738
1600502867
1600503421
1600503405
1600503662
1600504139
1600505113
1600506751
1600506991
1600507242
1600507532
1600507684
1600508351
1600509111
1600510245
1600510967
1600511334
1600511544
1600511898
1600513246
1600513495
1600513728
1600513857
1600514726
1600514762
1600514935
1600516597
1600516750
1600517313
1600517540
1600518164
1600519336
1600519914
1600520128
1600520181
1600520267
1600520283
1600520325
1600521459
1600521576
1600522100
1600522382
1600522810
1600523463
1600524357
1600524387
1600525809
1600526151
1600526364
1600526737
1600527509
1600527543
1600527804
1600527827
1600528311
1600528425
1600529112
1600529873
1600531653
1600533135
1600533266
1600533290
1600533564
1600535456
1600535633
1600536154
1600537245
1600537819
1600538272
1600538335
1600538992
1600539031
1600539135
1600539703
1600540156
1600540523
1600540848
1600541106
1600541309
1600542750
1600543332
1600543371
1600543894
1600543881
1600543869
1600544533
1600544742
1600544847
1600544938
1600545020
1600544413
1600545056
1600545930
1600546547
1600547229
1600547000
1600547414
1600547512
1600548933
1600549720
1600549779
1600549873
1600550376
1600551709
1600552664
1600552901
1600552982
1600553206
1600554020
1600554306
1600554606
1600555261
1600555356
1600556043
1600556610
1600557357
1600557436
1600557512
1600558049
1600558245
1600559295
1600560384
1600560673
1600560895
1600561098
1600561235
1600561484
1600562135
1600562240
1600562594
1600563320
1600564742
1600565921
1600566199
1600566403
1600566411
1600566458
1600566522
1600567373
1600567404
1600567718
1600568261
1600568694
1600568745
1600568787
1600569035
1600569560
1600569797
1600570764
1600571499
1600572096
1600572387
1600572477
1600573430
1600573656
1600574212
1600574797
1600575320
1600576219
1600576324
1600577067
1600577421
1600578653
1600578693
1600578998
1600579097
1600579709
1600580098
1600580533
1600580810
1600581365
1600581400
1600580710
1600581682
1600581790
1600581830
1600582062
1600584247
1600585750
1600586693
1600586908
1600587479
1600587451
1600588958
1600589160
1600589471
1600590574
1600590853
1600590951
1600591484
1600591869
1600592367
1600592481
1600592871
1600593202
1600594156
1600595120
1600595663
1600596557
1600596504
1600596630
1600596767
1600597190
1600597285
1600597514
1600597598
1600598715
1600599064
1600599546
1600599735
1600600747
1600600707
1600601751
1600602196
1600602599
1600602845
1600603266
1600603531
1600603780
1600603849
1600604857
1600604868
1600604999
1600605430
1600605576
1600606410
1600606947
1600608720
1600608914
1600609250
1600609990
1600611061
1600611673
1600611779
1600612683
1600612777
1600613072
1600613724
1600614151
1600614403
1600614449
1600614903
1600616771
1600617119
1600617638
1600617752
1600618804
1600619537
1600621310
1600622068
1600622795
1600623557
1600623864
1600623929
1600624264
1600624160
1600625079
1600625694
1600626161
1600626191
1600626662
1600626921
1600626999
1600627572
1600627810
1600627994
1600628152
1600628277
1600629785
1600630963
1600631619
1600632121
1600633129
1600633459
1600633780
1600633459
1600634015
1600634677
1600635173
1600635588
1600636074
1600636217
1600637576
1600637575
1600638007
1600638146
1600638599
1600638671
1600638824
1600638845
1600638873
1600639410
1600639626
1600640587
1600640963
1600641497
1600641663
1600641666
1600642217
1600642794
1600643131
1600643335
1600643399
1600643369
1600643487
1600643192
1600644836
1600644999
1600645247
1600645550
1600645657
1600645922
1600646930
1600646904
1600647628
1600649565
1600650014
1600650141
1600650221
1600650999
1600651199
1600651186
1600652292
1600652924
1600653315
1600653644
1600654094
1600654799
1600655187
1600656327
1600656531
1600657566
1600658178
1600658247
1600659373
1600659151
1600659580
1600660428
1600660512
1600660584
1600660708
1600661063
1600661487
1600661591
1600661859
1600662093
1600663040
1600663303
1600664839
1600664868
1600665327
1600666119
1600666649
1600666943
1600667018
1600667194
1600667743
1600667618
1600668026
1600668289
1600668378
1600668820
1600669798
1600670132
1600670858
1600670884
1600671394
1600671672
1600672154
1600674219
1600674267
1600674433
1600674577
1600675549
1600675463
1600675839
1600676119
1600676933
1600677637
1600677857
1600678059
1600678512
1600678717
1600678845
1600679676
1600679683
1600681700
1600681845
1600683197
1600683470
1600684764
1600684807
1600684759
1600686515
1600686873
1600686938
1600687410
1600687930
1600688128
1600688523
1600688586
1600688810
1600689406
1600689709
1600691228
1600691552
1600691866
1600692076
1600692282
1600692891
1600693136
1600693613
1600693912
1600694543
1600694812
1600694907
1600694852
1600695364
1600696066
1600696747
1600696814
1600697073
1600697471
1600698636
1600698979
1600698946
1600699012
1600700631
1600701053
1600701442
1600702172
1600702906
1600703321
1600703365
1600704226
1600704509
1600704542
1600704703
1600704719
1600705635
1600706005
1600706555
1600707342
1600707912
1600707980
1600708196
1600708338
1600708521
1600708743
1600709018
1600709097
1600709701
1600709810
1600710600
1600710652
1600711216
1600711837
1600711993
1600712110
1600712395
1600712817
1600713213
1600714247
1600714781
1600714923
1600715999
1600716089
1600716108
1600715977
1600716677
1600716974
1600717007
1600717321
1600717525
1600718024
1600719256
1600719493
1600719583
1600719954
1600720211
1600720314
1600720368
1600720501
1600720572
1600720621
1600721243
1600721829
1600722686
1600723325
1600723358
1600723874
1600723897
1600723920
1600724113
1600725220
1600725432
1600725494
1600726348
1600727882
1600728372
1600729015
1600728837
1600729300
1600729904
1600730146
1600730262
1600730350
1600730439
1600731666
1600731749
1600731983
1600732376
1600732435
1600732480
1600732590
1600734204
1600734992
1600734642
1600735126
1600735356
1600735558
1600735654
1600735980
1600737022
1600737167
1600737340
1600737693
1600737821
1600740327
1600740555
1600740821
1600741827
1600742294
1600742557
1600742912
1600742947
1600743763
1600743784
1600744429
1600744650
1600744888
1600745092
1600745572
1600748028
1600748560
1600748664
1600749810
1600750158
1600750241
1600750907
1600751576
1600751250
1600752384
1600752369
1600752976
1600753015
1600753569
1600754662
1600755300
1600755582
1600755721
1600755911
1600756367
1600756572
1600756932
1600757073
1600757303
1600757615
1600757674
1600758369
1600758534
1600760446
1600760459
1600761112
1600761346
1600761077
1600761876
1600762543
1600764021
1600765650
1600765869
1600766734
1600766664
1600767110
1600767723
1600768082
1600767991
1600768341
1600768317
1600768712
1600768948
1600768856
1600769052
1600769101
1600769235
1600769623
1600769665
1600770507
1600770723
1600771317
1600771753
1600772097
1600771382
1600775004
1600775538
1600775577
1600775688
1600775697
1600775886
1600776837
1600777380
1600777392
1600777750
1600778220
1600778778
1600780029
1600780103
1600780170
1600780575
1600780503
1600782086
1600783409
1600783571
1600783934
1600784806
1600785422
1600785799
1600786160
1600786354
1600788412
1600790760
1600791713
1600792087
1600792258
1600793731
1600793959
1600794978
1600795386
1600795579
1600795603
1600795920
1600796867
1600796873
1600797914
1600798282
1600798537
1600798926
1600798793
1600799279
1600800999
1600801113
1600801728
1600801887
1600802702
1600802800
1600803001
1600803164
1600803251
1600802702
1600803465
1600803806
1600805497
1600805496
1600806410
1600807926
1600810066
1600810994
1600811107
1600811226
1600811590
1600812066
1600812109
1600812243
1600812315
1600813315
1600813629
1600813923
1600814708
1600814842
1600815006
1600814984
1600815267
1600815477
1600815551
1600815592
1600815669
1600815724
1600815924
1600816299
1600816554
1600817033
1600818108
1600818471
1600818837
1600818957
1600820621
1600821301
1600822347
1600823464
1600824385
1600825245
1600825336
1600825689
1600825994
1600826853
1600827009
1600827450
1600828040
1600828239
1600828280
1600831919
1600831913
1600832282
1600833840
1600833992
1600833963
1600834065
1600834668
1600836465
1600836631
1600836713
1600837417
1600838252
1600838623
1600839668
1600840452
1600840464
1600841565
1600842599
1600842724
1600842888
1600843213
1600843668
1600844106
1600844640
1600844673
1600845012
1600845198
1600845695
1600845717
1600845851
1600846048
1600846424
1600846591
1600846857
1600848354
1600848877
1600848686
1600849043
1600849804
1600850345
1600851453
1600851484
1600852542
1600853284
1600853384
1600854013
1600854672
1600855582
1600855813
1600856263
1600856367
1600856647
1600856594
1600857517
1600857562
1600857664
1600858576
1600858610
1600858715
1600858904
1600858884
1600859091
1600859369
1600859666
1600860248
1600860444
1600860714
1600861295
1600862224
1600862393
1600862575
1600865305
1600866768
1600866645
1600867135
1600867856
1600868911
1600870031
1600870122
1600870388
1600871458
1600871462
1600872192
1600873880
1600873873
1600874087
1600874796
1600874990
1600875272
1600875502
1600875843
1600876283
1600876342
1600876469
1600877082
1600877439
1600877653
1600878218
1600878332
1600878513
1600878608
1600879025
1600879009
1600879568
1600879907
1600880324
1600880349
1600880391
1600880464
1600880487
1600880596
1600880665
1600880690
1600881799
1600882471
1600882653
1600882890
1600882811
1600883528
1600884313
1600884379
1600884452
1600884718
1600885331
1600886405
1600887436
1600887757
1600888013
1600888596
1600889456
1600889774
1600890936
1600891007
1600891632
1600891745
1600892587
1600892940
1600893188
1600893406
1600893553
1600894528
1600894662
1600895361
1600895494
1600896414
1600897200
1600897564
1600897893
1600898060
1600898246
1600899295
1600899588
1600899939
1600900423
1600901655
1600902082
1600902621
1600903197
1600903277
1600903407
1600904000
1600904241
1600904466
1600904922
1600905040
1600905328
1600905255
1600905526
1600906858
1600908276
1600908549
1600908683
1600909022
1600909086
1600909774
1600909907
1600909963
1600910188
1600910610
1600910712
1600910908
1600911041
1600911276
1600911342
1600911989
1600912662
1600912853
1600913127
1600913759
1600914086
1600915078
1600917253
1600917658
1600917823
1600919318
1600919565
1600919588
1600919810
1600919958
1600920150
1600920589
1600921634
1600921775
1600921908
1600921925
1600923802
1600924021
1600924620
1600924753
1600924792
1600924916
1600926022
1600926596
1600927448
1600928381
1600928454
1600928941
1600929268
1600929602
1600930158
1600930179
1600930438
1600930619
1600930724
1600931415
1600932294
1600933035
1600934455
1600934676
1600935122
1600935378
1600936115
1600937150
1600938140
1600938703
1600939623
1600939800
1600940728
1600941842
1600941753
1600941896
1600942032
1600942916
1600942902
1600944440
1600944565
1600944708
1600945991
1600946295
1600946908
1600947126
1600947294
1600947916
1600951499
1600951693
1600951705
1600951846
1600952101
1600952306
1600952839
1600953818
1600953727
1600953820
1600954470
1600955116
1600955947
1600956039
1600956045
1600956820
1600956961
1600958153
1600958245
1600958388
1600958908
1600960036
1600960334
1600960706
1600960693
1600961390
1600961421
1600962424
1600962464
1600963265
1600963962
1600964740
1600964748
1600964886
1600965218
1600965948
1600966227
1600966559
1600967416
1600967785
1600967812
1600967740
1600968276
1600969178
1600969275
1600969508
1600970304
1600970440
1600971436
1600971446
1600971788
1600971938
1600972218
1600972515
1600972842
1600974011
1600974199
1600974689
1600975034
1600976250
1600976643
1600977031
1600977759
1600978778
1600978998
1600979409
1600979443
1600979520
1600979936
1600979981
1600980183
1600980612
1600980793
1600981192
1600981722
1600981837
1600981866
1600982213
1600983075
1600983885
1600984536
1600985300
1600985513
1600985534
1600985762
1600985888
1600986367
1600987205
1600988061
1600988425
1600989211
1600989537
1600989910
1600991373
1600991580
1600992062
1600992236
1600992929
1600993044
1600993938
1600994219
1600994314
1600994611
1600994665
1600994784
1600995022
1600995769
1600996270
1600998530
1600998820
1600999258
1600999309
1601000208
1601000396
1601000694
1601001526
1601001524
1601001752
1601002437
1601002638
1601003059
1601005209
1601005251
1601005543
1601005727
1601006130
1601006340
1601006524
1601006769
1601008545
1601008285
1601008716
1601010694
1601011014
1601011202
1601011449
1601012022
1601014365
1601014472
1601014679
1601015076
1601015367
1601015108
1601015466
1601015717
1601016193
1601016303
1601016322
1601016529
1601016692
1601016767
1601016958
1601017571
1601017782
1601017875
1601018447
1601019188
1601019272
1601019397
1601020283
1601020590
1601020845
1601021668
1601022839
1601023141
1601024833
1601025049
1601025442
1601025482
1601025644
1601026405
1601026566
1601027194
1601027832
1601028162
1601029012
1601030582
1601030919
1601031490
1601031744
1601032064
1601032615
1601032720
1601034372
1601034661
1601035822
1601036255
1601036961
1601037104
1601037130
1601037661
1601037756
1601037946
1601041072
1601041095
1601041889
1601042256
1601042718
1601043488
1601043909
1601044952
1601045303
1601045344
1601046154
1601046428
1601046729
1601046869
1601047341
1601047916
1601048272
1601048402
1601048608
1601048870
1601049437
1601049493
1601049746
1601050311
1601050616
1601051133
1601051194
1601051421
1601051470
1601051510
1601052136
1601052487
1601052526
1601052919
1601053254
1601053778
1601054386
1601055310
1601055768
1601056032
1601056605
1601056655
1601057534
1601057706
1601058093
1601059020
1601059502
1601059966
1601060970
1601061265
1601062398
1601062693
1601063677
1601064505
1601065341
1601065380
1601066054
1601066214
1601066284
1601066455
1601066444
1601066554
1601067280
1601067270
1601067373
1601068716
1601069007
1601069012
1601069071
1601069249
1601069473
1601069950
1601070253
1601070054
1601070425
1601070484
1601071215
1601071974
1601072037
1601072137
1601072358
1601072365
1601072629
1601072630
1601072960
1601073233
1601074808
1601075772
1601076074
1601076604
1601076666
1601076754
1601076734
1601076914
1601077331
1601077707
1601078613
1601078719
1601079268
1601079610
1601080160
1601081466
1601081500
1601081843
1601083333
1601083376
1601084596
1601085276
1601085661
1601085276
1601085988
1601086307
1601086636
1601086803
1601087368
1601087453
1601088003
1601089250
1601090303
1601091065
1601091459
1601091850
1601093084
1601093162
1601093429
1601094013
1601094665
1601094868
1601095000
1601095233
1601095399
1601095545
1601095715
1601095959
1601096071
1601096342
1601097457
1601097663
1601097960
1601098232
1601099441
1601099460
1601100426
1601100703
1601101926
1601102072
1601102082
1601102532
1601102794
1601103972
1601104386
1601104510
1601104681
1601105489
1601105757
1601107061
1601107154
1601107149
1601107180
1601107276
1601107332
1601108506
1601108310
1601109361
1601109758
1601111623
1601112262
1601112352
1601112533
1601113658
1601113885
1601113962
1601114311
1601114365
1601114078
1601115587
1601116379
1601116814
1601117731
1601117760
1601118416
1601118826
1601119070
1601119213
1601119262
1601119383
1601119591
1601119614
1601119668
1601120928
1601120878
1601121906
1601121946
1601122914
1601123212
1601123430
1601123846
1601125234
1601125271
1601125278
1601125983
1601126633
1601127182
1601127289
1601128559
1601128683
1601128678
1601129924
1601130986
1601131081
1601131188
1601131660
1601131819
1601132171
1601132552
1601132818
1601133895
1601134089
1601134218
1601134585
1601135075
1601135753
1601135920
1601136299
1601136093
1601137111
1601137358
1601137853
1601138462
1601138607
1601138811
1601138644
1601138926
1601139155
1601139830
1601139828
1601140610
1601141220
1601141564
1601142802
1601143149
1601143250
1601143333
1601143558
1601143956
1601144138
1601144640
1601145084
1601145444
1601145615
1601146381
1601146825
1601146906
1601146842
1601147524
1601147582
1601148228
1601148382
1601148349
1601148607
1601148837
1601149287
1601149382
1601150117
1601150323
1601151944
1601153470
1601153530
1601153382
1601153820
1601154097
1601154145
1601154715
1601155029
1601155349
1601155674
1601156538
1601157679
1601158359
1601158520
1601158673
1601157918
1601158957
1601159986
1601161680
1601161695
1601161812
1601162211
1601162175
1601162315
1601162560
1601162590
1601162763
1601163690
1601163782
1601163827
1601164391
1601165256
1601165748
1601165850
1601166203
1601166277
1601167404
1601167445
1601167738
1601167782
1601168496
1601168940
1601169734
1601170060
1601170285
1601170725
1601170840
1601170878
1601171150
1601171300
1601172147
1601172504
1601172810
1601172987
1601173217
1601173900
1601173993
1601175532
1601175809
1601175865
1601176449
1601176712
1601176766
1601177202
1601179487
1601180324
1601180518
1601180621
1601180792
1601181084
1601181332
1601181751
1601181865
1601182736
1601182909
1601183671
1601183784
1601184357
1601184443
1601184967
1601185030
1601185191
1601185155
1601185229
1601185935
1601186068
1601186682
1601187016
1601187066
1601187308
1601188094
1601188807
1601189154
1601189386
1601189623
1601191909
1601192401
1601192493
1601192988
1601193023
1601193388
1601193677
1601193640
1601193885
1601194031
1601194175
1601194218
1601194893
1601195154
1601195815
1601196365
1601197650
1601197829
1601198867
1601199198
1601199358
1601199299
1601199816
1601199780
1601201260
1601201609
1601202078
1601203217
1601203582
1601204201
1601204340
1601204381
1601204593
1601205123
1601205060
1601205226
1601205251
1601205477
1601205999
1601206417
1601206744
1601207002
1601207231
1601207618
1601207939
1601208231
1601208587
1601208887
1601209029
1601209229
1601209295
1601210725
1601210768
1601212652
1601212673
1601213109
1601213935
1601215704
1601216204
1601217239
1601217571
1601217577
1601217800
1601218542
1601218763
1601219185
1601219499
1601219838
1601221285
1601221606
1601222954
1601223372
1601223729
1601224493
1601224423
1601224770
1601225006
1601226426
1601227187
1601227488
1601228141
1601228225
1601229190
1601230000
1601231182
1601231287
1601232253
1601232657
1601234066
1601234756
1601235109
1601235594
1601235705
1601236138
1601236317
1601236451
1601237475
1601238130
1601239411
1601239787
1601240067
1601240180
1601240981
1601241643
1601242514
1601243305
1601243627
1601244801
1601244838
1601245241
1601245603
1601245775
1601246329
1601246966
1601247377
1601249651
1601249950
1601250448
1601251365
1601251358
1601251548
1601251563
1601253044
1601253210
1601254285
1601254365
1601254900
1601256258
1601257596
1601258202
1601258473
1601258878
1601261757
1601267341
1601267550
1601268644
1601270304
1601270754
1601270966
1601271026
1601271108
1601271142
1601271357
1601271634
1601271603
1601271388
1601272833
1601273018
1601273843
1601273955
1601273991
1601274260
1601274579
1601274792
1601274962
1601275274
1601275344
1601276128
1601276203
1601277012
1601277226
1601277367
1601277991
1601278364
1601278318
1601279220
1601279860
1601279898
1601280155
1601280194
1601280690
1601281082
1601281212
1601281364
1601281452
1601281417
1601282012
1601282488
1601282671
1601283338
1601283689
1601284141
1601285262
1601285327
1601285767
1601285844
1601286369
1601287510
1601287552
1601288489
1601289415
1601289921
1601290136
1601290428
1601290576
1601290525
1601290951
1601290990
1601292034
1601292045
1601292655
1601292752
1601293779
1601294078
1601294582
1601294593
1601295349
1601295474
1601296543
1601297364
1601297670
1601297755
1601298347
1601299018
1601299372
1601299943
1601300850
1601301146
1601300920
1601301226
1601302144
1601303319
1601303471
1601303636
1601304053
1601304484
1601304794
1601304907
1601305358
1601305549
1601306156
1601306271
1601306334
1601307817
1601308235
1601308765
1601309525
1601309605
1601310356
1601310478
1601310483
1601310613
1601310757
1601311771
1601312232
1601313083
1601313037
1601315298
1601317244
1601317373
1601317724
1601317965
1601318612
1601319309
1601321964
1601322279
1601322673
1601322975
1601323546
1601323537
1601324099
1601324451
1601324523
1601324529
1601326005
1601326208
1601326456
1601327175
1601327515
1601327506
1601327709
1601328126
1601329209
1601329945
1601330318
1601330412
1601330800
1601331055
1601331962
1601332094
1601332643
1601333199
1601334707
1601335418
1601335793
1601335874
1601336308
1601336448
1601336571
1601336860
1601338023
1601338208
1601338599
1601339017
1601340054
1601340826
1601341118
1601342995
1601344029
1601345661
1601346422
1601346648
1601346749
1601347203
1601347527
1601347814
1601348978
1601349159
1601349199
1601349384
1601349465
1601349779
1601350106
1601350449
1601350673
1601351199
1601351910
1601352770
1601353080
1601353174
1601354218
1601354439
1601354549
1601355001
1601355023
1601356228
1601356278
1601357175
1601357984
1601358845
1601358944
1601359164
1601360073
1601362105
1601362774
1601362909
1601363607
1601364805
1601365091
1601365187
1601365364
1601365403
1601365698
1601365834
1601366244
1601366612
1601367733
1601368072
1601368808
1601370106
1601370402
1601370879
1601372313
1601372846
1601374043
1601374256
1601374472
1601374943
1601376099
1601377071
1601379421
1601379418
1601379369
1601380527
1601380854
1601380947
1601381606
1601382019
1601382735
1601382848
1601383285
1601383483
1601383981
1601384236
1601383752
1601384269
1601385457
1601385551
1601385936
1601386249
1601386597
1601387520
1601387786
1601388047
1601388254
1601388570
1601388709
1601390404
1601390849
1601391274
1601391304
1601391914
1601391961
1601392563
1601392559
1601392679
1601392839
1601392963
1601393294
1601393660
1601394071
1601394321
1601394391
1601394925
1601396067
1601396171
1601396223
1601396971
1601397375
1601397970
1601398072
1601398273
1601398339
1601398767
1601399911
1601400147
1601400835
1601401260
1601401630
1601401866
1601401931
1601402154
1601402343
1601403049
1601403536
1601404225
1601404586
1601404783
1601405856
1601406812
1601407112
1601407206
1601408127
1601408201
1601408848
1601409022
1601409385
1601410051
1601410406
1601410868
1601411426
1601412218
1601412263
1601412292
1601412606
1601413088
1601413301
1601413447
1601413637
1601414123
1601414808
1601415941
1601416402
1601416828
1601417009
1601417414
1601419288
1601419298
1601421224
1601421344
1601421476
1601421751
1601421999
1601422106
1601422414
1601423025
1601424090
1601424092
1601424329
1601424598
1601424879
1601424930
1601425463
1601425578
1601426531
1601426774
1601428633
1601429169
1601430162
1601431784
1601433090
1601433786
1601434013
1601434063
1601434381
1601434708
1601435810
1601436820
1601437398
1601437887
1601438153
1601438565
1601439885
1601440913
1601441201
1601441464
1601442101
1601443425
1601444118
1601444407
1601444562
1601445285
1601445368
1601445513
1601445515
1601446303
1601446648
1601447904
1601448206
1601448413
1601449158
1601449757
1601449875
1601450085
1601450286
1601450322
1601450378
1601450381
1601450349
1601450786
1601451017
1601453147
1601453385
1601453786
1601454271
1601455837
1601456409
1601456505
1601457355
1601457596
1601458962
1601459439
1601460162
1601460451
1601460848
1601461096
1601461533
1601461870
1601462323
1601462430
1601463409
1601464285
1601464386
1601465559
1601466111
1601466342
1601467026
1601467505
1601469587
1601469642
1601470691
1601470926
1601471286
1601473173
1601473297
1601473620
1601473803
1601474033
1601474014
1601474251
1601474911
1601475130
1601475189
1601475538
1601475987
1601476190
1601476986
1601477835
1601478439
1601479178
1601479319
1601480736
1601481303
1601481524
1601481865
1601482042
1601483579
1601483647
1601484449
1601485207
1601485650
1601485782
1601486315
1601486413
1601485782
1601486458
1601486618
1601487126
1601487575
1601487588
1601488140
1601488394
1601488477
1601488619
1601489069
1601490549
1601491560
1601491852
1601491918
1601491924
1601492056
1601492588
1601493572
1601494341
1601494415
1601495184
1601495728
1601496029
1601496137
1601496039
1601496865
1601497225
1601497782
1601497930
1601499081
1601500722
1601500782
1601501653
1601501763
1601503561
1601503803
1601503860
1601504791
1601506285
1601506350
1601507227
1601507546
1601507604
1601507845
1601507886
1601509175
1601509128
1601509307
1601509606
1601509889
1601510165
1601510224
1601510331
1601510734
1601510893
1601510999
1601512252
1601512305
1601512585
1601512525
1601512702
1601513069
1601513334
1601513479
1601513845
1601513980
1601514527
1601514584
1601514712
1601514862
1601515249
1601515652
1601515904
1601515939
1601516284
1601516717
1601517278
1601517617
1601518433
1601518988
1601519148
1601519280
1601519589
1601520618
1601521845
1601522965
1601523592
1601524092
1601524673
1601525477
1601526071
1601526755
1601526805
1601526859
1601527203
1601527661
1601527878
1601528738
1601528789
1601529426
1601530234
1601530392
1601530811
1601531303
1601531415
1601532419
1601532625
1601533233
1601533960
1601534440
1601535071
1601535541
1601536327
1601536328
1601537188
1601537826
1601538414
1601538686
1601538691
1601539394
1601539789
1601539953
1601540734
1601541716
1601541681
1601541801
1601541949
1601541971
1601542078
1601543265
1601543594
1601546339
1601548381
1601548513
1601548695
1601549189
1601549369
1601549477
1601550055
1601550571
1601550983
1601551169
1601551451
1601551463
1601551366
1601551794
1601551727
1601551855
1601552204
1601552535
1601552747
1601553140
1601553260
1601553449
1601554444
1601554620
1601555192
1601555354
1601555496
1601555802
1601555778
1601556144
1601556721
1601557348
1601558089
1601559324
1601559582
1601560014
1601560181
1601561177
1601561426
1601561729
1601563333
1601563547
1601563862
1601564635
1601565055
1601566221
1601566798
1601566883
1601567256
1601567507
1601569335
1601570969
1601571260
1601572452
1601572886
1601572943
1601574315
1601574317
1601574956
1601575075
1601575528
1601575962
1601576775
1601576822
1601577125
1601577775
1601578764
1601579423
1601579982
1601580777
1601582284
1601582349
1601583267
1601584452
1601584795
1601585699
1601587816
1601587933
1601588597
1601588823
1601589266
1601589433
1601591194
1601593337
1601593709
1601593903
1601595130
1601595793
1601595977
1601596309
1601596542
1601597369
1601597459
1601597729
1601597793
1601598268
1601599743
1601599957
1601600520
1601601645
1601602027
1601602475
1601603859
1601603980
1601604440
1601605132
1601605299
1601607364
1601607650
1601607768
1601607833
1601608011
1601608144
1601609068
1601609425
1601609780
1601610132
1601610292
1601610531
1601611124
1601611152
1601611637
1601611773
1601612031
1601612995
1601613295
1601613567
1601613612
1601613985
1601615203
1601615379
1601615656
1601616053
1601616046
1601616220
1601616114
1601617685
1601617798
1601618084
1601618326
1601618868
1601619314
1601619888
1601620053
1601620246
1601620414
1601620752
1601620976
1601621529
1601621574
1601621711
1601622367
1601622428
1601622522
1601622768
1601623321
1601623967
1601623960
1601623985
1601625109
1601625406
1601625390
1601625852
1601626123
1601626281
1601626377
1601626279
1601627211
1601628060
1601628156
1601629571
1601629718
1601630946
1601631118
1601631397
1601631608
1601632129
1601633436
1601633719
1601634428
1601635974
1601635986
1601636391
1601636776
1601637397
1601637432
1601637492
1601637476
1601637756
1601637866
1601638027
1601638809
1601639278
1601640024
1601640881
1601641336
1601641444
1601641950
1601642459
1601642477
1601643354
1601643723
1601643873
1601644100
1601644712
1601645962
1601646029
1601646134
1601646727
1601648809
1601649346
1601649812
1601649918
1601650140
1601651415
1601651724
1601651768
1601652102
1601652146
1601652829
1601652868
1601654133
1601654313
1601654837
1601655823
1601656836
1601657754
1601658420
1601658717
1601658893
1601658904
1601659218
1601659232
1601659654
1601661404
1601661437
1601662560
1601663165
1601664396
1601664622
1601664999
1601665094
1601665177
1601665511
1601665630
1601665821
1601665974
1601666731
1601666992
1601667241
1601667776
1601667882
1601668061
1601668470
1601668816
1601669702
1601669922
1601670045
1601670563
1601672339
1601672830
1601673686
1601674017
1601674290
1601674998
1601675453
1601675497
1601675971
1601676821
1601678007
1601678068
1601678358
1601678485
1601678607
1601678766
1601678444
1601679888
1601679818
1601681126
1601681376
1601681432
1601681813
1601681962
1601682265
1601682262
1601682767
1601683044
1601683368
1601683709
1601683925
1601684308
1601685432
1601686455
1601687049
1601688123
1601688347
1601688817
1601688862
1601690172
1601690267
1601690346
1601691175
1601691987
1601692316
1601692305
1601692897
1601692764
1601693117
1601693061
1601694338
1601694350
1601696351
1601697133
1601698415
1601699485
1601699942
1601700832
1601701655
1601701691
1601702144
1601702496
1601702466
1601702721
1601702808
1601703041
1601703335
1601703737
1601704090
1601705001
1601705897
1601706433
1601706620
1601707781
1601708231
1601708483
1601708625
1601709109
1601709337
1601709458
1601709483
1601709948
1601710325
1601710740
1601711341
1601712115
1601712490
1601712765
1601712982
1601713138
1601713204
1601713497
1601713520
1601714036
1601714167
1601714920
1601714951
1601714995
1601715044
1601715618
1601715934
1601715924
1601716151
1601717434
1601717564
1601718108
1601718430
1601718769
1601719025
1601719613
1601720255
1601720550
1601720656
1601720692
1601720759
1601721027
1601721359
1601721299
1601721732
1601722106
1601722764
1601723126
1601723840
1601724303
1601724920
1601724997
1601725252
1601726628
1601726906
1601727241
1601727297
1601729344
1601730694
1601731472
1601731862
1601731904
1601732006
1601732519
1601732851
1601733087
1601734076
1601734377
1601734511
1600041596
1603065081
1603065396
1603065795
1603065688
1603066396
1603066864
1603067314
1603068230
1603068342
1603069335
1603069529
1603070724
1603071175
1603071203
1603071791
1603072376
1603072743
1603072331
1603072892
1603073526
1603073619
1603074681
1603074699
1603075117
1603075341
1603075706
1603076371
1603077031
1603077418
1603077388
1603077505
1603077638
1603078805
1603079173
1603079342
1603079886
1603080378
1603081130
1603081639
1603082839
1603083119
1603082104
1603083993
1603084910
1603084996
1603085415
1603085659
1603086619
1603087362
1603087674
1603087740
1603088304
1603088396
1603089044
1603089544
1603089557
1603090596
1603090813
1603090993
1603091924
1603092725
1603093144
1603093482
1603094930
1603094959
1603095493
1603095986
1603096665
1603097039
1603097146
1603098288
1603098394
1603100250
1603100737
1603100498
1603101710
1603101773
1603102111
1603102633
1603102926
1603103153
1603103219
1603103546
1603104814
1603105584
1603105656
1603106430
1603106397
1603106628
1603106734
1603106864
1603107071
1603107266
1603107376
1603107509
1603107738
1603107886
1603107915
1603108295
1603108915
1603109149
1603109621
1603110300
1603110929
1603111633
1603111655
1603111558
1603112223
1603113167
1603113143
1603115373
1603115360
1603115376
1603115504
1603115879
1603116159
1603118069
1603119256
1603119658
1603120050
1603121450
1603121182
1603122879
1603123168
1603123265
1603124214
1603123915
1603125493
1603125879
1603126027
1603126300
1603126294
1603127270
1603127086
1603127989
1603128327
1603129299
1603129808
1603129447
1603132727
1603133539
1603133908
1603134434
1603135402
1603136163
1603136963
1603138084
1603138078
1603139636
1603140211
1603140853
1603140862
1603141256
1603141671
1603142484
1603142513
1603142985
1603143194
1603144107
1603144469
1603144630
1603144977
1603146379
1603147062
1603147266
1603147838
1603148373
1603148649
1603150486
1603150772
1603150583
1603151052
1603151497
1603151548
1603152317
1603153235
1603153334
1603153892
1603153928
1603154930
1603155204
1603155660
1603156141
1603156646
1603157125
1603157825
1603156775
1603158117
1603160342
1603160528
1603161735
1603163130
1603163123
1603163724
1603165123
1603165600
1603165721
1603166250
1603166574
1603166827
1603168006
1603167995
1603168203
1603168183
1603168310
1603169532
1603170566
1603171539
1603172061
1603172516
1603172525
1603172144
1603172498
1603173428
1603174524
1603175751
1603177860
1603178124
1603178597
1603178849
1603179161
1603180062
1603180298
1603180432
1603180791
1603180880
1603182243
1603182393
1603182839
1603182534
1603183543
1603184159
1603183920
1603184153
1603184831
1603184652
1603185593
1603185967
1603186251
1603186260
1603186532
1603186729
1603187630
1603187655
1603188129
1603188269
1603188469
1603189199
1603189634
1603189771
1603189907
1603190544
1603190937
1603190998
1603191658
1603191747
1603192158
1603192190
1603192093
1603192442
1603192769
1603193282
1603192932
1603192681
1603193683
1603194328
1603195552
1603196398
1603196985
1603198334
1603199214
1603199802
1603200136
1603200304
1603200646
1603200888
1603201116
1603201398
1603203549
1603204192
1603204289
1603204558
1603204841
1603204834
1603205290
1603205205
1603206182
1603206692
1603208159
1603208327
1603208741
1603209403
1603209979
1603210250
1603211413
1603213160
1603213975
1603214254
1603214825
1603214728
1603215126
1603214989
1603215350
1603215851
1603215929
1603216190
1603216650
1603216914
1603217007
1603217400
1603218814
1603219331
1603219537
1603219628
1603220176
1603220380
1603220282
1603221613
1603222373
1603222715
1603222626
1603222911
1603222973
1603223297
1603223521
1603224800
1603224641
1603225102
1603226047
1603226666
1603227067
1603227491
1603227890
1603228828
1603229281
1603229257
1603230361
1603230199
1603230580
1603231307
1603231494
1603231782
1603231993
1603233455
1603234040
1603233910
1603234223
1603234869
1603234955
1603235968
1603236096
1603236822
1603237981
1603238121
1603238529
1603239644
1603241820
1603242509
1603242601
1603243142
1603243099
1603243213
1603243391
1603243478
1603243617
1603243614
1603244797
1603245524
1603246207
1603247623
1603247608
1603247545
1603247263
1603248450
1603249502
1603249723
1603249887
1603250350
1603250228
1603250520
1603251795
1603252080
1603252263
1603252672
1603252747
1603253062
1603254677
1603254878
1603255267
1603255704
1603255543
1603255864
1603256760
1603256923
1603257013
1603257312
1603258731
1603258923
1603258993
1603259730
1603260370
1603260774
1603260746
1603260920
1603261042
1603261107
1603261500
1603262561
1603264082
1603264657
1603264677
1603265127
1603266666
1603266597
1603267241
1603268045
1603268123
1603268447
1603269243
1603269968
1603270035
1603270375
1603270536
1603271445
1603271637
1603272772
1603272845
1603273730
1603273962
1603274493
1603276245
1603276284
1603276668
1603277293
1603278244
1603278539
1603279415
1603280644
1603280797
1603281189
1603282024
1603283827
1603284302
1603284444
1603284894
1603284984
1603284325
1603285049
1603285682
1603285893
1603286360
1603286977
1603287105
1603287159
1603288266
1603288446
1603289138
1603289231
1603289216
1603290928
1603291131
1603291611
1603292344
1603292734
1603293382
1603293807
1603293829
1603293821
1603295358
1603295385
1603295973
1603296709
1603296759
1603297073
1603297679
1603297587
1603298853
1603299971
1603300897
1603300745
1603301436
1603301718
1603302543
1603302625
1603303302
1603303326
1603303683
1603303912
1603305705
1603305708
1603306465
1603306138
1603306432
1603307127
1603307163
1603307295
1603308311
1603309405
1603309802
1603310201
1603310237
1603311010
1603310655
1603311889
1603312847
1603313105
1603314500
1603314947
1603315441
1603315786
1603317070
1603317552
1603318245
1603318274
1603318941
1603318926
1603319114
1603319787
1603320037
1603320192
1603320776
1603320955
1603321243
1603322374
1603322953
1603323291
1603323269
1603324184
1603325015
1603325482
1603325882
1603327325
1603327916
1603328097
1603328497
1603328925
1603330791
1603331452
1603332542
1603333818
1603334043
1603334353
1603334961
1603335381
1603335492
1603335648
1603335864
1603336343
1603336446
1603336732
1603337034
1603337191
1603337121
1603337201
1603337301
1603337998
1603338905
1603339282
1603339790
1603340296
1603341229
1603341590
1603342674
1603342862
1603343425
1603343518
1603345116
1603345376
1603345360
1603345371
1603346751
1603347825
1603347744
1603349105
1603349286
1603349534
1603349917
1603349950
1603350348
1603350538
1603351051
1603351216
1603351229
1603351364
1603351456
1603351560
1603351980
1603352194
1603352603
1603354480
1603354596
1603354682
1603354923
1603355975
1603356323
1603356545
1603356516
1603357392
1603357410
1603357450
1603357492
1603357161
1603360102
1603360465
1603360612
1603360982
1603360824
1603361357
1603361828
1603362746
1603363363
1603363610
1603363717
1603364233
1603364614
1603366344
1603366634
1603367266
1603367482
1603368728
1603368951
1603369207
1603369980
1603370485
1603370805
1603371236
1603371276
1603371430
1603371555
1603372058
1603372074
1603372036
1603373186
1603375673
1603375870
1603376251
1603376310
1603376382
1603377898
1603379209
1603380032
1603380123
1603380244
1603380122
1603380294
1603380774
1603380651
1603380962
1603381477
1603382353
1603382400
1603383017
1603383821
1603385326
1603385342
1603385473
1603386852
1603387554
1603388176
1603387840
1603388727
1603389101
1603389233
1603389777
1603390057
1603390248
1603391291
1603391660
1603392369
1603392651
1603392763
1603392898
1603392932
1603393380
1603393508
1603392950
1603394572
1603394776
1603395388
1603396019
1603396444
1603396760
1603396872
1603396789
1603397019
1603396950
1603397473
1603396733
1603398239
1603398952
1603399937
1603400383
1603402106
1603402800
1603403253
1603403922
1603404265
1603404371
1603404449
1603404446
1603404629
1603405360
1603407238
1603407233
1603408222
1603408796
1603408808
1603409333
1603409697
1603409694
1603411357
1603411632
1603413227
1603413504
1603414715
1603414988
1603415298
1603416272
1603416997
1603418210
1603419337
1603419406
1603419745
1603420545
1603420583
1603422049
1603422125
1603422556
1603422595
1603423911
1603424226
1603424382
1603424539
1603424568
1603425271
1603426031
1603426293
1603426793
1603427990
1603428051
1603428719
1603429237
1603429565
1603429601
1603429555
1603429698
1603430158
1603430174
1603430654
1603430844
1603431364
1603431599
1603432670
1603432981
1603433587
1603434065
1603434191
1603434900
1603435611
1603436090
1603436327
1603436400
1603437260
1603437847
1603437960
1603438009
1603438770
1603438725
1603439485
1603439636
1603440759
1603440959
1603441005
1603442074
1603442354
1603444174
1603444001
1603444219
1603444694
1603444731
1603445614
1603447228
1603447672
1603448149
1603448283
1603448237
1603448885
1603449375
1603449432
1603449999
1603450635
1603450980
1603451479
1603452073
1603452925
1603453315
1603453688
1603453605
1603453787
1603453960
1603454328
1603454338
1603454429
1603455470
1603456577
1603456695
1603456767
1603457066
1603457583
1603457833
1603458304
1603459238
1603459774
1603460646
1603460835
1603460532
1603461918
1603462041
1603463708
1603463520
1603463898
1603464261
1603464705
1603464562
1603464917
1603465210
1603465278
1603464288
1603465059
1603465998
1603466274
1603466951
1603467590
1603468207
1603468805
1603469659
1603469594
1603470012
1603472771
1603472792
1603473070
1603473446
1603473616
1603473662
1603473886
1603474403
1603474555
1603474657
1603474781
1603475120
1603475334
1603476124
1603476228
1603476703
1603476654
1603477315
1603477882
1603478323
1603477630
1603478738
1603480106
1603480970
1603481145
1603481600
1603481897
1603481882
1603482559
1603483658
1603483713
1603484294
1603484518
1603485484
1603486727
1603486541
1603486615
1603487710
1603487934
1603488486
1603488900
1603490125
1603490536
1603490742
1603490909
1603491639
1603492100
1603492716
1603492822
1603492842
1603493124
1603493619
1603493727
1603494094
1603494076
1603494193
1603496476
1603496543
1603496898
1603497206
1603497699
1603497707
1603498671
1603499364
1603499905
1603500538
1603500695
1603501662
1603502179
1603502429
1603503519
1603503445
1603504005
1603505684
1603506790
1603507192
1603507155
1603507459
1603507703
1603507974
1603508951
1603509055
1603510106
1603509796
1603510690
1603511154
1603514657
1603515218
1603515837
1603516023
1603516528
1603518159
1603518758
1603519176
1603519510
1603519779
1603520038
1603520472
1603520604
1603520651
1603520938
1603520493
1603521064
1603522166
1603523052
1603523716
1603523938
1603524172
1603524514
1603524916
1603526021
1603526633
1603527677
1603527668
1603528004
1603528422
1603528920
1603529757
1603530220
1603530265
1603530835
1603531440
1603531735
1603533644
1603533880
1603534627
1603535488
1603535528
1603537063
1603537648
1603538340
1603538575
1603538802
1603541744
1603541687
1603542395
1603542686
1603542800
1603543225
1603543326
1603543516
1603543755
1603546802
1603546997
1603547148
1603547387
1603548482
1603549161
1603549057
1603549566
1603549692
1603550898
1603552620
1603554200
1603554190
1603555609
1603555638
1603555717
1603555776
1603555449
1603556100
1603557147
1603557332
1603558244
1603558103
1603558447
1603559124
1603560013
1603560308
1603561059
1603560973
1603561192
1603561585
1603562018
1603562028
1603562346
1603563276
1603563502
1603563704
1603565053
1603565117
1603565106
1603565337
1603565832
1603565946
1603566244
1603566727
1603567128
1603568530
1603568988
1603569373
1603569147
1603569883
1603570340
1603570449
1603571369
1603571968
1603572193
1603573175
1603573215
1603574309
1603576710
1603576816
1603576787
1603577492
1603577734
1603577766
1603578886
1603579094
1603579161
1603579148
1603563337
1603580601
1603580757
1603580759
1603580837
1603581386
1603581674
1603582139
1603581443
1603582703
1603582975
1603583312
1603583330
1603583702
1603583670
1603584726
1603584759
1603585252
1603585493
1603570370
1603585639
1603586253
1603586531
1603586274
1603587150
1603587561
1603588457
1603588520
1603589213
1603592326
1603592753
1603592866
1603593472
1603593627
1603594227
1603594769
1603594815
1603595692
1603596200
1603596397
1603596548
1603596696
1603596846
1603597077
1603596998
1603597550
1603598331
1603598701
1603598819
1603598752
1603598894
1603598198
1603599196
1603599418
1603599989
1603601205
1603601690
1603601764
1603602087
1603602421
1603603002
1603603313
1603603246
1603605096
1603605302
1603606135
1603607054
1603607745
1603607786
1603609200
1603609758
1603610361
1603611970
1603612143
1603612829
1603613644
1603614081
1603615130
1603615329
1603615516
1603615638
1603615737
1603615815
1603617000
1603617202
1603617205
1603617409
1603617997
1603617128
1603619925
1603620631
1603620639
1603620819
1603621118
1603621307
1603621977
1603622835
1603622869
1603623170
1603623410
1603624244
1603624217
1603624696
1603624888
1603625325
1603625654
1603626018
1603626041
1603627024
1603627183
1603627359
1603629065
1603629563
1603630089
1603630032
1603631629
1603631793
1603632205
1603632270
1603632338
1603632677
1603633867
1603635700
1603635978
1603637171
1603637493
1603637676
1603638451
1603639203
1603640102
1603640375
1603640450
1603640881
1603641215
1603641515
1603641531
1603642101
1603642754
1603642748
1603644171
1603644347
1603644470
1603644584
1603645150
1603645292
1603646122
1603647099
1603647488
1603647659
1603647858
1603648397
1603648590
1603650032
1603650134
1603650254
1603650263
1603650697
1603651034
1603651937
1603652614
1603653473
1603653861
1603654347
1603654340
1603655859
1603655948
1603656151
1603656320
1603656390
1603656860
1603658189
1603658623
1603659157
1603661162
1603661633
1603661657
1603662155
1603662190
1603662523
1603662679
1603662999
1603663358
1603664077
1603664694
1603665250
1603665385
1603666168
1603665509
1603668780
1603668948
1603669331
1603671854
1603672150
1603673051
1603674217
1603674228
1603674748
1603674723
1603674820
1603675033
1603675055
1603676196
1603676576
1603676776
1603677246
1603677884
1603678584
1603678622
1603678679
1603679096
1603680368
1603681148
1603681758
1603682777
1603683338
1603684384
1603684386
1603685319
1603685395
1603685699
1603685874
1603685974
1603687055
1603687181
1603688114
1603688432
1603688491
1603689796
1603690341
1603692028
1603692144
1603692623
1603692711
1603692890
1603693219
1603693373
1603693619
1603693791
1603694086
1603694330
1603695175
1603695271
1603695991
1603696568
1603696300
1603697521
1603697381
1603697963
1603698107
1603699058
1603699789
1603700025
1603700138
1603700418
1603702301
1603702487
1603703151
1603703414
1603703308
1603704561
1603705031
1603705355
1603705441
1603705701
1603706510
1603706734
1603706863
1603706913
1603706947
1603707105
1603707262
1603707240
1603708431
1603708357
1603708791
1603708982
1603709121
1603709016
1603709300
1603710426
1603710265
1603710547
1603711659
1603712001
1603712282
1603712762
1603713099
1603713220
1603713972
1603714130
1603714138
1603715149
1603715977
1603716856
1603716860
1603718444
1603718925
1603719278
1603720461
1603721032
1603721812
1603722633
1603723108
1603723350
1603723899
1603724019
1603724153
1603724192
1603724465
1603724512
1603726715
1603727400
1603727627
1603727425
1603727915
1603727985
1603728049
1603729051
1603729582
1603729560
1603729744
1603730024
1603731118
1603731163
1603731466
1603731546
1603731748
1603732576
1603733502
1603733485
1603733621
1603734196
1603734870
1603735007
1603735083
1603735570
1603736382
1603736846
1603736829
1603737061
1603737243
1603737882
1603737955
1603738237
1603738535
1603739007
1603739472
1603739999
1603740222
1603740272
1603740636
1603741132
1603741477
1603741622
1603741897
1603741900
1603741763
1603742260
1603743347
1603743974
1603744512
1603745328
1603745388
1603745522
1603746212
1603746164
1603746725
1603746869
1603747925
1603748431
1603748379
1603748977
1603749084
1603749327
1603749450
1603750265
1603750494
1603750921
1603751222
1603751199
1603751163
1603752392
1603754408
1603754504
1603755105
1603755860
1603755789
1603755881
1603757017
1603757200
1603757209
1603756638
1603757428
1603757554
1603757648
1603758581
1603759835
1603761106
1603762249
1603762619
1603762675
1603762884
1603763209
1603763823
1603763764
1603764097
1603764854
1603765602
1603765721
1603765377
1603767723
1603767742
1603768381
1603768736
1603769479
1603769982
1603770140
1603770757
1603771262
1603771836
1603772163
1603773958
1603774104
1603775146
1603775906
1603776016
1603776256
1603776509
1603777193
1603779009
1603779013
1603780385
1603780502
1603781050
1603781167
1603781743
1603781594
1603782205
1603782391
1603782139
1603782541
1603782617
1603782782
1603783427
1603783902
1603784114
1603784552
1603784741
1603784879
1603785147
1603785948
1603786416
1603786941
1603787363
1603788020
1603788258
1603789173
1603789275
1603789497
1603789464
1603791102
1603792707
1603792958
1603793508
1603793842
1603794079
1603794155
1603794122
1603794380
1603794416
1603794467
1603794622
1603794614
1603795135
1603795238
1603796126
1603796519
1603795940
1603880551
1603888063
1603889045
1603890856
1603891813
1603892573
1603892989
1603894036
1603894610
1603895622
1603897814
1603899432
1603901122
1603903490
1603905173
1603905211
1603907142
1603909153
1603909271
1603909670
1603910180
1603910777
1603911348
1603911385
1603911995
1603912352
1603912595
1603913561
1603914088
1603914402
1603916025
1603916112
1603917473
1603917480
1603918110
1603918851
1603919348
1603919650
1603919674
1603920649
1603921416
1603921448
1603922217
1603922845
1603924533
1603925489
1603925549
1603925627
1603927117
1603927323
1603927365
1603928709
1603929600
1603929836
1603930091
1603930049
1603930620
1603932232
1603933437
1603935800
1603936477
1603937415
1603937372
1603938625
1603938869
1603939065
1603940606
1603940678
1603940842
1603940235
1603941452
1603944030
1603944097
1603944833
1603946105
1603946294
1603947292
1603947503
1603947706
1603948996
1603950082
1603950146
1603950265
1603950647
1603951240
1603951251
1603952114
1603952577
1603952655
1603952635
1603953143
1603953231
1603954391
1603954842
1603954942
1603954938
1603955634
1603955797
1603959196
1603959191
1603959551
1603960261
1603961052
1603961332
1603962131
1603962903
1603962806
1603963019
1603963511
1603964216
1603964626
1603964937
1603965021
1603967034
1603969175
1603969374
1603969918
1603970141
1603971112
1603971212
1603971081
1603971389
1603971681
1603971674
1603972472
1603972871
1603974093
1603974077
1603974278
1603975468
1603974820
1603976050
1603976839
1603977063
1603977676
1603977849
1603978406
1603978407
1603978581
1603978752
1603979188
1603979200
1603980020
1603980653
1603980761
1603982205
1603982351
1603983299
1603983413
1603983878
1603983568
1603985525
1603986666
1603986881
1603987085
1603987898
1603988206
1603990511
1603990700
1603990832
1603991077
1603992571
1603992708
1603993205
1603993475
1603993543
1603993835
1603993970
1603993532
1603994064
1603994210
1603994882
1603995479
1603995650
1603995867
1603996142
1603996822
1603997357
1603997952
1603999204
1603999436
1603999636
1603999765
1604000602
1604001014
1604001296
1604001380
1604001791
1604001666
1604001859
1604001928
1604004317
1604004159
1604004550
1604006484
1604006398
1604007218
1604007339
1604007419
1604007931
1604008554
1604009172
1604009952
1604009840
1604009298
1604010649
1604011575
1604012904
1604013199
1604013146
1604013443
1604015061
1604015067
1604015296
1604016029
1604016124
1604016777
1604017172
1604017199
1604018017
1604018337
1604018403
1604018895
1604020158
1604019707
1604020542
1604021345
1604021803
1604021696
1604023768
1604023920
1604024174
1604027878
1604027890
1604028043
1604029322
1604029853
1604030311
1604031636
1604031629
1604031749
1604032264
1604032252
1604032710
1604032673
1604034085
1604034088
1604034119
1604035142
1604035486
1604037099
1604037592
1604037832
1604038383
1604038453
1604039017
1604039778
1604039623
1604040287
1604040383
1604041137
1604041726
1604041798
1604041957
1604042044
1604041882
1604043274
1604044021
1604043905
1604045151
1604047055
1604046593
1604047248
1604047448
1604048101
1604049306
1604049512
1604050035
1604050243
1604051006
1604051054
1604051539
1604052853
1604052884
1604052974
1604053643
1604054392
1604055082
1604055624
1604056295
1604056763
1604057555
1604058627
1604059399
1604060473
1604060882
1604061532
1604061845
1604062201
1604062804
1604064669
1604064701
1604064874
1604065088
1604065281
1604065663
1604065749
1604066451
1604066715
1604066727
1604069495
1604070055
1604070232
1604070660
1604070695
1604070837
1604071539
1604071404
1604071579
1604071890
1604072549
1604074942
1604075342
1604075858
1604075887
1604076887
1604077144
1604078029
1604078078
1604078691
1604078878
1604079000
1604080182
1604081825
1604082624
1604083355
1604084099
1604084702
1604085515
1604085936
1604086107
1604087200
1604087511
1604088639
1604088952
1604089481
1604089801
1604090736
1604091462
1604091819
1604092273
1604093548
1604094079
1604095204
1604095386
1604095661
1604096459
1604097467
1604097656
1604097549
1604100114
1604100213
1604100410
1604101354
1604100980
1604101379
1604101769
1604102436
1604102405
1604102500
1604102556
1604102298
1604103049
1604103601
1604104364
1604104777
1604105205
1604105430
1604106135
1604106121
1604106449
1604106615
1604106943
1604107067
1604107196
1604107621
1604108113
1604108697
1604108933
1604109347
1604109674
1604110508
1604111054
1604111115
1604111773
1604112187
1604112216
1604112856
1604113665
1604114217
1604116813
1604116787
1604117057
1604116703
1604118002
1604118268
1604118587
1604119090
1604119610
1604120274
1604120672
1604120671
1604121444
1604123134
1604124157
1604125936
1604126239
1604126477
1604128849
1604129006
1604129094
1604130566
1604131484
1604133337
1604133766
1604135235
1604135325
1604135402
1604135575
1604136421
1604136500
1604136710
1604137846
1604138296
1604139149
1604139245
1604139605
1604139923
1604140082
1604140557
1604140925
1604141336
1604141531
1604142180
1604142313
1604142424
1604142444
1604142957
1604143196
1604143543
1604143589
1604143467
1604144854
1604145384
1604145939
1604146019
1604146152
1604146763
1604147787
1604150067
1604150591
1604151162
1604151870
1604152465
1604153508
1604153630
1604154896
1604155035
1604155701
1604155960
1604156352
1604156687
1604157074
1604157417
1604157628
1604157601
1604158946
1604159940
1604160675
1604160651
1604161253
1604161752
1604162475
1604163071
1604163475
1604164074
1604163814
1604164641
1604165272
1604165336
1604165394
1604165450
1604165560
1604166322
1604166762
1604167202
1604167508
1604167613
1604167892
1604169370
1604169644
1604169747
1604170106
1604170557
1604171099
1604171619
1604171639
1604171600
1604172081
1604171961
1604172258
1604172484
1604173128
1604174644
1604174338
1604175819
1604176327
1604176404
1604176443
1604176996
1604177350
1604177596
1604177650
1604177951
1604178350
1604177646
1604178701
1604179891
1604180633
1604180733
1604180970
1604181676
1604182887
1604183007
1604183093
1604183362
1604183955
1604184702
1604185713
1604186867
1604188427
1604188749
1604188859
1604189287
1604189985
1604190558
1604191314
1604191435
1604191842
1604192461
1604192548
1604193160
1604193832
1604194992
1604195256
1604195419
1604195929
1604196133
1604196240
1604196417
1604197123
1604197618
1604197699
1604197625
1604197980
1604198803
1604199826
1604201065
1604201756
1604202038
1604202353
1604203303
1604203352
1604204808
1604204828
1604205527
1604205830
1604206212
1604206310
1604207298
1604207575
1604208800
1604208921
1604209063
1604209309
1604209315
1604209506
1604209676
1604209937
1604210378
1604210527
1604210726
1604208925
1604211277
1604211403
1604211465
1604211569
1604211697
1604212097
1604212324
1604212269
1604213193
1604213448
1604213540
1604213749
1604213963
1604214085
1604214571
1604214683
1604214444
1604215497
1604215665
1604216022
1604216126
1604216366
1604217035
1604217176
1604217556
1604217725
1604217715
1604218152
1604218278
1604218668
1604218661
1604219115
1604219671
1604220271
1604220392
1604220635
1604221573
1604222164
1604222622
1604222198
1604223321
1604223947
1604224018
1604224558
1604224770
1604225040
1604226046
1604226458
1604226328
1604226931
1604227199
1604227320
1604227500
1604226776
1604228400
1604228573
1604230053
1604230435
1604230843
1604231104
1604231166
1604231531
1604231776
1604232006
1604232999
1604230043
1604233258
1604233396
1604234768
1604235776
1604237107
1604237611
1604241941
1604243027
1604243144
1604244915
1604245446
1604245583
1604245533
1604245958
1604246195
1604246319
1604246969
1604247602
1604248112
1604249585
1604249504
1604250092
1604250129
1604250531
1604251541
1604252720
1604252742
1604253422
1604254324
1604254699
1604255826
1604255976
1604256040
1604256944
1604257170
1604258072
1604258405
1604259472
1604259519
1604259641
1604260470
1604260769
1604261047
1604261776
1604263092
1604263478
1604263829
1604264103
1604264175
1604264331
1604264930
1604264950
1604265099
1604265565
1604266918
1604267055
1604267484
1604267713
1604267758
1604268991
1604269451
1604270077
1604270171
1604270410
1604271019
1604272340
1604272500
1604272590
1604273113
1604273455
1604273417
1604274241
1604274868
1604275725
1604275734
1604275962
1604279150
1604279379
1604279816
1604280005
1604280078
1604280277
1604281190
1604281689
1604282939
1604283289
1604283602
1604283787
1604284677
1604285585
1604285659
1604286158
1604286451
1604287133
1604287460
1604287646
1604287686
1604287732
1604288749
1604289082
1604291520
1604291822
1604292174
1604292817
1604293585
1604294788
1604294944
1604295911
1604297557
1604297976
1604298170
1604298289
1604300572
1604301266
1604301776
1604302643
1604302762
1604303449
1604303878
1604304003
1604305068
1604305390
1604306049
1604306112
1604308040
1604308516
1604308923
1604309057
1604309940
1604310096
1604312093
1604312944
1604314171
1604315493
1604315670
1604315811
1604315840
1604317094
1604317271
1604317801
1604317816
1604317682
1604317900
1604318325
1604318803
1604318918
1604318948
1604319262
1604320245
1604320368
1604321837
1604322306
1604322448
1604322984
1604323290
1604323763
1604324021
1604325143
1604325109
1604325483
1604325717
1604326207
1604326460
1604327193
1604327536
1604328893
1604329232
1604330028
1604330398
1604333321
1604334298
1604334940
1604334949
1604335747
1604336582
1604336721
1604336850
1604337113
1604337128
1604337184
1604337319
1604336424
1604339704
1604341146
1604341549
1604342415
1604342682
1604342746
1604343334
1604343363
1604343437
1604344510
1604344715
1604344637
1604346828
1604347021
1604347290
1604347506
1604349003
1604349227
1604350326
1604350407
1604350812
1604350691
1604352117
1604352375
1604352491
1604352869
1604352837
1604353319
1604353296
1604353512
1604354272
1604354558
1604355070
1604355417
1604355422
1604356210
1604356612
1604356813
1604358088
1604358262
1604358390
1604359734
1604359937
1604360144
1604361153
1604361352
1604361267
1604363718
1604364407
1604365259
1604366129
1604366512
1604366785
1604366778
1604367070
1604368852
1604369899
1604370423
1604370912
1604371655
1604372290
1604372529
1604372567
1604372988
1604373071
1604373377
1604373567
1604373699
1604374029
1604374510
1604375440
1604375626
1604376964
1604377160
1604378384
1604378611
1604379994
1604380331
1604380837
1604381110
1604381339
1604382124
1604382225
1604422254
1604437835
1604447839
1604447915
1604448352
1604449689
1604450085
1604450412
1604450596
1604451492
1604452291
1604453298
1604454771
1604456672
1604456717
1604456821
1604458611
1604459582
1604461278
1604461979
1604462385
1604463085
1604464398
1604465017
1604465230
1604466708
1604467200
1604467359
1604467834
1604468022
1604469098
1604470317
1604471724
1604472373
1604472347
1604472838
1604472782
1604474931
1604474927
1604475414
1604476350
1604477347
1604477747
1604478166
1604478331
1604479302
1604481605
1604483319
1604485078
1604486239
1604486326
1604486431
1604486295
1604486948
1604487695
1604488554
1604489471
1604490022
1604490602
1604491302
1604492895
1604493279
1604493282
1604493318
1604493480
1604495303
1604495371
1604495439
1604496438
1604497299
1604498197
1604500732
1604501392
1604501601
1604502148
1604502815
1604503668
1604503949
1604503773
1604504476
1604505189
1604505777
1604506380
1604506482
1604506797
1604506936
1604507152
1604507913
1604508789
1604510136
1604510354
1604510933
1604512049
1604513464
1604513461
1604513569
1604514541
1604515280
1604515627
1604515261
1604516261
1604516185
1604517418
1604518078
1604518577
1604519293
1604519843
1604520154
1604520246
1604520921
1604521078
1604521858
1604522941
1604525503
1604527156
1604528229
1604529049
1604530323
1604530625
1604530997
1604531358
1604532763
1604532810
1604533488
1604533634
1604533697
1604533950
1604533879
1604535407
1604535966
1604536536
1604537540
1604538515
1604538737
1604539748
1604539904
1604540952
1604540999
1604541127
1604542140
1604542705
1604544189
1604544454
1604545009
1604545092
1604545901
1604546140
1604546280
1604546302
1604546286
1604546976
1604546874
1604548665
1604548293
1604548837
1604548868
1604549877
1604550640
1604551117
1604552043
1604553572
1604553732
1604554601
1604554605
1604554685
1604555260
1604555900
1604555908
1604555947
1604556578
1604556529
1604556788
1604556036
1604556539
1604557220
1604557364
1604557760
1604557530
1604558681
1604559396
1604559884
1604560094
1604560314
1604560352
1604560369
1604561299
1604561651
1604563362
1604563797
1604565203
1604565327
1604565863
1604565991
1604566793
1604567124
1604567680
1604567672
1604567738
1604568024
1604568005
1604568275
1604568189
1604568288
1604569213
1604570147
1604570383
1604571051
1604571385
1604571960
1604573444
1604573555
1604573502
1604573409
1604573984
1604574112
1604574154
1604574337
1604574543
1604574853
1604576421
1604577096
1604578364
1604579151
1604579526
1604579667
1604579833
1604580029
1604581087
1604581123
1604581563
1604581972
1604582820
1604583246
1604583966
1604584279
1604584506
1604585901
1604585859
1604586449
1604587575
1604588030
1604588443
1604588746
1604589705
1604589806
1604589913
1604590097
1604590111
1604591005
1604591571
1604591879
1604592472
1604593757
1604594056
1604594506
1604594740
1604595015
1604595228
1604596284
1604597347
1604597729
1604597916
1604598205
1604597820
1604598490
1604599003
1604599311
1604599751
1604600061
1604600734
1604600893
1604601147
1604601346
1604602421
1604603022
1604602976
1604603209
1604603351
1604603936
1604605737
1604606127
1604606508
1604606515
1604607233
1604607653
1604608743
1604608817
1604609091
1604609213
1604609741
1604609877
1604609918
1604610080
1604610615
1604611371
1604612796
1604613275
1604613622
1604613607
1604613915
1604614431
1604614948
1604615098
1604615794
1604616179
1604616381
1604617129
1604617344
1604617606
1604617593
1604617762
1604617825
1604618120
1604618810
1604619213
1604619616
1604621358
1604621688
1604621798
1604621510
1604622017
1604622122
1604622217
1604622274
1604622488
1604623249
1604626272
1604626491
1604626811
1604627045
1604627463
1604627641
1604628152
1604628235
1604628323
1604628063
1604629532
1604630564
1604631162
1604633628
1604634072
1604634089
1604635851
1604635870
1604637659
1604637739
1604637887
1604638018
1604638054
1604638235
1604639314
1604639472
1604639478
1604641212
1604641222
1604642223
1604642861
1604642884
1604642143
1604644513
1604644871
1604645556
1604646403
1604646456
1604646745
1604646869
1604647052
1604647615
1604647886
1604649264
1604649670
1604650002
1604650158
1604650342
1604650748
1604651222
1604651471
1604651262
1604651631
1604653272
1604653540
1604654152
1604654871
1604654919
1604656031
1604656278
1604656760
1604656933
1604657171
1604658086
1604658246
1604658242
1604658707
1604659146
1604659346
1604660218
1604660786
1604662306
1604662521
1604663752
1604664767
1604665122
1604665176
1604665643
1604667119
1604667596
1604668424
1604668484
1604668775
1604670093
1604670404
1604671015
1604671489
1604671880
1604672666
1604673509
1604673682
1604673674
1604673656
1604674132
1604674590
1604675408
1604675989
1604676052
1604676263
1604677322
1604678110
1604678244
1604678811
1604678857
1604680024
1604680813
1604681558
1604681570
1604681614
1604681715
1604682298
1604684141
1604684467
1604685218
1604685279
1604685930
1604686587
1604687125
1604687509
1604688114
1604688267
1604688901
1604688920
1604689353
1604689435
1604689736
1604689659
1604690584
1604690533
1604690573
1604690754
1604691011
1604691863
1604691939
1604691788
1604693523
1604693759
1604694099
1604694076
1604694269
1604694404
1604695152
1604695434
1604696179
1604696640
1604696799
1604697639
1604697846
1604699255
1604699852
1604699859
1604700829
1604701111
1604701436
1604702134
1604702158
1604702275
1604702738
1604702924
1604703057
1604704208
1604704510
1604704554
1604705237
1604705837
1604706557
1604706659
1604706877
1604707558
1604707863
1604708025
1604708044
1604708635
1604709263
1604710415
1604710510
1604711653
1604712199
1604713963
1604716818
1604716997
1604717267
1604717394
1604718153
1604719364
1604719974
1604719948
1604721350
1604721638
1604722286
1604722504
1604723124
1604723333
1604723308
1604723514
1604723516
1604723920
1604724647
1604725002
1604725141
1604726170
1604726608
1604726641
1604727424
1604728155
1604728650
1604729048
1604729374
1604730883
1604730962
1604731568
1604733031
1604733072
1604733196
1604733282
1604733446
1604734562
1604734935
1604735645
1604735735
1604736177
1604736791
1604738508
1604738782
1604739445
1604740321
1604741353
1604741832
1604742083
1604742065
1604742414
1604743174
1604743698
1604744842
1604744977
1604745657
1604745784
1604746271
1604746746
1604746893
1604747634
1604747870
1604748515
1604748556
1604748428
1604748794
1604750144
1604750201
1604749929
1604750437
1604750622
1604750802
1604751684
1604751918
1604752066
1604752982
1604753265
1604754356
1604754472
1604754487
1604754450
1604755646
1604755675
1604755927
1604757152
1604757876
1604758346
1604759535
1604760206
1604760231
1604760286
1604761909
1604762203
1604762847
1604763090
1604763093
1604763374
1604763120
1604763777
1604763156
1604763950
1604764272
1604764297
1604764237
1604764783
1604765078
1604765205
1604765687
1604765764
1604766372
1604767017
1604767118
1604767203
1604767366
1604767583
1604768220
1604768984
1604769535
1604769607
1604770686
1604770961
1604772624
1604772691
1604773470
1604773550
1604774182
1604774336
1604775086
1604775455
1604776127
1604776439
1604776841
1604777750
1604778252
1604778297
1604778784
1604779187
1604779175
1604779557
1604779896
1604781519
1604781661
1604782855
1604783107
1604783832
1604784872
1604785204
1604785387
1604785696
1604786606
1604787611
1604787821
1604787944
1604788693
1604788708
1604788875
1604789051
1604789826
1604790552
1604790806
1604791176
1604791350
1604791196
1604791482
1604791638
1604791540
1604792901
1604793104
1604792220
1604793238
1604793351
1604794750
1604795700
1604795773
1604796414
1604798361
1604798490
1604799067
1604799899
1604800170
1604801658
1604802071
1604802501
1604802928
1604803573
1604803684
1604804028
1604804202
1604804237
1604804448
1604804829
1604805962
1604807098
1604807138
1604807508
1604807780
1604807986
1604808308
1604808547
1604808798
1604809008
1604809294
1604809726
1604810786
1604811266
1604812158
1604812583
1604812951
1604813018
1604812970
1604813396
1604813779
1604814322
1604813676
1604815781
1604816019
1604816556
1604817166
1604817665
1604817719
1604818298
1604818693
1604818701
1604820365
1604821142
1604821346
1604822116
1604822613
1604822886
1604823293
1604824241
1604824313
1604824583
1604824712
1604824786
1604825644
1604825910
1604826119
1604826407
1604827705
1604827700
1604828387
1604828727
1604829241
1604829161
1604829964
1604831207
1604832526
1604832677
1604834369
1604835635
1604835737
1604835753
1604836389
1604836781
1604836922
1604838239
1604838335
1604838333
1604838946
1604839365
1604840034
1604840614
1604842472
1604843626
1604843879
1604844125
1604844990
1604846067
1604846638
1604847287
1604848125
1604848437
1604848498
1604848489
1604848803
1604849615
1604849628
1604850791
1604851032
1604851353
1604852568
1604853679
1604855243
1604855588
1604855907
1604856691
1604857194
1604857760
1604857730
1604857846
1604859356
1604859807
1604860535
1604860633
1604861685
1604862094
1604862642
1604862718
1604862811
1604862960
1604863138
1604863300
1604863618
1604864564
1604865473
1604865425
1604865646
1604866968
1604866832
1604866926
1604866994
1604867548
1604868232
1604868321
1604869122
1604869257
1604869250
1604869812
1604870183
1604871130
1604871232
1604871530
1604871776
1604871800
1604872637
1604872720
1604872798
1604873260
1604873697
1604874746
1604875004
1604876319
1604876870
1604876958
1604878545
1604879604
1604879730
1604880991
1604882049
1604881485
1604882512
1604882676
1604882969
1604882775
1604883709
1604883968
1604884101
1604884553
1604885130
1604885921
1604886242
1604886949
1604887549
1604887565
1604888007
1604888382
1604888602
1604888339
1604889558
1604889789
1604890037
1604890930
1604891515
1604891595
1604891772
1604891941
1604892248
1604892388
1604892473
1604893258
1604893720
1604894792
1604894790
1604895180
1604895294
1604895756
1604896095
1604896818
1604896830
1604897519
1604897758
1604897975
1604897948
1604898565
1604900925
1604901103
1604901170
1604901347
1604901547
1604901822
1604902979
1604903088
1604904155
1604904567
1604905684
1604905654
1604906756
1604907249
1604908704
1604909514
1604909659
1604910413
1604910673
1604910517
1604910849
1604910977
1604911729
1604911990
1604912102
1604912583
1604912632
1604915505
1604916405
1604917389
1604918106
1604918195
1604918235
1604918310
1604918539
1604918554
1604918943
1604919246
1604919354
1604919446
1604920128
1604920620
1604921459
1604921576
1604922736
1604922895
1604923259
1604923541
1604923561
1604924615
1604925036
1604925503
1604926062
1604926191
1604926936
1604927188
1604927981
1604928039
1604928265
1604928836
1604928972
1604929271
1604929496
1604930093
1604930380
1604930670
1604931407
1604931645
1604932026
1604932286
1604932312
1604932705
1604932706
1604933617
1604933623
1604934010
1604934179
1604934472
1604934694
1604934675
1604936018
1604937122
1604937622
1604937683
1604938108
1604938145
1604938557
1604938602
1604938789
1604938902
1604938770
1604939455
1604939911
1604940001
1604940164
1604940900
1604940956
1604941021
1604942627
1604943281
1604944736
1604944760
1604945041
1604945138
1604945308
1604945558
1604945975
1604946965
1604947549
1604948452
1604948491
1604948770
1604948858
1604948941
1604948989
1604949340
1604949681
1604949794
1604950272
1604951066
1604952052
1604952377
1604953531
1604953502
1604953853
1604953962
1604954626
1604954671
1604954707
1604954819
1604954931
1604954972
1604955359
1604955606
1604955711
1604956128
1604956234
1604956709
1604957596
1604958213
1604958298
1604958949
1604959039
1604959940
1604960239
1604960527
1604960669
1604961135
1604961688
1604962960
1604963057
1604963749
1604964050
1604964272
1604964949
1604964961
1604965575
1604966615
1604966854
1604966946
1604967950
1604968194
1604968467
1604968268
1604969964
1604970176
1604970704
1604970805
1604970987
1604970886
1604971797
1604971973
1604972595
1604972930
1604973975
1604974135
1604975384
1604975550
1604976105
1604976392
1604976832
1604976789
1604977083
1604977760
1604978631
1604978962
1604980193
1604980348
1604981831
1604982010
1604982269
1604982281
1604982798
1604983420
1604983698
1604984749
1604985116
1604987472
1604987560
1604988003
1604988121
1604988228
1604988724
1604988939
1604989339
1604989731
1604990266
1604990522
1604991466
1604991401
1604991783
1604992273
1604992304
1604992435
1604993900
1604994316
1604994816
1604995144
1604994753
1604996412
1604996965
1604997545
1605000467
1605000588
1605000924
1605000992
1605001308
1605001398
1605002205
1605002316
1605002738
1605002911
1605003225
1605003647
1605004175
1605004672
1605004581
1605004835
1605005241
1605005707
1605005906
1605006704
1605007187
1605007366
1605007427
1605007135
1605008590
1605008692
1605010489
1605010255
1605011653
1605013817
1605014506
1605013660
1605015067
1605015274
1605015907
1605016238
1605016237
1605015784
1605016735
1605016938
1605016927
1605016922
1605017581
1605017717
1605017750
1605017933
1605018105
1605018142
1605018204
1605018458
1605018654
1605018882
1605019206
1605019349
1605019453
1605020297
1605020762
1605021014
1605021320
1605021544
1605021520
1605021435
1605021749
1605021735
1605022879
1605023363
1605023729
1605024387
1605025312
1605025484
1605025846
1605026147
1605026259
1605026494
1605027180
1605027654
1605029447
1605029845
1605029972
1605030256
1605030966
1605030696
1605031198
1605032053
1605032632
1605033436
1605033902
1605034355
1605034254
1605036368
1605037303
1605038543
1605039106
1605039299
1605039502
1605039683
1605039855
1605041336
1605042186
1605042526
1605043552
1605044103
1605044263
1605044372
1605044791
1605044854
1605045795
1605047632
1605048287
1605048648
1605048245
1605049218
1605049254
1605050508
1605050665
1605050754
1605050699
1605050912
1605051279
1605051366
1605051576
1605051536
1605051647
1605051786
1605052084
1605052471
1605052796
1605052993
1605053619
1605053953
1605054144
1605055936
1605056172
1605055858
1605056534
1605057357
1605057428
1605057742
1605057899
1605058899
1605059328
1605059598
1605059765
1605060422
1605062228
1605062410
1605062683
1605062731
1605062947
1605063188
1605064614
1605064856
1605065809
1605066102
1605066258
1605066504
1605066884
1605067395
1605067585
1605067651
1605068265
1605068701
1605068733
1605068734
1605069458
1605070064
1605070344
1605070382
1605070493
1605070908
1605069867
1605071614
1605071992
1605072338
1605072846
1605073018
1605073281
1605073303
1605073689
1605073773
1605074924
1605075067
1605075652
1605076371
1605078165
1605078415
1605079142
1605079259
1605079182
1605079428
1605079404
1605079499
1605079707
1605079873
1605080184
1605080235
1605080493
1605080948
1605081590
1605081853
1605082277
1605084400
1605084769
1605085399
1605085490
1605086166
1605086210
1605086405
1605087342
1605087538
1605087749
1605088442
1605088752
1605075803
1605089254
1605090647
1605090912
1605091497
1605092186
1605092732
1605094374
1605094702
1605095736
1605097105
1605097172
1605097803
1605097843
1605098083
1605099517
1605099866
1605101233
1605101279
1605103736
1605104155
1605105482
1605105645
1605106253
1605106614
1605107562
1605109017
1605109161
1605109430
1605111237
1605111240
1605111215
1605111672
1605111263
1605112034
1605112464
1605112835
1605112999
1605113062
1605114007
1605115006
1605115587
1605115568
1605115716
1605116081
1605116323
1605117379
1605118587
1605119842
1605120099
1605120305
1605121275
1605121251
1605121756
1605122300
1605122964
1605123016
1605123076
1605123797
1605124003
1605123916
1605126151
1605126239
1605126535
1605126821
1605126929
1605129013
1605129160
1605129900
1605130009
1605130406
1605131357
1605131786
1605131905
1605132273
1605132356
1605132494
1605132498
1605132914
1605134016
1605134026
1605134164
1605133889
1605134306
1605134372
1605134626
1605135005
1605135269
1605135430
1605135838
1605136215
1605136259
1605136464
1605139148
1605139441
1605139936
1605139875
1605140384
1605140640
1605140684
1605141516
1605142292
1605142894
1605143059
1605144039
1605144418
1605144920
1605145222
1605145535
1605145605
1605146837
1605146820
1605147327
1605147710
1605148702
1605149258
1605149250
1605149328
1605149604
1605150161
1605151231
1605151281
1605151281
1605151570
1605151231
1605152044
1605153855
1605153933
1605153944
1605154716
1605154689
1605154961
1605155990
1605156782
1605157103
1605157043
1605157831
1605158491
1605159130
1605158105
1605159444
1605159427
1605159762
1605159960
1605162053
1605162204
1605162682
1605162812
1605162943
1605163216
1605164128
1605164863
1605165422
1605166077
1605166167
1605166234
1605166335
1605166454
1605166329
1605167067
1605167610
1605168366
1605168522
1605168697
1605168849
1605169360
1605169585
1605169396
1605170501
1605171410
1605171948
1605172266
1605172365
1605172373
1605172377
1605172558
1605172588
1605173218
1605173605
1605173883
1605174378
1605174736
1605174982
1605175871
1605175808
1605176060
1605176284
1605176432
1605176923
1605176888
1605177138
1605177882
1605178237
1605178459
1605178959
1605178990
1605179321
1605179910
1605179965
1605181141
1605182655
1605182850
1605183246
1605182563
1605184229
1605184617
1605185628
1605185964
1605186526
1605186697
1605186715
1605187078
1605187328
1605189164
1605189513
1605189633
1605190151
1605190652
1605191506
1605192620
1605191942
1605193966
1605194603
1605194608
1605195254
1605195440
1605196407
1605196416
1605196796
1605196148
1605197105
1605196944
1605197443
1605198488
1605199574
1605199970
1605199938
1605201140
1605201638
1605201634
1605203695
1605203626
1605204357
1605204466
1605204992
1605205647
1605208906
1605209906
1605210078
1605210879
1605210487
1605211116
1605212947
1605213601
1605216484
1605217172
1605220735
1605221921
1605222876
1605226983
1605226595
1605270339
1605305525
1605305882
1605305962
1605306003
1605306275
1605306747
1605308601
1605308728
1605308778
1605309062
1605309710
1605310416
1605310517
1605310282
1605310866
1605312398
1605312542
1605314366
1605314644
1605316275
1605317526
1605319108
1605319171
1605320123
1605321633
1605321797
1605322034
1605322335
1605321882
1605322576
1605322846
1605324537
1605324841
1605324831
1605326329
1605327622
1605328036
1605328402
1605328407
1605329403
1605329866
1605329969
1605330115
1605330119
1605330366
1605331080
1605331092
1605331882
1605333402
1605333958
1605334162
1605335193
1605335906
1605336865
1605337483
1605337704
1605338331
1605338010
1605339960
1605341167
1605341499
1605341821
1605342753
1605343066
1605343350
1605344056
1605344817
1605345482
1605346121
1605346351
1605347596
1605349475
1605349548
1605351362
1605351585
1605352960
1605354466
1605354969
1605355088
1605356539
1605357130
1605358432
1605361278
1605362447
1605363003
1605365107
1605371161
1605373635
1605497633
1605577464
1605584200
1605663684
1605689300
1605708474
1605747850
1605791775
1605798113
1606027810
1606182467
1606233157
1606273940
1606334037
1606408897
1606430694
1606490537
1606608845
1606639872
1606674452
1606832210
1606966725
1606968562
1607040194
1607216975
1607218687
1607265181
1607399040
1607607987
1607747245
1607809618
1607922431
1607948107
1608146196
1608162521
1608243483
1608354968
1608395354
1608598431
1608726849
1608735727
1609006958
1609053013
1609100227
1609164730
1609197318
1609243502
1609463942
1609509193
1609518967
1609525895
1609550238
1609554019
1609751288
1609915139
1609918313
1609963921
1609973324
