710026747
710127518
710208685
710232116
710287717
710522188
710547027
710661533
710683206
710902730
711157291
711396341
711578718
711876288
712520195
712673454
712774462
712789110
712795255
712925975
713033129
713057027
713155571
713277744
713296103
