730007595
1600001197
1600001626
731005465
730086960
730122975
731062157
730151569
730184124
730192734
730198170
731134587
730232513
731170407
730241641
730255795
730260434
731199393
730281177
731210679
731214524
731220277
730317216
731251582
731258303
731265247
731589494
730455855
730493665
730506105
731674656
731692970
730525498
731741974
730559440
731759129
731759809
731776825
731784468
731785815
730627827
730635482
730641800
730647776
731847200
731860948
730670387
731875305
731880287
731892768
731922497
731922797
731925899
731934772
731959725
731968550
730712717
732023042
730731153
730744581
730752483
732055216
730766183
730781604
732079111
732086755
730815630
1600001197
1600001626
1600011846
1600018270
1600020271
1600021353
1600039027
1600040232
1600047906
1600049159
1600052800
1600061942
1600083030
1600092818
1600094211
1600096795
1600100024
1600100094
1600109866
1600121951
1600126146
1600126559
1600135982
1600137139
1600139268
1600140530
1600144924
1600154169
1600157037
1600167866
1600171676
1600178329
1600181331
1600183246
1600212179
1600213186
1600226661
1600230358
1600250244
1600266858
1600268350
1600276746
1600284510
1600303173
1600313355
1600315122
1600315696
1600316986
1600317600
1600319869
1600321935
1600337161
1600355654
1600356719
1600357960
1600389765
1600391743
1600400632
1600409626
1600410353
1600411659
1600419979
1600430755
1600437541
1600443588
1600446392
1600446761
1600472456
1600477913
1600480387
1600482137
1600494740
1600498582
1600499092
1600510287
1600515175
1600515541
1600529023
1600538979
1600541064
1600579305
1600594244
1600600523
1600602899
1600608798
1600614475
1600618459
1600618597
1600619109
1600633980
1600634613
1600657459
1600663740
1600670892
1600671566
1600676192
1600691541
1600702345
1600705227
1600718987
1600725980
1600736846
1600738735
1600739185
1600742099
1600745255
1600757953
1600770476
1600778475
1600792880
1600808207
1600811853
1600842508
1600843286
1600845070
1600861057
1600864332
1600871049
1600872918
1600875393
1600880103
1600885498
1600888569
1600911973
1600924067
1600946724
1600951292
1600973626
1600984452
1600994943
1601013129
1601032357
1601033437
1601043098
1601059021
1601062337
1601063263
1601077300
1601080329
1601102060
1601117201
1601121381
1601124213
1601130625
1601136365
1601141896
1601142389
1601155535
1601165013
1601177659
1601179623
1601183745
1601191623
1601198620
1601203676
1601211393
1601213457
1601215568
1601225076
1601225847
1601231268
1601232966
1601235034
1601249736
1601259352
1601274804
1601281525
1601289867
1601293740
1601295589
1601300888
1601307282
1601307430
1601309028
1601311143
1601316128
1601321962
1601360151
1601361941
1601365292
1601370130
1601375291
1601376516
1601385261
1601390120
1601406609
1601407157
1601416455
1601417248
1601417753
1601436151
1601451131
1601476703
1601492713
1601500580
1601505099
1601506708
1601512819
1601519163
1601541659
1601547005
1601549686
1601553538
1601569098
1601575265
1601576810
1601607732
1601613296
1601625445
1601629287
1601638579
1601648197
1601649026
1601659185
1601661676
1601683370
1601685224
1601687009
1601691850
1601700080
1601711616
1601712286
1601716774
1601718951
1601734132
1600121951
1603085572
1603093896
1603096568
1603098302
1603098419
1603099724
1603104543
1603104942
1603118210
1603121363
1603122153
1603130156
1603131846
1603133282
1603134575
1603145620
1603147706
1603148252
1603160637
1603162988
1603167910
1603171845
1603203215
1603208390
1603239334
1603243936
1603255577
1603258022
1603258163
1603261391
1603264159
1603307369
1603309635
1603314266
1603320948
1603326110
1603329081
1603329472
1603347639
1603363472
1603365895
1603368189
1603368206
1603381036
1603387689
1603391780
1603397117
1603398774
1603400455
1603421775
1603426358
1603436007
1603438901
1603440936
1603444091
1603447376
1603452944
1603454071
1603464300
1603472604
1603474940
1603478657
1603482992
1603484721
1603485837
1603495367
1603500105
1603500619
1603508360
1603521869
1603541513
1603542165
1603547828
1603574639
1603563083
1603581580
1603585643
1603598822
1603605003
1603608965
1603633524
1603635507
1603660417
1603661767
1603663644
1603674913
1603707310
1603716899
1603719034
1603723414
1603732243
1603737680
1603742853
1603756218
1603757893
1603758317
1603774390
1603785912
1603786175
1603792980
1603885930
1603900194
1603919850
1603926460
1603937392
1603939409
1603948537
1603963578
1603965843
1603977668
1603996536
1603998909
1604001645
1604011267
1604039244
1604047936
1604053223
1604066348
1604069182
1604074603
1604076271
1604081143
1604081857
1604082710
1604114080
1604141797
1604149368
1604171747
1604174164
1604174806
1604177192
1604190769
1604194738
1604214269
1604216388
1604221082
1604234959
1604248696
1604251897
1604253648
1604262052
1604264717
1604266689
1604271298
1604272201
1604283673
1604289091
1604301212
1604329139
1604333133
1604339119
1604348412
1604370017
1604371849
1604459535
1604472030
1604479865
1604483859
1604499696
1604508080
1604512700
1604513448
1604520733
1604527177
1604527386
1604529937
1604536500
1604539139
1604540959
1604546058
1604551693
1604551827
1604554283
1604556497
1604567830
1604569311
1604577979
1604584251
1604590105
1604603833
1604604024
1604619521
1604637239
1604647805
1604653509
1604654779
1604655258
1604655812
1604698054
1604703540
1604703764
1604717038
1604729571
1604736545
1604737705
1604757457
1604759285
1604766188
1604768398
1604768614
1604770586
1604771872
1604781491
1604783159
1604788728
1604798000
1604803895
1604816034
1604818622
1604845668
1604846707
1604850756
1604864627
1604864846
1604875860
1604875889
1604876519
1604882024
1604882137
1604884324
1604893570
1604907314
1604926373
1604937987
1604938444
1604955071
1604979739
1604984236
1604996339
1604997288
1605004148
1605005870
1605009852
1605015860
1605017583
1605031311
1605040012
1605040917
1605048799
1605051155
1605051241
1605056604
1605058432
1605069557
1605071710
1605074612
1605090383
1605090644
1605117898
1605119526
1605133102
1605139086
1605167031
1605180457
1605186747
1605206457
1605330357
1605340548
1605345943
1605368548
1605370361
1605791578
1605822929
1606010728
1606355858
1606984772
1607064186
1607334934
1607422051
1607967811
1608117121
1608175626
1608743165
1608876035
1608913155
1609440667
1609590342
