710025578
710056752
710087817
710235588
710260471
710292406
710317344
710320200
710331977
710345989
710382741
710526134
710559665
710589442
710672824
710754780
710791145
710854192
710907563
710946291
711006698
711039220
711274188
711298000
711344127
711356443
711365380
711475267
711543882
711583580
711656186
711676824
711679273
711847914
711963762
712009947
712029945
712078898
712089590
712144494
712201638
712364446
712386408
712392805
712393957
712422965
712432563
712535289
712536484
712572414
712613100
712655941
712699336
712726198
712751518
712796105
712861895
712924679
712933202
712956401
713157355
713192477
713258408
713259811
713296716
713419552
