922002400
922024904
920000035
921007452
921008140
921011334
920000035
920010859
920032843
920038733
920044910
920052593
920058894
920060774
920073085
920080225
920085340
920089399
920092827
920108884
920118878
920123297
920127090
920127554
920128624
920128629
920131702
