960044852
960098614
960106534
960114720
960131658
960142048
960187440
960300083
960357307
960373250
960393552
960424783
960554976
960660506
960665925
960678323
960688205
960753347
960753847
960776496
960848261
960895230
960898014
960918380
960980457
960981638
961011519
961090405
961149658
961149769
961240958
961255772
961283583
961442321
961520644
961530911
961545229
961592753
961651582
961656587
961676659
961699385
961701985
961715875
961789759
961864379
961870412
961906535
961964163
962017711
962022531
962038133
962042580
962055213
962077456
962101927
962154884
962238234
962270788
962295682
962322836
962373953
962437949
962450383
962471658
962501537
962507046
962528360
962529637
962535136
962540948
962548167
962562527
962615567
962620097
962704400
962740865
962743841
962759986
962776283
962787127
