710031465
710155855
710222298
710272969
710324475
710441669
710480265
710561005
710573124
710678531
710788061
710978843
711034537
711116198
711125919
711147218
711172629
711251350
711351726
711352191
711364693
711391337
711413923
711572045
711609504
711658302
711794339
711816604
711841120
711955528
712052194
712131350
712165117
712318080
712430724
712490427
712604886
712656861
712703383
712717367
712789192
712903297
712972613
713001276
713069126
713213226
713263896
713309183
713359364
713408107
713430998
713458446
713461231
