590009883
590011504
590015554
590018327
590019379
590011504
590107182
590034691
590038120
590086074
590009883
590018327
590039224
590359802
590001216
590176680
590015554
590178903
590069822
590109918
590070700
590327729
590192083
590051476
590202756
590164038
590084894
590257217
590128613
590130815
590100851
590121810
590101368
590291016
590204219
590245186
590185585
590173580
590313365
590196911
590342204
590204907
590028991
590326691
590213075
590074278
590171970
590236165
590157357
590328209
590190510
590174603
590292072
590133341
590359232
590397161
590269026
590261715
590363985
590218709
590109676
590050090
590303725
590070427
590352656
590212422
590120081
590504213
590504305
590019379
590497259
590072913
590248539
590361468
590410307
590328603
590181004
590312911
590354786
590397701
590427377
590320171
590426888
590038120
590412264
590443982
590568671
590512356
590486598
590530845
590350205
590335887
590320485
590257761
590313746
590493109
590263563
590427738
590509667
590253552
590154356
590585088
590533008
590559592
590476221
590382501
590459130
590083896
590299723
590592925
590549391
590513769
590557395
590608565
590401905
590611567
590483920
590572129
590038803
590295973
590635832
590543159
590633779
590437787
590501663
590597515
590354978
590204219
590736760
590266868
590556535
590518419
590178446
590651312
590578414
590652424
590563735
590285733
590389497
590571469
590623062
590632719
590421565
590460176
590530142
590710204
590715881
590674926
590213013
590632796
590326035
590313163
590290864
590771070
590184574
590661734
590387463
590683749
590787248
590485152
590874255
590873579
590620317
590747176
590406345
590527544
590761218
590772584
590581305
590599570
590851521
590297186
590715898
590205887
590801207
590900124
590768723
590840130
590041355
590471963
590805739
590678003
590510558
590544083
590728058
590877124
590736690
590339315
590436065
590681170
590643253
590446380
590790016
590755905
590905834
590719774
590830005
590660270
590738918
590787375
590578414
590727206
590836186
590958980
590659674
590243517
590870868
590616710
590660555
590963561
590908596
590438571
590910805
590749316
590866811
590853614
590925864
590539415
590715881
590810275
590749046
590710192
590502955
590938163
590910056
590768773
590801417
590958299
590781026
590875701
590794041
590975285
590951705
590566362
590944138
590810275
590846879
590986733
590919789
590616639
590839091
590933776
590821447
590944725
590778485
590825259
590715898
590748512
590986512
590886374
590747693
590816352
590929192
590927828
590826419
590970570
590928028
590842602
590947063
590998467
590972787
592001739
592004232
