840053431
840073596
840078354
840089480
840094425
840110654
840115804
840121617
840130320
840143984
840146145
840153081
840246611
840248464
840273536
840276278
840320200
840356064
840357945
840369099
840428125
840446018
840448167
840471693
840483156
