730016759
1600002784
1600003959
1600003959
1600005657
730128805
730165319
730251100
730462766
730507472
731702107
731760920
731866895
730702755
730738769
732113214
1600002784
1600003959
1600007729
1600013717
1600025462
1600031562
1600051078
1600060621
1600071361
1600080052
1600081960
1600095548
1600095775
1600100652
1600113517
1600119415
1600125246
1600145378
1600153428
1600161772
1600167178
1600183827
1600184310
1600190249
1600192661
1600202315
1600209818
1600212578
1600220327
1600225467
1600236905
1600240670
1600241420
1600243422
1600246036
1600256056
1600261408
1600263163
1600269980
1600277368
1600281628
1600289042
1600290748
1600292139
1600300527
1600327982
1600365010
1600416723
1600418793
1600423838
1600429221
1600431309
1600438364
1600440549
1600441925
1600453171
1600455170
1600458754
1600473018
1600482841
1600489386
1600495394
1600498461
1600509789
1600511434
1600520110
1600540021
1600558947
1600565525
1600571439
1600598388
1600601228
1600605948
1600611402
1600612249
1600617476
1600618693
1600634132
1600642074
1600651952
1600656743
1600658665
1600659072
1600667628
1600672853
1600676113
1600676830
1600677805
1600689255
1600700284
1600702521
1600708729
1600715928
1600719444
1600723763
1600735661
1600739245
1600739811
1600752742
1600756884
1600765317
1600767921
1600773626
1600774183
1600777263
1600785220
1600787902
1600792845
1600797295
1600804489
1600808502
1600809560
1600809871
1600812703
1600818812
1600824300
1600833773
1600836932
1600842591
1600848579
1600851858
1600858675
1600859594
1600860893
1600863757
1600869553
1600871227
1600877759
1600891013
1600894247
1600894639
1600900804
1600900878
1600904394
1600907803
1600908462
1600926425
1600931465
1600931921
1600934785
1600948769
1600948751
1600955273
1600966073
1600967553
1600968334
1600970536
1600982074
1601003563
1601019919
1601021044
1601032206
1601034618
1601043227
1601049329
1601054615
1601057971
1601059332
1601063759
1601082302
1601089832
1601091152
1601094722
1601105103
1601106771
1601114153
1601114231
1601123156
1601130917
1601136362
1601138657
1601171135
1601174402
1601179948
1601180611
1601186192
1601191263
1601193345
1601206901
1601208972
1601212462
1601216585
1601218816
1601229565
1601250065
1601275609
1601277952
1601279190
1601284338
1601289442
1601315643
1601319273
1601323104
1601332559
1601336667
1601338374
1601344055
1601350443
1601353032
1601354279
1601372871
1601385578
1601385741
1601387424
1601390196
1601393009
1601399904
1601402668
1601408139
1601413781
1601414385
1601437876
1601439285
1601448519
1601452546
1601465446
1601478061
1601483323
1601491321
1601494602
1601501319
1601503906
1601505312
1601510477
1601514706
1601524392
1601535151
1601538449
1601538794
1601542262
1601544294
1601546739
1601551281
1601554851
1601557057
1601557874
1601586276
1601587842
1601590870
1601601895
1601619643
1601629392
1601636629
1601655915
1601659401
1601677940
1601678788
1601678934
1601682622
1601691556
1601693790
1601696879
1601704686
1601714866
1601719000
1601734297
1600095775
1603071304
1603100052
1603105585
1603110125
1603110255
1603115609
1603117443
1603117894
1603121331
1603121843
1603131922
1603138259
1603139140
1603145880
1603151949
1603156008
1603156285
1603159012
1603195334
1603197952
1603205999
1603206764
1603207205
1603218382
1603236368
1603238173
1603239790
1603249219
1603250388
1603256789
1603267655
1603271252
1603289835
1603295250
1603296506
1603306344
1603313776
1603317883
1603319887
1603326693
1603331171
1603332189
1603332278
1603344253
1603362655
1603375407
1603378153
1603386671
1603389629
1603389698
1603389667
1603393166
1603415183
1603419766
1603426751
1603428471
1603429170
1603446780
1603462108
1603462451
1603465642
1603472170
1603480240
1603483569
1603490522
1603500241
1603508878
1603525426
1603534666
1603540092
1603550101
1603559708
1603566842
1603586538
1603589633
1603594975
1603595120
1603612928
1603623849
1603625557
1603634424
1603637719
1603639632
1603645343
1603653756
1603654842
1603671519
1603674854
1603685553
1603685727
1603695020
1603695759
1603707059
1603710091
1603731836
1603732642
1603736811
1603743600
1603763916
1603770627
1603771015
1603771497
1603773019
1603773242
1603773303
1603781482
1603781587
1603782566
1603782789
1603784169
1603861057
1603902302
1603916566
1603922005
1603935730
1603938146
1603943110
1603951209
1603966066
1603972888
1603977487
1603988839
1603990549
1604023832
1604027079
1604029356
1604036980
1604042937
1604045343
1604065386
1604085013
1604085696
1604102072
1604105504
1604113208
1604115195
1604115856
1604120142
1604121160
1604124889
1604136714
1604140259
1604150616
1604151562
1604152338
1604153880
1604164527
1604170982
1604177353
1604178830
1604183763
1604191562
1604199369
1604208435
1604209343
1604219515
1604220192
1604230188
1604235642
1604248741
1604252958
1604256958
1604262008
1604264341
1604264662
1604268240
1604268953
1604277433
1604280932
1604284690
1604320138
1604327188
1604327868
1604328107
1604334203
1604337842
1604350293
1604350247
1604378020
1604481636
1604501698
1604503219
1604506132
1604531533
1604534860
1604557862
1604559882
1604562252
1604573634
1604586473
1604595155
1604599960
1604604660
1604604893
1604605790
1604607444
1604614631
1604618031
1604623068
1604625000
1604632268
1604636681
1604660416
1604666209
1604690250
1604704170
1604707990
1604710192
1604715179
1604715439
1604718071
1604730595
1604738100
1604742698
1604749563
1604758817
1604760790
1604761531
1604761715
1604765940
1604768575
1604782654
1604790214
1604803576
1604807278
1604810856
1604818564
1604831292
1604831096
1604835387
1604844009
1604847172
1604848268
1604851263
1604866126
1604870256
1604877051
1604881592
1604887757
1604898592
1604907729
1604918668
1604936675
1604938660
1604954613
1604962894
1604987756
1604996050
1604996475
1605006827
1605015777
1605027448
1605031161
1605044745
1605046101
1605060673
1605066724
1605070129
1605070236
1605081757
1605083662
1605085778
1605088113
1605090266
1605100267
1605102443
1605118403
1605121537
1605131063
1605142905
1605149805
1605165746
1605168913
1605178090
1605184124
1605184873
1605190081
1605193499
1605210338
1605229296
1605310924
1605314005
1605316242
1605335624
1605348677
1605362740
1605399959
1605432112
1606237367
1606460288
1606645927
1606757664
1607155071
1607502099
1608024167
1608273757
1608406726
1608475347
1608650042
1609217056
1609279390
1609492697
1609658054
1609759863
1609857911
1609877090
