730435126
731685191
732120880
1600100951
1600126463
1600195322
1600211559
1600230264
1600304863
1600305678
1600410461
1600565407
1600618526
1600624800
1600695389
1600725185
1600772200
1600778125
1600826895
1600854664
1600946029
1601100711
1601113712
1601121903
1601383299
1601414783
1601488081
1601640474
1601667743
1601708688
1603178883
1603211495
1603363993
1603739175
1603998359
1603998819
1604055739
1604109315
1604179627
1604235138
1604244556
1604489433
1604506310
1604566178
1604617406
1604632414
1604729319
1604874967
1604880359
1604895144
1604979689
1605052535
1605057415
1605097290
1605164287
1605179820
1605203451
1606590028
1607032824
1607911779
1608806907
1609610769
1609769519
