800147013
800155333
800147013
800155333
800264408
800311060
800316424
800319839
800404681
800717715
800721099
800749542
800749987
800763219
800885999
800995519
801205350
801254892
801290546
801300773
801301793
801353279
801404944
801412077
801430888
801492076
801499828
801575416
801578237
801604080
801651158
801657956
801703855
801735934
801791586
