730566911
730651333
732039389
1600022045
1600051092
1600073752
1600091515
1600122551
1600181728
1600186466
1600190049
1600195209
1600203654
1600256090
1600316625
1600369288
1600435368
1600458257
1600507249
1600517054
1600527013
1600530692
1600610629
1600633418
1600734742
1600736346
1600742942
1600780930
1600783670
1600802463
1600827248
1600850627
1600866342
1600868151
1600942234
1600961567
1600963787
1600965659
1600975606
1600993576
1601000174
1601006477
1601018055
1601020544
1601080311
1601174902
1601186150
1601313123
1601401874
1601448868
1601490565
1601563814
1601580263
1601633245
1601667907
1601705769
1603084397
1603109830
1603153845
1603165670
1603199828
1603235357
1603252106
1603380276
1603403769
1603423756
1603518264
1603536368
1603573704
1603611331
1603612929
1603666292
1603679066
1603685125
1603716471
1603721744
1603740383
1603741520
1603761295
1603795356
1603919122
1603992641
1604039032
1604047016
1604055208
1604117432
1604131023
1604134996
1604183660
1604274376
1604287948
1604332682
1604496643
1604523808
1604572350
1604673234
1604696820
1604803237
1604813375
1604816180
1604847923
1604853607
1604856521
1604893375
1604937348
1605001793
1605157719
1605172905
1605207003
1605227232
1608806568
