960064407
960111134
960111134
960157979
960364621
960767725
960774257
960782116
960806157
960916642
961046218
961066843
961136451
961350971
961408052
961446770
961494604
961534514
961565913
961788467
961876693
961884812
961918033
961966675
962045994
962073120
962078140
962093774
962124426
962129258
962174424
962213349
962379177
962604727
962683268
