731018050
730064261
730093064
731123120
730238475
730287917
730336840
730401164
730552821
730578029
730673627
731883088
730691192
730693600
731941192
730735088
1600047554
1600060287
1600079835
1600106853
1600119879
1600121708
1600123439
1600155328
1600179579
1600234578
1600234796
1600289816
1600310875
1600348997
1600438600
1600440272
1600442132
1600465616
1600465931
1600481579
1600483914
1600498017
1600515508
1600527478
1600530865
1600533139
1600543104
1600588381
1600598880
1600602457
1600613691
1600614476
1600629492
1600650972
1600696437
1600704579
1600705025
1600706330
1600720819
1600725010
1600737629
1600737806
1600749662
1600758400
1600778873
1600804505
1600806788
1600807490
1600808140
1600825707
1600863079
1600870978
1600911365
1600940650
1600962813
1600984487
1600995832
1600996187
1600998610
1601015809
1601024441
1601073696
1601124108
1601158027
1601167109
1601199557
1601238994
1601244970
1601253801
1601266843
1601270736
1601276828
1601294076
1601310155
1601348727
1601352502
1601354814
1601392623
1601412637
1601462314
1601496065
1601515231
1601534785
1601550096
1601550926
1601615775
1601643681
1603075378
1603090683
1603091920
1603092978
1603094085
1603106131
1603147246
1603191590
1603219957
1603280615
1603283264
1603344546
1603353640
1603356942
1603365187
1603391933
1603391987
1603397020
1603426528
1603427588
1603441390
1603457348
1603485264
1603488889
1603505313
1603519064
1603602732
1603611577
1603644972
1603663199
1603730909
1603748135
1603780325
1603790661
1603905978
1603910490
1603924199
1604007453
1604010886
1604087434
1604093543
1604097190
1604106139
1604108350
1604110814
1604154349
1604179970
1604182047
1604212262
1604212108
1604262651
1604263733
1604334420
1604338789
1604349700
1604357862
1604374199
1604507939
1604599931
1604607201
1604624452
1604659975
1604664995
1604695332
1604704464
1604753499
1604765308
1604797545
1604804460
1604818111
1604834771
1604835676
1604837781
1604845047
1604877563
1604880437
1604899943
1604900520
1604922256
1604992811
1605009335
1605021200
1605021254
1605063660
1605074957
1605076111
1605087254
1605100083
1605106627
1605113958
1605119725
1605167331
1605176824
1605196769
1605309236
1608021635
1609077964
1609164734
