610007763
610052196
610095262
610123435
610169259
610215589
610222274
610236734
610256830
610284767
610310058
610313655
610315560
610355202
610356484
610385730
610388561
610392258
610400203
610414515
610423774
610459963
610517907
610526749
610534303
610541767
610544217
610547618
610556066
610570428
610577453
610586729
610593517
610598144
610604586
610609582
610620300
610635068
610704937
610753125
