730009988
730022435
731024225
730104932
731044455
730154479
730163560
731124578
730195705
731131604
731156011
730268876
730274808
730334452
731559116
730437721
730454525
730463072
730467166
730488770
730537252
730570995
731789877
730598808
730601209
731860063
731882430
730690578
731890416
731907533
731960303
731980119
732012648
732034432
732037866
732039762
730753153
730768560
732079456
730808480
732111066
732110425
1600128107
1600172231
1600500083
1600558722
1600648521
1600841213
1601208034
1601279370
1601340929
1603145146
1603232411
1603363332
1603537355
1603757597
1603901619
1603968924
1603974386
1604045756
1604105365
1604602867
1604663400
1604675426
1604756541
1604784488
1605086787
1605792702
1608405044
1608851766
1609336833
1609760981
