800033800
800048579
800068911
800079402
801024819
800095899
800113674
801079838
801080230
801081019
801084878
800146865
801098444
800160369
802001144
802005394
800026114
800033800
800048579
800068911
800079402
800095899
800113674
800146865
800160369
800202447
800223372
800231078
800255624
800266012
800285151
800292807
800310081
800314037
800314407
800321661
800329782
800332514
800336691
800370221
800386537
800387784
800398353
800398711
800413228
800416477
800438074
800438919
800449859
800451294
800456679
800462027
800482965
800495242
800524601
800525649
800528400
800530715
800540558
800543008
800546265
800566087
800577370
800583152
800596514
800633404
800638922
800661725
800677169
800677378
800749546
800754714
800777083
800794002
800799284
800814580
800821205
800827199
800830023
800834974
800878114
800900716
800953645
800962050
801024819
801079838
801080230
801081019
801084878
801098444
801112777
801169003
801179330
801184043
801187507
801197643
801211454
801219755
801249235
801280291
801329978
801338664
801352247
801373281
801381213
801392050
801397599
801400226
801418569
801426907
801448768
801480560
801495415
801508189
801518771
801520610
801528763
801534093
801562747
801569864
801611327
801625396
801655259
801656053
801661505
801694416
801715729
801744932
801761230
801787040
801787405
