800002772
800006933
800007167
800007652
800010396
800011444
800016166
800018299
800024815
800027543
801007512
800031874
800034671
800037532
800040117
800045273
800054038
800053484
800060278
800064367
800074504
800075303
800081027
801026104
800086228
800088049
801030938
801037066
801039309
800101647
801045369
800108125
801050429
801054164
801063695
800124584
801069493
801069930
801070851
800130064
801074604
801074829
800131009
801075596
801085191
800143623
801094703
801099106
800158399
800161571
802001259
800002772
800007167
800006933
800007652
800010396
800011444
800016166
800018299
800024815
800027543
800031874
800034671
800037532
800040117
800045273
800053484
800054038
800060278
800064367
800074504
800075303
800081027
800086228
800088049
800101647
800108125
800124584
800130064
800131009
800143623
800158399
800161571
800164901
800170979
800178330
800180764
800182826
800204894
800206789
800210981
800211179
800227201
800227661
800233806
800235535
800235682
800240887
800258877
800259817
800267832
800271330
800276119
800278384
800283079
800292899
800295281
800304495
800305826
800307490
800327902
800332209
800332492
800338642
800342972
800349507
800366859
800371123
800373379
800386184
800387670
800394707
800416168
800419724
800420360
800422306
800430178
800430837
800432774
800438398
800438739
800455258
800464934
800477605
800477883
800477500
800483268
800486744
800498010
800498367
800499890
800502141
800505580
800511387
800514743
800517061
800517500
800519108
800521540
800529155
800532847
800536646
800539461
800540364
800544052
800549367
800562309
800567839
800570166
800570466
800581308
800584136
800590408
800592253
800594533
800600139
800600601
800607078
800608389
800608448
800611510
800623684
800625732
800628455
800629031
800633417
800634961
800636013
800643320
800645395
800650950
800656023
800660119
800660880
800671204
800681237
800685762
800684913
800691530
800692962
800696254
800711349
800731634
800732888
800734850
800738192
800739882
800740757
800740795
800751054
800751800
800757138
800763731
800772367
800775124
800778015
800778374
800787024
800791916
800795517
800795647
800799072
800804449
800811839
800813374
800824928
800835670
800838373
800844900
800845366
800864428
800871475
800874531
800885113
800889591
800889621
800890899
800896195
800898200
800903382
800903995
800906274
800908974
800912030
800914094
800919685
800924478
800926340
800931599
800932813
800934435
800936363
800936883
800940803
800944127
800954213
800955178
800960003
800975116
800975998
800984443
800985712
800988447
800988782
800990003
800994824
800999210
801007512
801026104
801030938
801037066
801039309
801045369
801050429
801054164
801063695
801069493
801069930
801070851
801074604
801074829
801075596
801085191
801094703
801099106
801111286
801111653
801114741
801120168
801125099
801127888
801143246
801151925
801158321
801160612
801164232
801180550
801183770
801190098
801197759
801207798
801208773
801214348
801219008
801225138
801226834
801232737
801233832
801236820
801242585
801254656
801255835
801255914
801264647
801268186
801272124
801280585
801284981
801286295
801289814
801293005
801295961
801297964
801302319
801312869
801336399
801338979
801341193
801341053
801344629
801345015
801347368
801357654
801361673
801366092
801371909
801372741
801376854
801377164
801380728
801384635
801395390
801395292
801413934
801415865
801418167
801418723
801436588
801438606
801445297
801446039
801455533
801459665
801494470
801496708
801497599
801500289
801508406
801511109
801513678
801533163
801535322
801535632
801536713
801537727
801539145
801542218
801547829
801551316
801551246
801562151
801574767
801575795
801584549
801587873
801593973
801594211
801596920
801603581
801609285
801613330
801618538
801626070
801628226
801635210
801635875
801639571
801638883
801648517
801655745
801658663
801659914
801661022
801672742
801684833
801686039
801686606
801689520
801691545
801700070
801701744
801701778
801703611
801706766
801719230
801721251
801737137
801747040
801750171
801751176
801754115
801762367
801771904
801772651
801774840
801776656
801788497
801798203
801799493
801801029
801804471
