801041219
801049497
800113864
800114994
801061229
800124496
800127308
800127585
800131633
801085408
801097792
800058649
800113864
800114994
800124496
800127308
800127585
800131633
800179696
800189954
800237421
800255356
800263743
800267334
800284054
800298857
800305565
800310298
800348852
800357889
800376768
800379680
800381867
800388127
800417853
800427216
800430840
800461336
800480380
800488388
800500919
800502876
800512089
800519269
800521867
800574825
800595884
800596459
800612065
800617108
800627816
800635597
800643392
800664565
800695442
800702447
800725310
800726611
800746355
800748709
800798436
800825377
800828875
800832072
800890501
800893718
800920595
800949151
800968081
800982136
801004505
801041219
801049497
801061229
801085408
801097792
801110603
801113301
801125412
801146636
801174639
801220186
801221655
801237408
801331801
801338823
801342049
801352606
801360804
801363986
801364099
801372340
801372488
801391701
801404390
801418982
801440833
801441284
801485798
801506313
801509014
801514454
801524029
801549349
801552065
801552131
801558688
801579788
801580818
801621214
801632032
801672823
801713589
801718883
801729633
801730989
801738371
801767850
801800445
