710021776
710035061
710036258
710046349
710079380
710085459
710094583
710094970
710103074
710108289
710117463
710137784
710145461
710163049
710165005
710176317
710177362
710219922
710221306
710225279
710227474
710233635
710248665
710262647
710278248
710301133
710302848
710304185
710308100
710318181
710324410
710326051
710350766
710359335
710371096
710382075
710382327
710394367
710427697
710443252
710443370
710447491
710449992
710460486
710470025
710473943
710482540
710488355
710491446
710498353
710506345
710506869
710509541
710511696
710520068
710529680
710544089
710546330
710547482
710567602
710573034
710584950
710588598
710607626
710610587
710618925
710627331
710634459
710636939
710666083
710669754
710699316
710717204
710725560
710767865
710768879
710793727
710887180
710892653
710893394
710893468
710899445
710904500
710917510
710917963
710950480
710959293
710967123
710976253
710977521
710984806
710993540
711014179
711127546
711133592
711133466
711170812
711179551
711182767
711192842
711214241
711242320
711267583
711291284
711293541
711296043
711297291
711305671
711337070
711357457
711369046
711389200
711484337
711544562
711555085
711564896
711615901
711623437
711628433
711645906
711654723
711667809
711673387
711707472
711707558
711718688
711734175
711751867
711760649
711763337
711775032
711820119
711824239
711835651
711836355
711836901
711843025
711860093
711864297
711875377
711891361
711903289
711914235
711948700
711965969
711971602
711991573
711993673
712010106
712014260
712021507
712026318
712026546
712075910
712078676
712086064
712100094
712117523
712126130
712129126
712133346
712186414
712202128
712212454
712221006
712231614
712245587
712257898
712261740
712262155
712270228
712281404
712287023
712309234
712361941
712362227
712374977
712382726
712395045
712442791
712463894
712469740
712471305
712492365
712495863
712521140
712532410
712554227
712570385
712587607
712594185
712602846
712649773
712657052
712657575
712706227
712708870
712719602
712735081
712740184
712743830
712752529
712755809
712756635
712761195
712778004
712798473
712803597
712808507
712831953
712839446
712842489
712844330
712857083
712859969
712873569
712875711
712882228
712883397
712895099
712903058
712912365
712912776
712914634
712915895
712920651
712923082
712926900
712937677
712946567
713007546
713017904
713020224
713027480
713028440
713042085
713056678
713057580
713063108
713069312
713081060
713085852
713087843
713106083
713131852
713162149
713181293
713187891
713197180
713218715
713240908
713248108
713267324
713286882
713292803
713297513
713304103
713348073
713360572
713368277
713368944
713392577
713432897
713461407
713474987
713478371
713493548
713495978
