730024866
1600007112
1601003160
731048321
730135698
731092687
730182276
730194385
731155695
731173404
731176284
730260120
730270819
730346320
731606979
731611759
731636290
730509566
731701257
730556637
730568170
730577306
731808017
730614618
731814733
730650000
731918433
731963161
731980000
732073705
732105904
732109426
732114771
732119298
730824925
1600007112
1600008738
1600021008
1600021092
1600023898
1600027404
1600030730
1600030846
1600034580
1600044491
1600046362
1600047124
1600050695
1600060280
1600061765
1600061765
1600063186
1600063130
1600078371
1600083621
1600086236
1600094035
1600097398
1600100210
1600101428
1600106654
1600114263
1600118825
1600120563
1600131286
1600133574
1600133924
1600136076
1600137194
1600139942
1600140577
1600147659
1600150492
1600155193
1600157077
1600160622
1600162151
1600164543
1600164506
1600167117
1600185822
1600186996
1600189515
1600189951
1600193023
1600198686
1600204852
1600206887
1600207627
1600209486
1600210607
1600213182
1600213467
1600213624
1600217295
1600217922
1600222476
1600222860
1600223868
1600232988
1600234073
1600235807
1600243484
1600244597
1600245439
1600248996
1600252998
1600256002
1600255890
1600262289
1600262733
1600264750
1600266320
1600268998
1600272964
1600277659
1600280417
1600283258
1600284243
1600289566
1600290179
1600295024
1600306409
1600335844
1600339885
1600341327
1600341851
1600346848
1600347282
1600351880
1600354941
1600355659
1600356065
1600360168
1600360427
1600361112
1600362611
1600364444
1600367669
1600370806
1600371679
1600378151
1600383355
1600384483
1600388911
1600389020
1600395274
1600395925
1600403146
1600405337
1600408965
1600409615
1600411069
1600416180
1600420069
1600420162
1600420708
1600422071
1600422746
1600426058
1600427307
1600428593
1600429893
1600431193
1600434208
1600435226
1600438697
1600439892
1600444160
1600444940
1600445976
1600448106
1600451380
1600452670
1600455465
1600461619
1600463537
1600466520
1600468204
1600469037
1600471259
1600483887
1600485322
1600488156
1600488614
1600490824
1600493716
1600493902
1600496908
1600498701
1600501147
1600501786
1600503714
1600504540
1600510043
1600512006
1600512631
1600515109
1600515467
1600515985
1600518393
1600522078
1600522839
1600525703
1600526320
1600535416
1600536997
1600537774
1600539665
1600539813
1600544732
1600545611
1600546745
1600549470
1600551046
1600553714
1600557862
1600562085
1600565153
1600566599
1600567603
1600569365
1600571472
1600573387
1600574191
1600579999
1600583110
1600585309
1600587315
1600596429
1600596513
1600597067
1600598287
1600598712
1600600209
1600601566
1600603513
1600612982
1600614272
1600614372
1600619970
1600621754
1600622733
1600624224
1600624482
1600628885
1600637280
1600637682
1600638383
1600640796
1600642647
1600647039
1600648597
1600648975
1600651319
1600651579
1600654370
1600654626
1600654722
1600659199
1600666908
1600669140
1600669387
1600669788
1600675177
1600677035
1600677936
1600678635
1600684273
1600685497
1600688897
1600693424
1600695779
1600698240
1600700704
1600701093
1600703971
1600705575
1600711938
1600714363
1600715799
1600718300
1600720770
1600721270
1600727131
1600736431
1600737644
1600738563
1600739219
1600749255
1600750442
1600752610
1600752662
1600757244
1600761365
1600762545
1600763959
1600764657
1600767172
1600774318
1600779150
1600779317
1600779727
1600779834
1600780552
1600781581
1600787737
1600790274
1600791384
1600792720
1600795201
1600796665
1600797732
1600801483
1600808105
1600817236
1600818738
1600818818
1600820895
1600821737
1600822085
1600827927
1600827916
1600831909
1600844497
1600845203
1600845486
1600845861
1600845946
1600847276
1600859918
1600860910
1600861622
1600862479
1600864170
1600866109
1600870891
1600875341
1600877334
1600878951
1600882848
1600887069
1600890575
1600895252
1600898049
1600902192
1600904147
1600912097
1600922570
1600925231
1600927164
1600927222
1600927900
1600944646
1600945721
1600948722
1600952577
1600955771
1600956650
1600961923
1600962621
1600972380
1600973862
1600974663
1600976373
1600977320
1600978574
1600987713
1600992543
1600994571
1600996269
1600998807
1600999397
1601002644
1601003160
1601011033
1601011848
1601013506
1601016148
1601016318
1601016532
1601017396
1601021971
1601025141
1601028535
1601030480
1601032725
1601033570
1601039109
1601040035
1601040820
1601042112
1601042574
1601053775
1601060356
1601067364
1601069939
1601070823
1601073141
1601073396
1601074066
1601080040
1601090231
1601094429
1601099215
1601103575
1601105706
1601109026
1601110530
1601112105
1601120952
1601123822
1601124342
1601124336
1601124655
1601124891
1601125435
1601126346
1601130085
1601131376
1601132562
1601145209
1601148444
1601148781
1601149621
1601159774
1601161097
1601164771
1601164290
1601169751
1601178568
1601178720
1601178845
1601182539
1601185800
1601190765
1601192239
1601195042
1601198602
1601200114
1601205329
1601209297
1601210527
1601213088
1601217103
1601218953
1601223844
1601228036
1601228690
1601233327
1601237196
1601238238
1601240769
1601242252
1601247283
1601255986
1601256378
1601256780
1601257406
1601284020
1601284587
1601286322
1601289150
1601293775
1601293890
1601295356
1601298515
1601299707
1601304286
1601304313
1601305076
1601312140
1601315215
1601317727
1601326056
1601327549
1601328761
1601329228
1601340687
1601342017
1601342527
1601345557
1601347107
1601358803
1601359361
1601361355
1601362132
1601367933
1601368752
1601369181
1601371433
1601381148
1601385103
1601385552
1601386228
1601394426
1601396405
1601397315
1601399439
1601410519
1601413730
1601422280
1601423690
1601425119
1601428072
1601428606
1601435150
1601444715
1601447687
1601450772
1601453369
1601456269
1601459041
1601460582
1601464749
1601471503
1601475299
1601482152
1601482503
1601482936
1601483029
1601483090
1601485412
1601489782
1601490164
1601492290
1601496488
1601497382
1601503458
1601505567
1601509796
1601509896
1601510961
1601511938
1601514089
1601518333
1601518990
1601521821
1601523250
1601524956
1601525779
1601526109
1601527192
1601527875
1601528565
1601529905
1601532476
1601532884
1601535262
1601535899
1601536898
1601537101
1601538069
1601539359
1601543387
1601547493
1601547754
1601552279
1601552439
1601554062
1601559396
1601559572
1601568325
1601570700
1601571206
1601571718
1601571919
1601573331
1601574034
1601575099
1601576762
1601578348
1601580428
1601583951
1601589714
1601595164
1601596530
1601597617
1601601451
1601606432
1601609513
1601611679
1601612959
1601615575
1601615687
1601620765
1601620876
1601623402
1601625416
1601626042
1601627777
1601634132
1601639305
1601640352
1601641645
1601642618
1601649257
1601650765
1601653584
1601654001
1601654288
1601655161
1601656279
1601661580
1601664267
1601665299
1601670160
1601673263
1601677092
1601677463
1601677453
1601679792
1601680603
1601684658
1601686777
1601686840
1601700346
1601701519
1601703116
1601709099
1601710911
1601714360
1601715445
1601717643
1601718613
1601719331
1601719477
1601721580
1601723077
1601723741
1601724655
1601726296
1601728109
1601729948
1601732934
1601742496
1601749228
1601749219
1601750304
1600007112
1600008738
1600021008
1600021092
1600030846
1600034580
1600044491
1600047124
1600050695
1600060280
1600061765
1600063130
1600063186
1600083621
1600086236
1600097398
1600100210
1600101428
1600106654
1600114263
1600120563
1603065529
1603066386
1603072900
1603077533
1603080279
1603081898
1603086272
1603087231
1603088350
1603089821
1603090170
1603094913
1603095550
1603096767
1603097782
1603103143
1603105357
1603105443
1603117840
1603118526
1603121793
1603126021
1603131484
1603138766
1603141339
1603142312
1603142736
1603152136
1603158077
1603163524
1603166871
1603167215
1603167199
1603169062
1603173289
1603176298
1603178355
1603179165
1603179519
1603181537
1603182509
1603193109
1603194259
1603194437
1603194551
1603196221
1603198120
1603205398
1603207944
1603208372
1603211088
1603214244
1603215327
1603217776
1603223031
1603224727
1603224867
1603225161
1603225752
1603226535
1603226926
1603234864
1603238353
1603243552
1603249399
1603249595
1603255623
1603257728
1603259076
1603259582
1603260562
1603264330
1603269308
1603269798
1603280242
1603290452
1603300574
1603307221
1603309498
1603313433
1603317816
1603321352
1603322162
1603322402
1603323951
1603324659
1603325407
1603328304
1603331045
1603332558
1603342547
1603344989
1603348008
1603353495
1603355864
1603356204
1603358313
1603358640
1603359452
1603362378
1603364204
1603368627
1603369460
1603370653
1603370919
1603378772
1603385885
1603388002
1603398762
1603402026
1603402720
1603408330
1603408422
1603408820
1603409906
1603414388
1603415359
1603419852
1603420756
1603421581
1603423335
1603426255
1603429270
1603431883
1603433482
1603434192
1603435402
1603438032
1603438503
1603439659
1603442132
1603443112
1603443323
1603445053
1603445773
1603450607
1603453376
1603453378
1603459578
1603459573
1603461799
1603465704
1603466031
1603467040
1603466376
1603471656
1603471914
1603478502
1603489584
1603490606
1603500894
1603502719
1603502700
1603506281
1603507290
1603509022
1603511183
1603514450
1603521837
1603523533
1603525378
1603527213
1603527390
1603528671
1603529382
1603529466
1603532041
1603531322
1603533013
1603533612
1603533799
1603543638
1603543978
1603553235
1603557770
1603560558
1603564764
1603565594
1603565561
1603565833
1603570843
1603570438
1603572543
1603574251
1603573738
1603577169
1603577966
1603586171
1603595873
1603598496
1603598975
1603603318
1603606544
1603611563
1603613172
1603615973
1603618762
1603623931
1603626238
1603627541
1603628825
1603629629
1603635549
1603641848
1603646581
1603647840
1603651429
1603656725
1603657375
1603664896
1603668307
1603672136
1603673465
1603675387
1603676058
1603677028
1603680613
1603681809
1603682821
1603683358
1603690252
1603702391
1603708154
1603708243
1603707979
1603710176
1603714469
1603714823
1603718032
1603718617
1603721259
1603724770
1603725738
1603725783
1603728037
1603734105
1603744294
1603747356
1603749973
1603750668
1603751646
1603751642
1603757332
1603758509
1603764550
1603765419
1603767107
1603773056
1603777578
1603780528
1603782628
1603784902
1603790210
1603790220
1603791866
1603797770
1603804100
1603807718
1603809130
1603827864
1603828271
1603835391
1603838162
1603840507
1603843024
1603846772
1603849830
1603850455
1603862022
1603865327
1603867592
1603868337
1603869001
1603881736
1603883380
1603888395
1603900302
1603901720
1603905110
1603908504
1603909089
1603914122
1603916856
1603918007
1603921918
1603926533
1603928131
1603929534
1603934038
1603936001
1603939924
1603940565
1603941414
1603942477
1603943388
1603945425
1603948861
1603949747
1603950877
1603953631
1603958333
1603963219
1603964777
1603966986
1603972573
1603975942
1603978470
1603981740
1603983223
1603984345
1603987298
1603989709
1603990877
1603995245
1603995680
1603995631
1603997421
1603998166
1604010084
1604015550
1604017252
1604018908
1604030088
1604030745
1604031635
1604034624
1604040088
1604041273
1604043126
1604043447
1604044634
1604048411
1604050422
1604050826
1604053172
1604054443
1604055956
1604061057
1604069095
1604071098
1604073947
1604075320
1604079719
1604085433
1604085811
1604088148
1604093051
1604094373
1604096219
1604097181
1604100794
1604102670
1604109999
1604109876
1604116818
1604118128
1604119029
1604123419
1604125621
1604128283
1604138994
1604140133
1604143119
1604155966
1604162986
1604167513
1604168111
1604171391
1604175862
1604177516
1604196369
1604197828
1604199275
1604202201
1604210323
1604212146
1604215690
1604217378
1604220345
1604221531
1604225313
1604233722
1604242516
1604243700
1604244595
1604255326
1604256541
1604259464
1604260918
1604263949
1604270632
1604271183
1604276302
1604281402
1604281550
1604283029
1604283390
1604290902
1604295853
1604299327
1604301250
1604305489
1604306178
1604313273
1604314416
1604314319
1604323007
1604336086
1604353180
1604355058
1604359166
1604361507
1604361898
1604366278
1604366782
1604367814
1604372110
1604373096
1604375472
1604379460
1604380686
1604380925
1604384001
1604390992
1604391152
1604391331
1604391838
1604402252
1604403281
1604405528
1604406353
1604412663
1604412959
1604414239
1604418839
1604422172
1604422316
1604422342
1604431155
1604431166
1604433587
1604437607
1604437618
1604449998
1604450421
1604455061
1604456152
1604458054
1604458311
1604458408
1604460017
1604460973
1604463849
1604465299
1604468675
1604473486
1604473533
1604474989
1604482956
1604484503
1604484856
1604487952
1604503839
1604504087
1604506255
1604512398
1604523811
1604528457
1604529489
1604534094
1604537796
1604539606
1604541392
1604542586
1604543668
1604552878
1604554890
1604555917
1604559328
1604562392
1604563794
1604569690
1604571498
1604577448
1604581217
1604584252
1604584720
1604586721
1604586739
1604588018
1604590033
1604592174
1604594714
1604599136
1604599714
1604603579
1604618267
1604621751
1604623637
1604627397
1604628991
1604634636
1604640346
1604642772
1604643690
1604648209
1604649835
1604652335
1604654471
1604661057
1604662095
1604663667
1604669860
1604670169
1604670319
1604670932
1604672519
1604674997
1604678918
1604679810
1604681297
1604682293
1604684560
1604686158
1604690374
1604691700
1604693399
1604700136
1604702501
1604703733
1604707245
1604708315
1604708714
1604711237
1604712130
1604730306
1604732533
1604733340
1604735132
1604750526
1604751674
1604754655
1604754859
1604755285
1604755962
1604761187
1604765411
1604765864
1604770311
1604774118
1604776205
1604778640
1604780913
1604782430
1604782506
1604789068
1604791337
1604795049
1604803914
1604806315
1604807809
1604807966
1604809045
1604809534
1604809804
1604810230
1604813904
1604818544
1604822481
1604827245
1604827612
1604832442
1604840984
1604845474
1604845112
1604845653
1604847158
1604847585
1604855228
1604859618
1604860278
1604861807
1604871164
1604871426
1604873391
1604874921
1604880685
1604883216
1604885881
1604891466
1604891883
1604892153
1604893170
1604905063
1604908164
1604909532
1604910164
1604912468
1604913990
1604914635
1604918593
1604925669
1604927727
1604931207
1604936094
1604944015
1604946086
1604946886
1604950435
1604962220
1604969810
1604971418
1604974458
1604975967
1604977290
1604981263
1604983021
1604983693
1604987501
1604988923
1604994670
1604999808
1605001662
1605004114
1605011155
1605014408
1605016040
1605019418
1605021771
1605021913
1605026533
1605029927
1605034027
1605039542
1605046638
1605047384
1605047141
1605051493
1605056264
1605069159
1605075579
1605075926
1605076271
1605076991
1605079313
1605081434
1605082092
1605087826
1605089152
1605090360
1605094207
1605095286
1605105581
1605108658
1605119705
1605120163
1605120596
1605120940
1605123862
1605128039
1605128838
1605136279
1605138354
1605141692
1605147392
1605152906
1605153743
1605155323
1605155659
1605155983
1605157405
1605158446
1605161428
1605162316
1605173735
1605179771
1605184288
1605185761
1605186299
1605186432
1605189693
1605193917
1605204675
1605208249
1605209168
1605211944
1605215265
1605215573
1605216559
1605220227
1605224594
1605224863
1605230252
1605231026
1605231251
1605234655
1605256608
1605266467
1605268528
1605268890
1605288044
1605290386
1605295869
1605297165
1605299269
1605301046
1605309959
1605312473
1605320611
1605326635
1605335282
1605335820
1605337748
1605339921
1605342369
1605342762
1605346855
1605347724
1605348295
1605348438
1605348773
1605351729
1605354554
1605358471
1605358521
1605360170
1605364888
1605365890
1605369941
1605372180
1605375095
1605382943
1605383524
1605397072
1605400134
1605401549
1605403429
1605409290
1605419847
1605425634
1605426000
1605435903
1605437155
1605440809
1605444980
1605445508
1605448049
1605448344
1605456173
1605457287
1605457595
1605458804
1605465482
1605466172
1605469270
1605472644
1605473982
1605474870
1605475486
1605483569
1605485171
1605496762
1605502646
1605505082
1605509162
1605510261
1605511548
1605516819
1605526527
1605531013
1605537171
1605539664
1605540622
1605541760
1605550257
1605552300
1605552789
1605552733
1605553457
1605555412
1605583319
1605586954
1605588495
1605589844
1605595651
1605600570
1605608023
1605614198
1605615269
1605623016
1605635493
1605635768
1605639707
1605643302
1605655076
1605655294
1605657559
1605661119
1605663525
1605664058
1605664836
1605680244
1605680160
1605682617
1605683303
1605686773
1605691726
1605696643
1605706383
1605709824
1605713676
1605718316
1605727367
1605727695
1605731276
1605733362
1605734314
1605737877
1605741445
1605741629
1605743013
1605743502
1605747467
1605751355
1605759420
1605761374
1605762563
1605775031
1605777390
1605778971
1605779196
1605781582
1605782719
1605786525
1605788149
1605789170
1605792960
1605797031
1605798093
1605806975
1605807442
1605809975
1605811218
1605814130
1605816952
1605821479
1605827248
1605827380
1605827878
1605831406
1605836171
1605836140
1605836664
1605839313
1605839951
1605842566
1605842724
1605846663
1605846928
1605847766
1605851434
1605852848
1605854216
1605866438
1605867159
1605874271
1605879555
1605880866
1605885314
1605894759
1605903433
1605908272
1605915321
1605921605
1605922505
1605924096
1605924371
1605927531
1605929283
1605935161
1605935348
1605939721
1605942385
1605945313
1605947229
1605947540
1605966095
1605967977
1605973956
1605976071
1605980802
1605980974
1605980945
1605983781
1605986853
1606000518
1606009694
1606010548
1606010631
1606013434
1606018195
1606033618
1606034912
1606039358
1606045144
1606046776
1606048984
1606049642
1606053286
1606037898
1606057545
1606059883
1606062150
1606065375
1606070237
1606073443
1606073551
1606075023
1606076930
1606079419
1606086333
1606089707
1606094936
1606095333
1606099562
1606099764
1606103563
1606111149
1606119454
1606132670
1606134094
1606135201
1606139891
1606142323
1606144207
1606158028
1606158082
1606161431
1606161967
1606168988
1606170286
1606176833
1606184546
1606188908
1606191785
1606196878
1606199928
1606200931
1606201465
1606206157
1606206297
1606225281
1606239186
1606244614
1606247189
1606247811
1606254229
1606256889
1606260698
1606267086
1606269690
1606276723
1606289670
1606290530
1606305215
1606306103
1606307008
1606308720
1606320018
1606321636
1606336032
1606338630
1606340486
1606343506
1606346819
1606352622
1606373513
1606373711
1606376177
1606380277
1606386646
1606387493
1606388768
1606393133
1606404155
1606404350
1606404787
1606404858
1606408606
1606411654
1606415366
1606422072
1606429424
1606429837
1606436868
1606441042
1606441592
1606447681
1606449672
1606455486
1606463455
1606480815
1606488543
1606492683
1606494483
1606500101
1606502179
1606507390
1606512272
1606516961
1606519101
1606531546
1606536048
1606536748
1606540253
1606540764
1606546361
1606553923
1606554870
1606561119
1606561120
1606566579
1606569149
1606570758
1606572550
1606573761
1606578523
1606587479
1606591490
1606591909
1606611723
1606613751
1606614654
1606618864
1606620531
1606622127
1606627514
1606629258
1606629101
1606633407
1606634673
1606635875
1606639243
1606646004
1606646256
1606667834
1606668563
1606668764
1606674443
1606677357
1606678629
1606679465
1606682821
1606691882
1606711103
1606726283
1606728971
1606730204
1606735183
1606737887
1606738617
1606750285
1606753170
1606759130
1606767055
1606770352
1606779130
1606781809
1606782523
1606783979
1606785385
1606786190
1606791175
1606790877
1606796373
1606796532
1606796683
1606796908
1606801892
1606807294
1606810231
1606816839
1606822361
1606828012
1606830066
1606838629
1606846390
1606853932
1606861325
1606866640
1606871358
1606878846
1606880255
1606885743
1606891837
1606894026
1606897191
1606897851
1606901008
1606901148
1606905290
1606905494
1606907503
1606914943
1606914781
1606922568
1606925905
1606927910
1606940211
1606958441
1606959093
1606961702
1606966141
1606967949
1606968229
1606969277
1606971036
1606974771
1606978599
1606979742
1606987051
1606987647
1606987903
1606988114
1606996877
1607003534
1607009034
1607019196
1607021791
1607022084
1607024764
1607025806
1607026117
1607030553
1607030551
1607031997
1607033402
1607037934
1607038303
1607043872
1607047321
1607047669
1607050379
1607064533
1607066401
1607066588
1607069682
1607073606
1607074476
1607076061
1607077834
1607082435
1607087167
1607097498
1607098670
1607100293
1607104413
1607108269
1607111831
1607116376
1607118475
1607126714
1607130207
1607130203
1607133644
1607138577
1607141821
1607144939
1607155409
1607156097
1607156828
1607167047
1607178376
1607188008
1607191461
1607196430
1607204776
1607204798
1607205500
1607216602
1607218125
1607218131
1607236138
1607240830
1607242088
1607248671
1607249511
1607253283
1607256425
1607257417
1607270244
1607270643
1607294219
1607301221
1607302440
1607314582
1607317670
1607318095
1607323536
1607330143
1607337258
1607338165
1607339679
1607341019
1607344603
1607348788
1607354929
1607361208
1607361762
1607366105
1607373224
1607381844
1607389032
1607394106
1607396319
1607412131
1607413546
1607415276
1607424543
1607427720
1607428529
1607431063
1607434657
1607451165
1607459785
1607461076
1607462181
1607466887
1607469084
1607473049
1607474108
1607476803
1607483855
1607489178
1607491487
1607492681
1607493424
1607493713
1607496271
1607496854
1607497158
1607498712
1607499717
1607499895
1607502897
1607507343
1607515893
1607523004
1607534117
1607536247
1607543887
1607545502
1607552844
1607556090
1607561483
1607561712
1607568135
1607576650
1607586528
1607589656
1607591024
1607593814
1607593876
1607611180
1607611704
1607611891
1607621232
1607629335
1607632252
1607636689
1607640320
1607641457
1607648847
1607650944
1607651794
1607652531
1607660825
1607665625
1607673309
1607677626
1607678028
1607682251
1607688137
1607688685
1607697306
1607697591
1607698172
1607703057
1607703838
1607706581
1607706771
1607707171
1607710664
1607722886
1607731942
1607735134
1607735635
1607740932
1607741130
1607744195
1607744160
1607749070
1607757562
1607758345
1607773016
1607773621
1607778245
1607780106
1607786725
1607789530
1607790765
1607792112
1607792222
1607793369
1607796798
1607806033
1607806338
1607811217
1607812598
1607813340
1607813410
1607818839
1607819241
1607819583
1607822419
1607825208
1607829600
1607841957
1607842786
1607844464
1607856842
1607861313
1607862081
1607863589
1607863917
1607870112
1607877735
1607877715
1607881058
1607885199
1607889927
1607893138
1607897120
1607901621
1607904173
1607909829
1607912631
1607916655
1607919775
1607923162
1607924457
1607925534
1607927928
1607941595
1607942923
1607958207
1607958447
1607962755
1607967165
1607967244
1607967358
1607973422
1607975482
1607981143
1607985318
1607992346
1607992528
1607994336
1607995745
1607996029
1607998599
1607999439
1608008454
1608010264
1608012622
1608014496
1608016435
1608017709
1608019293
1608020632
1608021542
1608022470
1608024452
1608032837
1608037273
1608041090
1608047035
1608048321
1608056754
1608056747
1608056768
1608058111
1608060860
1608064384
1608067348
1608070202
1608070545
1608093295
1608095001
1608110175
1608110371
1608115205
1608115162
1608116381
1608119687
1608129589
1608137964
1608140675
1608147659
1608149905
1608153944
1608157275
1608167502
1608173863
1608180302
1608189892
1608190790
1608192583
1608193365
1608195073
1608195747
1608201544
1608204971
1608209538
1608214875
1608218095
1608221749
1608225440
1608225814
1608226259
1608226572
1608229335
1608244062
1608246616
1608247557
1608252630
1608255653
1608258636
1608259145
1608258462
1608262613
1608262990
1608269390
1608269759
1608273972
1608284144
1608286582
1608287414
1608287632
1608293543
1608297389
1608299087
1608308744
1608314839
1608315130
1608319302
1608320123
1608329021
1608330684
1608332827
1608333822
1608337173
1608351951
1608361838
1608365185
1608370510
1608375070
1608377256
1608380618
1608382582
1608389152
1608391634
1608398772
1608403549
1608404398
1608416726
1608417369
1608426814
1608426955
1608429369
1608430483
1608431422
1608435563
1608435720
1608435956
1608437126
1608441426
1608444650
1608450798
1608450815
1608450960
1608451154
1608452242
1608454982
1608460664
1608469252
1608469366
1608473310
1608473912
1608484373
1608486146
1608490688
1608508104
1608510133
1608512619
1608518248
1608522060
1608522727
1608532382
1608547736
1608549547
1608550558
1608553830
1608554676
1608560916
1608562837
1608564055
1608565427
1608566849
1608567513
1608574857
1608583315
1608592079
1608593208
1608594509
1608598411
1608609205
1608612342
1608612469
1608618434
1608621379
1608621601
1608622576
1608629699
1608632244
1608632573
1608637081
1608637852
1608639490
1608642292
1608642972
1608645204
1608653750
1608665823
1608670048
1608672336
1608680460
1608682654
1608693109
1608698898
1608711270
1608721279
1608723626
1608724360
1608728530
1608728600
1608733291
1608744407
1608750514
1608756208
1608757720
1608759693
1608766594
1608768536
1608768697
1608778133
1608780211
1608783879
1608784924
1608818745
1608820130
1608822962
1608827593
1608829458
1608833702
1608836639
1608837406
1608821780
1608844412
1608850494
1608852258
1608853881
1608856388
1608862767
1608863393
1608865817
1608868444
1608870560
1608872145
1608874638
1608880795
1608883237
1608887468
1608890034
1608894635
1608895114
1608897409
1608898035
1608902462
1608912307
1608916245
1608921906
1608923581
1608928442
1608929205
1608929480
1608931721
1608935617
1608940771
1608944870
1608945044
1608953070
1608953183
1608957194
1608960506
1608960937
1608968944
1608971805
1608974531
1608974584
1608983507
1608987251
1608991109
1608995565
1608998526
1609000310
1609002022
1609009153
1609010198
1609010372
1609012377
1609013914
1609014168
1609013900
1609017593
1609019140
1609019337
1609019717
1609020515
1609020837
1609026731
1609027562
1609033530
1609033363
1609035223
1609035910
1609036056
1609036503
1609037030
1609037413
1609041272
1609044997
1609056746
1609061369
1609071027
1609075306
1609078817
1609088522
1609091061
1609091553
1609092393
1609093451
1609094408
1609095498
1609099207
1609099943
1609112322
1609117078
1609126124
1609134321
1609140603
1609142980
1609145142
1609158096
1609160627
1609164511
1609165978
1609172139
1609174925
1609177180
1609192451
1609202204
1609204555
1609204981
1609206538
1609212858
1609213737
1609223234
1609224199
1609224726
1609231100
1609232574
1609237330
1609241390
1609249193
1609251527
1609253095
1609254813
1609260296
1609261027
1609261171
1609264171
1609264757
1609269511
1609275762
1609287060
1609297450
1609300577
1609300794
1609302362
1609302964
1609303413
1609308722
1609310830
1609312856
1609316683
1609323368
1609324496
1609327232
1609329392
1609343361
1609350553
1609357496
1609361367
1609369162
1609369689
1609373677
1609383543
1609385229
1609385475
1609386030
1609389865
1609404156
1609408293
1609408888
1609410212
1609412745
1609418115
1609418284
1609421564
1609424775
1609428580
1609432793
1609434118
1609448428
1609449069
1609452872
1609464409
1609464679
1609467239
1609472226
1609473541
1609475532
1609478354
1609492725
1609494491
1609494915
1609509092
1609512687
1609515391
1609519492
1609521301
1609522880
1609528458
1609528551
1609529040
1609531549
1609539237
1609543201
1609547614
1609553260
1609557281
1609561966
1609566246
1609566637
1609569503
1609571051
1609577892
1609579851
1609582321
1609587415
1609592241
1609596653
1609596717
1609596848
1609596857
1609598122
1609605242
1609612641
1609619556
1609621069
1609627557
1609631846
1609632961
1609639287
1609642926
1609647715
1609650743
1609656405
1609656648
1609658947
1609660329
1609661364
1609661931
1609663177
1609671777
1609673040
1609673879
1609674968
1609678657
1609683795
1609692843
1609706089
1609707321
1609709951
1609713795
1609716592
1609726327
1609734883
1609749103
1609753919
1609756734
1609759232
1609762744
1609765946
1609771334
1609773536
1609773847
1609778348
1609792669
1609796146
1609796953
1609803053
1609807304
1609810605
1609810635
1609811218
1609812890
1609816513
1609820679
1609821148
1609832026
1609832644
1609859658
1609869926
1609876376
1609879070
1609879665
1609881685
1609885705
1609885779
1609887670
1609890358
1609895833
1609895861
1609899223
1609899908
1609904125
1609906763
1609910497
1609914183
1609917756
1609920385
1609925391
1609925409
1609925756
1609927919
1609930985
1609933517
1609935519
1609938545
1609940463
1609941073
1609944887
1609950294
1609953183
1609955162
1609955598
1609956963
1609960431
1609971056
1609979019
1609985504
1609987817
1609990634
1609999802
