731263203
730616143
730776907
1600018127
1600090762
1600116333
1600173594
1600249410
1600284345
1600401586
1600439477
1600478151
1600566164
1600569012
1600577105
1600625518
1600856542
1600938159
1600977724
1601059143
1601106309
1601143442
1601190158
1601261228
1601422661
1601580308
1601690355
1600018127
1603139321
1603145556
1603221521
1603440799
1603452329
1603593443
1603646447
1603696198
1603884404
1603887698
1603973323
1604003980
1604045424
1604205608
1604224069
1604359892
1604405575
1604603299
1604698695
1604713822
1604793177
1604806186
1604834830
1604875676
1604914266
1605025212
1605073340
1605075190
1605157273
1605204881
1605350868
1605372497
1605578635
1606163863
1606416528
1606434528
1606749977
1606774740
1607566040
1608229502
1608245347
1608343303
1608453500
1609875487
