1810000076
1810000153
1810000097
1810000320
1810000034
1810000332
1810000469
1810000493
1810000329
1810000553
1810000481
1810000663
1810000678
1810000670
1810000698
1810000685
1810000831
1810000579
1810000922
1810000920
1810001130
1810001189
1810001394
1810001512
1810001708
1810001572
1810001746
1810002335
1810002090
1810002108
1810002443
1810002400
1810002314
1810002504
1810002486
1810002611
1810002549
1810002428
1810002539
1810003074
1810003042
1810003227
1810003214
1810002932
1810003388
1810003286
1810003412
1810003496
1810003611
1810003659
1810003625
1810004050
1810003920
1810004231
1810004191
1810004500
1810004404
1810004568
1810004711
1810004531
1810004916
1810004965
1810005005
1810005012
1810005016
1810005018
1810004953
1810005204
1810004608
1810005229
1810005418
1810005348
1810005438
1810005434
1810005596
1810005546
1810005599
1810005314
1810005651
1810005536
1810005633
1810005245
1810005774
1810005927
1810005722
1810005951
1810006130
1810006308
1810006338
1810006387
1810005795
1810006281
1810006383
1810006411
1810006676
1810006593
1810006864
1810006756
1810007093
1810006871
1810007480
1810007399
1810007324
1810007461
1810007661
1810007731
1810007605
1810007729
1810007745
1810007744
1810007780
1810008026
1810007842
1810008112
1810008214
1810008212
1810008429
1810008435
1810008265
1810008392
1810008426
1810008372
1810008563
1810008451
1810008508
1810008813
1810008890
1810008905
1810008825
1810009132
1810009264
1810009173
1810009481
1810009490
1810009480
1810009511
1810009451
1810009868
1810009693
1810009772
1810009622
1810010042
1810009942
1810010521
1810010480
1810010532
1810010345
1810010644
1810010849
1810010591
1810010914
1810010874
1810010748
1810010895
1810010548
1810011090
1810011092
1810011133
1810011264
1810011623
1810011710
1810011747
1810011695
1810011906
1810011697
1810011924
1810012038
1810012017
1810011827
1810012442
1810012541
1810012426
1810012544
1810012506
1810012590
1810012538
1810012573
1810012817
1810012792
1810012786
1810012912
1810012950
1810012894
1810013245
1810013436
1810013620
1810013581
1810013307
1810013919
1810013883
1810013766
1810013949
1810014042
1810014024
1810014180
1810013974
1810014280
1810014291
1810014174
1810014563
1810014643
1810014709
1810014732
1810014541
1810014871
1810014830
1810015027
1810015057
1810015010
1810015243
1810015450
1810015445
1810015545
1810015485
1810015657
1810015624
1810015679
1810015707
1810015760
1810015731
1810015844
1810015778
1810015999
1810016188
1810016042
1810016337
1810016310
1810016348
1810016455
1810016552
1810016356
1810016638
1810016614
1810016594
1810016633
1810016718
1810017006
1810017103
1810017017
1810017269
1810016946
1810015864
1810017310
1810017219
1810017250
1810017427
1810017450
1810017482
1810017511
1810017578
1810017559
1810017419
1810017856
1810018286
1810018445
1810018533
1810018401
1810018620
1810018642
1810018865
1810018916
1810018913
1810019049
1810019097
1810019110
1810019161
1810018921
1810019335
1810019366
1810019045
1810019380
1810019512
1810019285
1810019486
1810019256
1810019439
1810019731
1810019911
1810019803
950000030
950000208
950001742
950001948
950002264
950004506
950005423
950006711
950009745
950009736
950010774
950011508
950011919
950011919
950012452
950012707
950012637
1810000153
1810000097
1810000034
1810000332
1810000076
1810000481
1810000579
1810000663
1810000329
1810000469
1810000678
1810000920
950015615
950015897
950016640
950017550
950017564
950019127
950021819
950022097
950022455
950023030
950023404
950026072
950029530
950029901
950030616
950031059
950032358
950032891
950033111
950035462
950036279
950037523
950037687
950037458
950040826
950041577
950042936
950043323
950044457
950048416
950049923
950050907
950051947
950052062
950052747
950057287
950057893
950058030
950058281
950060105
950061594
950062034
950063429
950064652
950065232
950066114
950066049
950067699
950068317
950068400
950074488
950075055
950074961
950075607
950076129
950077136
950078383
950079037
950080192
950080120
950080305
950081122
950082929
950082965
950082910
950085232
950086671
950086335
950087328
950089729
950089606
950090228
950091662
950092888
950094574
950095546
950095828
950096670
950096702
950098820
950099286
950099998
950100184
950100880
950101612
950101042
950101619
950104200
950104944
950107121
950107560
950108179
950108065
950110598
950112138
950112524
950113402
950113754
950114154
950115928
950116170
950117094
950116183
950119430
950119907
950119974
950120734
950124171
950125220
950125939
950127717
950127974
950128190
950129950
950130746
950131233
950132006
950136345
950136167
950139447
950139658
950141269
950140806
950143182
950143239
950143689
950144678
950144499
950147164
950148162
950150619
950152877
950154143
950154196
950154000
950156013
950155775
950156572
950156852
950163361
950163745
950164238
950164360
950164848
950165559
950166793
950166801
950167307
950167992
950168148
950168366
950169871
950170372
950171934
950172631
950172779
950175358
950175417
950177156
950177841
950178820
950180070
950181735
950181579
950182110
950182441
950182979
950183604
950186168
950187299
950188537
950189119
950190667
950193054
950193776
950195796
950195714
950195751
950197548
950197699
950198198
950199860
950199655
950200705
950200836
950202968
950204734
950205378
950205731
950207214
950209138
950209215
950209448
950209437
950211203
950213049
950213639
950214164
950216582
950216502
950217260
950218383
950219826
950221059
950221880
950228015
950229616
950232052
950234315
950234905
950236197
950235964
950236393
950236715
950236736
950237715
950240387
950241610
950241243
950241801
950241928
950243934
950247459
950247699
950248131
950248640
950248631
950249159
950253335
950255364
950258055
950259293
950259439
950260722
950261719
950265447
950266767
950268634
950269084
950270868
950271414
950271585
950274065
950274004
950274251
950274912
950276095
950275961
950276391
950277238
950277406
950280149
950280649
950281221
950281623
950281654
950282536
950284051
950284190
950284226
950284917
950284875
950285695
950286652
950286680
950287175
950288761
950289630
950290927
950292491
950292575
950292839
950293440
950293738
950294139
950294708
950295931
950297076
950297243
950297385
950297190
950297929
950298058
950298413
950298977
950299084
950299272
950299709
950299678
950299940
950301092
950305558
950307096
950308696
950309063
950309634
950310030
950311331
950311751
950312774
950313149
950314033
950315420
950315683
950315681
950318107
950320222
950320239
950321263
950322380
950322618
950323360
950324729
950326514
950326491
950326857
950327212
950328227
950328544
950329398
950329422
950330247
950330272
950331851
950333519
950334192
950334533
950338125
950338519
950338459
950339935
950341677
950343331
950343108
950345899
950346192
950346387
950346508
950353497
950354050
950355524
950355490
950358667
950359021
950360575
950363815
950363952
950365164
950365164
950366013
950366383
950366876
950367012
950367493
950368409
950368614
950369899
950371165
950371931
950372132
950373750
950375004
950375124
950375487
950376302
950376761
950376763
950381133
950382558
950384941
950387969
950388308
950389821
950389776
950390972
950391191
950391493
950392048
950393498
950394391
950398006
950398975
950399712
950400031
950401500
950402967
950403243
950406804
950406969
950407165
950407308
950407273
950411250
950411402
950413109
950417635
950418284
950419117
950419521
950419486
950420578
950421066
950421655
950423353
950423725
950424944
950425421
950427236
950427401
950427738
950428645
950430559
950431429
950431956
950433637
950434351
950434607
950435086
950435011
950435696
950436658
950436978
950438532
950439047
950439771
950440133
950440431
950440313
950441695
950441859
950442588
950443205
950444293
950448605
950449025
950449469
950450193
950450643
950451871
950452256
950454349
950454699
950455360
950456057
950458788
950462998
950463438
950466079
950466458
950467972
950468190
950468928
950469379
950470086
950471237
950471855
950471842
950472784
950472968
950476105
950476869
950477863
950477932
950478736
950478821
950479759
950480321
950483051
950483114
950485153
950485260
950486368
950486418
950487139
950487657
950487864
950489147
950490997
950491242
950492217
950494318
950495848
950495996
950495679
950499767
950499821
950500271
950500722
950500983
950501804
950502297
950502924
1810000097
1810000153
1810000332
1810000034
1810000329
1810000469
1810000579
1810000481
1810000678
1810000920
1810001189
1810001708
1810002314
1810002443
1810002486
1810002970
1810003042
1810003412
1810003659
1810004191
1810004608
1810004568
1810005016
1810004953
1810005005
1810005438
1810005418
1810005599
1810005633
1810005722
1810005774
1810006308
1810007661
1810007745
1810008112
1810008265
1810008372
1810008429
1810008435
1810009173
950163361
950163745
950164238
