800075806
800075806
800242188
800261429
800426631
800552193
800613014
800639801
800721939
800791820
800856670
800862826
801242223
801270793
801616093
801643285
801643903
801655604
801689237
801696703
801729518
801732875
