1600013177
1600026331
1600115499
1600247122
1600399457
1600488499
1600491709
1600561889
1600654051
1600705365
1600824888
1600865033
1600940348
1600941610
1601106069
1601304349
1601387938
1601439590
1601453539
1601587920
1601684403
1601706354
1601728565
1603105704
1603149191
1603235341
1603255409
1603267451
1603363836
1603514537
1603686878
1603768684
1603790880
1603941605
1604011996
1604050281
1604084822
1604097571
1604104343
1604275549
1604285651
1604346058
1604477765
1604552511
1604708310
1604741781
1604818439
1604818797
1604878421
1604951782
1605047364
1605059359
1605238771
