1600106584
1600301061
1600329465
1600365306
1600430685
1600462085
1600498185
1600555454
1600608146
1600641910
1600976999
1600995145
1600995486
1601045614
1601210622
1601322460
1601416038
1601420636
1601489989
1601496268
1601542397
1603119243
1603135153
1603221005
1603250220
1603253189
1603269591
1603292701
1603321410
1603418849
1603469640
1603525818
1603628999
1603665518
1603763836
1603981053
1604138416
1604164040
1604238962
1604316760
1604354321
1604601677
1604713004
1604822879
1604912853
1604913956
1605181930
1606300883
1609976086
