1810002768
1810004239
1810004640
1810005427
1810007682
1810009964
950061932
950068680
950162332
950191101
950215921
950279892
950415847
950444138
1810002768
1810004239
1810004640
1810005427
1810007682
950162332
