730654831
1600033221
1600072669
1600089423
1600093395
1600101940
1600121703
1600156690
1600199366
1600250107
1600271386
1600273163
1600274236
1600301927
1600332064
1600371562
1600374485
1600383304
1600399931
1600457682
1600528029
1600551437
1600597597
1600599046
1600722252
1600812207
1600819314
1600834044
1600876819
1600881905
1600919625
1600929902
1600993975
1601010112
1601015399
1601090991
1601099385
1601142505
1601147731
1601158452
1601161590
1601205324
1601221861
1601255551
1601355674
1601415421
1601459294
1601518951
1601529104
1601546512
1601587375
1601627615
1601628769
1601633811
1601654265
1601679388
1601692070
1601701037
1603090128
1603119309
1603150916
1603259197
1603333628
1603337764
1603345616
1603350072
1603357847
1603375347
1603393080
1603455337
1603456507
1603552660
1603562958
1603579045
1603622837
1603624701
1603631177
1603630912
1603638047
1603652281
1603696447
1603715779
1603763293
1603901195
1603950862
1603964281
1603997088
1604029337
1604055837
1604056934
1604098747
1604128632
1604153113
1604161356
1604229975
1604280442
1604303058
1604358478
1604375473
1604453484
1604470954
1604499136
1604514944
1604525975
1604550406
1604559298
1604764040
1604787526
1604802919
1604834755
1604855654
1604877099
1604994475
1605047016
1605058043
1605077534
1605083068
1605123819
1605156813
1605177922
1605180652
1605341215
