800004709
800006152
800006531
801002689
801003867
800018376
800019652
800019340
800024232
800029642
801008394
801008540
801008890
800033929
800035515
800037878
800038784
800039376
800038983
800044615
800052395
800056385
800056616
800060282
800062088
800064893
800065009
800069050
801013481
800072836
801016930
801017641
800076700
800076898
801021359
801022982
801024054
801025257
801027386
801028454
801028981
800089698
800089762
801037557
801038164
800098624
800100072
800100818
801042730
800103229
800104474
801045681
801053536
800114892
800116029
801060643
801061480
800118420
800121017
801065865
800123913
800124093
801068532
801068603
800125379
800126571
800128646
801073239
800132550
801079311
801080032
801082585
800138591
800139484
801084545
800141157
800141280
801087611
801087590
800144626
801089298
801089683
800147629
801092053
801093422
800149232
800154040
800155884
801099910
801100330
801100551
801101112
801102124
801103012
800161606
802001341
800004709
800006531
800006152
800018376
800019652
800019340
800024232
800029642
800033929
800035515
800037878
800038784
800038983
800039376
800044615
800052395
800056616
800060282
800062088
800064893
800065009
800069050
800072836
800076700
800076898
800089698
800089762
800098624
800100072
800100818
800104474
800121017
800124093
800125379
800126571
800128646
800132550
800138591
800147629
800149232
800154040
800155884
800161606
800162665
800174869
800175384
800180789
800184994
800186947
800199307
800203086
800204475
800205284
800207291
800209517
800209886
800212380
800212979
800213345
800214322
800216472
800220282
800225652
800229067
800229072
800229901
800234555
800241270
800251759
800251803
800252034
800253556
800256401
800257543
800259689
800260352
800273920
800275697
800278628
800280042
800287874
800291426
800292133
800295895
800296424
800296559
800296554
800297960
800300783
800309254
800313611
800324027
800325554
800332856
800336292
800339705
800339061
800341830
800347689
800348583
800351107
800352759
800355077
800360815
800361524
800366897
800368103
800370317
800372412
800372746
800377771
800381833
800387595
800395997
800397302
800398853
800399052
800406161
800407216
800407463
800412561
800414395
800415495
800419062
800419635
800427509
800437241
800439131
800439858
800440144
800440164
800442295
800443517
800448024
800464816
800465431
800468638
800468925
800470033
800473047
800481908
800485072
800486498
800487781
800489012
800494889
800501909
800503566
800510062
800510473
800516025
800526468
800529251
800546637
800552630
800553781
800554033
800560107
800561342
800565394
800571260
800571993
800582100
800587757
800589470
800590422
800595953
800597391
800598176
800617641
800618146
800618244
800625997
800626083
800627476
800630577
800630950
800633400
800640746
800645283
800648252
800649925
800653605
800654209
800654902
800657593
800660218
800660525
800660535
800660978
800662488
800662871
800669739
800674191
800675034
800675638
800682417
800688756
800694048
800694223
800694205
800699274
800701981
800714394
800715802
800715982
800728070
800730139
800731909
800736278
800747035
800750360
800750535
800752923
800755805
800757028
800761392
800762967
800763089
800765307
800769900
800772493
800772520
800772761
800774721
800781237
800783036
800783211
800784932
800786402
800789948
800790699
800799079
800801988
800803135
800813078
800816057
800822136
800827558
800829859
800840115
800844646
800846163
800846746
800854097
800855520
800860896
800869999
800878016
800879116
800881953
800883013
800885312
800890749
800890905
800893620
800894249
800893812
800896167
800898656
800900972
800907108
800914788
800926538
800931042
800935703
800937340
800936053
800943837
800947036
800949792
800951234
800952212
800965463
800968925
800969376
800970135
800989974
800994452
800998386
800999768
801002689
801003867
801008394
801008540
801013481
801016930
801017641
801008890
801021359
801022982
801024054
801025257
801027386
801028454
801037557
801042730
801045681
801053536
801061480
801065865
801068532
801068603
801079311
801080032
801082585
801084545
801087590
801087611
801089298
801099910
801100330
801101112
801102124
801103012
801112143
801140420
801145727
801147589
801148971
801161247
801171242
801172903
801176423
801177660
801179839
801180780
801183522
801188466
801191041
801199169
801201489
801202409
801206694
801206533
801208539
801208353
801209088
801210754
801215237
801219333
801220348
801226686
801231191
801232590
801237088
801238932
801240061
801248079
801251787
801265947
801266459
801267609
801275042
801277344
801280295
801280533
801281445
801282106
801295323
801296800
801301119
801306599
801308045
801308966
801309226
801313151
801314590
801316459
801320585
801320936
801324801
801325294
801331871
801339849
801342853
801353946
801355958
801359059
801359457
801359805
801360223
801372501
801376145
801378202
801382383
801382571
801389599
801392413
801395827
801395954
801401444
801402317
801412487
801414932
801422023
801424685
801428903
801431591
801434830
801436145
801446896
801448704
801455637
801457814
801461959
801470681
801472049
801472781
801474367
801479792
801479990
801482178
801484226
801485157
801487576
801497624
801495238
801499736
801503756
801503892
801504443
801505121
801511551
801513368
801525990
801526319
801528718
801532525
801532996
801533173
801539816
801542904
801551712
801557236
801558562
801562293
801562811
801563833
801565033
801566341
801567501
801567687
801587024
801597097
801597531
801598339
801598474
801599281
801601024
801615838
801616958
801617008
801620354
801629085
801612102
801636918
801638540
801640167
801652314
801653429
801654122
801661476
801665682
801678970
801681070
801686398
801694791
801695041
801700991
801702920
801704736
801706590
801711347
801715537
801716037
801716363
801717568
801722464
801730948
801735444
801737390
801738867
801741486
801750548
801750876
801754186
801764142
801766091
801769941
801770783
801772481
801776728
801778097
801780772
801785105
801798613
801799895
801800376
801803117
801804259
801804833
801805840
801807960
801815762
