1600004328
1600005868
731033555
731085197
730272328
730292397
731661393
730532253
731968293
1600004328
1600005868
1600010527
1600019952
1600028080
1600034998
1600038679
1600042853
1600043329
1600047654
1600056833
1600069195
1600069909
1600093227
1600105864
1600111492
1600111567
1600125463
1600127654
1600131628
1600131850
1600134801
1600140327
1600151405
1600184181
1600196545
1600212829
1600214247
1600215859
1600226194
1600235452
1600250962
1600254578
1600255011
1600259511
1600261557
1600262117
1600276127
1600293989
1600295559
1600318533
1600328752
1600330259
1600349601
1600350429
1600354370
1600356623
1600367464
1600368605
1600375434
1600376323
1600384877
1600386940
1600386953
1600399366
1600409733
1600411445
1600413619
1600419026
1600426301
1600436503
1600436745
1600440092
1600450525
1600451560
1600457143
1600468210
1600472154
1600473586
1600478980
1600479031
1600479346
1600486874
1600489939
1600503675
1600504180
1600507839
1600510300
1600512160
1600518970
1600519187
1600534267
1600534311
1600540857
1600553745
1600555983
1600558962
1600575159
1600575339
1600577788
1600583230
1600587947
1600597591
1600598849
1600600802
1600645524
1600650263
1600650326
1600653091
1600654149
1600667532
1600685952
1600696105
1600705273
1600707358
1600711887
1600719234
1600728376
1600758677
1600761918
1600768549
1600773397
1600774230
1600780080
1600780831
1600781961
1600784895
1600786085
1600786548
1600797703
1600798265
1600812824
1600825755
1600833378
1600838267
1600838410
1600847153
1600851373
1600863418
1600886456
1600887962
1600910870
1600918364
1600921433
1600923722
1600931754
1600936193
1600945137
1600947298
1600950601
1600951798
1600952574
1600960677
1600963031
1600970324
1600973888
1600986505
1600988943
1600992222
1601006786
1601014434
1601019355
1601025388
1601027325
1601028144
1601028856
1601046916
1601056636
1601064536
1601065493
1601075637
1601087293
1601089734
1601095562
1601137999
1601142743
1601152196
1601153224
1601158052
1601160370
1601162736
1601165360
1601179430
1601183720
1601183820
1601203079
1601208536
1601209993
1601214339
1601214581
1601217065
1601232964
1601239669
1601240683
1601241583
1601288229
1601294071
1601303067
1601314733
1601326362
1601337290
1601337778
1601346459
1601347210
1601348688
1601352905
1601360836
1601365309
1601374559
1601376356
1601377871
1601397208
1601398323
1601401445
1601406941
1601438265
1601452890
1601462375
1601467865
1601468868
1601472368
1601482174
1601486312
1601488541
1601491191
1601492075
1601495326
1601512828
1601518292
1601524936
1601531242
1601534323
1601538959
1601546054
1601552015
1601559316
1601564042
1601571796
1601579558
1601593860
1601596147
1601601726
1601621148
1601621462
1601628304
1601632499
1601635758
1601637015
1601639247
1601640215
1601641462
1601645262
1601646814
1601657643
1601658265
1601664491
1601672526
1601682249
1601690195
1601694261
1601702034
1601703006
1601703494
1601708993
1601714523
1601730332
1601730819
1601733805
1601734970
1603068036
1603075994
1603080111
1603083601
1603089359
1603097425
1603100547
1603101372
1603107731
1603107838
1603118548
1603120388
1603148318
1603148988
1603153713
1603159314
1603162132
1603164062
1603176324
1603177164
1603180998
1603190376
1603193347
1603195903
1603198320
1603211617
1603211783
1603216921
1603257634
1603260907
1603273232
1603280423
1603297012
1603298511
1603298752
1603310091
1603314443
1603320865
1603322005
1603332791
1603337068
1603341041
1603346648
1603354853
1603357775
1603364799
1603366077
1603372510
1603380778
1603385753
1603388228
1603393098
1603394863
1603398305
1603407938
1603420499
1603429620
1603436078
1603451299
1603454270
1603459986
1603464985
1603470635
1603478336
1603483849
1603487457
1603494442
1603496944
1603503948
1603504153
1603508072
1603521961
1603523080
1603525637
1603527500
1603528602
1603530547
1603550734
1603553966
1603558871
1603563766
1603565469
1603565591
1603568854
1603570360
1603583086
1603590416
1603608300
1603610529
1603613753
1603622984
1603623028
1603635820
1603638727
1603652775
1603657025
1603661238
1603665852
1603667965
1603677512
1603678357
1603681691
1603683739
1603686034
1603687520
1603687931
1603704901
1603710371
1603711844
1603713260
1603719468
1603725976
1603731299
1603733998
1603746989
1603749068
1603757165
1603759188
1603764833
1603769290
1603769579
1603776624
1603825468
1603898104
1603909782
1603917907
1603923905
1603925063
1603926536
1603927503
1603927682
1603935376
1603938253
1603951261
1603965881
1603971076
1603972258
1603978218
1603980264
1603989104
1603999029
1603999569
1604008782
1604018171
1604020688
1604041661
1604044562
1604047267
1604047325
1604051484
1604054959
1604057424
1604058673
1604065612
1604077764
1604090470
1604093435
1604095555
1604097958
1604108440
1604111233
1604118554
1604121512
1604121705
1604133286
1604135975
1604139500
1604146124
1604149520
1604173351
1604181545
1604184452
1604191461
1604191568
1604198725
1604199496
1604207763
1604216985
1604231065
1604231605
1604237198
1604238719
1604240848
1604249005
1604265260
1604270863
1604273086
1604273516
1604301738
1604304053
1604304497
1604317813
1604365511
1604369059
1604374412
1604379427
1604392208
1604451110
1604458094
1604472102
1604482137
1604494177
1604508216
1604518929
1604532322
1604534256
1604539667
1604544795
1604549322
1604587960
1604600725
1604607336
1604614927
1604621303
1604622564
1604623498
1604626924
1604629543
1604629886
1604637477
1604645256
1604646707
1604662258
1604666660
1604672353
1604674319
1604704606
1604705291
1604710882
1604714022
1604714264
1604737364
1604740356
1604746415
1604750148
1604750344
1604751928
1604752939
1604754431
1604761014
1604788545
1604788984
1604793972
1604794231
1604807067
1604807096
1604809988
1604818206
1604823739
1604826370
1604827402
1604827673
1604834069
1604839069
1604852231
1604854742
1604854902
1604870687
1604872351
1604879513
1604880281
1604901541
1604914029
1604916692
1604916879
1604919616
1604920748
1604924563
1604931959
1604937113
1604954428
1604959309
1604963060
1604966231
1604973350
1604978393
1604985774
1605002848
1605003943
1605006828
1605010486
1605016975
1605020252
1605026144
1605028339
1605030322
1605039764
1605045019
1605047772
1605051432
1605056334
1605064734
1605067816
1605086515
1605090754
1605104665
1605108236
1605109445
1605111175
1605112977
1605141515
1605145337
1605163310
1605171099
1605175019
1605193221
1605196065
1605204790
1605209741
1605290049
1605305857
1605312351
1605326581
1605329118
1605346771
1605349374
1605400764
1605467656
1605501273
1605506217
1605520407
1605535084
1605542671
1605563210
1605594955
1605644859
1605650754
1605655022
1605824524
1605836172
1605857561
1605865814
1605959517
1606066784
1606134442
1606195715
1606281581
1606403487
1606442884
1606449290
1606510146
1606546576
1606606752
1606675504
1606726994
1606767165
1606767838
1606772875
1606888037
1607196044
1607197722
1607286104
1607369960
1607409713
1607439796
1607602561
1607726090
1607745768
1607833894
1607902799
1607928720
1607943801
1608028205
1608141799
1608209704
1608261662
1608291891
1608326056
1608330382
1608403420
1608423389
1608586537
1608615825
1608646977
1608654244
1608675659
1608696278
1608715601
1608746708
1608801699
1608832999
1608895858
1608914442
1608973584
1609048236
1609167720
1609232092
1609290633
1609396705
1609404909
1609430455
1609526963
1609718553
1609772639
1609774499
1609796203
1609817578
1609821388
1609932814
1609946400
1609947481
1609999307
