800028164
800029601
800042966
801016528
800117545
800028164
800029601
800042966
800264213
800278213
800323106
800454017
800466730
800497331
800620826
800879624
800903706
801016528
801125704
801133862
801143091
801205878
801213387
801275101
801447886
801516100
801728182
801764253
801786456
801806343
