710001961
710008274
710010040
710011247
710014726
710016456
710018630
710019831
710021685
710025961
710027438
710034585
710049045
710056791
710061218
710064424
710084335
710085948
710097388
710104736
710112087
710116706
710122098
710133711
710137969
710143587
710145629
710165219
710166315
710175756
710179348
710181401
710183789
710188151
710199195
710214846
710221401
710225922
710246153
710263900
710281703
710296551
710297170
710306507
710315268
710337630
710347498
710352052
710355311
710358811
710361225
710374081
710375240
710381017
710402025
710415890
710419456
710421074
710425248
710424991
710429338
710430125
710432145
710437822
710440895
710443349
710445884
710462371
710484721
710491344
710498284
710498671
710514046
710516184
710525150
710530331
710532776
710535780
710542579
710555803
710562153
710561944
710566886
710567778
710577305
710586607
710589635
710590895
710591389
710605492
710610580
710612459
710625059
710627012
710629977
710638565
710643150
710647290
710647945
710657587
710675427
710681268
710688379
710689645
710692402
710704362
710705548
710731753
710732539
710740867
710750208
710750053
710758752
710759535
710770945
710780524
710781600
710784050
710784965
710810897
710814741
710818367
710818964
710820964
710824741
710827243
710827795
710828590
710830366
710832895
710850966
710865562
710872011
710874184
710881784
710891515
710892185
710898844
710912539
710915704
710915650
710916823
710924971
710930657
710933847
710935362
710947370
710952232
710955062
710955726
710967234
710983980
710998950
711028673
711035691
711045038
711054005
711079053
711088119
711092803
711097273
711099220
711114689
711117879
711120272
711127288
711127250
711128212
711128277
711132358
711142943
711147305
711152060
711172883
711175696
711184772
711186316
711204409
711214486
711216239
711226910
711232866
711272993
711276032
711276369
711282082
711286528
711290337
711310365
711328384
711330246
711336901
711338746
711349550
711351813
711360413
711360421
711373448
711373644
711374247
711381255
711382363
711391040
711394630
711395113
711399567
711416233
711438788
711444814
711446856
711453175
711460140
711469632
711490318
711498967
711523434
711526660
711530259
711533346
711542262
711547739
711550177
711558199
711563537
711609324
711617022
711622463
711624499
711628942
711635256
711644147
711648658
711648481
711658968
711660553
711664677
711669330
711675133
711678894
711683516
711690484
711697888
711698159
711701863
711709523
711726651
711727197
711731556
711732490
711734693
711741064
711745145
711757186
711760952
711774962
711781734
711786488
711789082
711797424
711798480
711817928
711819175
711823582
711829880
711830790
711835013
711835100
711848472
711848745
711850140
711859350
711864393
711873798
711875812
711885668
711888591
711890404
711896461
711901714
711903162
711907818
711930510
711937774
711945323
711957684
711961521
711964697
711974378
711981845
711989862
711992655
711995611
712000505
712014100
712022666
712029944
712032820
712053947
712061007
712086823
712087277
712096549
712118935
712120662
712153657
712155305
712158701
712164709
712165848
712166090
712171485
712180887
712181836
712182042
712183370
712209316
712210559
712215374
712232952
712238566
712244713
712269138
712269771
712273041
712273974
712283239
712283850
712301560
712309015
712309949
712312085
712312696
712315737
712329896
712337337
712342194
712349671
712349786
712351298
712355928
712358310
712368099
712392795
712395006
712395396
712396957
712398352
712400371
712411755
712414731
712422587
712425354
712441560
712442615
712449064
712451422
712452086
712476696
712485548
712487724
712491660
712496151
712511865
712514578
712524289
712526027
712529689
712532055
712538437
712543012
712553002
712562747
712565442
712566539
712580317
712583142
712584517
712586149
712592769
712598482
712600022
712606414
712617934
712620523
712622737
712635718
712642163
712655646
712655991
712656984
712665021
712665734
712665659
712687182
712695914
712699572
712699731
712700917
712718323
712724431
712732605
712752688
712764701
712766557
712779478
712781566
712783280
712783544
712784177
712784295
712809939
712826767
712833674
712835615
712848561
712863366
712870396
712872490
712878554
712883328
712892320
712892478
712895828
712897321
712898123
712900387
712920345
712920245
712929412
712949001
712955459
712968427
712981728
712991498
712993131
713006009
713019337
713026756
713030702
713037650
713039163
713041364
713046074
713054620
713054795
713055286
713066941
713068753
713075173
713078526
713083217
713098659
713100868
713110400
713110582
713112279
713113354
713119897
713126030
713130818
713136208
713136605
713137277
713153595
713171212
713171751
713173406
713179467
713180829
713184562
713195651
713202188
713205111
713216179
713224523
713230172
713243157
713247991
713248975
713255353
713256825
713256651
713269870
713273285
713273947
713275050
713280858
713291710
713296611
713301257
713303141
713306303
713314344
713314374
713319605
713321416
713327832
713329220
713339855
713342891
713344064
713367603
713374192
713385429
713395661
713398290
713402821
713428579
713431033
713443000
713447200
713448493
713451745
713460640
713467656
713478541
713484436
713486071
713501066
713513025
713515599
713517032
713523249
713525333
