730054030
730071595
730088656
731059648
731140540
730242123
730248960
730344723
731570461
731603339
731655423
731708566
730526094
731746157
731932720
732020983
732042751
732046457
730832271
1600871630
1601410004
1603275196
1603492824
1604719742
1605001921
