730402685
731969567
730785329
730829516
1600104743
1600515151
1600921718
1601212466
1601460673
1601483752
1603524614
1603555101
1603568752
1603649834
1603650445
1603734017
1604265944
1604266016
1604376623
1605342217
