1600138545
1600486493
1600489864
1600522713
1600532343
1600685785
1600736632
1600922961
1601039562
1601117454
1601165607
1601228115
1601306638
1601310198
1601335757
1601354725
1601377906
1601383115
1601672670
1601692165
1601732294
1603238086
1603265693
1603329160
1603406848
1603409384
1603558239
1603583918
1603657787
1603760632
1603812530
1603906786
1604006101
1604013075
1604017765
1604122032
1604248615
1604268139
1604298616
1604409599
1604476652
1604493953
1604612600
1604920863
1604938241
1604986224
1605002456
1605073128
1605087833
1605270926
1605400659
1605433537
1605454841
1605478028
1605878619
1605888554
1605913172
1606203146
1606341418
1606461743
1606474813
1606508024
1606619245
1606641158
1606654685
1606663180
1606680286
1606781835
1607130152
1607162577
1607219942
1607452990
1607495651
1607607955
1607842717
1607915805
1608125400
1608144255
1608288591
1608294562
1608340708
1608355073
1608377757
1608433204
1608451973
1608529423
1608633364
1608681447
1608989121
1609110818
1609239238
1609363779
1609376922
1609396149
1609448767
1609599491
1609758085
1609769755
1609803665
1609890030
1609892105
