1290000119
710000363
710000044
710000346
710002159
710009880
710011923
710017513
710018227
710019039
710019760
710025684
710025668
710026016
710028485
710029063
710029699
710031677
710032335
710038381
710038528
710038930
710040235
710040908
710041258
710042752
710042942
710043498
710047571
710047881
710048872
710050022
710060013
710064289
710064976
710065523
710067637
710068141
710069661
710070482
710072287
710074409
710083250
710083461
710087783
710089639
710090180
710091063
710091802
710093561
710096538
710100548
710100865
710101611
710102912
710105197
710106766
710108307
710108539
710112349
710117556
710117696
710124461
710124885
710125333
710125896
710127739
710133384
710134947
710135642
710137256
710138284
710139888
710140348
710142400
710142587
710145149
710147641
710153160
710154026
710154130
710154819
710154631
710160076
710163143
710168519
710169373
710170148
710170843
710172790
710174810
710175807
710176127
710176596
710176878
710178375
710182419
710186930
710187490
710187834
710191392
710192988
710196498
710198445
710199169
710200565
710201517
710202875
710207200
710209549
710212491
710224554
710226372
710229269
710229809
710233468
710235779
710237012
710237238
710238004
710239334
710239420
710241565
710245934
710247000
710247280
710249517
710249776
710251854
710254089
710262231
710264433
710267384
710269789
710273020
710273031
710277714
710279623
710282633
710282703
710282922
710283325
710286457
710286790
710288899
710294657
710295894
710296121
710297653
710300500
710301554
710308469
710309540
710310428
710312288
710315267
710316607
710317304
710326643
710326704
710327913
710328247
710329179
710333068
710334628
710336420
710337205
710339343
710339887
710343799
710344628
710346301
710348386
710348500
710349984
710354848
710357577
710362616
710365708
710367040
710370047
710370278
710370412
710370845
710373426
710373998
710374806
710377317
710381857
710383591
710385446
710385947
710386343
710389752
710390347
710390146
710393859
710397596
710397803
710398363
710401614
710402267
710402420
710405800
710405738
710408998
710408935
710410366
710412413
710412721
710417593
710427371
710427942
710429472
710429706
710431084
710431129
710434408
710443812
710446282
710446871
710447652
710449650
710461051
710461392
710463911
710470823
710473305
710475235
710476033
710477303
710479841
710482506
710484353
710485033
710485188
710485933
710485992
710487975
710487825
710489481
710491181
710492363
710492693
710494354
710495554
710495525
710497213
710498470
710502476
710503125
710505984
710506691
710509582
710510629
710511627
710518337
710519067
710524600
710525209
710524534
710526077
710528185
710530140
710532697
710533564
710535561
710536130
710537822
710537696
710539875
710540567
710541259
710541246
710543625
710544485
710545626
710547626
710549861
710551306
710552858
710554821
710559162
710561354
710562267
710564333
710565277
710565666
710568148
710568335
710570048
710571065
710576389
710578744
710582200
710583878
710584936
710590948
710595442
710597678
710599216
710599951
710601473
710602025
710602670
710603006
710606058
710606696
710610303
710610585
710616334
710619633
710623918
710626572
710627109
710629880
710631743
710633259
710635742
710637074
710646500
710649272
710649757
710651225
710652485
710656762
710658318
710660686
710662414
710662732
710665507
710666340
710667776
710669386
710669412
710674760
710676115
710678112
710681982
710686293
710686502
710687984
710690905
710691126
710692147
710694474
710697715
710699104
710703882
710705842
710710446
710711687
710711937
710712522
710713701
710715055
710718292
710718792
710718845
710724149
710726044
710727195
710729545
710730880
710732508
710733298
710733082
710734696
710734872
710735289
710737037
710739245
710739969
710742151
710746432
710749259
710752318
710752817
710753588
710755580
710757916
710759245
710761367
710761485
710761768
710762398
710764141
710764488
710764587
710765078
710768060
710772734
710773652
710774563
710777530
710778016
710781209
710781154
710781181
710785609
710785918
710790114
710794761
710797677
710799082
710799617
710801037
710802200
710803637
710804965
710807286
710809783
710811393
710812303
710813091
710815915
710819081
710824417
710825506
710829365
710831363
710836209
710837240
710843921
710843942
710844102
710846339
710846786
710846254
710848129
710849466
710851181
710854491
710854776
710856606
710859408
710862054
710863990
710865850
710868012
710868738
710871501
710871907
710872450
710873762
710875696
710876392
710878887
710878356
710882980
710883172
710885806
710886406
710887052
710886833
710888972
710893457
710895868
710898554
710899605
710902080
710904577
710905387
710907167
710908060
710908438
710910228
710911831
710914462
710922665
710924706
710926128
710927898
710928442
710930261
710931969
710937538
710945704
710945734
710953291
710953548
710953894
710954017
710956007
710958163
710962203
710964705
710966406
710967218
710968219
710970563
710973551
710974033
710975611
710978783
710985210
710985857
710989600
710991173
710992906
710995416
710996136
710996054
710996798
710997050
711000898
711003962
711004406
711007796
711009954
711016001
711016237
711017723
711021768
711021884
711022667
711022127
711024783
711029655
711029712
711037944
711039600
711040762
711043357
711043573
711044006
711044526
711046937
711048682
711050270
711055247
711057095
711058048
711061857
711061942
711064669
711064907
711065457
711067676
711068994
711070487
711071799
711072063
711082053
711085137
711086410
711089843
711089861
711090343
711090472
711093540
711093596
711094089
711094457
711096495
711097199
711097581
711097491
711103220
711103268
711104129
711105065
711111108
711112818
711114677
711123513
711127581
711130714
711130383
711133274
711133130
711133457
711142099
711143211
711144771
711147137
711147324
711148467
711150781
711151049
711155504
711156058
711157271
711158663
711159416
711163090
711164177
711164302
711167243
711168275
711169244
711172024
711173916
711173860
711174164
711174418
711176208
711180999
711182229
711182634
711186599
711187590
711188217
711189641
711189951
711192299
711193832
711194197
711196210
711199951
711206545
711210161
711212032
711213963
711213843
711217054
711218329
711217993
711218847
711220596
711221830
711222315
711225420
711226391
711226564
711228720
711232193
711232880
711233832
711235142
711235073
711236396
711236892
711238434
711239138
711243735
711243886
711246185
711248883
711249957
711250533
711253715
711255139
711255546
711255735
711258164
711259065
711259249
711259650
711260624
711263946
711265862
711267020
711274992
711275737
711276826
711277328
711281327
711282063
711283132
711288661
711289438
711297145
711299178
711302995
711302879
711304388
711308340
711309273
711311633
711312566
711314707
711314945
711315232
711316738
711317202
711319276
711322994
711326377
711326825
711328353
711329968
711332928
711336547
711341284
711342129
711344102
711344320
711344418
711345005
711344983
711348532
711349858
711350323
711352209
711355486
711357530
711359380
711360105
711360282
711361336
711362488
711364178
711369874
711369595
711372402
711373104
711378824
711380356
711381225
711381501
711381699
711382768
711383933
711389810
711391537
711392917
711397435
711403172
711406534
711407086
711407869
711409197
711409212
711410645
711411084
711412308
711413268
711413606
711415878
711416291
711416684
711420639
711422794
711428548
711436479
711441063
711445124
711447228
711447651
711451774
711455418
711455788
711456795
711459278
711462541
711464073
711463212
711464306
711464748
711468165
711473578
711475044
711478167
711479499
711480381
711484910
711488606
711489890
711491007
711491701
711494019
711494273
711498198
711499127
711501825
711502287
711506237
711510119
711512757
711513973
711514328
711518853
711520898
711520887
711522126
711523184
711523801
711525611
711526955
711527314
711528243
711533429
711533734
711534656
711535863
711537434
711538064
711538729
711539087
711539399
711541540
711543462
711547092
711548044
711548630
711551060
711552538
711555728
711557166
711557820
711559694
711560210
711562749
711565999
711569794
711570148
711572712
711578578
711579910
711581757
711584152
711585891
711590553
711591499
711594732
711595847
711598389
711599102
711603048
711607349
711608933
711609590
711612154
711618308
711618628
711619928
711621692
711622049
711626194
711625926
711633687
711633797
711634914
711635421
711635033
711638542
711641002
711645570
711646230
711648231
711651285
711652793
711654031
711656901
711657530
711657454
711659686
711665658
711670891
711671416
711673280
711676503
711679235
711682201
711682658
711682931
711683019
711683664
711685211
711685582
711685906
711687344
711688464
711693891
711695725
711701924
711703015
711703504
711703612
711704446
711707260
711709774
711709934
711710817
711714053
711715591
711718565
711719227
711720532
711721918
711722833
711725043
711725570
711727324
711728820
711730238
711730923
711734797
711736062
711737505
711738161
711744092
711748528
711749048
711749588
711751485
711757286
711760123
711762778
711762942
711763623
711766264
711769186
711769519
711772511
711772893
711775357
711777580
711779497
711782079
711792267
711794432
711794409
711794258
711795340
711798160
711798660
711799229
711801298
711804463
711805301
711806470
711809662
711810872
711817926
711823539
711832004
711834876
711836736
711839936
711840182
711844265
711844230
711846580
711850179
711852621
711853604
711854412
711857493
711857712
711858650
711860006
711861620
711864341
711869087
711872489
711873033
711872729
711876352
711877055
711877520
711878909
711881040
711881248
711883427
711884448
711885392
711885775
711888754
711890528
711891548
711891997
711898318
711898643
711901950
711905241
711905672
711909499
711915818
711915873
711916955
711917582
711919255
711922844
711927665
711930651
711935648
711935675
711937028
711940776
711945108
711945467
711947198
711948926
711949358
711951034
711951734
711952257
711956638
711957380
711958035
711958386
711961731
711964913
711967193
711967710
711969233
711972634
711975352
711976238
711981020
711982954
711983710
711988387
711990654
711995686
711995604
711998469
711998936
712002755
712003365
712009045
712009067
712009817
712016590
712017900
712019482
712020717
712023698
712023915
712023902
712027821
712029312
712031585
712033231
712034514
712042724
712044919
712049454
712051183
712053841
712055445
712056003
712056676
712057104
712059602
712060025
712062298
712063833
712068868
712069861
712071169
712070880
712071981
712075695
712076407
712077501
712077555
712079008
712079556
712084365
712086702
712097424
712101031
712101057
712101930
712101944
712103303
712103902
712104398
712105554
712108050
712110901
712112040
712112699
712114590
712115647
712116933
712118460
712119964
712120187
712120663
712125111
712126452
712132691
712135839
712136313
712138017
712141895
712142551
712143586
712144194
712148881
712149281
712153286
712154864
712157563
712157527
712160532
712161322
712165210
712165138
712165888
712166525
712167376
712167585
712167757
712171128
712174020
712174063
712173960
712175636
712175966
712177185
712178935
712179101
712179747
712187634
712188318
712189458
712193453
712195494
712197292
712197916
712198678
712200300
712201661
712202387
712203704
712204483
712209154
712210094
712214903
712217333
712220007
712221857
712222463
712225057
712228142
712234368
712234211
712234383
712235102
712236335
712239524
712240460
712247727
712253819
712255070
712260132
712262897
712264322
712266270
712271135
712272073
712272665
712276631
712280708
712281434
712284552
712284811
712284746
712288658
712289723
712290199
712290478
712296154
712296434
712297093
712300675
712306469
712308832
712309706
712311692
712327776
712328786
712330756
712332434
712332728
712332729
712339869
712341933
712343807
712344090
712345690
712348712
712348697
712350642
712351820
712351932
712355102
712356258
712356351
712359988
712366170
712368880
712369046
712375230
712377975
712378984
712380467
712381475
712382311
712382881
712385990
712386650
712391928
712393218
712393359
712393587
712395256
712396155
712397232
712397709
712397896
712398364
712403778
712405200
712405203
712406451
712408053
712407818
712409830
712411679
712412514
712415206
712416538
712418108
712423768
712425272
712426261
712427049
712427935
712428982
712432181
712432361
712432718
712433797
712441001
712441997
712441968
712442269
712452578
712453457
712453207
712453822
712457846
712460990
712463886
712465254
712465394
712466051
712466794
712467562
712469012
712471517
712471419
712471863
712472867
712473852
712474180
712474546
712475001
712475673
712475830
712476395
712479551
712480281
712482068
712483015
712483669
712483738
712484197
712486878
712486904
712487281
712485603
712490488
712491032
712491516
712495754
712496079
712496862
712497455
712498134
712498732
712499949
712501408
712506768
712508467
712511153
712513240
712513541
712514405
712516461
712518367
712520236
712522023
712521614
712522926
712527308
712530809
712532744
712538424
712538790
712539922
712544914
712547738
712549063
712549206
712551452
712561374
712561989
712562625
712565317
712567228
712572396
712573659
712573968
712580653
712581548
712581987
712582006
712583836
712585005
712586743
712589956
712591616
712595874
712595931
712600955
712602324
712604646
712607406
712609739
712612834
712613232
712614935
712615833
712618066
712627021
712627774
712628633
712629421
712629300
712629757
712631211
712631641
712634693
712637817
712637878
712640670
712642017
712642276
712644292
712648919
712648746
712649683
712652920
712658157
712659530
712659842
712660917
712665234
712667830
712669510
712672160
712673802
712674716
712678725
712678542
712678893
712680571
712680955
712681129
712682356
712683878
712686696
712686667
712688756
712693630
712693659
712698212
712703584
712703882
712708608
712710289
712712852
712713375
712718624
712719451
712721870
712723005
712724470
712725527
712726818
712732167
712733472
712735002
712738903
712746319
712750603
712751307
712751632
712752609
712753828
712756150
712761391
712761229
712762244
712764980
712768073
712773321
712778191
712782637
712784526
712786066
712789049
712789612
712789730
712793442
712797769
712798897
712799111
712799855
712800349
712804885
712805705
712807003
712810157
712814010
712814904
712817823
712818075
712819817
712823332
712826445
712829800
712831918
712833188
712835548
712835565
712841092
712843189
712843857
712845260
712850922
712852227
712852510
712854816
712854931
712860012
712860146
712862165
712863507
712863655
712864224
712865132
712865829
712868156
712871348
712872255
712874047
712874224
712874620
712878150
712880485
712887787
712892162
712893327
712893614
712896075
712896135
712899023
712900439
712900817
712903870
712905180
712912273
712915504
712915784
712919968
712922566
712924985
712930284
712935677
712936360
712937182
712945057
712945821
712946475
712946993
712946903
712950119
712950848
712948984
712956226
712959926
712961023
712962373
712964836
712966020
712966286
712968573
712969650
712969734
712970156
712969630
712971254
712973945
712976942
712978956
712982657
712985260
712989920
712992543
712993084
712993653
712999987
713001476
713002690
713003040
713003184
713004324
713005165
713005842
713006312
713006682
713013036
713013482
713021869
713022801
713023648
713028064
713030990
713031161
713032207
713032233
713033246
713034885
713035526
713035623
713037102
713037626
713040256
713043291
713044961
713046475
713046907
713049409
713052658
713055717
713058459
713060547
713060583
713061056
713061616
713063262
713064785
713067441
713067889
713069971
713070495
713072147
713072437
713074576
713074483
713076241
713078056
713078125
713079599
713079822
713080706
713089166
713090272
713092806
713094645
713098851
713100387
713103994
713104628
713106343
713108684
713110455
713111742
713111854
713111956
713112628
713113122
713115131
713115245
713119794
713120249
713122947
713124010
713124246
713124772
713125979
713129980
713131925
713132694
713132932
713133846
713137680
713138383
713138893
713139799
713146107
713152717
713154067
713154088
713160112
713161451
713162167
713163335
713164433
713169256
713171663
713175543
713179084
713180624
713180770
713181882
713182093
713184736
713185538
713186103
713186022
713187204
713187143
713190244
713192897
713192973
713194804
713198004
713200711
713204695
713205319
713207329
713211636
713212293
713212995
713214218
713218266
713218338
713218675
713223081
713224955
713226724
713228152
713233570
713234051
713238224
713239256
713243617
713245530
713247484
713249103
713249267
713249799
713255663
713257253
713259209
713262545
713270917
713272380
713276119
713285340
713294033
713294760
713296671
713297360
713299832
713300695
713303332
713305881
713309871
713314992
713322204
713322337
713323125
713323038
713325133
713326469
713329453
713331214
713331349
713332766
713333170
713338174
713339138
713343640
713345968
713347047
713347980
713349572
713349883
713352454
713352437
713354540
713355855
713356959
713357712
713358357
713360297
713363290
713363940
713367344
713367482
713369354
713376073
713378091
713378418
713378484
713379214
713381683
713384711
713384407
713390370
713391006
713391227
713392653
713398171
713399703
713401452
713407021
713416764
713419683
713420929
713421604
713421986
713422652
713424798
713427700
713427786
713434028
713437239
713437337
713438455
713443017
713444665
713447275
713447822
713451237
713453042
713454752
713458200
713462870
713465090
713466289
713473121
713476100
713480475
713482552
713487700
713487775
713489267
713489283
713490836
713495715
713498096
713498680
713504438
713505753
713509437
713510451
713510791
713516404
713524159
713524462
713527039
713527661
713529082
713529888
713534551
713538657
713539556
713540000
