730004860
730011853
730004860
730096727
731057288
730127384
731074570
730151019
731124790
730203530
730235880
731171188
730245071
730256491
730271042
731231750
730319756
731257760
731273228
731275426
731550031
731565238
731595362
731631587
731644430
730505858
731647110
730509944
730511496
731668648
731672618
731692950
731713870
731714251
731724998
731741472
730551221
731746095
731748654
731749198
731755963
730579031
730579064
731783284
730603893
730607938
730610283
731830416
730658086
731855780
730670073
731868191
730683239
730688560
731888210
730692417
731920551
731934679
731949261
731962084
730713074
730738935
730742765
730753162
730773867
730778124
732093009
730804058
730825419
1601717382
1604080558
1605602436
1607688249
