710021870
710023901
710057357
710086107
710134981
710195186
710213795
710286729
710323291
710337393
710343108
710353248
710362800
710394070
710414386
710491735
710510383
710517698
710585352
710645173
710646823
710748639
710762333
710763077
710846424
710877911
710894148
710910929
710913528
710920678
710922837
711167193
711295264
711348846
711363140
711372634
711384201
711392974
711504200
711544939
711548369
711597756
711614053
711693980
711731828
711740515
711831099
711833384
711840236
711847938
711906273
711944158
712037063
712140694
712233430
712249071
712346938
712347804
712401452
712412127
712423885
712424786
712430938
712437469
712456115
712463410
712488141
712491451
712524848
712594225
712679308
712682688
712691505
712721964
712735646
712780520
712846096
712848531
712889535
712907205
713018095
713023874
713088042
713105679
713201220
713208526
713238896
713271812
713436988
713532811
713536398
713539680
