960000408
960002132
960002165
960002749
960005941
960009878
960010992
960010631
960011522
960017428
960018262
960018892
960024180
960026357
960026844
960027016
960026795
960027390
960031250
960031246
960032375
960032865
960032885
960033628
960035351
960036089
960036902
960041589
960041965
960043689
960044107
960047149
960048302
960048360
960049022
960050678
960050719
960053260
960054681
960054728
960055156
960058148
960058942
960061050
960062396
960064912
960065063
960065240
960065890
960067365
960068392
960069720
960071371
960071080
960071973
960073754
960075164
960076954
960079283
960079319
960079461
960079409
960080113
960081206
960081838
960082279
960082683
960082937
960084162
960084188
960085114
960087367
960087665
960089836
960090110
960090799
960091208
960091323
960094339
960094645
960096053
960096191
960096728
960099786
960099984
960099993
960100528
960101170
960101425
960101643
960102336
960103428
960103598
960104167
960104792
960106732
960107075
960109148
960110082
960110220
960112338
960113257
960114981
960115685
960115587
960117168
960117634
960118527
960118735
960118936
960119678
960121433
960121922
960125664
960126435
960126852
960126270
960127917
960129021
960130498
960131320
960133561
960134675
960135525
960139408
960139372
960139678
960140825
960141740
960148647
960149471
960156712
960156760
960156847
960157081
960158434
960159629
960162202
960164324
960165216
960165010
960165751
960167413
960169028
960171252
960171382
960171700
960174331
960175269
960175631
960176728
960177948
960180220
960180609
960180956
960181973
960182652
960184718
960187048
960187838
960189686
960190585
960194677
960194385
960196442
960196354
960197404
960198466
960198506
960199133
960200161
960199321
960203424
960204298
960204409
960206367
960206806
960207876
960208111
960208984
960209147
960212350
960214897
960218879
960220552
960220789
960224294
960225413
960228239
960228396
960230137
960229457
960235260
960235213
960239353
960239959
960241149
960242532
960244782
960245401
960249090
960249205
960250141
960252636
960251586
960253627
960253968
960253934
960256508
960257289
960258338
960259890
960260084
960260211
960260438
960260828
960261056
960261387
960262433
960264047
960264570
960264972
960267847
960269289
960268623
960270259
960270869
960271745
960276276
960276189
960278542
960280201
960280066
960282484
960282618
960282364
960282894
960283175
960283752
960283803
960287336
960287409
960286939
960288528
960288793
960289762
960290081
960290451
960290828
960291772
960292286
960292499
960299509
960300072
960300231
960300331
960303110
960303220
960303429
960304010
960305616
960306434
960306660
960307114
960307952
960308561
960311451
960314157
960315014
960314881
960315715
960315749
960316502
960317617
960321548
960321932
960323439
960324575
960325569
960327166
960327578
960329523
960329853
960330246
960330335
960332242
960333505
960334421
960334881
960335195
960337597
960337784
960338343
960339865
960340423
960340729
960340722
960341209
960342697
960343873
960345035
960345114
960346623
960347265
960348964
960349130
960349734
960349959
960350554
960352608
960352767
960355878
960355688
960357957
960358089
960358964
960359911
960362283
960362893
960366407
960366527
960366794
960367158
960368017
960368156
960369133
960371865
960371986
960372983
960372969
960376814
960376848
960380440
960382398
960383520
960383600
960383830
960384943
960387123
960389282
960389571
960394808
960395079
960395950
960396782
960396859
960398485
960399776
960399968
960403002
960403266
960404705
960404966
960406241
960412273
960413304
960413366
960414971
960415136
960417586
960418287
960419082
960423757
960424438
960424992
960426208
960426413
960426843
960426931
960427433
960427766
960428807
960430165
960433115
960433899
960434124
960435265
960435830
960437161
960437238
960437846
960438755
960439440
960439562
960441467
960442161
960443177
960443839
960444297
960445044
960445604
960447038
960447872
960448259
960451514
960456358
960458544
960458742
960459400
960459573
960460354
960462471
960464545
960465766
960466055
960466583
960467085
960467588
960468132
960468554
960468847
960469971
960471026
960471061
960471856
960472455
960472506
960473442
960473949
960475915
960480038
960480864
960481785
960482571
960483717
960484275
960485079
960489446
960490022
960491372
960491308
960492554
960493850
960494343
960498197
960500779
960500540
960502054
960502282
960502858
960502851
960504608
960507475
960507668
960507408
960507883
960509885
960511140
960511320
960511545
960512307
960514022
960516426
960518257
960518093
960519575
960520009
960520766
960521678
960522088
960522095
960523417
960524557
960524684
960525410
960526816
960529933
960530954
960530710
960532188
960535084
960536073
960539186
960539600
960540063
960540464
960541095
960541300
960541211
960542732
960542616
960547144
960548316
960551521
960551970
960552245
960552602
960556645
960557951
960560463
960560563
960559332
960561065
960561777
960561894
960562481
960564030
960564875
960569397
960570259
960570524
960571483
960573387
960573690
960574395
960574100
960575396
960576801
960579857
960581178
960581801
960583586
960584060
960583983
960584371
960584527
960584976
960585457
960586935
960587467
960587394
960589665
960589849
960592250
960597985
960601478
960601257
960602014
960609554
960609881
960609950
960612069
960613003
960615041
960615934
960615844
960616006
960615838
960617133
960619066
960619193
960619725
960621966
960623828
960626788
960626823
960627661
960629274
960635673
960636128
960636359
960640361
960640356
960641084
960641314
960642962
960643283
960644956
960645499
960646455
960648196
960652319
960652775
960654603
960656228
960656114
960656407
960659759
960661485
960661657
960662368
960663388
960663579
960667150
960667066
960667309
960667688
960669230
960669992
960670358
960672122
960673571
960673685
960673946
960674421
960675358
960675991
960677077
960677156
960678051
960678385
960678778
960681222
960682575
960682548
960683135
960683291
960684188
960684226
960683914
960684998
960685953
960687009
960687970
960688981
960690915
960690969
960691841
960693497
960693838
960694225
960696424
960697249
960698192
960699702
960701753
960702441
960704533
960705403
960707772
960708357
960708391
960709354
960709874
960711259
960712117
960713704
960714220
960714599
960716315
960716649
960716748
960717821
960718928
960726068
960725949
960726646
960727358
960727887
960728186
960729771
960729928
960730610
960731682
960732507
960733235
960733699
960734944
960735020
960735853
960736918
960739998
960740434
960741195
960742145
960743008
960743445
960745136
960746589
960746798
960747193
960750369
960751128
960751278
960753209
960756313
960756556
960757647
960759939
960760049
960760559
960760961
960761287
960761262
960761710
960765110
960765796
960766909
960767784
960768588
960768811
960769433
960780858
960786201
960786718
960786820
960790594
960790858
960791223
960792031
960792019
960792931
960793170
960793485
960796551
960797129
960798366
960798515
960801431
960806156
960806239
960809456
960810361
960811114
960812511
960815880
960816764
960816840
960818872
960818986
960819043
960820130
960821787
960821783
960822525
960823852
960824303
960824270
960826456
960826922
960827175
960827203
960827854
960828849
960831027
960833691
960833700
960834028
960836355
960838236
960838021
960839968
960842660
960844145
960846755
960848931
960849864
960850672
960852935
960853824
960855857
960859172
960859147
960859474
960864483
960864631
960865006
960868064
960868828
960873273
960873183
960876474
960877564
960877837
960880096
960880149
960880747
960881008
960881780
960883522
960884051
960883993
960884842
960885301
960887571
960892743
960893783
960895193
960896489
960897082
960897862
960899401
960900735
960901173
960901232
960901189
960903328
960902380
960905107
960906048
960909460
960909859
960911512
960912229
960911933
960912779
960913969
960914706
960915812
960916640
960917358
960917789
960918659
960919707
960921333
960921573
960922700
960923545
960923782
960925073
960929236
960929844
960931077
960931662
960931857
960933233
960934592
960935033
960936860
960938470
960938555
960939575
960939481
960939619
960941559
960942926
960945289
960945158
960947331
960951387
960951325
960952321
960953342
960953470
960953840
960954494
960955991
960957228
960957364
960959996
960961254
960962264
960962652
960963423
960964204
960964256
960964933
960966003
960965933
960970009
960970045
960971484
960972026
960972800
960973140
960974974
960976882
960978084
960978176
960978982
960979952
960979817
960980843
960981130
960981217
960982778
960983916
960985406
960993899
960994260
960994972
960994950
960996577
960996271
961001294
961002405
961003047
961003992
961004347
961005692
961006564
961010707
961012344
961013098
961012390
961014758
961014873
961015649
961016786
961019834
961020253
961021404
961021161
961023425
961024450
961024361
961026524
961026899
961029681
961032367
961031855
961033083
961034878
961035485
961037118
961037026
961037130
961037452
961038401
961037556
961040436
961042702
961044313
961045158
961046249
961046224
961047413
961047867
961047840
961048008
961048664
961049266
961051292
961052490
961052447
961052830
961053474
961054067
961054851
961054885
961055171
961056273
961057222
961057506
961057509
961059041
961059216
961061086
961062642
961062906
961062719
961063877
961063996
961068537
961068639
961069423
961070653
961071223
961071773
961073904
961077416
961077510
961077752
961079626
961080613
961084919
961087375
961087916
961088771
961088928
961088938
961091001
961092901
961093788
961095113
961095651
961096916
961099522
961099704
961102472
961102557
961102820
961103260
961105207
961105328
961106097
961105902
961107085
961108392
961109057
961110719
961111060
961110997
961112368
961113962
961115728
961120404
961122261
961123143
961124461
961125867
961127726
961128090
961128825
961129147
961132979
961133131
961133989
961133796
961134362
961135098
961136409
961136723
961140461
961140452
961144097
961147761
961148731
961148145
961148998
961150569
961151279
961151291
961153736
961154283
961155927
961156462
961157034
961157706
961157845
961160510
961160705
961161155
961161358
961163546
961164656
961165570
961167797
961167949
961168205
961169009
961170693
961170975
961172404
961174932
961176341
961176421
961176523
961176273
961176884
961176904
961178369
961178557
961179072
961179092
961180586
961183208
961184739
961184966
961187321
961187636
961187749
961188822
961188976
961189859
961190750
961191426
961195695
961196669
961197968
961198363
961199077
961201733
961200488
961202400
961204722
961204303
961205833
961205767
961211313
961211814
961212728
961214429
961214717
961217648
961218037
961218663
961220348
961221055
961221076
961221136
961222308
961222545
961222922
961225791
961226132
961226595
961225898
961227186
961227378
961228283
961229648
961231300
961232787
961233755
961237182
961237260
961237421
961238276
961238365
961239592
961240445
961242428
961244153
961245773
961247951
961250434
961252052
961252414
961253216
961253607
961254406
961256663
961257419
961258389
961258372
961258485
961258836
961262339
961264385
961264877
961265998
961266313
961266176
961267653
961268119
961268875
961272532
961273152
961281558
961281864
961283127
961283513
961284401
961286806
961287086
961287163
961286683
961287933
961288549
961289882
961291240
961293215
961293476
961293686
961294249
961296712
961299046
961299388
961299784
961301146
961302760
961304120
961304797
961305005
961305508
961306815
961311456
961314658
961316336
961317760
961321758
961322384
961322179
961323481
961325512
961328288
961328273
961329068
961329534
961330503
961330708
961332252
961333391
961334265
961336019
961335920
961337167
961339237
961339634
961340172
961341474
961344724
961345440
961346186
961347267
961347530
961347480
961349053
961350127
961350297
961351699
961352050
961353387
961355177
961355439
961355727
961355975
961356215
961357841
961360339
961360587
961360609
961361819
961363916
961365822
961366522
961369677
961370361
961372266
961372726
961373499
961376894
961376752
961380464
961385863
961387103
961387080
961387394
961387851
961388627
961389069
961389182
961389917
961391376
961391567
961391929
961391755
961392771
961393548
961393698
961393665
961394366
961396968
961397569
961397482
961398516
961402034
961403117
961404265
961405183
961405827
961407206
961407439
961407996
961408383
961408968
961410893
961411092
961412993
961414294
961414192
961414609
961414330
961415482
961416761
961418637
961422363
961422452
961423082
961423307
961424890
961425078
961426223
961427280
961429028
961429854
961431282
961431240
961433695
961433737
961434943
961437414
961437533
961441427
961442146
961444772
961446733
961448380
961449498
961449856
961450758
961452481
961455306
961456032
961456491
961456919
961456721
961458606
961460248
961460130
961463623
961466080
961470022
961473475
961474727
961475441
961475070
961476919
961479224
961479801
961481158
961482463
961483066
961483656
961483970
961485727
961486864
961488069
961488869
961489239
961489393
961489789
961490100
961489932
961490972
961492333
961491839
961493069
961494123
961494962
961495077
961495346
961495595
961497367
961497253
961497448
961497395
961498109
961501942
961502666
961503145
961503819
961504754
961505083
961506718
961506728
961508809
961510902
961512186
961512092
961514889
961515100
961515397
961517022
961518708
961520268
961520921
961520966
961522118
961522115
961524788
961526745
961526913
961527129
961528549
961528520
961529619
961530033
961530978
961531538
961534530
961536182
961536440
961536756
961537093
961537353
961537551
961537031
961541611
961542674
961545151
961546629
961546778
961548947
961549132
961551425
961551393
961552141
961552728
961552845
961554014
961554518
961556203
961556814
961558308
961559209
961559499
961560774
961561857
961562768
961565905
961567302
961567591
961567504
961568311
961570094
961570668
961577261
961577036
961580852
961583912
961584205
961585210
961586050
961587287
961588764
961590766
961592720
961592761
961592935
961594906
961596273
961596569
961597189
961597625
961598293
961600282
961601758
961602628
961604736
961606246
961606591
961607633
961608182
961610105
961610254
961610256
961611051
961611331
961610275
961611155
961612655
961613777
961615179
961615770
961618042
961619569
961619669
961619773
961621913
961622182
961622247
961622661
961623229
961623346
961625645
961629513
961630304
961630892
961631262
961631714
961632262
961632980
961633052
961634216
961635902
961635968
961636394
961638700
961639439
961640161
961641157
961642470
961642899
961643406
961643971
961644458
961646447
961648626
961649273
961650911
961654366
961654288
961655440
961656118
961656421
961657321
961659946
961660462
961660904
961661943
961664873
961666730
961667003
961667576
961668477
961668728
961670219
961670695
961672618
961672786
961672941
961672879
961673145
961673478
961673703
961673912
961675462
961681631
961681681
961685651
961687393
961688448
961691104
961692719
961693003
961694261
961696146
961697112
961697317
961698005
961700149
961700463
961702275
961702835
961704658
961705831
961706356
961707607
961707723
961707796
961708439
961709279
961709361
961709449
961709968
961711178
961712200
961713506
961714827
961716229
961717104
961717314
961717682
961721566
961722163
961723583
961724586
961727015
961729781
961730807
961733197
961733703
961735398
961736712
961736814
961738442
961738987
961739877
961740767
961743265
961744428
961744997
961746229
961746964
961748494
961750381
961751733
961753254
961753516
961754394
961754036
961755818
961757332
961757982
961757989
961757313
961758960
961759055
961760344
961760330
961760516
961760950
961762946
961765095
961766653
961766642
961768731
961769249
961769706
961769944
961770578
961770911
961771280
961771114
961771541
961772529
961773786
961774545
961774986
961775424
961777381
961778852
961778900
961779697
961779636
961780205
961784319
961784726
961784970
961785974
961786665
961786821
961788220
961788673
961789019
961790222
961791226
961791432
961792186
961792456
961794421
961795472
961797002
961798413
961798760
961799500
961799977
961805130
961805178
961807508
961809552
961814575
961815870
961816263
961816889
961818017
961819280
961819942
961820183
961820940
961823362
961823845
961824659
961827201
961829046
961829232
961829705
961831914
961831825
961835115
961835196
961835383
961835730
961836202
961835974
961836060
961837663
961838888
961840750
961841147
961842634
961843216
961843364
961846629
961848363
961848659
961849636
961851878
961853065
961854106
961855716
961856015
961855716
961856943
961857674
961857716
961862529
961863764
961864399
961865584
961865874
961868002
961868060
961869075
961870880
961871838
961873797
961874234
961874132
961876454
961877066
961877881
961878089
961878891
961879420
961880565
961880674
961883147
961885109
961885846
961885968
961887047
961887238
961888660
961888777
961889033
961892448
961893467
961894404
961894458
961895142
961898355
961899884
961900136
961901588
961902707
961903428
961903996
961903990
961904666
961906663
961907190
961907411
961910500
961912678
961914064
961914861
961915382
961916327
961919558
961920710
961922223
961923371
961923229
961910594
961925662
961925768
961927324
961928417
961929051
961931734
961933279
961933367
961935125
961936936
961937074
961937429
961939500
961939673
961941088
961944388
961944638
961945651
961947972
961947973
961950048
961951173
961951782
961952474
961952831
961953156
961954002
961954824
961955381
961955666
961956714
961958274
961958269
961959906
961960261
961960324
961960585
961961275
961961596
961963189
961963378
961963749
961964753
961965141
961965235
961965557
961967097
961967167
961966932
961966677
961970734
961974040
961974634
961974501
961977471
961978091
961978491
961979021
961979034
961980161
961985590
961985864
961986518
961990432
961991663
961995274
961994977
961996782
961997162
961998698
961998812
962002238
962003377
962002935
962005055
962007636
962009124
962010197
962010736
962013236
962015014
962016863
962018631
962018846
962019079
962020483
962024405
962025542
962026846
962028399
962029347
962031039
962031564
962032948
962035623
962036232
962037064
962039711
962039823
962041368
962041789
962042448
962042644
962042823
962043567
962044075
962044179
962044441
962046795
962047697
962048335
962048873
962049284
962050761
962052939
962053283
962054733
962055314
962055770
962058451
962059859
962060602
962062089
962062295
962064202
962065765
962066270
962067285
962068647
962069456
962070090
962070546
962070892
962071191
962071657
962072856
962074990
962076160
962076323
962076714
962076978
962077670
962078459
962078483
962079728
962087364
962088046
962088253
962091198
962091680
962097090
962097860
962099189
962099643
962099539
962100488
962102005
962102566
962102604
962102925
962103734
962107487
962107868
962108215
962109752
962109645
962110069
962110459
962112035
962113820
962114866
962115649
962116391
962116476
962116850
962119361
962121289
962122983
962123527
962123923
962125548
962126531
962127458
962127692
962128147
962129293
962129808
962130566
962131621
962131606
962132607
962133326
962134052
962139314
962139771
962140673
962141197
962142066
962145825
962148102
962148736
962149300
962150496
962152722
962153412
962154209
962154570
962155126
962156212
962157855
962159037
962161067
962161370
962161589
962161832
962162193
962163493
962164863
962165402
962165787
962166997
962167269
962167970
962170525
962170891
962171105
962171070
962171492
962171555
962178672
962183603
962183918
962184627
962185815
962186862
962187132
962187531
962187936
962188903
962190274
962190386
962191598
962191951
962193319
962193491
962193578
962196036
962197714
962197984
962201030
962202495
962204065
962204768
962204976
962204938
962205810
962206290
962207641
962208590
962209879
962212126
962213135
962213489
962214228
962214784
962216060
962217305
962218072
962220167
962221231
962221544
962225214
962226449
962226644
962227748
962228164
962228723
962228331
962229358
962229511
962231524
962235433
962235950
962235717
962237998
962239402
962240160
962240561
962239880
962240586
962242576
962244660
962246276
962246901
962247825
962250599
962252972
962254101
962254188
962254577
962255379
962256499
962258574
962258676
962260255
962259862
962260664
962260181
962260689
962263956
962264028
962264094
962265531
962265467
962266634
962267002
962267251
962268787
962268808
962269760
962270737
962274401
962274499
962275099
962274786
962275715
962276201
962277054
962278132
962278846
962279091
962281528
962282990
962283586
962285203
962286012
962287489
962288360
962291565
962292783
962292574
962293473
962294331
962295064
962297800
962302244
962306040
962306358
962306719
962308629
962310910
962310411
962312607
962313581
962313989
962314566
962317182
962318832
962321199
962322367
962325931
962326561
962328101
962332436
962333270
962337082
962339472
962338420
962340401
962345520
962348029
962348750
962348985
962349895
962349927
962350761
962352093
962352247
962354684
962355297
962357068
962358450
962362682
962364191
962364558
962365738
962366610
962368061
962369163
962372945
962373273
962374154
962375497
962376692
962377448
962379188
962380486
962380755
962380734
962381721
962381866
962382897
962384768
962385548
962385609
962387833
962390498
962392950
962393462
962394727
962397296
962398241
962400701
962401090
962401453
962401834
962403293
962403359
962404041
962403555
962405061
962405155
962405734
962406288
962407114
962408794
962410389
962410619
962411882
962412908
962414408
962414668
962414753
962415172
962420173
962421657
962422356
962422321
962423375
962424165
962425236
962426165
962427539
962428417
962431894
962431837
962431935
962434026
962434621
962435695
962439635
962440033
962440798
962441401
962442155
962445367
962446559
962447178
962448691
962449625
962449695
962449627
962450380
962453115
962454102
962454467
962454479
962456400
962459286
962459356
962459476
962462696
962469811
962470051
962471322
962471706
962472817
962474072
962474394
962475043
962475292
962476735
962476789
962478893
962480149
962482158
962482398
962482503
962483334
962484322
962484604
962485401
962485432
962486117
962486347
962486429
962486917
962489485
962490938
962491489
962492021
962493028
962493109
962493269
962493168
962494530
962494552
962495042
962496611
962498435
962500882
962502702
962503248
962502842
962503622
962503895
962503539
962505270
962505262
962509916
962510780
962511601
962511852
962512017
962512723
962513277
962516066
962515400
962517143
962517069
962516695
962517662
962517777
962518574
962518791
962520842
962523430
962524388
962526063
962526185
962528225
962529977
962531184
962531335
962531531
962532612
962533301
962533701
962533947
962533608
962534428
962536680
962536699
962539589
962543596
962543821
962543455
962546692
962548188
962548973
962548996
962552663
962552909
962553196
962554350
962556413
962556562
962556789
962556815
962557695
962557838
962558640
962559247
962559765
962559671
962560125
962560722
962561604
962564344
962565298
962565309
962565312
962565881
962566439
962566515
962567635
962569204
962569354
962570465
962570917
962572053
962575174
962575339
962575654
962576607
962576648
962576977
962577836
962581128
962581432
962582166
962582764
962582620
962584889
962584876
962587204
962588324
962588447
962590609
962590780
962590604
962592230
962592888
962593525
962594156
962594343
962594384
962594352
962594467
962595288
962595024
962595228
962600219
962603124
962603765
962605985
962608257
962609248
962609190
962609768
962611644
962612121
962612201
962612070
962612802
962614363
962615136
962618566
962619306
962619906
962620379
962623167
962623417
962623537
962625421
962626839
962629017
962629068
962631160
962631892
962633382
962641311
962641191
962642953
962644805
962645232
962645255
962645108
962648630
962649758
962650313
962650678
962651187
962654142
962656366
962657515
962658588
962659811
962660233
962661013
962661704
962661865
962662409
962663505
962664363
962664363
962665643
962667817
962668825
962671007
962671874
962672392
962672646
962672628
962674385
962677438
962680651
962681357
962681463
962681610
962681914
962682133
962685654
962687862
962690721
962690731
962692619
962694301
962698397
962699158
962698892
962699479
962699747
962701869
962705071
962706223
962709818
962710672
962710916
962711123
962712669
962713172
962713890
962714094
962714617
962720405
962722668
962724663
962726782
962729100
962729830
962736022
962736806
962737670
962738078
962738788
962739484
962745861
962746093
962747054
962747345
962747341
962748114
962748518
962749143
962749798
962749884
962749964
962750804
962752042
962752388
962752559
962754703
962754817
962755171
962757716
962759821
962760000
962760117
962760230
962761938
962762570
962762684
962766153
962765563
962766053
962767679
962769981
962771225
962771996
962772592
962772952
962775115
962777161
962777589
962779158
962780844
962781511
962782636
962783599
962784482
962784974
962786225
962786872
962787973
962787961
962788953
962789836
