590002984
590002990
590003203
590003280
590003375
590003576
590003625
590003637
590004627
590004535
590004847
590005072
590004720
590004413
590005230
590005873
590005810
590005488
590005985
590006261
590006191
590006460
590006635
590006719
590006457
590006692
590007172
590007050
590007523
590007691
590007658
590008011
590008264
590008205
590008397
590008597
590008675
590008878
590008770
590008920
590008912
590009015
590008365
590008831
590009444
590009571
590009133
590009722
590009964
590010289
590010446
590009135
590011035
590010257
590010495
590011864
590011951
590011616
590012098
590011847
590012168
590012383
590012124
590013223
590013428
590013455
590013649
590012963
590014248
590013925
590015004
590015221
590015351
590015591
590015429
590015740
590015549
590015993
590016144
590015832
590016179
590016371
590016724
590016860
590016873
590016755
590016656
590017003
590017626
590017703
590017295
590018478
590018562
590017489
590018477
590018945
590019220
590018869
590019230
590019436
590019764
590020302
590018828
590020802
590019865
590019955
590021111
590021253
590021532
590021449
590022095
590022020
590021959
590022036
590022791
590023143
590023368
590024990
590025104
590025232
590025346
590025154
590024519
590025608
590026025
590025608
590001395
590000626
590002270
590006261
590004720
590001685
590003637
590010446
590008397
590001383
590005488
590001557
590001450
590008831
590001708
590001595
590008878
590005072
590015429
590013223
590005985
590005873
590004413
590011951
590009444
590010257
590005230
590018945
590002990
590007172
590006191
590004535
590008912
590019230
590009133
590009444
590006191
590018478
590006261
590003576
590012383
590017295
590018562
590016656
590001252
590020302
590017626
590025154
590027439
590015591
590028856
590011864
590015832
590006635
590019220
590017703
590005810
590020802
590021058
590019764
590023143
590008920
590011951
590023368
590019955
590006719
590004627
590003280
590032624
590009964
590030948
590028686
590003375
590026086
590026346
590018477
590006457
590022020
590033094
590017003
590018828
590016371
590021532
590009722
590027775
590038713
590030625
590001558
590001983
590010495
590007658
590022036
590021111
590012168
590005985
590019436
590033255
590029942
590037479
590038601
590016860
590009015
590035263
590038601
590008770
590009571
590038302
590034394
590016873
590032244
590008365
590040137
590032338
590030498
590025608
590021959
590026612
590041020
590038576
590025154
590039812
590003625
590045691
590044036
590038576
590039516
590036751
590012963
590040716
590031076
590044622
590008011
590045039
590045761
590000065
590043337
590006692
590033479
590044438
590038430
590033630
590005873
590043411
590013428
590052539
590010289
590052246
590028985
590034461
590025346
590008205
590030482
590038071
590048657
590042164
590044659
590011035
590035548
590016144
590049119
590012124
590042355
590042770
590042090
590045089
590053513
590030540
590045085
590019865
590016724
590042673
590037213
590047688
590016144
590045727
590030002
590008264
590056640
590044398
590050001
590046395
590029476
590032436
590049480
590035248
590050287
590006460
590024990
590047207
590034617
590046022
590043794
590018869
590047447
590013649
590038713
590060812
590057674
590058838
590038055
590048712
590063079
590058474
590024519
590061252
590023750
590036334
590059726
590066587
590021253
590049422
590046622
590048712
590052347
590051904
590062794
590044238
590057340
590045587
590045942
590044017
590025232
590047086
590039369
590054775
590014248
590004847
590043543
590039245
590029843
590062713
590063952
590063408
590038430
590047972
590063712
590061999
590027519
590017489
590059256
590015993
590064123
590071922
590029715
590061401
590059556
590013455
590066007
590040542
590048657
590015549
590063733
590038302
590059718
590001133
590066182
590031276
590049320
590043078
590053254
590065223
590054547
590069200
590056470
590068605
590026025
590063444
590049082
590065017
590069600
590046670
590070254
590071609
590050515
590053410
590040740
590058646
590065432
590043395
590073072
590062173
590063672
590053612
590066234
590068861
590028558
590066062
590075235
590076555
590041469
590058136
590057675
590052864
590033772
590075160
590039140
590070832
590071083
590061438
590076744
590063952
590070890
590046726
590076572
590057468
590075554
590071516
590081151
590066979
590080029
590064312
590064067
590047075
590070933
590074280
590054817
590083327
590078011
590062554
590052102
590043342
590027701
590079099
590021449
590063444
590065867
590060420
590088398
590089749
590083904
590079177
590056830
590016179
590075471
590082534
590067918
590080145
590056687
590054610
590071228
590068789
590073547
590076555
590072355
590030866
590070143
590034151
590080090
590074488
590085828
590053835
590072558
590022685
590053219
590086355
590090637
590051409
590068645
590082201
590074844
590075695
590076592
590088184
590093851
590096732
590082015
590016755
590087391
590092144
590088984
590093339
590081251
590076572
590081887
590093609
590071456
590095519
590090371
590032462
590083183
590094416
590060195
590087473
590064538
590076425
590075110
590077728
590096163
590092108
590091941
590037913
590069508
590028807
590089972
590100568
590088019
590102179
590069174
590066259
590098844
590066113
590052480
590088051
590008597
590103325
590097992
590091546
590089305
590104686
590092445
590080897
590093454
590084275
590092872
590102211
590066680
590022791
590094009
590081635
590099341
590086000
590096245
590100546
590090282
590091251
590102504
590057021
590102099
590092592
590076425
590073333
590098217
590103019
590084754
590088496
590108852
590096819
590096266
590059486
590096010
590089867
590049123
590098297
590083008
590109982
590084560
590074741
590110708
590098044
590110456
590091079
590092321
590110052
590002984
590099857
590063682
590105911
590102773
590069056
590085157
590101337
590093934
590084946
590099113
590088620
590103985
590115481
590089236
590093710
590072241
590064292
590101297
590100520
590091466
590080651
590114607
590113602
590087392
590117372
590114473
590112469
590081490
590092426
590091986
590108451
590118803
590074497
590114888
590068320
590095839
590091484
590101695
590064873
590114770
590118701
590118205
590118997
590081327
590054466
590078846
590112442
590072381
590113725
590106576
590081138
590123660
590062459
590125020
590100959
590120325
590105876
590119858
590103939
590117477
590105373
590084530
590114117
590123909
590119689
590125134
590116375
590086728
590118526
590101610
590115104
590069386
590122300
590113909
590057391
590114541
590007523
590105391
590095747
590106024
590120384
590121516
590125322
590102550
590120823
590063079
590102146
590129483
590113058
590117160
590124338
590116074
590128693
590128386
590117903
590119855
590118115
590136735
590060910
590132735
590120280
590131697
590130810
590126602
590124989
590116604
590139302
590132639
590127754
590124377
590085613
590104757
590099516
590115300
590139934
590096213
590076592
590068740
590127552
590118036
590142199
590129166
590141482
590109417
590097718
590133301
590131393
590133503
590140503
590133202
590116635
590071789
590118492
590132021
590138389
590098035
590123426
590093185
590147228
590133349
590107110
590109650
590148550
590135899
590117424
590137501
590135879
590141886
590138222
590101577
590114036
590126854
590088559
590132985
590144429
590114034
590121441
590121494
590144675
590151937
590128183
590127792
590146339
590145998
590128675
590113702
590102877
590125808
590127683
590107106
590153111
590124169
590137103
590152958
590143389
590086458
590113690
590144247
590072108
590141372
590129316
590102075
590149012
590102546
590150074
590136452
590115984
590145222
590111720
590147375
590085062
590147037
590151909
590133399
590139026
590106966
590126307
590148977
590128719
590118616
590123591
590109551
590125022
590107010
590077285
590131062
590130573
590127285
590142462
590127063
590127434
590148918
590084194
590155863
590142187
590162879
590148280
590127394
590105068
590149267
590154096
590164746
590151020
590153256
590148087
590110325
590148696
590115618
590149129
590129889
590143803
590131150
590156987
590132685
590157465
590147427
590143516
590095363
590160857
590157160
590146775
590117333
590122862
590128539
590159844
590148514
590169701
590151088
590127856
590160227
590163826
590135808
590133614
590150174
590131398
590162370
590145781
590165716
590160223
590167237
590166681
590172789
590157655
590131581
590114062
590162005
590150635
590133316
590153046
590144364
590143598
590135108
590129699
590170809
590175230
590159636
590173930
590155997
590152924
590176841
590166793
590109127
590149743
590160941
590174461
590161962
590178189
590171132
590170058
590171339
590169310
590166679
590173531
590178907
590163122
590140811
590106694
590167152
590175699
590121662
590177019
590171230
590176550
590170043
590126679
590162962
590137209
590086649
590143857
590158348
590177727
590071872
590102931
590159322
590129576
590183422
590141000
590167134
590168311
590134813
590184189
590154160
590142885
590178977
590168521
590144565
590174480
590159576
590176697
590180120
590184090
590181433
590144515
590186453
590179102
590164354
590099612
590177425
590160795
590187340
590178748
590182414
590149446
590150111
590182249
590140472
590106579
590147994
590188769
590149516
590173132
590188179
590167132
590187348
590185337
590178529
590165222
590166992
590188442
590153894
590185025
590172468
590172574
590178902
590173354
590193787
590163700
590188638
590182102
590162847
590156934
590166064
590189200
590180855
590187966
590162666
590181716
590183699
590193584
590195099
590197768
590159891
590189380
590181873
590158875
590196373
590175999
590164529
590175207
590192088
590182583
590115003
590161224
590155589
590177583
590139542
590182578
590190137
590110937
590192555
590169618
590166970
590198201
590149049
590177560
590182222
590185665
590182910
590198317
590182531
590172438
590183364
590176700
590193222
590188933
590199428
590181554
590173929
590116134
590164778
590156633
590194283
590192494
590200890
590190221
590193772
590197966
590191737
590192310
590177830
590188173
590200036
590168342
590166339
590175979
590151542
590202358
590198249
590190362
590182984
590199943
590201671
590198463
590197101
590177371
590176077
590181335
590204150
590187688
590181870
590202264
590186143
590188576
590148848
590197215
590181665
590198893
590201089
590185710
590207925
590204986
590213884
590193500
590177228
590188012
590178785
590181824
590191474
590165668
590200801
590193084
590201903
590207211
590209801
590212858
590174054
590206015
590196344
590215839
590192591
590199732
590195612
590086250
590171743
590125204
590170727
590209234
590208900
590206359
590196471
590216534
590215194
590198465
590143354
590144905
590078232
590198984
590215064
590201920
590196753
590197678
590211067
590152108
590205208
590164039
590199946
590221826
590192768
590187161
590197789
590186691
590200895
590208412
590217383
590201087
590204333
590217816
590204319
590217435
590217799
590177402
590197975
590224407
590206118
590206690
590189662
590216808
590224490
590224638
590193013
590136628
590214221
590222017
590155275
590216476
590199421
590214781
590185662
590218922
590220179
590217637
590212943
590204319
590207558
590206818
590191102
590211421
590222813
590222479
590171519
590220116
590212042
590197909
590223534
590230715
590205255
590217630
590211874
590221447
590226187
590222946
590215909
590210650
590191176
590212837
590116024
590214679
590217588
590204150
590194514
590185330
590221641
590182018
590207232
590202202
590200404
590217322
590226258
590206074
590224364
590208647
590211272
590220210
590200981
590216919
590201020
590229236
590214591
590204333
590230661
590202560
590229509
590230689
590230827
590233338
590230042
590225612
590233947
590226315
590231914
590204385
590233215
590228336
590218128
590224381
590231712
590222916
590232500
590214289
590237813
590226872
590233159
590214165
590228751
590225834
590231635
590162534
590231004
590228892
590193675
590207093
590204312
590230128
590218708
590221297
590213790
590216357
590242608
590238062
590209515
590230964
590219333
590236158
590239112
590232435
590234607
590234877
590234039
590244521
590207141
590243572
590237250
590205731
590238424
590234667
590213678
590188871
590214905
590208900
590222875
590206782
590243173
590234111
590239916
590228615
590237650
590226828
590210592
590232193
590184350
590221829
590204937
590223333
590236164
590240994
590178244
590242708
590244487
590239108
590239640
590235866
590245714
590244469
590245805
590250740
590230724
590223974
590239064
590221454
590211874
590241007
590244477
590248336
590224460
590242184
590207665
590201669
590215983
590242966
590242233
590242341
590192946
590254247
590233803
590237474
590238179
590250765
590250458
590239723
590246824
590245695
590229627
590243580
590253040
590240621
590233981
590207461
590185531
590250421
590247640
590251497
590233206
590254790
590228340
590252663
590236515
590199388
590243770
590204312
590226288
590224367
590218910
590234733
590229803
590204937
590234232
590248278
590232398
590244378
590243252
590257412
590229394
590250699
590258141
590258903
590255596
590254570
590256826
590259568
590256984
590247354
590258997
590251464
590224160
590243461
590247108
590256214
590259875
590253566
590252134
590207994
590248452
590245287
590212375
590259516
590244933
590223759
590268156
590252510
590185920
590265096
590249922
590185482
590251841
590260173
590258069
590246567
590251584
590230573
590253471
590257039
590255185
590267053
590257137
590244276
590234417
590270042
590272160
590260485
590255279
590271184
590254170
590261760
590257590
590258841
590238799
590256206
590257011
590239363
590256837
590221916
590251514
590262650
590276354
590256992
590247247
590265851
590269125
590260015
590207884
590266993
590264737
590222798
590269614
590202527
590217879
590247997
590222669
590225311
590244336
590170971
590271202
590244481
590256571
590264256
590261252
590265162
590264563
590276445
590258500
590235629
590238637
590164426
590278027
590273478
590228713
590204385
590244197
590234249
590251157
590251202
590257618
590273075
590278708
590270810
590263310
590224633
590203939
590233336
590272048
590277326
590243242
590265583
590266936
590202975
590281126
590287546
590270629
590259631
590238012
590275564
590272961
590276849
590261418
590262970
590248445
590276402
590255730
590283230
590264476
590279528
590279238
590254642
590255137
590247310
590264199
590285622
590261104
590260804
590159840
590264109
590247730
590284513
590286919
590245401
590252814
590264373
590264085
590280944
590279309
590277926
590229145
590265536
590154163
590270462
590280069
590279012
590270985
590263065
590275569
590254007
590268576
590259276
590247420
590277998
590280144
590256078
590282098
590279237
590290393
590294119
590278617
590252448
590272158
590280614
590272827
590290082
590283518
590266913
590286178
590281729
590282451
590195726
590250569
590272848
590260674
590273772
590256915
590289965
590291137
590286377
590289279
590272322
590289980
590291146
590287665
590203804
590214864
590291574
590285475
590277892
590286336
590280450
590287037
590257443
590282142
590282142
590282448
590296244
590261735
590282265
590270818
590281094
590290741
590264779
590193461
590260398
590290048
590294609
590284585
590273518
590294556
590272217
590288260
590293759
590273740
590289472
590289861
590252069
590303178
590291689
590284903
590277537
590282176
590284663
590296943
590288639
590274167
590294227
590277045
590303030
590294257
590294925
590286914
590278178
590291633
590275710
590293328
590290047
590299848
590282265
590259273
590274486
590286264
590232545
590295183
590304010
590297633
590299296
590306713
590287657
590294157
590267457
590291641
590301970
590249007
590263353
590282451
590293344
590297336
590298174
590310203
590227538
590304461
590272751
590303726
590289405
590290095
590309872
590306809
590294094
590302415
590291142
590295619
590278892
590300059
590270288
590282448
590296583
590301624
590282098
590295304
590298545
590313517
590304567
590268583
590311166
590294330
590294610
590304524
590300124
590309869
590290278
590310505
590314311
590296242
590310604
590294165
590300472
590264639
590309471
590309601
590296027
590277120
590306645
590316885
590282176
590299518
590295296
590305542
590293343
590312473
590300051
590301600
590316566
590302975
590306642
590307919
590286463
590321919
590287667
590308941
590280904
590316068
590302427
590311239
590304477
590281613
590301861
590310608
590314242
590207813
590307856
590306700
590277196
590289036
590321538
590304882
590315115
590271051
590302394
590314209
590312244
590316939
590283128
590311825
590322007
590212530
590305645
590302976
590319369
590290699
590313796
590276028
590312695
590319764
590307227
590304473
590296914
590286758
590286904
590321818
590298432
590302631
590297275
590229367
590287165
590317619
590323801
590304432
590294552
590316301
590316013
590292010
590326401
590317096
590331687
590330202
590303113
590281325
590326988
590324517
590320677
590335031
590294299
590290097
590325728
590302337
590306169
590334462
590315665
590303595
590318215
590334765
590314042
590333988
590314920
590333291
590303304
590304685
590334092
590323318
590299244
590327897
590333990
590306894
590334577
590323080
590316354
590310539
590316634
590305658
590307190
590326939
590226343
590332126
590333427
590335509
590323172
590316033
590315083
590337276
590328604
590342368
590330782
590322743
590326627
590324620
590319792
590321184
590331428
590334679
590344914
590338581
590328916
590296186
590329597
590281418
590317830
590329668
590326987
590322721
590326527
590344720
590328597
590317389
590282271
590331489
590336056
590306849
590310464
590327473
590311423
590315570
590313495
590340420
590325377
590316525
590335460
590304135
590294980
590336367
590315316
590329296
590331381
590323798
590311206
590337768
590337774
590342921
590313809
590326135
590306028
590343870
590328410
590339107
590334516
590345536
590325682
590345560
590342559
590341086
590345374
590322292
590320127
590344721
590357017
590319265
590356588
590353627
590346902
590344094
590316398
590339492
590347436
590345064
590325414
590348728
590324269
590339954
590345674
590352328
590348312
590340493
590351272
590345531
590336568
590328725
590307870
590344318
590353446
590336964
590355296
590355981
590359158
590338578
590326907
590362422
590317954
590345478
590338119
590365351
590366705
590353246
590301746
590353127
590353442
590363930
590328592
590280891
590302436
590317164
590365175
590359353
590358088
590346876
590345605
590322297
590369456
590370135
590327014
590350840
590372364
590297581
590357552
590373525
590338784
590314035
590353677
590367583
590331184
590342178
590325311
590367916
590374305
590353587
590342849
590347936
590360497
590309214
590338118
590356970
590354779
590350804
590365379
590364271
590343716
590363811
590356235
590338212
590342266
590356594
590355553
590357242
590372953
590324979
590360158
590345246
590371191
590365670
590354042
590271610
590357111
590373748
590302625
590319894
590311506
590374395
590340122
590317676
590310251
590311393
590355584
590377487
590364392
590355827
590354653
590383360
590368219
590338138
590372410
590382099
590344552
590359602
590377130
590377728
590336098
590343044
590385211
590374497
590368171
590348288
590306785
590350411
590361970
590352768
590367319
590306314
590358347
590384170
590353618
590376748
590376860
590354118
590364122
590318594
590362581
590372082
590384367
590349374
590374812
590370444
590373753
590380845
590375248
590383558
590380158
590377991
590386780
590387790
590363080
590380364
590372634
590381330
590379069
590330257
590392884
590347786
590383639
590293943
590385540
590372532
590386971
590386765
590391791
590325201
590333086
590336221
590379109
590372431
590393996
590362665
590383913
590389345
590395386
590373022
590386784
590390121
590273516
590379382
590374570
590380836
590299192
590387161
590362361
590379869
590399073
590387653
590320945
590369406
590392183
590395035
590397261
590393670
590395633
590390800
590387115
590396002
590334185
590375033
590397433
590384299
590383282
590381726
590389605
590403453
590392893
590395966
590386747
590403227
590385331
590312967
590387916
590352681
590404979
590396565
590401665
590371609
590385156
590387715
590394939
590387386
590401800
590372091
590388689
590397355
590394947
590327064
590395888
590391650
590399143
590400511
590403638
590396971
590375923
590375234
590398475
590396397
590316941
590397448
590399357
590384495
590390208
590402241
590395021
590404764
590405350
590405114
590409616
590409897
590385259
590377279
590399198
590353343
590353947
590387788
590366023
590387144
590339570
590374880
590391176
590398669
590404524
590405113
590404090
590394770
590399502
590405224
590403855
590405782
590362775
590369995
590388402
590406247
590415490
590381715
590336934
590405172
590409968
590351938
590340392
590376838
590383889
590416008
590397744
590409119
590384960
590397539
590405542
590407743
590414114
590374510
590347905
590406721
590398897
590422992
590369824
590391872
590346914
590391770
590389260
590410607
590396269
590374807
590395604
590388286
590406744
590361561
590374822
590419719
590411582
590422416
590405808
590425933
590396640
590416607
590373024
590381029
590399809
590422567
590416822
590421940
590415332
590411119
590362545
590418798
590426339
590341157
590407096
590413383
590400804
590412190
590376169
590406591
590419385
590426462
590415839
590424178
590423903
590418114
590389735
590422601
590364389
590407052
590397352
590428897
590406215
590421661
590410925
590393187
590379794
590421629
590386417
590419286
590406890
590400929
590418470
590385706
590401085
590405214
590408201
590420404
590420047
590376391
590394584
590374269
590413333
590409797
590428009
590340044
590403201
590425537
590350066
590398418
590405081
590388245
590416424
590407267
590414835
590420386
590428947
590420856
590426184
590419430
590415056
590412827
590404402
590414718
590433076
590419059
590436987
590429213
590431160
590407164
590433037
590434107
590434666
590428659
590389750
590433809
590415729
590431507
590424767
590432291
590434788
590437266
590432931
590442641
590409840
590437681
590406139
590443283
590425829
590414483
590391061
590434054
590426304
590415874
590440267
590441933
590439303
590331419
590440427
590441982
590440776
590434178
590356063
590406546
590410674
590366031
590441036
590431461
590430814
590392278
590365358
590440283
590435219
590425840
590448936
590417900
590441554
590434633
590446747
590418874
590442327
590444956
590430108
590444520
590433826
590433913
590451556
590430059
590447811
590443166
590446924
590424188
590421885
590432071
590409213
590449393
590400606
590447485
590432849
590432210
590398486
590441718
590446437
590451413
590418024
590439604
590440967
590435160
590399457
590429823
590447853
590421339
590380260
590411815
590428107
590405108
590375434
590307214
590381347
590409416
590443273
590375869
590444764
590439135
590404367
590438373
590426340
590427359
590444494
590445641
590459102
590452056
590447866
590446919
590436623
590444100
590405822
590434201
590421698
590423382
590420842
590452010
590441070
590457351
590452356
590464321
590452261
590453096
590409475
590453492
590397949
590436099
590454101
590443804
590459060
590457267
590463572
590440781
590412481
590451671
590430729
590458495
590435780
590427516
590433571
590466031
590434953
590462405
590431886
590428768
590448569
590456409
590461433
590430285
590426844
590450006
590444882
590390116
590461754
590441189
590438922
590457399
590465125
590460963
590456623
590439101
590429623
590454870
590449659
590422852
590424654
590456772
590466896
590395435
590374694
590464969
590465832
590454308
590438923
590461201
590471867
590463459
590468903
590462051
590426515
590433847
590465144
590459560
590402086
590440775
590473370
590415550
590458293
590463790
590456898
590456379
590448916
590465587
590451609
590472683
590470243
590461726
590480243
590475444
590459558
590479893
590456909
590461081
590397048
590463185
590470513
590420131
590464222
590437836
590436362
590454199
590459258
590464648
590452407
590477945
590453866
590455904
590483235
590469573
590439598
590481212
590471966
590477282
590484544
590471271
590475427
590487665
590472330
590472055
590467085
590447489
590428344
590473876
590480702
590466387
590466902
590482590
590488854
590476447
590469816
590458180
590489754
590463378
590451297
590444762
590450560
590489469
590467746
590481319
590463281
590457047
590483649
590467461
590450617
590481810
590466831
590461008
590487673
590477450
590488141
590483469
590489542
590485047
590476726
590471341
590455495
590464027
590440510
590485954
590461514
590480749
590441930
590476660
590477324
590438034
590494967
590467593
590430717
590454974
590369028
590495440
590481958
590446374
590489896
590446109
590477741
590498070
590474468
590490224
590469097
590488559
590470595
590492862
590478747
590473359
590441575
590479314
590472907
590493256
590494847
590497192
590479870
590492992
590483403
590497514
590489007
590497961
590484136
590421555
590476413
590481227
590495345
590496407
590484007
590451038
590440121
590497961
590447020
590485682
590476248
590488521
590452199
590437379
590401063
590493099
590500899
590477955
590488878
590505426
590458526
590477044
590426587
590504711
590472986
590489256
590499854
590489689
590499427
590494771
590491318
590453111
590493074
590501926
590475719
590474648
590473882
590497796
590496924
590490801
590486749
590490193
590469169
590484974
590431339
590399990
590482093
590480404
590503860
590464906
590490021
590482708
590503662
590505659
590510520
590450292
590505209
590511764
590486436
590507773
590483641
590485689
590507930
590503876
590504488
590473440
590492379
590479920
590509349
590491986
590497796
590425530
590494947
590449263
590505437
590505355
590497336
590466708
590509133
590498308
590490745
590450639
590446823
590491572
590504591
590498070
590505126
590446451
590505416
590510237
590498092
590465088
590504655
590510844
590509160
590522722
590491209
590501824
590489678
590519587
590506545
590495898
590490496
590529280
590520275
590507796
590506973
590509494
590481176
590508146
590515951
590514065
590510605
590509510
590497016
590519972
590517386
590498308
590460582
590525100
590409820
590476028
590504953
590514703
590496842
590526467
590527433
590518153
590496467
590486951
590512589
590485292
590528163
590527384
590522651
590527179
590499529
590506310
590516961
590530078
590495249
590498070
590514930
590524655
590525513
590523970
590516908
590528022
590500415
590494299
590528917
590511475
590509155
590526375
590518896
590529829
590509436
590510909
590499967
590521408
590493460
590525722
590520876
590498092
590531572
590530152
590523596
590514832
590529670
590531895
590518089
590528842
590533175
590515524
590491419
590524257
590526683
590517547
590532739
590529093
590521330
590484620
590536209
590535678
590527715
590517856
590536263
590525591
590476421
590536402
590539876
590460885
590485583
590509833
590506434
590524314
590533142
590536280
590477458
590504904
590496286
590535358
590443370
590501781
590526269
590428443
590536594
590535089
590537140
590538370
590534751
590536136
590527778
590530247
590527919
590519345
590539051
590538410
590534638
590545595
590545219
590485840
590533453
590506213
590523223
590529439
590499773
590550945
590533672
590533133
590540905
590541489
590540126
590549342
590540487
590536743
590526134
590543218
590542377
590457463
590549801
590547400
590507453
590489483
590523488
590538314
590548512
590539874
590530933
590512844
590534604
590537571
590549455
590541971
590539180
590546029
590488748
590543608
590529504
590519162
590469130
590531724
590535974
590538870
590537967
590539777
590548082
590544635
590525246
590545318
590529997
590547446
590474058
590553205
590520908
590542298
590505352
590528734
590533389
590544877
590547453
590552232
590553913
590555519
590555939
590551659
590544278
590553636
590548398
590527818
590553695
590553133
590555943
590548807
590545640
590542042
590497961
590551348
590516843
590553356
590543952
590519440
590539934
590540684
590447601
590556367
590430754
590538815
590553675
590528252
590521497
590552673
590567061
590470840
590537614
590548811
590554645
590555196
590552859
590545460
590537779
590500010
590552127
590557242
590547222
590568642
590478277
590558154
590562843
590550338
590544615
590567501
590531616
590539152
590532974
590562933
590502924
590537440
590503062
590571892
590563392
590559603
590563226
590568835
590542790
590540159
590528785
590531770
590570309
590526062
590551946
590549280
590533383
590559690
590555162
590567664
590560817
590545631
590557420
590567968
590548379
590571149
590529199
590501896
590568735
590570148
590551561
590566791
590556990
590564867
590569134
590562395
590535790
590554910
590570065
590548429
590541504
590556471
590562192
590550272
590529215
590567565
590560330
590540272
590565042
590512231
590557637
590557178
590567160
590573143
590566881
590563793
590567944
590558887
590555695
590561159
590556612
590562367
590566918
590567398
590546527
590555757
590529169
590571676
590568934
590575873
590575473
590561331
590554163
590579634
590532552
590566504
590537016
590570327
590561778
590514876
590580246
590547775
590530721
590565182
590561318
590574695
590575919
590580084
590565421
590579827
590577800
590552913
590575391
590581040
590527744
590567459
590569237
590537159
590583836
590574477
590561864
590567797
590577205
590578058
590574089
590526715
590577216
590527114
590570837
590565506
590541015
590573896
590555039
590582406
590584177
590583760
590561402
590587408
590582206
590545494
590578032
590594639
590577870
590590856
590552898
590573775
590558470
590578941
590587185
590513103
590584142
590563060
590596546
590582780
590581551
590583899
590575994
590590465
590576062
590584884
590575853
590583828
590593808
590573273
590553447
590586654
590591395
590554585
590579827
590586997
590577800
590576501
590574447
590577976
590561485
590585832
590539234
590473343
590544193
590557462
590580267
590589032
590586735
590578941
590580605
590585573
590591605
590594523
590597703
590597511
590543620
590587257
590577976
590586394
590602477
590583010
590574713
590599918
590575459
590595009
590576350
590604196
590547462
590600220
590586941
590550557
590602330
590606595
590591288
590597667
590581950
590577870
590556617
590604027
590593156
590584042
590573419
590569819
590579787
590593738
590577957
590574437
590605985
590583599
590570509
590615791
590568647
590563464
590585438
590583809
590519671
590571108
590612887
590569259
590563520
590591023
590585089
590584714
590577979
590607269
590592937
590580246
590593945
590591537
590573932
590586944
590608130
590607808
590583128
590600299
590595067
590580642
590606111
590609708
590610017
590576536
590604196
590549327
590575135
590594563
590545685
590601099
590592266
590584110
590624253
590601573
590606832
590610785
590577870
590607859
590598427
590620438
590595338
590613790
590570881
590623091
590607884
590620002
590534389
590613153
590623973
590615954
590624843
590597255
590619068
590621613
590548089
590618563
590586247
590600243
590619616
590586689
590585094
590607755
590632087
590598020
590595755
590624140
590622669
590612217
590616150
590605051
590563157
590611066
590632484
590614281
590599646
590618170
590610245
590569024
590613476
590608827
590614181
590608092
590603319
590626476
590629401
590606720
590634421
590613653
590615040
590604839
590597000
590614983
590634534
590573926
590634965
590597764
590639957
590600632
590620727
590574106
590630703
590619269
590606471
590602794
590629333
590637627
590637262
590637840
590628696
590634900
590630536
590641059
590630635
590541693
590624774
590626155
590621362
590600353
590644144
590630470
590609502
590594192
590622014
590634108
590626214
590551960
590635873
590639694
590621981
590628883
590625042
590625119
590606218
590558207
590578058
590593631
590577800
590623648
590608021
590614153
590630878
590629290
590595098
590631411
590638164
590612906
590631135
590628767
590588686
590631156
590634265
590641237
590616451
590637825
590646310
590596782
590637929
590612119
590651052
590640052
590627556
590649271
590641686
590619677
590618086
590606187
590615634
590623453
590606168
590608898
590601296
590642328
590628461
590607027
590648524
590643398
590639717
590637432
590570252
590592418
590640775
590646063
590599476
590614546
590646828
590646887
590652683
590655370
590614552
590628607
590643000
590618747
590631436
590648617
590645367
590634256
590618961
590657950
590656293
590602244
590636840
590652564
590636601
590587242
590646860
590612270
590630018
590642370
590632640
590624948
590643208
590640358
590631826
590656587
590656237
590654796
590629587
590654304
590656856
590655944
590601887
590649568
590530623
590658105
590649778
590615485
590645798
590657435
590660717
590647546
590624774
590660800
590625465
590607793
590652919
590659984
590642288
590648088
590635406
590643007
590652007
590650872
590647493
590659302
590656587
590649515
590577979
590656276
590660069
590655696
590629406
590626031
590636915
590657742
590664684
590646433
590579787
590652734
590667719
590668802
590667130
590613014
590668129
590656572
590631891
590659085
590638596
590652492
590650831
590664394
590643362
590665293
590655608
590650858
590656856
590673724
590656919
590673061
590653055
590669737
590645442
590668942
590649914
590675792
590648413
590662400
590609799
590642981
590654360
590647073
590667688
590671494
590671006
590643416
590669734
590604027
590668963
590579634
590653095
590676177
590660844
590670342
590656004
590671705
590671770
590679576
590663354
590677166
590655217
590659941
590668682
590651937
590605739
590676038
590619584
590664451
590675545
590676664
590660896
590673145
590670278
590672445
590658306
590677496
590685951
590675532
590672699
590641271
590657167
590675447
590649691
590655935
590648939
590678453
590636551
590659048
590668990
590656911
590677973
590677693
590625616
590685973
590657167
590691278
590650428
590641425
590683168
590678936
590679107
590674422
590657044
590655038
590663917
590679527
590666247
590688290
590681448
590671432
590686937
590683221
590667800
590634443
590679924
590656613
590694571
590662097
590687266
590677533
590670444
590660100
590688086
590660698
590624752
590653262
590633774
590622609
590651580
590684441
590686720
590668309
590684521
590629031
590687832
590656911
590693776
590650172
590666905
590688535
590670409
590644929
590672692
590699516
590695666
590695277
590657435
590693449
590685623
590588725
590696397
590686467
590661744
590663981
590636080
590686179
590685283
590690132
590697776
590679773
590632311
590700831
590693445
590693440
590691082
590695860
590663609
590675756
590702675
590687986
590664358
590686070
590699388
590658567
590637218
590685654
590695243
590672321
590691267
590695565
590702561
590686270
590681151
590678442
590633900
590699410
590685978
590648037
590692579
590697234
590700955
590700714
590695429
590689534
590685423
590656613
590700226
590706170
590659178
590699258
590689570
590691327
590699929
590701656
590696066
590669469
590620465
590695211
590674500
590707329
590683623
590667148
590696758
590660205
590707508
590684288
590673903
590695660
590674662
590705840
590709460
590701225
590666158
590656572
590711234
590644762
590689131
590705406
590706859
590694679
590707798
590695216
590657914
590649866
590699412
590647564
590710938
590703416
590712441
590708282
590655238
590695479
590699776
590714242
590637380
590679044
590685481
590696556
590692365
590704786
590699838
590674682
590649843
590697845
590703651
590607460
590707764
590709301
590689600
590712152
590707849
590689274
590716622
590699534
590716701
590713729
590704971
590693778
590712517
590711439
590706018
590698419
590702227
590687261
590701699
590611424
590686790
590705025
590716170
590716170
590693876
590717439
590703063
590694773
590688974
590708389
590693941
590694020
590713740
590721823
590662821
590719773
590719074
590716187
590724798
590717439
590705643
590711911
590675600
590675148
590720886
590689889
590711784
590709043
590717383
590713348
590708119
590682503
590729080
590639334
590695397
590711897
590714948
590696498
590689825
590691348
590709076
590690750
590708118
590728734
590723833
590727045
590680615
590701182
590726666
590720692
590700997
590717929
590724987
590734362
590724822
590729637
590709739
590719036
590726837
590708531
590735116
590703700
590700079
590734024
590692153
590661306
590730232
590695751
590721231
590716487
590734194
590729936
590719087
590690385
590684020
590711328
590713190
590729905
590693969
590719647
590698759
590713246
590729637
590664095
590724479
590724563
590723857
590732751
590711828
590727560
590723437
590737386
590699649
590731892
590731166
590728406
590716187
590695034
590729930
590708034
590734016
590720915
590730916
590702058
590736841
590739312
590704142
590744005
590739438
590678784
590728886
590650982
590739885
590688210
590743673
590721036
590734439
590750793
590737026
590722476
590733299
590719506
590721578
590702678
590743183
590727094
590716487
590749677
590740961
590734681
590707319
590741050
590753975
590739530
590695914
590728506
590702669
590742052
590729542
590749425
590704780
590727630
590716622
590727633
590726672
590714268
590737424
590716701
590708918
590738515
590698087
590738798
590706857
590732192
590731853
590752116
590733726
590753084
590752232
590732202
590724117
590707073
590721144
590735640
590742305
590737162
590750558
590739297
590742110
590732051
590648295
590731002
590746369
590750034
590742806
590737240
590744963
590724341
590737912
590730847
590742213
590748611
590744592
590716797
590727567
590739255
590733438
590752346
590741302
590763866
590759406
590752502
590667477
590681292
590757255
590740743
590744563
590729542
590728785
590729504
590761134
590746580
590759899
590756267
590743417
590755079
590744584
590725419
590763923
590721212
590767914
590745273
590729071
590709922
590716797
590760571
590759794
590734374
590754277
590645870
590724817
590720648
590749677
590756765
590721010
590762288
590744785
590754477
590720855
590739759
590754945
590764419
590760467
590756375
590755974
590749319
590756243
590762620
590759086
590718145
590767554
590766871
590767110
590711179
590750912
590769599
590759531
590767297
590756114
590763603
590754202
590729930
590759060
590757518
590755565
590764513
590771649
590767450
590752816
590749615
590765800
590757088
590656919
590744856
590748516
590757329
590751854
590724475
590759294
590743386
590731395
590735775
590763633
590756773
590778543
590750269
590769290
590762646
590761890
590750195
590760136
590771248
590776364
590686329
590737177
590747214
590767462
590772423
590771182
590773162
590744545
590671785
590775282
590779759
590767758
590727990
590751396
590769301
590762477
590774550
590779337
590754154
590757046
590780040
590766911
590737459
590774665
590771458
590760555
590779373
590767792
590772139
590755676
590768632
590780517
590779620
590774990
590746058
590774294
590775548
590734100
590773970
590768915
590772896
590763677
590725290
590773237
590773511
590786986
590702633
590740029
590782619
590778572
590769619
590753889
590776637
590780541
590777536
590781151
590751643
590780269
590778985
590761674
590778877
590783576
590775817
590778420
590751069
590720458
590779877
590791929
590728441
590745774
590778024
590784472
590735409
590784936
590781366
590765021
590764134
590774117
590789105
590780445
590768738
590787719
590790864
590789536
590770091
590790241
590781802
590758936
590756569
590784016
590785359
590793325
590786373
590776886
590765949
590765180
590655693
590725944
590778266
590782295
590773190
590789684
590796910
590777840
590794914
590796957
590801770
590781128
590798919
590724243
590790580
590783771
590796734
590786293
590767937
590746000
590794283
590783871
590779590
590788369
590782478
590702127
590775198
590765568
590790111
590792445
590806061
590742305
590772110
590782036
590769772
590783697
590783510
590791445
590780033
590749904
590787112
590775322
590797212
590759694
590781311
590802510
590800546
590760733
590794297
590806997
590806657
590801838
590800401
590739617
590796767
590802681
590722008
590794761
590788795
590798826
590809280
590794999
590810628
590803509
590737695
590800331
590761144
590799878
590803516
590804292
590783484
590799588
590782209
590787370
590805407
590776261
590798676
590810099
590801193
590782675
590802360
590754946
590800656
590796297
590785169
590806582
590806141
590812576
590766113
590806106
590779833
590791341
590788916
590742518
590799447
590799660
590797616
590777153
590801134
590809955
590817263
590766683
590788764
590664833
590808139
590778388
590797742
590802193
590808040
590789753
590802878
590792216
590793484
590778685
590798004
590812067
590768648
590744707
590796576
590806447
590813911
590810987
590804723
590803810
590804644
590776038
590806913
590820753
590817886
590811993
590807035
590788026
590808058
590809248
590811491
590788954
590800070
590810174
590817303
590823082
590817860
590810174
590810029
590810289
590812005
590784324
590793785
590821261
590817069
590791264
590806732
590816095
590789734
590797461
590756055
590811685
590817315
590816788
590819552
590814291
590806396
590821604
590820358
590800231
590774169
590806176
590820544
590813787
590785725
590818467
590811757
590813583
590813967
590797507
590790264
590788798
590797870
590811685
590813490
590814172
590809855
590801334
590768426
590831386
590824259
590822591
590828913
590824430
590794730
590815100
590817664
590819674
590816918
590816677
590795612
590819660
590802598
590825852
590825702
590812310
590813246
590795395
590813946
590815661
590814722
590819945
590820821
590813500
590802828
590823533
590817240
590824949
590826194
590820592
590811491
590814504
590807817
590819140
590814137
590822035
590825631
590818537
590812697
590818122
590835406
590836675
590832467
590831849
590815114
590819566
590834711
590758980
590827037
590801115
590813747
590820266
590828804
590791765
590840307
590744005
590828910
590821094
590830454
590817963
590784510
590837461
590823169
590836884
590843928
590837543
590834524
590825487
590819806
590846368
590840817
590821523
590785423
590836472
590760681
590816661
590810029
590787828
590774372
590829230
590840147
590791835
590810763
590843482
590827086
590810099
590820955
590783823
590839437
590803594
590840053
590782662
590825060
590839144
590816237
590825733
590826753
590843672
590834166
590840284
590842610
590844649
590836522
590830871
590844966
590840436
590851700
590828718
590845684
590806555
590833165
590785514
590844218
590793702
590816693
590836233
590832324
590827504
590854211
590832894
590827945
590826678
590843644
590853426
590823294
590817871
590803104
590823271
590842769
590844510
590828601
590846529
590800821
590850962
590829703
590801872
590812417
590822069
590839509
590821414
590847895
590843400
590835574
590845186
590860579
590856916
590848442
590782159
590850186
590830896
590835543
590849006
590838122
590813244
590845199
590845280
590866475
590830627
590829706
590843346
590847442
590827536
590844060
590828489
590810987
590829284
590841022
590853179
590821534
590845421
590853533
590816463
590844305
590825989
590855800
590863207
590830888
590833263
590859238
590809222
590853416
590867925
590867982
590781443
590844783
590864986
590829214
590821222
590843444
590854303
590863599
590856806
590836903
590821370
590858840
590857610
590856657
590855049
590845394
590820943
590840389
590834020
590843645
590829126
590849997
590825194
590867546
590847281
590842379
590871671
590867191
590832485
590845628
590873699
590858442
590859581
590842127
590846655
590848124
590852372
590860996
590854415
590871060
590852797
590871416
590796749
590808030
590861156
590872182
590846534
590853440
590859065
590847349
590862014
590856255
590869174
590757660
590868774
590872234
590861525
590851903
590856912
590869731
590847870
590876747
590822060
590851824
590849883
590818434
590871116
590811295
590859362
590865743
590826145
590860523
590863774
590835484
590827129
590833720
590855366
590865528
590856248
590852964
590872481
590870031
590868880
590877422
590874248
590878624
590865257
590850620
590874879
590862490
590864763
590886749
590851703
590855996
590854413
590876102
590858916
590871927
590887027
590827414
590868069
590881947
590842551
590840093
590876338
590838318
590886267
590863022
590873239
590879239
590848951
590883132
590881923
590860182
590891586
590853200
590878355
590862903
590892024
590888539
590866856
590820410
590874262
590872567
590876008
590884320
590876061
590881588
590889456
590879678
590876276
590850119
590835800
590887952
590881343
590887545
590870872
590890771
590882014
590882164
590876922
590890855
590846840
590869796
590885360
590837113
590871820
590891151
590880569
590891574
590875239
590868599
590846065
590895026
590884148
590889963
590884721
590879325
590886317
590849198
590867291
590892217
590886616
590875298
590879406
590862344
590885408
590889978
590895093
590876611
590875238
590881498
590877204
590893901
590894497
590892377
590873537
590886465
590889613
590879052
590902699
590898850
590842476
590889657
590882999
590901751
590859525
590898695
590885941
590869727
590897349
590895631
590878352
590894491
590891324
590893808
590887426
590893720
590873526
590841477
590910592
590901484
590889665
590905632
590896625
590890932
590889763
590876079
590868948
590901717
590911934
590907324
590897295
590878607
590880315
590910371
590874346
590896439
590893317
590848544
590863931
590878165
590863879
590912760
590888328
590900165
590904119
590901441
590891179
590897988
590908858
590883157
590893131
590846367
590893574
590859742
590871796
590878582
590860520
590900152
590902080
590878698
590882606
590876042
590874206
590882566
590910369
590904388
590894140
590914319
590863009
590916703
590882325
590854446
590886077
590913333
590915745
590914539
590919841
590891494
590897250
590900140
590905277
590914863
590874529
590905521
590908278
590920463
590905853
590907299
590905338
590900000
590916674
590909940
590874616
590913927
590912041
590917203
590897621
590900466
590898850
590918623
590914552
590909619
590916930
590920276
590916685
590910509
590920163
590892385
590925440
590886740
590921479
590869045
590852727
590928315
590909315
590897988
590903255
590912904
590905950
590913089
590894204
590922974
590894786
590909418
590895107
590879684
590931595
590902545
590916812
590932781
590921957
590921181
590911986
590918333
590880882
590923607
590871310
590905908
590883827
590907416
590918231
590931185
590911873
590934606
590898038
590888920
590893644
590899618
590921499
590921521
590900267
590902723
590891865
590928367
590913634
590920881
590911934
590918265
590938436
590898857
590913007
590915462
590934128
590907125
590925626
590933474
590929856
590915253
590926182
590908465
590921566
590906788
590928166
590907531
590903267
590920534
590935835
590923619
590930302
590933801
590941112
590919796
590910253
590931829
590927532
590934048
590908928
590909874
590923705
590886124
590918996
590943278
590920643
590911992
590940737
590904502
590874330
590907793
590869986
590885184
590916924
590938962
590933969
590892057
590940736
590926715
590920429
590931391
590901651
590924254
590917933
590804062
590934827
590945833
590930080
590905304
590938082
590899249
590927431
590931251
590941171
590941291
590923182
590948075
590936943
590931541
590928569
590922258
590937015
590933047
590947220
590936139
590895685
590945507
590938854
590943898
590938631
590940196
590913905
590944408
590936814
590933066
590923198
590925660
590912104
590921757
590939606
590936891
590944505
590922829
590919819
590938184
590930849
590949107
590956118
590933302
590945097
590945001
590927835
590941957
590940463
590950017
590949194
590952451
590898038
590951647
590899249
590935790
590940524
590947082
590923897
590939743
590957369
590950419
590958801
590938169
590942653
590891234
590947270
590920702
590921210
590950302
590937060
590944948
590950903
590907904
590953783
590943079
590960957
590952377
590880281
590954692
590948306
590953828
590957023
590938752
590951608
590961387
590942786
590961080
590945507
590949314
590963124
590945015
590901475
590930933
590911992
590937134
590947402
590846238
590952250
590951533
590918197
590938434
590928426
590960489
590962841
590959883
590934954
590953825
590951149
590898857
590951770
590951294
590936794
590955195
590950945
590966149
590942402
590952970
590939935
590929252
590915247
590942268
590894813
590939703
590969251
590945159
590942100
590961572
590970790
590851949
590945335
590958546
590946725
590964906
590963845
590967243
590960461
590961648
590974631
590972263
590914377
590963547
590951045
590960092
590962847
590950568
590933200
590962506
590963423
590965279
590939021
590966757
590967818
590962593
590976903
590968063
590954449
590945159
590971010
590913437
590974491
590974796
590959176
590966892
590976715
590925828
590977480
590919168
590981175
590970910
590941987
590952827
590952819
590953305
590976403
590973989
590964566
590957806
590968710
590952255
590964045
590912041
590963293
590982495
590956636
590978773
590979672
590966729
590949337
590979651
590960918
590978768
590987727
590975027
590974970
590940457
590969581
590945097
590963914
590955436
590960330
590975701
590981003
590960269
590960559
590969199
590957714
590960658
590974988
590972361
590992841
590990569
590953804
590948693
590965333
590980308
590919234
590982606
590965158
590989995
590978654
590920507
590970775
590953035
590984583
590982909
590978716
590993932
590987193
590969398
590993767
590937588
590977512
590957886
590967876
590982760
590991569
590938827
590964207
590965796
590936256
590990690
590999070
590988430
590910185
590964238
590978939
590999334
590992912
590969970
590992114
590995500
590985872
590918593
590967731
590987390
590909937
590994202
590995381
590985782
590986124
590938579
590983401
590982969
590948877
590982726
590939943
590929323
590993928
590996551
590945015
590980052
590983780
590991865
590947067
590990445
590985803
590992060
590978451
590939653
590970230
590997856
590988695
590884891
590998039
590994174
590975727
590996305
590986963
590965354
590991628
590966569
590951992
590987467
590963379
590981639
590996139
590972768
590996537
590981865
590988434
590954711
590978597
590992129
590984332
590997911
590950967
590994506
590974059
590994601
590984988
590922849
590992268
590961512
590985141
590987997
590987825
590951410
590993258
590976768
590950409
590985414
590992581
590996513
590931491
590994526
590992655
590989760
590972523
590948081
590984146
590987111
590991524
590994343
590997991
590917733
590945886
590926988
590975544
590977807
590999665
590990547
590990157
590998733
590960219
590999677
590996564
590981924
590984472
590979016
590995014
590982632
590998817
590984608
590965135
590984626
590989134
590997635
590990553
590985387
590995187
590997161
590931337
590978169
590990997
590978800
590999105
592000269
592000561
592000304
592000804
592001543
592001473
592002732
592003556
592003770
592004460
592004924
592005073
592004773
592004570
592005359
592005757
592005864
