1600001981
730063009
730080420
730081969
730082632
731029265
731036749
731084112
731089328
731097693
731106471
731108576
730191643
731133606
730200401
731151407
731172319
731173923
730246088
730248424
730288483
730295368
731224455
730305996
731234273
730309364
731235980
730321880
731251304
730329410
731556418
730440861
731580970
730442076
731633268
731647728
731650142
731650001
731676753
731677905
731683337
731695279
731708047
731734759
730570716
731774412
730612564
731813414
731815395
730627067
730632293
730639786
730640724
730647364
731859363
730674197
731877097
730690093
730693949
730700397
730702146
731901712
731940492
731965372
731968145
730707526
732008477
730714295
732044446
732048557
732049691
730756406
730758368
730767336
732071224
732079492
732094944
732096666
732117390
732124702
1600001981
1600076338
1600118977
1600124826
1600151227
1600165454
1600167190
1600179482
1600187957
1600192721
1600200238
1600208601
1600220279
1600317401
1600338573
1600370601
1600389629
1600422057
1600423403
1600466421
1600516076
1600521446
1600550432
1600568067
1600601254
1600603632
1600623538
1600674817
1600695239
1600702417
1600740702
1600764838
1600789236
1600821954
1600840230
1600872938
1600874979
1600892950
1600911483
1600928413
1601052044
1601064002
1601076115
1601086151
1601100153
1601112877
1601132388
1601132856
1601149915
1601166500
1601172664
1601173383
1601180208
1601182516
1601184070
1601185084
1601208602
1601216760
1601220536
1601229731
1601247627
1601249134
1601314165
1601321265
1601399485
1601410715
1601471679
1601481647
1601483091
1601499458
1601500007
1601520085
1601539576
1601544176
1601551233
1601552051
1601578494
1601579531
1601586703
1601652532
1601667114
1603111767
1603112288
1603131662
1603150868
1603174932
1603183703
1603196045
1603209359
1603228874
1603234350
1603260757
1603271845
1603328735
1603355299
1603428154
1603450236
1603452199
1603456178
1603463541
1603471909
1603491763
1603517328
1603518866
1603530620
1603553105
1603589430
1603623063
1603647001
1603710015
1603740073
1603756328
1603789694
1603807644
1603898439
1603946800
1603956259
1603977872
1603990304
1604036240
1604065043
1604171089
1604239406
1604260067
1604276690
1604281451
1604281768
1604295984
1604302567
1604334113
1604341021
1604454481
1604463723
1604563020
1604585102
1604635634
1604635766
1604637077
1604651094
1604653243
1604762988
1604821913
1604822438
1604839480
1604841851
1604888157
1604913751
1604934662
1604955238
1604974646
1604989068
1604999952
1605001562
1605035503
1605053681
1605119961
1605125642
1605155017
1605202763
1605327263
1605352782
1605361449
1605409771
1605460127
1605670747
1605958451
1605965922
1606247549
1606402947
1606441545
1606601878
1606766878
1606870048
1606975788
1607472044
1607571972
1607668138
1607730110
1607971521
1607983250
1608068821
1608157970
1608283237
1608407265
1608423349
1608498404
1608538105
1608575077
1608596002
1608703382
1608840607
1609278093
1609281512
1609416458
1609770420
1609808721
1609862279
1609971338
1609976326
1609994839
