960003975
960006448
960015164
960026148
960026495
960080174
960082700
960089346
960118659
960132395
960138282
960138610
960151382
960181199
960187587
960192152
960203602
960221318
960228641
960241070
960260403
960261131
960261805
960263334
960271695
960271817
960284706
960287697
960291357
960291187
960305409
960318679
960346840
960354494
960372034
960376857
960377854
960381656
960391391
960395382
960404101
960406802
960409024
960413273
960431963
960442923
960443320
960446651
960456856
960463327
960465406
960465889
960495479
960498338
960507623
960514274
960528738
960536296
960547104
960564071
960565813
960581792
960582716
960584137
960584930
960586046
960586376
960594874
960598119
960641112
960647634
960688594
960690652
960692671
960701808
960703254
960705859
960737315
960758257
960759116
960782479
960792745
960803245
960820112
960821524
960823235
960842566
960844781
960849250
960850156
960854512
960856317
960859780
960862915
960880703
960883870
960905120
960911518
960917026
960945866
960949562
960954965
960959274
960963453
960975694
960996125
961011740
961014252
961024091
961024525
961052543
961062829
961075475
961082278
961082466
961088647
961093344
961095473
961122947
961130142
961139187
961146696
961175487
961178086
961181606
961194304
961196079
961197587
961210828
961216135
961230226
961238942
961276705
961277090
961280561
961294484
961296576
961331421
961333631
961371985
961375781
961377020
961386060
961393496
961427126
961433069
961444473
961447362
961449579
961449828
961461551
961463547
961482916
961505973
961526621
961531673
961540578
961544944
961545521
961555573
961557040
961557543
961559029
961582940
961584780
961611785
961615106
961616650
961618817
961625760
961638138
961656844
961674326
961684402
961705261
961713090
961723337
961727463
961807167
961808328
961833474
961841217
961848377
961853087
961865374
961866357
961883152
961883925
961896651
961897013
961909353
961913283
961919155
961932491
961935755
961937916
961989453
961995977
962005202
962005615
962022846
962024720
962029267
962035662
962057416
962077115
962078546
962079960
962088470
962091532
962096419
962110874
962127398
962145057
962148899
962156086
962156184
962159780
962240447
962244869
962262812
962265582
962282220
962282569
962284545
962305347
962310027
962341176
962342193
962351991
962369938
962373635
962388993
962391521
962398915
962405412
962406109
962422751
962434286
962458511
962469039
962470586
962472231
962480288
962495643
962499018
962520175
962525286
962540387
962545073
962553887
962564872
962564818
962565523
962567457
962582790
962603311
962607894
962618598
962624934
962626875
962668336
962684226
962692694
962696038
962710058
962717852
962720624
962723731
962732503
962733780
962738382
962742274
962744834
962759235
962762562
