640000786
640002118
640003056
640003522
640003486
640003522
640003486
640003522
640005552
640005397
640005747
640000786
640002118
640003056
640003486
640003522
640005397
640005747
640005552
640005909
640006152
640006256
640006195
640006437
640007056
640007411
640007535
640007608
640008672
1200000599
610017034
610028079
610045521
610077084
610083921
610104550
610134707
610137146
610138750
610156377
610179298
610188393
610234997
610259127
610267765
610277876
610310449
610318047
610326054
610421601
610424546
610427246
610432716
610432862
610432741
610433541
610466096
610469948
610481430
610512726
610527069
610534359
610544700
610598314
610602347
610606409
610614559
610615561
610635440
610638191
610666518
610672590
610678559
610684120
610685703
610697627
610729445
610730152
