730019599
730024995
730041842
1600000524
1600000808
1600000930
1600001125
1600001125
1600001223
1600001223
1600001309
1600001422
1600001466
1600001550
1600002760
1600002822
1600004323
1600004524
1600004889
1600005020
1600005020
1600005020
1600005020
1600005237
1600005237
1600005274
1600005237
1600005467
1600005370
1600005370
1600005545
1600006215
1600006538
1600007058
1600007277
730041842
730084748
730084787
730089772
731038532
730101823
731051422
730124043
730130663
731084841
731094389
730163839
730166755
730172282
731112048
730178234
731126749
730201834
730206315
730229501
731168902
730253510
730255922
731188130
730272690
731202348
730283428
731226723
731230244
731235073
731239469
730317898
731248847
730327026
730338114
731265972
731266143
731548188
730425543
730436845
731579432
731579227
730445919
730459438
731621878
730481398
731623753
731652877
731657825
731658491
731666473
731703109
730529579
731739532
731744156
730560273
731761508
730589072
731790079
731814361
730624116
731831261
731833654
731834643
731848526
731853385
730660098
730670563
731869605
730680192
731906706
731920336
731929067
731929841
731951313
731954735
731958811
730721330
730728477
732034165
732035064
730743404
730766668
732072055
730779947
730792495
730796950
732112237
730816419
1600000524
1600000808
1600001223
1600001125
1600001466
1600001550
1600001309
1600001422
1600000930
1600002822
1600004323
1600004524
1600004889
1600005020
1600005370
1600005467
1600005237
1600005545
1600006215
1600006538
1600007058
1600007277
1600007745
1600008226
1600009081
1600010055
1600010487
1600010648
1600010907
1600011434
1600011704
1600011786
1600011241
1600012644
1600012722
1600013377
1600013438
1600013719
1600014042
1600014066
1600014813
1600017200
1600017328
1600017335
1600017337
1600018453
1600018515
1600018697
1600018830
1600020306
1600020868
1600021171
1600021771
1600022752
1600023848
1600024092
1600024183
1600024537
1600024724
1600025110
1600025298
1600025654
1600026085
1600027238
1600027469
1600027814
1600028057
1600028453
1600028521
1600029009
1600029440
1600029672
1600029855
1600031229
1600031291
1600031597
1600032005
1600032378
1600032421
1600032878
1600033350
1600033443
1600034041
1600034120
1600034511
1600035209
1600035381
1600035770
1600036050
1600036173
1600036305
1600037876
1600037975
1600037988
1600038128
1600038144
1600038268
1600038899
1600038883
1600040982
1600041252
1600042041
1600042281
1600043160
1600044050
1600044753
1600045054
1600045138
1600045529
1600047616
1600047836
1600047926
1600048789
1600048631
1600049366
1600050105
1600050650
1600050805
1600051128
1600051257
1600051815
1600051823
1600052080
1600052990
1600053438
1600054271
1600055417
1600055856
1600057192
1600057310
1600057954
1600057478
1600058099
1600058287
1600058646
1600058491
1600058817
1600058834
1600059169
1600059254
1600059804
1600060427
1600060519
1600060295
1600060815
1600061561
1600061599
1600062318
1600062522
1600062651
1600062641
1600062655
1600062824
1600062728
1600063083
1600063336
1600063957
1600064063
1600064332
1600065498
1600065697
1600065874
1600067455
1600067749
1600069947
1600070083
1600070055
1600070858
1600071037
1600071049
1600072611
1600073252
1600074123
1600074559
1600074656
1600076217
1600076695
1600077083
1600077286
1600077962
1600081430
1600081668
1600082286
1600082386
1600082521
1600082839
1600083097
1600083674
1600085694
1600085946
1600086627
1600087341
1600087673
1600087710
1600087873
1600087916
1600088606
1600089021
1600089862
1600090250
1600090354
1600090386
1600091396
1600091764
1600092268
1600093417
1600093983
1600094212
1600094357
1600095475
1600094380
1600095735
1600096040
1600096644
1600097047
1600098051
1600098034
1600098173
1600098698
1600099285
1600099348
1600099368
1600100363
1600101318
1600101350
1600101851
1600102196
1600102065
1600102488
1600102894
1600103645
1600104205
1600104256
1600104314
1600107296
1600107463
1600107785
1600108189
1600108551
1600108932
1600109324
1600109660
1600109804
1600110069
1600110070
1600110328
1600111213
1600111412
1600112190
1600112560
1600114286
1600114676
1600116064
1600116616
1600116942
1600117182
1600117226
1600117253
1600117295
1600117494
1600117613
1600118023
1600119254
1600119870
1600120158
1600120867
1600120946
1600121247
1600122906
1600123042
1600123056
1600125012
1600126090
1600127541
1600128924
1600129387
1600130304
1600131451
1600131620
1600132318
1600132809
1600133479
1600134056
1600134651
1600135325
1600136508
1600136945
1600137046
1600137234
1600137716
1600137729
1600137902
1600138116
1600138705
1600138848
1600138809
1600138955
1600139075
1600141073
1600141855
1600141870
1600142276
1600142282
1600143073
1600143573
1600144157
1600144793
1600144976
1600145248
1600145296
1600147799
1600148225
1600150219
1600150432
1600151049
1600151126
1600151496
1600151977
1600152720
1600152960
1600153364
1600153458
1600153499
1600152802
1600153786
1600154018
1600154244
1600154710
1600154810
1600155384
1600156152
1600157594
1600158032
1600158799
1600159020
1600159902
1600160119
1600160664
1600161950
1600162314
1600163207
1600163682
1600164175
1600164649
1600166001
1600166049
1600166166
1600166760
1600168158
1600168167
1600168816
1600169007
1600169033
1600170181
1600170362
1600172810
1600173245
1600173620
1600174101
1600174286
1600174856
1600177594
1600177960
1600178249
1600179505
1600179696
1600180275
1600181213
1600181219
1600181475
1600182512
1600182839
1600182900
1600183558
1600183668
1600184155
1600185037
1600186051
1600186016
1600186841
1600187810
1600190160
1600190897
1600191328
1600191594
1600192532
1600193365
1600193340
1600193810
1600193824
1600193639
1600194117
1600194182
1600194515
1600194700
1600194712
1600196617
1600197367
1600197203
1600198183
1600198265
1600198398
1600198557
1600198787
1600198901
1600201952
1600204493
1600205304
1600205232
1600205510
1600205766
1600205923
1600206239
1600206284
1600206902
1600207022
1600208134
1600208889
1600209296
1600209861
1600209856
1600211534
1600212171
1600212545
1600213235
1600213453
1600213570
1600214003
1600214117
1600214355
1600214859
1600216821
1600217995
1600218546
1600219872
1600221361
1600223017
1600223283
1600223760
1600223960
1600225349
1600225627
1600226387
1600226920
1600227055
1600227417
1600228546
1600228961
1600229261
1600229753
1600230199
1600230377
1600230649
1600230700
1600231453
1600232043
1600232126
1600232426
1600232762
1600232723
1600232913
1600234581
1600234813
1600234842
1600235015
1600235273
1600237196
1600237669
1600237944
1600238482
1600239233
1600239343
1600239518
1600239757
1600239741
1600239709
1600241566
1600242762
1600242899
1600243327
1600243304
1600243934
1600244515
1600246244
1600247139
1600247568
1600247769
1600247864
1600248495
1600248616
1600248544
1600248852
1600248896
1600249737
1600250208
1600251101
1600251119
1600251278
1600251532
1600251961
1600252236
1600252742
1600253178
1600253298
1600253649
1600254399
1600255549
1600255996
1600256167
1600256819
1600257110
1600257972
1600258396
1600258740
1600259155
1600259338
1600259467
1600259980
1600261607
1600261678
1600261781
1600262042
1600262128
1600263286
1600263860
1600264258
1600264652
1600265840
1600266125
1600266149
1600266301
1600266523
1600266525
1600267187
1600267885
1600267679
1600268060
1600268223
1600268216
1600268264
1600268686
1600268732
1600269802
1600271426
1600273112
1600273237
1600273575
1600273624
1600273765
1600273954
1600275180
1600276011
1600276251
1600276833
1600277406
1600277714
1600277891
1600278243
1600278282
1600278939
1600279008
1600279301
1600279601
1600281647
1600281752
1600282945
1600283414
1600283669
1600283880
1600284172
1600284547
1600285466
1600285652
1600285933
1600286199
1600288049
1600288102
1600288410
1600288832
1600289045
1600289485
1600289593
1600289828
1600290747
1600290796
1600291488
1600291615
1600291855
1600291967
1600294061
1600295307
1600295447
1600295364
1600296197
1600297194
1600299055
1600299486
1600299846
1600300920
1600300811
1600301272
1600301278
1600301710
1600302472
1600302668
1600304083
1600304551
1600305166
1600305217
1600305591
1600305898
1600305922
1600306156
1600307963
1600308023
1600308379
1600308055
1600309413
1600309436
1600309470
1600309841
1600310335
1600310576
1600310732
1600311765
1600312130
1600312331
1600312878
1600312977
1600312912
1600313660
1600313981
1600314196
1600314098
1600314804
1600315216
1600315302
1600315993
1600316404
1600316741
1600317024
1600318306
1600319071
1600319634
1600320042
1600320165
1600320275
1600321223
1600322175
1600322815
1600323028
1600323153
1600325133
1600326055
1600326521
1600326709
1600326745
1600326933
1600327148
1600327376
1600327904
1600328970
1600329462
1600329922
1600329898
1600330180
1600330737
1600331896
1600332974
1600335232
1600336256
1600336440
1600337352
1600338312
1600338742
1600338777
1600339281
1600339334
1600339792
1600340915
1600341930
1600342542
1600342972
1600343281
1600343810
1600344355
1600345171
1600345486
1600345685
1600345435
1600345944
1600346131
1600346357
1600346551
1600346586
1600346730
1600346833
1600347144
1600347532
1600348136
1600348443
1600349877
1600349955
1600351803
1600352116
1600352383
1600352880
1600353142
1600353292
1600354200
1600354237
1600354447
1600355042
1600355282
1600355341
1600355397
1600355804
1600356108
1600356370
1600357851
1600357979
1600358594
1600358592
1600358670
1600358931
1600359242
1600360601
1600361071
1600361483
1600361860
1600361995
1600362085
1600362743
1600363868
1600364327
1600364450
1600365033
1600365490
1600365954
1600365978
1600366262
1600366321
1600366389
1600367476
1600367497
1600367708
1600368094
1600370369
1600370448
1600370559
1600370620
1600370822
1600371006
1600371350
1600371817
1600372402
1600372899
1600373491
1600373467
1600373835
1600373953
1600374224
1600374858
1600374987
1600375954
1600376530
1600377051
1600377755
1600377989
1600378103
1600378117
1600379050
1600379298
1600379610
1600379668
1600380085
1600380475
1600380764
1600381070
1600382490
1600383163
1600383970
1600385617
1600385683
1600387264
1600387704
1600387927
1600388017
1600388286
1600388279
1600388421
1600389276
1600390154
1600391590
1600391801
1600391840
1600392070
1600392178
1600392289
1600392371
1600393062
1600393623
1600393983
1600394622
1600394618
1600395784
1600396431
1600397846
1600397912
1600398040
1600398095
1600398217
1600398684
1600398595
1600399331
1600399666
1600399702
1600399686
1600400550
1600401006
1600401613
1600401944
1600401968
1600402387
1600402563
1600403568
1600403672
1600406191
1600406965
1600407295
1600407282
1600408594
1600408824
1600408910
1600409003
1600409124
1600409104
1600409574
1600410063
1600410261
1600410600
1600410615
1600410810
1600411161
1600411186
1600411348
1600411793
1600412670
1600412745
1600412800
1600413698
1600413874
1600414215
1600414902
1600415244
1600415271
1600416245
1600416371
1600417926
1600418133
1600418601
1600418726
1600419717
1600420985
1600421021
1600421849
1600422014
1600422604
1600422935
1600424270
1600424581
1600425895
1600426045
1600427177
1600428909
1600429564
1600429654
1600430273
1600431345
1600431189
1600431953
1600432171
1600433370
1600433843
1600434089
1600435213
1600436405
1600436371
1600437298
1600437165
1600437380
1600438014
1600438488
1600438855
1600438832
1600440194
1600440699
1600441090
1600441291
1600441669
1600441552
1600442060
1600442711
1600444017
1600444586
1600444668
1600445146
1600445475
1600445671
1600445864
1600447849
1600448454
1600448518
1600448938
1600449105
1600449301
1600451198
1600451339
1600451641
1600451982
1600452386
1600453426
1600453635
1600453726
1600454158
1600456023
1600456136
1600456188
1600456205
1600456302
1600457122
1600457836
1600458045
1600458447
1600458554
1600459144
1600459512
1600459600
1600460268
1600460927
1600461005
1600461100
1600461600
1600462189
1600462351
1600462400
1600462792
1600463349
1600463618
1600463829
1600464031
1600464313
1600466089
1600466533
1600466755
1600466945
1600467406
1600467890
1600467965
1600468526
1600470053
1600470444
1600471036
1600471403
1600471647
1600471764
1600472036
1600472218
1600472624
1600472743
1600473240
1600474000
1600474862
1600475560
1600476787
1600477206
1600477912
1600478092
1600478189
1600478769
1600478858
1600479212
1600479489
1600479547
1600480134
1600481821
1600481928
1600482250
1600482325
1600482799
1600483125
1600484182
1600484189
1600484363
1600485216
1600485246
1600486212
1600486510
1600486634
1600487088
1600488258
1600488469
1600488730
1600489040
1600489182
1600489458
1600490360
1600490968
1600491281
1600492027
1600492178
1600492695
1600493791
1600493929
1600494518
1600494588
1600496370
1600497363
1600497417
1600497665
1600498804
1600498880
1600498972
1600499851
1600499906
1600499882
1600499894
1600501967
1600502277
1600503540
1600503735
1600503731
1600504086
1600504567
1600505118
1600505165
1600505307
1600506355
1600506870
1600508998
1600509005
1600509258
1600509955
1600509998
1600510106
1600511096
1600511158
1600512237
1600512351
1600513109
1600515049
1600515082
1600515115
1600515737
1600516154
1600516179
1600516101
1600516390
1600519515
1600521048
1600521351
1600521453
1600521903
1600522954
1600522951
1600523310
1600523479
1600523787
1600523774
1600524109
1600524245
1600524677
1600525029
1600525394
1600525486
1600525506
1600525603
1600526104
1600527660
1600527974
1600528063
1600528624
1600530480
1600530520
1600531929
1600533763
1600533987
1600534678
1600535056
1600534999
1600535233
1600534907
1600535389
1600535844
1600536818
1600537506
1600538182
1600538365
1600538667
1600538697
1600539563
1600541295
1600542225
1600542231
1600542737
1600543426
1600543593
1600544198
1600544107
1600545588
1600545992
1600546823
1600547074
1600547339
1600547522
1600548020
1600548705
1600548786
1600549030
1600549115
1600550383
1600550691
1600550833
1600550931
1600551666
1600551928
1600551949
1600552130
1600552196
1600552178
1600553134
1600553428
1600553763
1600555056
1600555128
1600555159
1600555445
1600556114
1600556850
1600557250
1600558587
1600558767
1600558894
1600559073
1600559242
1600560403
1600560587
1600560644
1600560832
1600561503
1600561821
1600562173
1600562572
1600562717
1600563539
1600563534
1600564218
1600564569
1600564609
1600565945
1600566698
1600566820
1600566813
1600567700
1600568252
1600570043
1600570126
1600570845
1600571017
1600571530
1600572331
1600572417
1600572869
1600573086
1600573198
1600573582
1600574200
1600574339
1600574833
1600575093
1600575619
1600575637
1600576027
1600576850
1600577905
1600578850
1600579629
1600580068
1600580882
1600581597
1600581958
1600581803
1600582134
1600582125
1600582667
1600582747
1600582851
1600583100
1600583526
1600583979
1600584563
1600585629
1600585762
1600586081
1600586372
1600586224
1600586885
1600586975
1600587011
1600587203
1600587561
1600588921
1600590569
1600590799
1600591192
1600592471
1600592781
1600593098
1600594433
1600595982
1600597048
1600597236
1600597775
1600598504
1600598540
1600599977
1600600040
1600600323
1600601779
1600601731
1600603811
1600604265
1600604592
1600604751
1600605074
1600605397
1600609650
1600610307
1600610630
1600610947
1600611009
1600611098
1600611479
1600611660
1600612090
1600612559
1600612894
1600612936
1600613285
1600613393
1600613467
1600613703
1600615043
1600615845
1600616320
1600616703
1600616752
1600617205
1600617636
1600617957
1600618687
1600618686
1600619097
1600619740
1600619765
1600620138
1600620993
1600622075
1600622443
1600622675
1600622796
1600623436
1600623647
1600623876
1600624248
1600624583
1600624910
1600625302
1600625411
1600625933
1600627022
1600627662
1600628656
1600628932
1600630847
1600631079
1600631181
1600631441
1600631495
1600631624
1600631434
1600631575
1600632749
1600633056
1600633250
1600633463
1600634353
1600634378
1600634392
1600634606
1600634566
1600634924
1600634918
1600635289
1600636153
1600636330
1600636840
1600636871
1600638358
1600638891
1600639922
1600640071
1600640751
1600641775
1600642095
1600642238
1600643177
1600643804
1600644491
1600644872
1600645351
1600646223
1600645932
1600646612
1600646761
1600647145
1600647451
1600648116
1600648905
1600648953
1600649023
1600649341
1600650602
1600651676
1600652403
1600652372
1600652697
1600652859
1600653353
1600653440
1600654585
1600655016
1600655442
1600655808
1600655859
1600657044
1600658051
1600658284
1600659325
1600659748
1600660549
1600660582
1600660716
1600662037
1600662141
1600662509
1600662821
1600662931
1600665401
1600665505
1600665416
1600666529
1600667520
1600668083
1600668120
1600668385
1600668681
1600669103
1600670097
1600670335
1600671281
1600671568
1600672283
1600672968
1600673226
1600674484
1600674570
1600674770
1600674952
1600675151
1600675443
1600675453
1600675870
1600675828
1600676129
1600676268
1600676295
1600677210
1600677520
1600677565
1600677597
1600678854
1600678976
1600679096
1600679987
1600679944
1600680192
1600680316
1600680919
1600681077
1600681140
1600681503
1600682549
1600682729
1600683777
1600683924
1600684284
1600684350
1600685426
1600685750
1600685996
1600686317
1600687500
1600687762
1600687957
1600687754
1600683053
1600688600
1600689321
1600690083
1600690251
1600690651
1600691284
1600691457
1600691600
1600693167
1600693500
1600693481
1600695627
1600695966
1600696237
1600696635
1600696687
1600696902
1600697779
1600697726
1600697991
1600699199
1600699420
1600699935
1600700437
1600701191
1600701816
1600702703
1600702803
1600703522
1600704068
1600705200
1600705533
1600705833
1600706066
1600706175
1600706905
1600707898
1600707921
1600708714
1600709981
1600709969
1600710164
1600710495
1600710826
1600710862
1600711107
1600711398
1600711787
1600713171
1600713407
1600714838
1600715108
1600715097
1600715601
1600717043
1600717677
1600718426
1600718486
1600718996
1600719221
1600720039
1600720174
1600720267
1600722337
1600722604
1600723538
1600723634
1600723652
1600724310
1600724439
1600725199
1600725731
1600725790
1600726105
1600726247
1600727056
1600728012
1600728558
1600728703
1600728854
1600729219
1600729621
1600729721
1600729679
1600730563
1600731066
1600731396
1600731918
1600733250
1600733332
1600733559
1600733673
1600733676
1600733783
1600734640
1600734755
1600734936
1600735304
1600735673
1600735964
1600735994
1600736101
1600736078
1600737173
1600738705
1600739562
1600740475
1600740484
1600741016
1600741584
1600742210
1600742764
1600742907
1600743627
1600743632
1600744026
1600743990
1600744008
1600744245
1600744446
1600744731
1600744928
1600744986
1600745319
1600745687
1600746538
1600746678
1600747864
1600748523
1600748914
1600749523
1600750379
1600751052
1600753131
1600753474
1600754570
1600754571
1600754803
1600755400
1600755453
1600755732
1600757030
1600757889
1600759879
1600760065
1600760251
1600760356
1600761440
1600762075
1600762183
1600762412
1600762549
1600762520
1600762878
1600763070
1600764222
1600764600
1600765166
1600765742
1600767866
1600768629
1600768734
1600769344
1600769590
1600769582
1600769681
1600769629
1600770748
1600772518
1600773391
1600773540
1600773918
1600774940
1600775064
1600775052
1600775704
1600775794
1600776155
1600776224
1600777787
1600779145
1600779144
1600779336
1600779451
1600780184
1600780154
1600780426
1600780348
1600780956
1600781071
1600781090
1600781397
1600782190
1600782324
1600782728
1600782936
1600783445
1600783776
1600783990
1600784739
1600785135
1600785399
1600785592
1600785719
1600785730
1600786091
1600786905
1600786969
1600786999
1600787138
1600787629
1600788832
1600788860
1600788905
1600789521
1600789801
1600790017
1600790104
1600790758
1600793189
1600793752
1600793802
1600796157
1600796351
1600797807
1600797970
1600798546
1600800383
1600800489
1600801237
1600801470
1600801731
1600802287
1600802307
1600802731
1600802856
1600803728
1600804831
1600806329
1600806477
1600806461
1600806976
1600807701
1600807949
1600808442
1600808884
1600809898
1600810666
1600810654
1600810958
1600811147
1600812188
1600812854
1600813127
1600813176
1600813249
1600813889
1600814630
1600814795
1600816408
1600816916
1600816992
1600816977
1600817470
1600817702
1600819375
1600819432
1600820060
1600820072
1600820854
1600821273
1600821608
1600821855
1600822178
1600823205
1600823571
1600823728
1600824647
1600825849
1600826295
1600826394
1600826788
1600827437
1600828262
1600828375
1600828468
1600828730
1600829819
1600829932
1600829886
1600830208
1600831132
1600831319
1600831322
1600831948
1600831974
1600832096
1600832159
1600832261
1600832723
1600833428
1600833576
1600833830
1600834752
1600834957
1600835207
1600835280
1600837328
1600837786
1600838231
1600838566
1600840545
1600840711
1600841700
1600842331
1600842632
1600842811
1600843315
1600843452
1600843676
1600844272
1600844670
1600844975
1600845383
1600845507
1600845997
1600846439
1600846840
1600847033
1600847540
1600847609
1600847827
1600848037
1600848118
1600848071
1600848006
1600848770
1600849000
1600849233
1600839706
1600850210
1600850308
1600851673
1600851943
1600853462
1600853616
1600854060
1600854190
1600856286
1600856522
1600856859
1600856842
1600857421
1600857778
1600858747
1600858910
1600858608
1600859025
1600859650
1600860361
1600860616
1600861515
1600861979
1600862519
1600862984
1600863092
1600864761
1600865500
1600866200
1600866262
1600867647
1600868126
1600868183
1600868627
1600870544
1600870756
1600871408
1600871919
1600872134
1600875078
1600875123
1600875924
1600877203
1600877707
1600877834
1600878166
1600878561
1600878840
1600879013
1600880405
1600880491
1600881213
1600881624
1600881935
1600882347
1600883867
1600884591
1600885525
1600885869
1600887121
1600889066
1600889206
1600889497
1600889827
1600890394
1600890576
1600891014
1600891212
1600892165
1600892713
1600893230
1600893414
1600895722
1600896354
1600896739
1600897606
1600897929
1600898743
1600899352
1600899624
1600899890
1600900044
1600900816
1600901010
1600901261
1600902045
1600902496
1600902721
1600902689
1600903773
1600903765
1600904535
1600904551
1600906641
1600906790
1600907439
1600907878
1600908059
1600908937
1600909184
1600909800
1600909807
1600909856
1600910407
1600910871
1600910894
1600910920
1600911980
1600912050
1600912757
1600913097
1600913273
1600913400
1600913923
1600914256
1600914805
1600915378
1600916541
1600919222
1600919338
1600920108
1600920320
1600920937
1600922089
1600922272
1600922014
1600922775
1600923196
1600923730
1600923761
1600923819
1600924756
1600924948
1600925766
1600926005
1600926283
1600927374
1600928112
1600928639
1600928654
1600928855
1600929597
1600931185
1600931783
1600932034
1600932140
1600933079
1600933367
1600933834
1600934338
1600934561
1600934800
1600937328
1600938300
1600938834
1600939672
1600939680
1600939915
1600939778
1600939979
1600940125
1600940971
1600941802
1600941827
1600942297
1600942831
1600942855
1600943186
1600943328
1600943108
1600944331
1600944458
1600945376
1600945455
1600945427
1600945632
1600945863
1600945953
1600945931
1600947462
1600948153
1600948318
1600949026
1600949121
1600949347
1600949417
1600952089
1600952496
1600952853
1600953210
1600953265
1600954267
1600955156
1600955390
1600956197
1600956304
1600956374
1600956468
1600956604
1600956821
1600957010
1600957083
1600957077
1600957522
1600957481
1600958055
1600958805
1600959320
1600960272
1600960300
1600960190
1600960774
1600961045
1600961442
1600962056
1600962082
1600962397
1600963291
1600963805
1600963893
1600964050
1600964821
1600965012
1600967163
1600967641
1600968353
1600968758
1600968937
1600969709
1600970986
1600971173
1600971541
1600972421
1600972728
1600972857
1600973588
1600973583
1600973702
1600974312
1600974315
1600975584
1600975647
1600975745
1600976777
1600976851
1600977447
1600978101
1600979131
1600979738
1600979959
1600981500
1600982279
1600982378
1600983146
1600983105
1600984429
1600984828
1600984845
1600984953
1600985023
1600985278
1600986107
1600987049
1600987928
1600988931
1600989055
1600989763
1600989877
1600990619
1600990810
1600991298
1600992994
1600993145
1600994910
1600995154
1600995829
1600996179
1600996518
1600996539
1600996690
1600996917
1600996939
1600997219
1600997300
1600997723
1600997951
1600998609
1600998893
1600999189
1600999184
1600999316
1600999405
1601000629
1601001135
1601001186
1601001491
1601001485
1601001725
1601001664
1601002139
1601002303
1601003280
1601004557
1601004894
1601004974
1601005151
1601005287
1601006661
1601008535
1601009115
1601009532
1601009755
1601009743
1601010130
1601010444
1601010446
1601010529
1601010576
1601010572
1601010679
1601010925
1601011686
1601012515
1601012662
1601013194
1601014959
1601015778
1601015857
1601017584
1601017874
1601018068
1601019078
1601018671
1601019252
1601019390
1601020138
1601020876
1601020928
1601021873
1601022072
1601022163
1601024478
1601024668
1601024684
1601025707
1601027536
1601028374
1601028334
1601028982
1601029166
1601029350
1601029355
1601029331
1601029676
1601029819
1601029873
1601030531
1601032523
1601032816
1601032879
1601033050
1601033477
1601033537
1601035832
1601037076
1601037447
1601037784
1601037820
1601038168
1601038416
1601038659
1601039162
1601040203
1601040014
1601041142
1601041591
1601041858
1601043192
1601043600
1601043729
1601043882
1601044150
1601044293
1601044715
1601044762
1601045340
1601045822
1601046083
1601046121
1601046524
1601047529
1601047870
1601048341
1601048545
1601049164
1601049103
1601050313
1601050797
1601050844
1601051276
1601051357
1601052170
1601052068
1601052566
1601052863
1601053346
1601053951
1601054149
1601054901
1601056223
1601056765
1601056816
1601057168
1601057365
1601057864
1601058052
1601058263
1601058524
1601058799
1601059907
1601060953
1601061407
1601062752
1601063228
1601063480
1601063901
1601064360
1601064556
1601064840
1601065095
1601065580
1601066193
1601068811
1601069024
1601069074
1601069232
1601069578
1601069814
1601070694
1601070879
1601071878
1601072147
1601072237
1601072413
1601072812
1601073145
1601074852
1601075402
1601075618
1601075730
1601076030
1601076128
1601076313
1601076439
1601078483
1601078482
1601078473
1601078979
1601079326
1601079624
1601080676
1601081919
1601081980
1601082653
1601082968
1601083124
1601083228
1601083754
1601085181
1601085561
1601085640
1601085858
1601086216
1601086644
1601086963
1601087154
1601087361
1601087915
1601088006
1601088731
1601089604
1601089875
1601093699
1601094141
1601094475
1601094515
1601095068
1601095846
1601095833
1601096197
1601096455
1601096649
1601097639
1601097838
1601098047
1601098062
1601098930
1601099386
1601100320
1601100403
1601100992
1601101316
1601101740
1601102078
1601102848
1601102807
1601103430
1601103611
1601103557
1601103776
1601103753
1601105733
1601106005
1601106425
1601106483
1601107213
1601108162
1601108290
1601108364
1601110126
1601111335
1601111641
1601112216
1601112324
1601113319
1601114370
1601114418
1601114965
1601115433
1601115507
1601115787
1601116752
1601117683
1601118436
1601118735
1601119021
1601119184
1601119633
1601120160
1601120262
1601121166
1601121517
1601121697
1601121999
1601122306
1601122417
1601122426
1601122486
1601123547
1601123688
1601125021
1601124954
1601125510
1601125742
1601126851
1601127138
1601127241
1601127711
1601128604
1601128739
1601129796
1601130186
1601131018
1601131824
1601132915
1601133067
1601133150
1601133184
1601133272
1601133918
1601134041
1601135228
1601135644
1601137069
1601137116
1601137389
1601137485
1601137587
1601137639
1601137977
1601138176
1601138174
1601138235
1601138826
1601139140
1601139632
1601139769
1601139857
1601140176
1601140277
1601140563
1601140900
1601141726
1601141949
1601142719
1601143464
1601144589
1601144587
1601144838
1601145012
1601145297
1601145544
1601146851
1601148152
1601148397
1601149611
1601150511
1601150585
1601151096
1601152054
1601152451
1601152915
1601153126
1601153225
1601153402
1601154357
1601154926
1601155368
1601155427
1601155384
1601156134
1601156183
1601155980
1601156588
1601156692
1601157241
1601157017
1601157402
1601158313
1601158870
1601160162
1601161273
1601161322
1601161406
1601161641
1601161646
1601161876
1601162154
1601162294
1601162492
1601162609
1601162728
1601162609
1601162888
1601163604
1601164439
1601165294
1601165527
1601166197
1601166426
1601167863
1601168204
1601168761
1601169108
1601169218
1601169317
1601169277
1601169362
1601169737
1601170776
1601170974
1601171050
1601171066
1601171751
1601172036
1601172687
1601173106
1601173314
1601173606
1601173670
1601173931
1601173994
1601174335
1601175086
1601175534
1601175590
1601175761
1601176138
1601176582
1601177973
1601177988
1601178526
1601178892
1601179145
1601179494
1601179759
1601180825
1601181593
1601182289
1601182657
1601183376
1601183419
1601183846
1601186751
1601186802
1601188013
1601188273
1601189542
1601189029
1601189783
1601190582
1601191078
1601191307
1601191525
1601191736
1601192938
1601193225
1601194248
1601194322
1601194315
1601194777
1601195233
1601195818
1601196245
1601197009
1601197247
1601197736
1601197864
1601199337
1601199496
1601200005
1601200317
1601200864
1601201402
1601201477
1601202435
1601202517
1601202575
1601202970
1601203376
1601204363
1601204389
1601204624
1601205972
1601206170
1601206246
1601207328
1601207201
1601207359
1601207422
1601208003
1601208210
1601208010
1601208918
1601209041
1601209215
1601209855
1601210589
1601210562
1601210931
1601211116
1601212872
1601212938
1601213129
1601214101
1601214197
1601214264
1601214344
1601215038
1601215762
1601216055
1601216192
1601217344
1601217309
1601217368
1601218289
1601218330
1601218465
1601219647
1601219702
1601219881
1601220444
1601220814
1601220526
1601220985
1601221468
1601221901
1601223684
1601224422
1601225259
1601225391
1601225895
1601226537
1601226681
1601227595
1601228103
1601227965
1601228223
1601228452
1601230041
1601233049
1601233384
1601233725
1601234448
1601235840
1601236237
1601236323
1601236865
1601236903
1601237335
1601237555
1601237842
1601238568
1601239634
1601239618
1601240524
1601241358
1601241626
1601241668
1601242407
1601242402
1601242649
1601243782
1601243914
1601244967
1601245945
1601245983
1601246123
1601246359
1601246443
1601246491
1601247132
1601247896
1601248479
1601249480
1601249878
1601250641
1601251031
1601251239
1601251295
1601251968
1601252226
1601252802
1601253193
1601253165
1601253691
1601253938
1601253987
1601253973
1601254018
1601254264
1601254651
1601254708
1601254863
1601255214
1601255495
1601256216
1601257333
1601259515
1601259663
1601260205
1601260411
1601260984
1601261220
1601261624
1601264631
1601265772
1601268559
1601269743
1601271341
1601271894
1601273377
1601274195
1601274592
1601275291
1601275316
1601275454
1601276283
1601276545
1601277345
1601280377
1601280789
1601281421
1601282412
1601282858
1601283215
1601283455
1601284904
1601284998
1601285505
1601286868
1601287197
1601288339
1601288649
1601288808
1601289457
1601290558
1601291005
1601292061
1601292094
1601292177
1601292495
1601292757
1601292715
1601293046
1601293321
1601293530
1601294748
1601294842
1601295136
1601295742
1601295977
1601296338
1601297075
1601297194
1601297654
1601299237
1601299486
1601299772
1601299889
1601300815
1601302198
1601302786
1601302763
1601302977
1601303296
1601304728
1601304940
1601305804
1601307163
1601307933
1601308093
1601308303
1601308355
1601308817
1601309285
1601310555
1601311356
1601311702
1601311865
1601312727
1601313532
1601313735
1601314224
1601314322
1601314760
1601315039
1601315216
1601315274
1601316713
1601316674
1601317142
1601318100
1601318461
1601318722
1601319795
1601320166
1601320925
1601320887
1601320985
1601321266
1601321378
1601321657
1601321718
1601321622
1601322445
1601322456
1601323445
1601324298
1601324809
1601325232
1601325502
1601325579
1601325942
1601327072
1601327424
1601327550
1601327678
1601329492
1601329773
1601329765
1601330260
1601330411
1601331566
1601333539
1601333616
1601333693
1601334236
1601334159
1601335758
1601336628
1601337633
1601338154
1601338750
1601338799
1601338964
1601339051
1601339206
1601339703
1601339770
1601340097
1601341151
1601341486
1601341522
1601341528
1601341715
1601343251
1601344391
1601344757
1601345754
1601345665
1601347027
1601347994
1601349156
1601349581
1601349794
1601350341
1601350359
1601350656
1601350868
1601351335
1601351620
1601351716
1601352944
1601353783
1601354843
1601354958
1601355835
1601356770
1601357528
1601358678
1601358854
1601359371
1601359757
1601360941
1601361316
1601361715
1601362216
1601363589
1601364316
1601365184
1601365448
1601366320
1601366566
1601367137
1601367464
1601368047
1601368369
1601369323
1601370225
1601370613
1601370882
1601370927
1601371577
1601371547
1601371765
1601371868
1601372149
1601372376
1601373524
1601374401
1601374349
1601375264
1601375951
1601376273
1601377408
1601377451
1601377791
1601378129
1601378908
1601379032
1601381408
1601382941
1601383775
1601383919
1601384180
1601384222
1601384310
1601384513
1601384578
1601386503
1601386818
1601387822
1601388611
1601388995
1601389272
1601389756
1601390549
1601390660
1601391655
1601391826
1601392576
1601392588
1601392995
1601393266
1601393776
1601393982
1601394075
1601394213
1601394604
1601395423
1601396652
1601398359
1601398978
1601400864
1601401085
1601401345
1601401360
1601401882
1601401884
1601402164
1601402705
1601402798
1601402997
1601404161
1601404955
1601405039
1601404915
1601405066
1601405411
1601405668
1601405722
1601406095
1601406258
1601406637
1601409722
1601409779
1601410115
1601410026
1601410451
1601411159
1601411913
1601412421
1601412587
1601412861
1601413346
1601413794
1601414511
1601414705
1601414928
1601415790
1601416113
1601416982
1601418231
1601418398
1601418457
1601418677
1601418581
1601419026
1601419762
1601419924
1601420601
1601420884
1601420975
1601421022
1601421217
1601422078
1601423265
1601423351
1601424239
1601425469
1601427516
1601428234
1601428237
1601429691
1601430654
1601430569
1601431669
1601431824
1601431941
1601431986
1601432294
1601432827
1601434047
1601434011
1601434291
1601434524
1601435728
1601435765
1601436457
1601436530
1601436706
1601437051
1601437548
1601437786
1601437848
1601438684
1601439234
1601439431
1601440942
1601441189
1601441572
1601441937
1601442038
1601442609
1601442856
1601443124
1601443561
1601443958
1601443998
1601444114
1601446688
1601446967
1601446741
1601448056
1601448769
1601448892
1601449514
1601450571
1601451694
1601451741
1601453216
1601453165
1601454136
1601454812
1601454955
1601455172
1601455223
1601455138
1601455892
1601456069
1601456489
1601457713
1601458696
1601458905
1601459013
1601459998
1601459953
1601460075
1601461576
1601462247
1601462841
1601463303
1601463361
1601463566
1601463706
1601463789
1601463883
1601464568
1601464810
1601464792
1601466671
1601467263
1601467341
1601468127
1601468282
1601469803
1601470506
1601471223
1601471271
1601471697
1601472425
1601472500
1601473273
1601473476
1601474067
1601474154
1601475509
1601476437
1601476408
1601476742
1601478041
1601478754
1601479473
1601479478
1601479625
1601479652
1601481648
1601482967
1601483264
1601484579
1601484728
1601484838
1601484915
1601486512
1601487464
1601487845
1601488029
1601487984
1601488553
1601488956
1601489304
1601489340
1601489475
1601491135
1601491377
1601491440
1601491901
1601493137
1601493193
1601493512
1601493525
1601493759
1601495877
1601496052
1601496485
1601496519
1601496878
1601497386
1601497648
1601500237
1601500488
1601500924
1601501556
1601502640
1601503608
1601503822
1601504469
1601505289
1601506387
1601506646
1601506814
1601506832
1601506988
1601507081
1601509089
1601509655
1601510919
1601511121
1601511180
1601511305
1601511709
1601512659
1601513577
1601513731
1601513792
1601513846
1601514463
1601515084
1601515122
1601515176
1601516634
1601516969
1601517077
1601517771
1601518012
1601518088
1601518114
1601518254
1601518358
1601518885
1601519262
1601521071
1601521858
1601521908
1601521932
1601523034
1601523338
1601523404
1601523444
1601523556
1601523675
1601523796
1601523894
1601523914
1601524078
1601524029
1601524490
1601524569
1601525055
1601525321
1601525814
1601526734
1601528251
1601529186
1601529108
1601529154
1601529562
1601529641
1601530861
1601531823
1601531864
1601531905
1601532205
1601532694
1601532978
1601533577
1601534244
1601534402
1601534535
1601534577
1601534765
1601534888
1601535068
1601535156
1601535203
1601535454
1601535659
1601536003
1601537255
1601537484
1601538303
1601538466
1601539184
1601539422
1601539800
1601540104
1601541176
1601541119
1601542628
1601542987
1601543324
1601543309
1601543856
1601545061
1601545613
1601545630
1601545694
1601546559
1601547517
1601547716
1601548109
1601548119
1601548165
1601548866
1601548996
1601549224
1601549211
1601549367
1601549535
1601549864
1601550649
1601550901
1601551357
1601551613
1601551941
1601552360
1601552334
1601552744
1601553245
1601553276
1601553792
1601555363
1601555698
1601556102
1601556161
1601556709
1601556753
1601556950
1601557012
1601557252
1601557358
1601557583
1601559413
1601559606
1601559644
1601559955
1601560242
1601560238
1601560640
1601560549
1601561086
1601561382
1601561388
1601561418
1601563320
1601563500
1601562886
1601563517
1601563644
1601563646
1601564633
1601565076
1601565725
1601565753
1601566480
1601566848
1601567304
1601567891
1601568730
1601570524
1601571861
1601572057
1601572261
1601572324
1601573720
1601574401
1601575494
1601576022
1601576044
1601577088
1601577233
1601577311
1601577937
1601578499
1601579056
1601579594
1601579867
1601580255
1601580331
1601580922
1601581496
1601581793
1601582023
1601581981
1601582050
1601582130
1601582527
1601583032
1601583395
1601583415
1601583435
1601584461
1601584798
1601585038
1601585922
1601586453
1601587119
1601587981
1601588256
1601588713
1601589015
1601590069
1601590271
1601590533
1601590947
1601591656
1601594135
1601595471
1601595726
1601596040
1601596165
1601596452
1601597590
1601598435
1601598526
1601599567
1601600537
1601600739
1601601015
1601601370
1601601554
1601601602
1601602344
1601602368
1601602837
1601603155
1601604358
1601604487
1601604975
1601605022
1601605149
1601605390
1601605498
1601605678
1601606124
1601606177
1601607518
1601607668
1601608714
1601608820
1601608850
1601608966
1601609344
1601610154
1601610712
1601610887
1601611236
1601611440
1601613925
1601614256
1601614439
1601615532
1601616946
1601618136
1601618318
1601619377
1601620023
1601621213
1601621422
1601621903
1601622609
1601622750
1601622992
1601623127
1601623429
1601623499
1601624633
1601624732
1601624774
1601625646
1601625767
1601626074
1601626246
1601626464
1601626380
1601626859
1601627350
1601628958
1601629045
1601629348
1601629493
1601629517
1601630032
1601630262
1601630256
1601630599
1601631843
1601632412
1601632793
1601633374
1601633839
1601634346
1601634307
1601635635
1601636218
1601636748
1601637042
1601637204
1601637228
1601637530
1601638371
1601638720
1601639662
1601639797
1601639917
1601639996
1601639999
1601640096
1601640239
1601640314
1601640375
1601640522
1601641051
1601642183
1601642273
1601642289
1601642537
1601642686
1601642934
1601643378
1601644592
1601644620
1601646433
1601646547
1601646891
1601647218
1601647351
1601647608
1601648186
1601648551
1601649625
1601649694
1601649721
1601649655
1601652189
1601652686
1601654219
1601655046
1601655029
1601655347
1601655247
1601655473
1601658113
1601658225
1601658479
1601658952
1601659348
1601660220
1601661005
1601663143
1601663536
1601665561
1601666021
1601665971
1601666218
1601666516
1601666859
1601667028
1601667296
1601668643
1601668999
1601669214
1601669522
1601669526
1601669880
1601670519
1601673155
1601673105
1601673103
1601673966
1601677667
1601677899
1601678585
1601678761
1601680580
1601680908
1601681694
1601683111
1601684606
1601685291
1601685361
1601685468
1601685960
1601686452
1601686804
1601686937
1601687554
1601689138
1601689219
1601689425
1601689295
1601689890
1601691451
1601691811
1601691875
1601692442
1601692625
1601693344
1601694743
1601695335
1601695441
1601695463
1601696141
1601696426
1601696983
1601697111
1601697577
1601697904
1601698476
1601698894
1601699006
1601699154
1601699543
1601700048
1601700334
1601700235
1601700649
1601701154
1601701868
1601702129
1601702416
1601702906
1601703210
1601703919
1601705118
1601705645
1601705693
1601706104
1601706461
1601707927
1601707804
1601708402
1601708791
1601708924
1601709226
1601709491
1601710383
1601711377
1601711297
1601711647
1601712125
1601712323
1601712287
1601712803
1601713028
1601714268
1601714391
1601714603
1601714915
1601715060
1601715187
1601715231
1601715458
1601715683
1601715855
1601715857
1601717046
1601717476
1601717473
1601717685
1601718061
1601718019
1601718434
1601719377
1601719871
1601720169
1601721325
1601721415
1601722864
1601723178
1601723897
1601724745
1601725177
1601725848
1601725905
1601726059
1601726380
1601726037
1601727276
1601727944
1601728662
1601728818
1601729668
1601730108
1601729668
1601730955
1601731065
1601731027
1601731864
1601731920
1601732055
1601732325
1601732411
1601732570
1601733078
1600006215
1600014042
1600063083
1600097047
1603065070
1603065300
1603065423
1603065778
1603066260
1603066989
1603067328
1603067503
1603067609
1603067766
1603068524
1603069532
1603069569
1603069893
1603069948
1603070516
1603070656
1603073513
1603074215
1603074289
1603074326
1603074964
1603075322
1603075685
1603077104
1603077297
1603077244
1603078381
1603079193
1603079814
1603080250
1603080297
1603080545
1603081184
1603082156
1603083264
1603083659
1603083352
1603084292
1603084790
1603085555
1603086317
1603086580
1603087301
1603087793
1603089171
1603089249
1603089400
1603089332
1603090741
1603090948
1603090970
1603092555
1603094188
1603094809
1603095468
1603095583
1603095760
1603095592
1603096843
1603097173
1603097881
1603098709
1603099466
1603099845
1603100219
1603101247
1603101569
1603101908
1603102083
1603102312
1603102682
1603103452
1603103938
1603104259
1603104789
1603105006
1603105784
1603105833
1603105773
1603106072
1603106094
1603106405
1603107213
1603108197
1603109365
1603109400
1603109526
1603109967
1603110673
1603111376
1603111100
1603111512
1603112266
1603113156
1603113423
1603113063
1603114050
1603114527
1603115078
1603115471
1603115563
1603115623
1603115652
1603116074
1603116580
1603116455
1603116810
1603117049
1603117244
1603117979
1603117826
1603117800
1603118853
1603119119
1603119442
1603119827
1603120236
1603120278
1603121464
1603121847
1603122739
1603123106
1603124349
1603124319
1603124483
1603124171
1603124927
1603125035
1603125157
1603125164
1603125678
1603125594
1603126435
1603126514
1603126554
1603126665
1603127084
1603127250
1603127840
1603128047
1603128182
1603128806
1603129057
1603129324
1603129549
1603131022
1603131343
1603131584
1603131548
1603131779
1603131769
1603132159
1603132599
1603132681
1603132645
1603133018
1603133225
1603133444
1603133689
1603134169
1603135329
1603135454
1603135518
1603135611
1603135888
1603137479
1603138774
1603139312
1603139442
1603141099
1603141168
1603141869
1603142361
1603142622
1603142647
1603143502
1603143710
1603144523
1603144704
1603144610
1603144939
1603145120
1603145304
1603145825
1603145776
1603146044
1603147132
1603148235
1603148536
1603148592
1603148674
1603148706
1603148899
1603149409
1603149498
1603149503
1603149553
1603149877
1603150556
1603151223
1603151089
1603152218
1603155009
1603155125
1603155227
1603155292
1603155476
1603156316
1603157283
1603157629
1603158386
1603159527
1603161123
1603160742
1603163509
1603163037
1603164262
1603164350
1603164664
1603165065
1603165720
1603165928
1603166258
1603166730
1603166797
1603168302
1603170236
1603170372
1603170893
1603171565
1603171848
1603172826
1603173167
1603173446
1603174418
1603176371
1603176661
1603177204
1603179301
1603179907
1603180610
1603181000
1603179267
1603182105
1603182594
1603183105
1603183141
1603184023
1603185075
1603185673
1603185865
1603186415
1603186541
1603187048
1603188245
1603188969
1603189115
1603189079
1603189303
1603189430
1603190120
1603190419
1603191255
1603192001
1603192975
1603194099
1603194585
1603194556
1603196083
1603196050
1603196174
1603196530
1603196940
1603197992
1603198277
1603198750
1603199100
1603200493
1603200813
1603201107
1603201382
1603202126
1603202172
1603202568
1603203798
1603204126
1603204368
1603205855
1603206301
1603205797
1603206588
1603206994
1603208057
1603208194
1603208274
1603208381
1603208535
1603210526
1603211464
1603211675
1603212211
1603212445
1603212506
1603212813
1603213122
1603213269
1603213844
1603214088
1603214372
1603214618
1603216091
1603217121
1603217414
1603216698
1603217538
1603218862
1603219430
1603219650
1603220478
1603220419
1603221039
1603221262
1603221775
1603222056
1603223015
1603223178
1603223131
1603224024
1603224156
1603224211
1603224755
1603225947
1603226628
1603227055
1603227495
1603228251
1603228451
1603229685
1603229843
1603230319
1603231013
1603231061
1603231242
1603231950
1603231864
1603232924
1603232936
1603233169
1603233941
1603233896
1603234315
1603236829
1603236783
1603236930
1603237698
1603237927
1603238218
1603239199
1603241287
1603241273
1603241573
1603241926
1603242151
1603242339
1603242636
1603242234
1603243597
1603244799
1603245249
1603245613
1603245834
1603246351
1603247204
1603247335
1603247371
1603248001
1603248096
1603248338
1603248268
1603250021
1603250757
1603250962
1603250950
1603251551
1603252328
1603252866
1603253001
1603253477
1603253686
1603254266
1603254453
1603254598
1603254753
1603255343
1603255369
1603255290
1603256435
1603256492
1603257439
1603257913
1603258340
1603258711
1603259669
1603260235
1603260621
1603260685
1603261909
1603262478
1603262622
1603263026
1603263221
1603263364
1603263408
1603263699
1603264519
1603265122
1603265337
1603265431
1603265483
1603266651
1603266660
1603266943
1603267334
1603267344
1603267911
1603267920
1603267941
1603269319
1603269579
1603269746
1603269760
1603272747
1603273108
1603273089
1603273283
1603273523
1603273536
1603274896
1603275018
1603276347
1603276454
1603276606
1603277323
1603277656
1603279660
1603279713
1603279875
1603280871
1603281113
1603281166
1603281658
1603281679
1603281752
1603282807
1603282746
1603283141
1603284326
1603284206
1603284602
1603285367
1603285422
1603286095
1603287343
1603287844
1603287642
1603288272
1603288563
1603289304
1603290076
1603290590
1603290735
1603291524
1603292106
1603292204
1603290842
1603292279
1603292732
1603292382
1603293633
1603295151
1603295060
1603295777
1603296086
1603296507
1603296733
1603297237
1603297292
1603296701
1603297835
1603298397
1603298726
1603298743
1603299809
1603300366
1603300759
1603300813
1603301088
1603302470
1603302602
1603303096
1603303372
1603303525
1603303488
1603303815
1603304315
1603304568
1603305074
1603305401
1603305430
1603306148
1603306428
1603306579
1603307026
1603307430
1603307625
1603307958
1603308086
1603308200
1603308525
1603308614
1603308935
1603309457
1603309809
1603310065
1603310432
1603310616
1603310757
1603311118
1603310700
1603311310
1603311666
1603311751
1603311784
1603312020
1603312283
1603312378
1603312244
1603312658
1603314164
1603315222
1603315874
1603315814
1603315984
1603315990
1603317143
1603317325
1603318236
1603318483
1603318860
1603318855
1603319929
1603320239
1603320749
1603320828
1603321926
1603322211
1603322779
1603323972
1603324366
1603324895
1603324952
1603325241
1603325507
1603326048
1603326892
1603327087
1603327071
1603328610
1603328609
1603328885
1603329509
1603330160
1603330166
1603330696
1603332473
1603332286
1603332754
1603332800
1603333206
1603333322
1603333308
1603333347
1603334258
1603334253
1603335974
1603336233
1603336171
1603336258
1603337311
1603336942
1603338807
1603338831
1603338917
1603338956
1603340518
1603340375
1603340668
1603341037
1603342203
1603342451
1603345642
1603345873
1603346594
1603346745
1603346787
1603347392
1603347489
1603348537
1603348524
1603348732
1603348985
1603349869
1603350392
1603350624
1603350462
1603350930
1603353160
1603353735
1603355123
1603355200
1603355388
1603355658
1603356819
1603356963
1603356984
1603357034
1603357224
1603357715
1603358108
1603358233
1603358359
1603358728
1603358838
1603359185
1603359795
1603359761
1603360105
1603360183
1603360997
1603361332
1603361530
1603361983
1603363210
1603364138
1603364515
1603364708
1603367012
1603367691
1603367784
1603367963
1603368340
1603368527
1603368802
1603368991
1603369105
1603369148
1603369524
1603371095
1603371199
1603371504
1603370962
1603371658
1603371661
1603372107
1603372378
1603373965
1603374086
1603374656
1603374760
1603375159
1603375168
1603376644
1603376635
1603377071
1603378071
1603378689
1603378992
1603378826
1603380385
1603380347
1603380957
1603381710
1603382020
1603382947
1603383124
1603383268
1603383659
1603384218
1603385042
1603387506
1603387938
1603388473
1603388475
1603389377
1603389470
1603389466
1603389599
1603390447
1603390764
1603392283
1603392972
1603393225
1603393469
1603392956
1603393528
1603393656
1603395283
1603396476
1603398584
1603398684
1603399446
1603400423
1603400784
1603401403
1603401332
1603401170
1603401764
1603401864
1603402270
1603402584
1603402802
1603403168
1603403531
1603403764
1603403824
1603403726
1603404086
1603404489
1603404523
1603405847
1603407181
1603407748
1603408823
1603408725
1603409711
1603410664
1603411745
1603411903
1603412486
1603412919
1603414078
1603414087
1603415021
1603415024
1603415728
1603416484
1603417010
1603417707
1603417968
1603418733
1603418528
1603418999
1603419125
1603419974
1603419925
1603420119
1603420409
1603421001
1603421812
1603421761
1603422493
1603423057
1603423272
1603423690
1603424184
1603424986
1603425119
1603425351
1603425652
1603426310
1603426335
1603427051
1603428169
1603428745
1603428762
1603429524
1603427615
1603430619
1603431265
1603431996
1603433039
1603433076
1603433151
1603433343
1603434684
1603435192
1603435399
1603435477
1603435729
1603435712
1603435944
1603436893
1603437107
1603437497
1603437515
1603437822
1603437872
1603438082
1603438721
1603439112
1603440139
1603440173
1603440299
1603442376
1603443413
1603444413
1603445147
1603445097
1603445092
1603446948
1603447052
1603447337
1603447694
1603447663
1603447666
1603447803
1603448325
1603449417
1603449681
1603449972
1603450904
1603451411
1603452759
1603452799
1603453262
1603453564
1603453471
1603454575
1603455804
1603455947
1603456370
1603456947
1603457859
1603458465
1603459357
1603459917
1603460687
1603461180
1603461549
1603462015
1603462832
1603465169
1603466214
1603466348
1603465986
1603466358
1603466324
1603467396
1603467673
1603468024
1603468566
1603469265
1603469898
1603469955
1603470110
1603470720
1603470744
1603470870
1603470821
1603472331
1603472452
1603472776
1603472913
1603473231
1603473766
1603475072
1603476145
1603476417
1603475617
1603476695
1603477179
1603477144
1603477191
1603477375
1603477780
1603478029
1603478044
1603480445
1603480538
1603481686
1603482615
1603482969
1603482814
1603483861
1603484397
1603484417
1603484800
1603484228
1603485294
1603486006
1603486240
1603486547
1603486856
1603487147
1603488685
1603489139
1603489282
1603489491
1603489518
1603489590
1603489608
1603490106
1603490711
1603490988
1603491010
1603491510
1603491854
1603491905
1603491909
1603492070
1603492609
1603492625
1603493435
1603494354
1603494122
1603494742
1603495303
1603496173
1603496725
1603496884
1603496852
1603497258
1603497280
1603497654
1603498108
1603497211
1603498876
1603499132
1603499200
1603499303
1603500196
1603500302
1603500653
1603502004
1603502449
1603502498
1603502563
1603502588
1603502749
1603502670
1603503055
1603503721
1603503488
1603504208
1603505755
1603506033
1603506880
1603506990
1603507621
1603508054
1603508906
1603509090
1603510855
1603511954
1603512129
1603512136
1603512492
1603512235
1603512654
1603513583
1603513598
1603513424
1603513983
1603515668
1603515781
1603515999
1603516756
1603518144
1603518413
1603519319
1603519940
1603519930
1603520018
1603520634
1603520066
1603522236
1603523130
1603524317
1603524314
1603525676
1603525772
1603525879
1603527463
1603527365
1603529214
1603529338
1603529654
1603528595
1603529764
1603529877
1603530042
1603530988
1603531319
1603531493
1603531717
1603531842
1603531907
1603532014
1603531861
1603531964
1603532428
1603532200
1603532898
1603533843
1603534455
1603534517
1603534558
1603535385
1603535431
1603536489
1603536528
1603536491
1603536401
1603537505
1603537808
1603539321
1603539736
1603540146
1603539328
1603540693
1603540864
1603541255
1603541457
1603542084
1603542225
1603542657
1603543008
1603543474
1603543826
1603543783
1603544155
1603544730
1603546803
1603548367
1603549139
1603550029
1603550412
1603553494
1603554306
1603554375
1603554910
1603554975
1603556586
1603556750
1603557098
1603557682
1603558003
1603558618
1603558823
1603559523
1603559623
1603559834
1603561447
1603561891
1603562134
1603562581
1603561866
1603564521
1603564978
1603565000
1603565419
1603565494
1603566182
1603566434
1603567250
1603567421
1603567576
1603568940
1603570529
1603571354
1603571629
1603571729
1603572221
1603571842
1603572395
1603573588
1603574233
1603574686
1603574632
1603574974
1603575238
1603575336
1603575445
1603575953
1603575991
1603575755
1603577464
1603577707
1603578587
1603578953
1603579466
1603579452
1603579980
1603580652
1603581003
1603581259
1603581628
1603582049
1603582691
1603582896
1603583799
1603584394
1603585113
1603585376
1603585020
1603585799
1603586291
1603586359
1603586817
1603585830
1603587192
1603587969
1603588644
1603589879
1603590476
1603590519
1603592871
1603594393
1603594588
1603594654
1603595287
1603595645
1603597243
1603597740
1603598138
1603598223
1603599038
1603600984
1603601335
1603601983
1603602597
1603603516
1603603547
1603604580
1603604940
1603605508
1603606260
1603606325
1603606531
1603606498
1603607008
1603608243
1603609122
1603609550
1603609572
1603611236
1603612031
1603612049
1603612642
1603613348
1603614769
1603615912
1603616745
1603616809
1603618491
1603619030
1603619307
1603618295
1603620064
1603620834
1603621638
1603622852
1603623359
1603623414
1603623553
1603623764
1603624142
1603624192
1603625061
1603625663
1603626284
1603626674
1603626854
1603627327
1603627502
1603627884
1603628422
1603628462
1603629168
1603629533
1603630434
1603630756
1603631249
1603631211
1603631500
1603632396
1603632535
1603632675
1603633723
1603634273
1603634726
1603634860
1603635352
1603635516
1603635754
1603635836
1603635878
1603635991
1603637672
1603637824
1603638085
1603638691
1603638881
1603639422
1603639931
1603640729
1603641462
1603642141
1603642226
1603644453
1603644918
1603645039
1603646277
1603646440
1603647213
1603647252
1603647699
1603649826
1603650923
1603651954
1603652119
1603652453
1603652698
1603653411
1603654080
1603654069
1603654303
1603654385
1603655041
1603655298
1603655429
1603655558
1603655539
1603656173
1603656845
1603657539
1603657651
1603658070
1603658077
1603658335
1603658871
1603659504
1603660237
1603660549
1603661948
1603662143
1603662711
1603662715
1603663258
1603663285
1603663391
1603663483
1603663988
1603664234
1603664509
1603665162
1603665225
1603664910
1603665762
1603665699
1603666301
1603666568
1603667198
1603667932
1603668035
1603668975
1603669842
1603669979
1603671323
1603672504
1603673290
1603673495
1603673855
1603674374
1603675439
1603675640
1603675791
1603676235
1603676896
1603677731
1603677837
1603677863
1603679513
1603679905
1603680009
1603680905
1603681060
1603681989
1603682269
1603682627
1603682908
1603683536
1603684336
1603685646
1603686550
1603687102
1603687074
1603688750
1603689668
1603689978
1603690303
1603690598
1603690612
1603690717
1603691098
1603691303
1603691961
1603693090
1603693642
1603694185
1603694479
1603694831
1603695304
1603696319
1603697118
1603697506
1603697647
1603697185
1603697854
1603698756
1603701316
1603701524
1603701556
1603702161
1603702691
1603702990
1603704765
1603705545
1603705874
1603706048
1603706023
1603708166
1603709452
1603710603
1603710851
1603711061
1603711057
1603711941
1603712168
1603712478
1603712139
1603712604
1603712822
1603712936
1603713023
1603713154
1603713287
1603713328
1603713895
1603714969
1603715870
1603718778
1603718857
1603719928
1603720677
1603721362
1603721605
1603722767
1603723029
1603723520
1603723596
1603725004
1603725240
1603725573
1603725749
1603725814
1603725888
1603726482
1603727074
1603728846
1603728809
1603729614
1603729681
1603729824
1603729705
1603730212
1603730842
1603732436
1603732752
1603733222
1603733272
1603733356
1603733602
1603735262
1603735713
1603736421
1603736656
1603736809
1603736881
1603738052
1603738453
1603738933
1603738918
1603739167
1603739884
1603740114
1603740152
1603740337
1603740389
1603741391
1603741718
1603742296
1603742381
1603742495
1603743378
1603744299
1603743932
1603744614
1603744840
1603745223
1603746435
1603748094
1603748565
1603748944
1603749364
1603750092
1603750227
1603750240
1603751074
1603751700
1603752089
1603752068
1603753112
1603753163
1603753123
1603753534
1603753512
1603754172
1603755000
1603755032
1603754402
1603755271
1603755352
1603755219
1603755796
1603756158
1603756082
1603756123
1603756471
1603756597
1603756460
1603756980
1603757476
1603757595
1603758067
1603758300
1603758612
1603759150
1603759317
1603760209
1603760815
1603760998
1603762697
1603762612
1603763551
1603764715
1603764182
1603764795
1603765201
1603765400
1603765527
1603765647
1603765757
1603766484
1603766630
1603768846
1603769308
1603769525
1603769958
1603770098
1603770259
1603771627
1603772965
1603773416
1603773854
1603774402
1603777253
1603777774
1603778452
1603778732
1603779286
1603779063
1603781672
1603782251
1603782788
1603784200
1603785153
1603784838
1603785784
1603785714
1603786220
1603786924
1603787081
1603787753
1603789620
1603790658
1603791083
1603791304
1603792511
1603793134
1603795266
1603796209
1603795812
1603796867
1603811540
1603817308
1603822260
1603838657
1603877744
1603878723
1603879857
1603884167
1603884464
1603884748
1603886747
1603887908
1603889011
1603891346
1603891427
1603895565
1603896291
1603896448
1603897936
1603898776
1603900116
1603900279
1603904561
1603905645
1603906153
1603906298
1603906484
1603906541
1603907512
1603908571
1603909250
1603910354
1603912569
1603912883
1603913246
1603913257
1603912962
1603913572
1603913911
1603914133
1603915357
1603916552
1603916835
1603918540
1603918560
1603919926
1603920528
1603920638
1603921921
1603923676
1603923743
1603924793
1603924898
1603925372
1603925578
1603926340
1603926568
1603926583
1603927029
1603927494
1603927966
1603928175
1603928183
1603929349
1603929344
1603929949
1603930031
1603930157
1603931012
1603931513
1603932686
1603932677
1603933336
1603933613
1603934015
1603934564
1603935131
1603935174
1603935745
1603936426
1603937081
1603938063
1603939487
1603939662
1603940117
1603940503
1603941853
1603942650
1603942855
1603943108
1603943447
1603943622
1603944242
1603945757
1603946690
1603947918
1603948939
1603949732
1603949731
1603950619
1603951789
1603951946
1603953242
1603953191
1603953480
1603953595
1603953939
1603954462
1603954823
1603955369
1603955464
1603955518
1603955592
1603956788
1603957577
1603957650
1603957725
1603957825
1603958406
1603958612
1603959055
1603960087
1603960227
1603960572
1603961596
1603963590
1603964030
1603964810
1603965923
1603967074
1603967119
1603967134
1603968397
1603968811
1603968963
1603969439
1603969751
1603970365
1603970539
1603970573
1603970687
1603970907
1603971905
1603971906
1603972458
1603972507
1603974220
1603974652
1603975412
1603975518
1603977739
1603977987
1603978398
1603978554
1603979011
1603978844
1603979407
1603980299
1603980592
1603981464
1603980889
1603981669
1603981807
1603982126
1603982359
1603982597
1603983176
1603983410
1603984167
1603984608
1603984733
1603985650
1603988705
1603988798
1603989079
1603989466
1603990406
1603990575
1603990681
1603990725
1603990766
1603991055
1603991918
1603992915
1603993922
1603994646
1603995310
1603996517
1603997304
1603997441
1603998127
1603998159
1603998477
1603999135
1603999492
1603999956
1604000614
1604000810
1604000881
1604001310
1604001640
1604001573
1604002414
1604003179
1604003495
1604006492
1604007293
1604008119
1604010014
1604010613
1604010936
1604011073
1604011146
1604012229
1604013124
1604013332
1604014112
1604014650
1604016115
1604016336
1604016364
1604016412
1604016845
1604017244
1604017461
1604017655
1604018731
1604020422
1604020530
1604020722
1604021198
1604021258
1604024710
1604025143
1604027279
1604028059
1604028347
1604028462
1604028687
1604028722
1604028764
1604029892
1604031335
1604031324
1604032887
1604033319
1604033492
1604033805
1604034230
1604034632
1604035016
1604035491
1604035899
1604035934
1604036759
1604037129
1604037266
1604037286
1604038736
1604038839
1604039915
1604040674
1604041605
1604041537
1604042860
1604043348
1604043982
1604044642
1604044924
1604044776
1604046823
1604047543
1604047716
1604046815
1604049265
1604049612
1604050963
1604052342
1604052327
1604052491
1604052691
1604053016
1604053178
1604053345
1604054789
1604055422
1604055669
1604056276
1604056377
1604056822
1604057071
1604057635
1604058516
1604059260
1604059999
1604061346
1604061610
1604062923
1604063424
1604063494
1604064367
1604064450
1604064587
1604064880
1604064901
1604065312
1604066115
1604066491
1604066968
1604067419
1604067683
1604068178
1604069521
1604070431
1604071127
1604071344
1604071694
1604072664
1604072917
1604072889
1604073411
1604075439
1604075617
1604075988
1604075935
1604076070
1604077010
1604077867
1604077888
1604078066
1604079856
1604079859
1604080437
1604080773
1604080973
1604081497
1604081564
1604081795
1604081957
1604082477
1604083738
1604083938
1604084595
1604084929
1604085179
1604085332
1604085568
1604086321
1604086358
1604087768
1604088903
1604089927
1604090005
1604090434
1604094918
1604095771
1604096646
1604097750
1604098707
1604099012
1604099641
1604099969
1604100267
1604101308
1604101772
1604102524
1604102335
1604104626
1604104896
1604104901
1604105415
1604106673
1604107728
1604107785
1604108388
1604108931
1604111178
1604112205
1604113274
1604113678
1604114096
1604114281
1604114256
1604114608
1604115141
1604115607
1604115716
1604117967
1604118651
1604119023
1604119282
1604119578
1604119634
1604120131
1604120111
1604120236
1604120880
1604120885
1604121308
1604121894
1604121452
1604121767
1604122965
1604124088
1604124494
1604125539
1604125657
1604125815
1604125956
1604126150
1604126320
1604127301
1604127387
1604127939
1604128067
1604128131
1604128159
1604128449
1604128837
1604129414
1604129834
1604130003
1604130731
1604134214
1604135622
1604135983
1604136007
1604136272
1604136465
1604137195
1604138181
1604138148
1604138398
1604138669
1604139014
1604139463
1604139478
1604139699
1604139939
1604140385
1604141280
1604141333
1604142418
1604143042
1604143494
1604143770
1604145302
1604145552
1604145723
1604145983
1604146225
1604146264
1604146652
1604147128
1604149554
1604149975
1604150310
1604150640
1604151099
1604151083
1604152817
1604154792
1604155036
1604156284
1604156493
1604157037
1604157644
1604157939
1604158903
1604159140
1604159401
1604159509
1604159856
1604160118
1604160254
1604162277
1604162675
1604162935
1604163731
1604164135
1604164274
1604164937
1604165332
1604165445
1604165715
1604165802
1604165928
1604166385
1604166693
1604167082
1604168971
1604165859
1604170266
1604171035
1604172259
1604171979
1604172769
1604174483
1604176538
1604177850
1604178119
1604178597
1604178770
1604179482
1604179733
1604179889
1604179905
1604179978
1604180364
1604178135
1604181038
1604181832
1604181846
1604181853
1604182000
1604182989
1604183490
1604183601
1604183764
1604183808
1604184194
1604181116
1604185491
1604186102
1604186335
1604186359
1604176658
1604186816
1604188271
1604188727
1604189130
1604189173
1604189349
1604190477
1604191031
1604191015
1604191440
1604192876
1604193223
1604193320
1604193911
1604195486
1604196119
1604197372
1604197648
1604197932
1604198294
1604198883
1604199573
1604200036
1604200325
1604200850
1604203102
1604203314
1604205100
1604205162
1604205293
1604205465
1604205800
1604205912
1604206133
1604206636
1604206996
1604207537
1604209732
1604209933
1604210958
1604211254
1604201669
1604211974
1604213056
1604214177
1604214891
1604214927
1604215095
1604217433
1604217524
1604217465
1604217966
1604218584
1604218734
1604219360
1604219976
1604220108
1604221703
1604221983
1604222739
1604223496
1604223732
1604224323
1604224910
1604225781
1604227580
1604229388
1604230108
1604230803
1604231123
1604231301
1604231548
1604231991
1604232807
1604233929
1604234296
1604234482
1604235268
1604235752
1604237535
1604238164
1604239336
1604239344
1604239864
1604240051
1604240335
1604240550
1604240245
1604240940
1604241190
1604241785
1604241779
1604242662
1604242687
1604243672
1604243937
1604244682
1604245487
1604245951
1604246116
1604246321
1604246830
1604247419
1604247901
1604248548
1604248816
1604249073
1604248971
1604249931
1604250066
1604250336
1604250340
1604250353
1604250572
1604250681
1604251111
1604252042
1604253249
1604254372
1604254795
1604254961
1604255421
1604255486
1604255778
1604256311
1604256705
1604256608
1604257154
1604259856
1604261026
1604261480
1604261640
1604262628
1604262964
1604263750
1604263823
1604263887
1604264542
1604264807
1604264755
1604265897
1604266706
1604267874
1604268404
1604268726
1604269344
1604270231
1604272067
1604272498
1604272831
1604272922
1604273215
1604273456
1604273567
1604274224
1604275114
1604275161
1604276063
1604276360
1604276494
1604276717
1604276922
1604277273
1604277661
1604278189
1604278349
1604278626
1604278866
1604280017
1604280474
1604280919
1604281403
1604281859
1604282298
1604281518
1604282465
1604282805
1604282967
1604283417
1604283726
1604283822
1604284797
1604285199
1604283904
1604285725
1604286612
1604287239
1604287718
1604288511
1604289090
1604289144
1604289438
1604289450
1604290361
1604290643
1604290829
1604291823
1604292442
1604292785
1604293167
1604294924
1604294973
1604295217
1604295264
1604296290
1604296374
1604297226
1604297294
1604298081
1604299062
1604300427
1604300602
1604301545
1604302200
1604302884
1604302764
1604303133
1604304250
1604304634
1604304917
1604305365
1604306006
1604306328
1604306500
1604306656
1604307168
1604307495
1604307511
1604307686
1604307739
1604308279
1604308998
1604309659
1604309921
1604310777
1604310757
1604310609
1604310982
1604311192
1604311946
1604312068
1604311787
1604312347
1604313630
1604313687
1604313704
1604313802
1604314275
1604314648
1604314971
1604315228
1604315741
1604316456
1604316595
1604317685
1604318168
1604320140
1604321569
1604321587
1604323055
1604323185
1604323231
1604323614
1604324498
1604324910
1604327225
1604328329
1604329170
1604329669
1604329852
1604330647
1604331210
1604331676
1604331915
1604332405
1604332198
1604333815
1604334126
1604334682
1604334920
1604335104
1604336158
1604336248
1604337334
1604337622
1604338257
1604338640
1604339046
1604339336
1604339707
1604340669
1604341713
1604341832
1604342806
1604343000
1604344419
1604344405
1604343524
1604344493
1604344782
1604345586
1604347298
1604347230
1604347314
1604346637
1604347540
1604348187
1604348432
1604348943
1604349140
1604349504
1604349707
1604349869
1604349834
1604349875
1604349625
1604350348
1604350308
1604350750
1604350928
1604351503
1604352251
1604352435
1604352987
1604353590
1604354432
1604354071
1604354950
1604354999
1604355471
1604356789
1604357168
1604357768
1604357803
1604357921
1604358662
1604359564
1604360496
1604360607
1604360754
1604363684
1604363886
1604365191
1604366343
1604365494
1604366591
1604366947
1604367950
1604368551
1604368590
1604368975
1604369138
1604370241
1604370825
1604372645
1604373209
1604373366
1604374572
1604368137
1604375496
1604375970
1604376128
1604376926
1604377087
1604377579
1604377707
1604378210
1604378301
1604379284
1604379459
1604380350
1604380368
1604380918
1604381194
1604381670
1604382162
1604412891
1604417013
1604422656
1604440433
1604443864
1604446134
1604447022
1604453203
1604454982
1604455059
1604456473
1604458333
1604458466
1604459362
1604461699
1604461833
1604464890
1604466144
1604466393
1604466814
1604467061
1604467796
1604468372
1604468774
1604471340
1604472396
1604472569
1604472422
1604476232
1604477513
1604478848
1604480930
1604481916
1604482229
1604482657
1604482723
1604482877
1604483449
1604483709
1604483829
1604483921
1604485312
1604486024
1604487954
1604488045
1604491906
1604492389
1604492713
1604492763
1604492833
1604493192
1604494379
1604494721
1604495613
1604496307
1604496484
1604496515
1604496559
1604497468
1604497830
1604498317
1604498834
1604499412
1604500342
1604501668
1604501555
1604501998
1604502078
1604502578
1604502733
1604504305
1604504448
1604504872
1604504857
1604505856
1604506302
1604506308
1604506365
1604506584
1604507307
1604508025
1604508088
1604508381
1604509081
1604509072
1604509433
1604509392
1604509943
1604510141
1604510208
1604510499
1604511252
1604512082
1604512777
1604513657
1604514403
1604515175
1604515245
1604515604
1604516284
1604517222
1604517234
1604517964
1604519118
1604519326
1604521241
1604521938
1604522206
1604522442
1604523392
1604523734
1604524427
1604524649
1604524871
1604525418
1604526814
1604527600
1604529453
1604529963
1604530024
1604530067
1604530107
1604530451
1604531387
1604532448
1604532495
1604533045
1604533123
1604534847
1604536183
1604536369
1604536682
1604537660
1604537613
1604538078
1604538219
1604539420
1604540817
1604541246
1604541371
1604541927
1604542062
1604542085
1604542072
1604542388
1604543830
1604544095
1604544599
1604546147
1604545899
1604546343
1604547024
1604547097
1604547439
1604547561
1604547661
1604547668
1604548007
1604548828
1604548873
1604549515
1604549524
1604549844
1604551682
1604551747
1604551711
1604552234
1604552404
1604552342
1604552942
1604553264
1604553602
1604553470
1604553882
1604555062
1604556060
1604556267
1604555823
1604556725
1604557232
1604557594
1604557676
1604557996
1604558009
1604558499
1604559885
1604561341
1604561964
1604562955
1604563023
1604563869
1604564278
1604565413
1604565474
1604565545
1604565936
1604566518
1604567037
1604567663
1604568035
1604568476
1604568551
1604568753
1604569487
1604569573
1604569862
1604570661
1604570764
1604572229
1604573107
1604573803
1604574462
1604575439
1604575370
1604575513
1604576873
1604576931
1604578045
1604578404
1604578653
1604578680
1604578791
1604579504
1604580017
1604580154
1604580304
1604580320
1604581004
1604582106
1604581889
1604582080
1604582411
1604582640
1604582839
1604583822
1604583924
1604584183
1604585023
1604586454
1604586777
1604587719
1604587823
1604587981
1604588813
1604589129
1604589154
1604592167
1604593215
1604594016
1604594439
1604593997
1604594933
1604595179
1604595448
1604595421
1604595680
1604595844
1604596791
1604596557
1604596999
1604597066
1604597902
1604600825
1604601420
1604602068
1604602927
1604603029
1604603283
1604603943
1604605438
1604605769
1604606698
1604607175
1604607345
1604607396
1604607516
1604609345
1604609828
1604610518
1604610640
1604610741
1604610700
1604610952
1604611452
1604612542
1604614782
1604615217
1604615174
1604619911
1604620169
1604621470
1604622200
1604622964
1604623791
1604624198
1604624558
1604625411
1604625477
1604625860
1604625854
1604626560
1604626818
1604627075
1604627210
1604627902
1604628396
1604628957
1604629295
1604629808
1604630610
1604630704
1604631420
1604632546
1604632699
1604632800
1604632909
1604632999
1604633044
1604634041
1604634670
1604634931
1604634911
1604635417
1604635712
1604636005
1604636619
1604637919
1604638191
1604638307
1604638370
1604638380
1604638312
1604639530
1604639677
1604639931
1604640806
1604641249
1604641777
1604642150
1604642286
1604643693
1604643734
1604643988
1604644071
1604644459
1604644929
1604645796
1604646078
1604645737
1604646304
1604646369
1604647644
1604647944
1604648664
1604648997
1604649035
1604649381
1604649653
1604650145
1604650280
1604650753
1604651689
1604651754
1604652159
1604652418
1604653423
1604654907
1604655211
1604655591
1604655857
1604656522
1604656895
1604657050
1604657448
1604658348
1604659065
1604659609
1604660654
1604661062
1604660457
1604661908
1604663222
1604663303
1604663509
1604663637
1604664310
1604665584
1604667406
1604667384
1604668336
1604668570
1604668914
1604669158
1604670074
1604670037
1604670417
1604670460
1604670490
1604671089
1604670485
1604672388
1604672904
1604672974
1604673081
1604673302
1604674038
1604674868
1604675164
1604675032
1604676123
1604677022
1604677291
1604677943
1604678145
1604678318
1604678409
1604678926
1604679676
1604680125
1604680682
1604681964
1604682291
1604682909
1604682999
1604683071
1604683370
1604683459
1604683557
1604683442
1604683964
1604684348
1604684768
1604685304
1604685464
1604685723
1604685751
1604685952
1604687143
1604687118
1604687501
1604687775
1604688508
1604689020
1604689276
1604690106
1604692113
1604692216
1604692595
1604693120
1604693685
1604695284
1604695362
1604695606
1604697116
1604697474
1604698403
1604698498
1604698724
1604699012
1604699812
1604699979
1604699851
1604700801
1604701223
1604701591
1604701868
1604702025
1604702806
1604703758
1604703941
1604703906
1604704316
1604704778
1604704864
1604705933
1604705799
1604706337
1604707680
1604707775
1604707808
1604708053
1604708337
1604708843
1604709090
1604709260
1604709356
1604710429
1604709830
1604711258
1604711790
1604711862
1604712125
1604712307
1604712270
1604713865
1604714199
1604715821
1604716883
1604717447
1604718280
1604718387
1604719015
1604719290
1604719449
1604719847
1604720674
1604721213
1604721142
1604721992
1604722001
1604722425
1604722708
1604722804
1604725091
1604725310
1604726705
1604726890
1604727438
1604727468
1604727643
1604727041
1604727766
1604729109
1604729548
1604729566
1604729697
1604729983
1604730298
1604730454
1604730794
1604732114
1604733503
1604733582
1604734645
1604735301
1604736201
1604736323
1604735885
1604736645
1604736947
1604737695
1604737983
1604739384
1604739297
1604739736
1604740075
1604740796
1604741763
1604741819
1604742205
1604742210
1604741896
1604742561
1604742353
1604742662
1604743126
1604743220
1604743553
1604743713
1604745120
1604746319
1604747008
1604747098
1604747441
1604747552
1604747681
1604747883
1604748293
1604747747
1604748609
1604748700
1604748839
1604749091
1604749813
1604750150
1604750749
1604750899
1604750882
1604750951
1604751192
1604751239
1604751808
1604752068
1604752626
1604752683
1604754900
1604755674
1604756233
1604756636
1604757289
1604757362
1604758272
1604758736
1604759645
1604759912
1604761224
1604761587
1604761932
1604762534
1604763937
1604763898
1604763554
1604764431
1604764585
1604765052
1604765211
1604765364
1604765482
1604766678
1604767346
1604769427
1604769372
1604769864
1604770794
1604770966
1604771276
1604771626
1604772862
1604773017
1604773797
1604774143
1604775888
1604775905
1604776304
1604776522
1604776560
1604777164
1604778971
1604778957
1604779894
1604779997
1604780506
1604780681
1604780684
1604781186
1604781934
1604781917
1604782011
1604783398
1604783449
1604783763
1604783976
1604786707
1604787072
1604787081
1604787196
1604790754
1604790819
1604791408
1604791469
1604792406
1604792810
1604793026
1604793036
1604793219
1604794586
1604794878
1604796452
1604797250
1604797784
1604798145
1604798286
1604798503
1604798586
1604798702
1604799365
1604799385
1604799391
1604799500
1604799814
1604799684
1604800196
1604800373
1604800756
1604801356
1604801880
1604802492
1604802394
1604802832
1604803661
1604803325
1604804578
1604805190
1604806626
1604806826
1604806972
1604807109
1604807349
1604807557
1604807899
1604808345
1604809073
1604809195
1604809206
1604809898
1604810083
1604810870
1604811057
1604811092
1604811116
1604812067
1604812062
1604813071
1604813291
1604813435
1604813729
1604814103
1604814438
1604814803
1604815862
1604816025
1604816359
1604816781
1604817223
1604817862
1604818085
1604818651
1604818836
1604819450
1604819979
1604820479
1604820794
1604821233
1604821384
1604821403
1604821489
1604821955
1604822918
1604823730
1604824501
1604824483
1604824035
1604825776
1604825870
1604825981
1604826721
1604826822
1604827183
1604827289
1604827196
1604827463
1604828323
1604828763
1604830164
1604830161
1604830449
1604831817
1604832608
1604832795
1604833195
1604834304
1604835574
1604835921
1604835937
1604836690
1604836883
1604836899
1604837037
1604838854
1604839079
1604839486
1604839844
1604841358
1604842482
1604842478
1604843474
1604844179
1604844138
1604844366
1604844429
1604844544
1604845157
1604845475
1604847485
1604847977
1604848411
1604848649
1604848480
1604849994
1604850625
1604851057
1604852258
1604854411
1604854560
1604855321
1604855006
1604856389
1604857392
1604857676
1604858158
1604858981
1604859071
1604859723
1604860514
1604861287
1604861491
1604862585
1604862803
1604862981
1604863529
1604864519
1604865271
1604865402
1604865490
1604867327
1604869207
1604869527
1604870628
1604870358
1604872589
1604873799
1604873824
1604874051
1604874387
1604874742
1604874620
1604874755
1604874718
1604875563
1604875578
1604876231
1604878402
1604878891
1604879518
1604880559
1604881337
1604881554
1604881763
1604881808
1604881817
1604882125
1604882407
1604883448
1604884593
1604884288
1604885915
1604886513
1604887327
1604887989
1604888335
1604888491
1604889661
1604889874
1604890562
1604890650
1604891072
1604891908
1604893298
1604893408
1604894115
1604894332
1604895068
1604895246
1604896033
1604896211
1604898567
1604898843
1604898794
1604899110
1604899699
1604901624
1604901695
1604902151
1604901691
1604902178
1604902787
1604903584
1604904078
1604904282
1604905687
1604906581
1604907312
1604907625
1604907409
1604908828
1604908880
1604910439
1604910443
1604910701
1604910813
1604911046
1604911050
1604911964
1604913773
1604914354
1604915903
1604917103
1604917569
1604918109
1604918382
1604917811
1604918896
1604918853
1604919045
1604919241
1604920425
1604921230
1604921943
1604922753
1604923664
1604923938
1604924082
1604925877
1604927568
1604927818
1604928567
1604928595
1604928662
1604929686
1604930031
1604930694
1604931443
1604932667
1604934961
1604936749
1604936992
1604937061
1604937181
1604937927
1604938260
1604940144
1604940295
1604940408
1604943517
1604943647
1604943915
1604944514
1604945203
1604946050
1604945754
1604946775
1604947630
1604947520
1604948254
1604948738
1604948867
1604949190
1604949287
1604949692
1604950289
1604950357
1604951650
1604952123
1604953401
1604953808
1604953838
1604953901
1604953974
1604954815
1604954842
1604955281
1604955695
1604956387
1604956830
1604957372
1604957976
1604958524
1604958618
1604959970
1604960095
1604960150
1604962128
1604962908
1604963560
1604964093
1604964912
1604965008
1604965218
1604966037
1604966112
1604966237
1604966966
1604966972
1604968850
1604969367
1604969773
1604971574
1604971739
1604972770
1604973220
1604973366
1604973202
1604974360
1604974482
1604975482
1604978129
1604978994
1604979747
1604979821
1604979920
1604980167
1604981409
1604981494
1604983635
1604983841
1604983830
1604984655
1604984772
1604984899
1604984956
1604985191
1604986118
1604987283
1604988258
1604988837
1604989804
1604989960
1604990028
1604990087
1604991020
1604991767
1604992125
1604992371
1604992942
1604993506
1604994112
1604994278
1604994463
1604994914
1604994531
1604995607
1604995553
1604996142
1604996527
1604996595
1604996643
1604996696
1604996895
1604997447
1604997822
1604998057
1604998814
1604998929
1604999196
1604998355
1604999369
1604999704
1605000062
1605000430
1605001636
1605001713
1605001981
1605002312
1605002641
1605003066
1605003208
1605003894
1605004083
1605004382
1605005024
1605005324
1605006904
1605006942
1605007388
1605007542
1605007716
1605007910
1605008449
1605009062
1605009178
1605009303
1605010016
1605010263
1605010689
1605012309
1605012264
1605012415
1605012011
1605012648
1605012857
1605013405
1605014124
1605014595
1605014634
1605017288
1605018169
1605018692
1605019089
1605019351
1605020238
1605021214
1605021124
1605021879
1605022381
1605022866
1605023378
1605023604
1605024168
1605024975
1605025593
1605026099
1605026170
1605027445
1605028569
1605028834
1605029117
1605029268
1605029456
1605029940
1605030133
1605030428
1605017468
1605031068
1605030946
1605032459
1605033989
1605034101
1605034376
1605035334
1605035732
1605035841
1605036305
1605036353
1605037355
1605037761
1605038231
1605038294
1605039917
1605040971
1605041077
1605041160
1605041717
1605041943
1605042729
1605042836
1605042453
1605043143
1605044295
1605044037
1605044725
1605044817
1605045047
1605044998
1605046704
1605046851
1605047282
1605047471
1605047472
1605047171
1605047565
1605047562
1605047973
1605049031
1605049381
1605049721
1605050545
1605050720
1605051932
1605052543
1605053198
1605053791
1605053845
1605054173
1605054222
1605054227
1605054236
1605054509
1605054683
1605054919
1605055096
1605055417
1605055524
1605056120
1605056589
1605059481
1605059614
1605059957
1605060046
1605060130
1605060443
1605060888
1605061555
1605063916
1605064102
1605064150
1605064379
1605064714
1605065199
1605065727
1605065939
1605066112
1605066241
1605066138
1605066335
1605067087
1605067058
1605067384
1605067422
1605067527
1605067805
1605068297
1605068525
1605068536
1605068972
1605069957
1605072438
1605073149
1605073596
1605073939
1605073975
1605074296
1605074766
1605075254
1605075397
1605075487
1605075566
1605076383
1605076560
1605076697
1605076690
1605076918
1605077206
1605077314
1605077571
1605077778
1605077849
1605078262
1605078685
1605079202
1605079218
1605079517
1605079592
1605079743
1605079794
1605079952
1605080211
1605080746
1605080844
1605080818
1605081259
1605082387
1605083058
1605082818
1605083793
1605085237
1605085454
1605085462
1605085745
1605087523
1605087824
1605088250
1605088455
1605089247
1605089408
1605089547
1605089601
1605089608
1605089572
1605089949
1605090254
1605090464
1605090909
1605091162
1605091322
1605091738
1605091827
1605093082
1605093205
1605093632
1605093499
1605094197
1605094286
1605094556
1605095224
1605095611
1605095485
1605097015
1605097923
1605098179
1605098379
1605098490
1605099269
1605099133
1605099766
1605099885
1605100520
1605100290
1605100769
1605101108
1605102078
1605102410
1605103296
1605103323
1605104493
1605104779
1605104853
1605105065
1605105992
1605107202
1605107381
1605107572
1605108323
1605109104
1605108942
1605109294
1605108816
1605110136
1605109831
1605111302
1605111613
1605111910
1605111852
1605112503
1605112970
1605113868
1605113968
1605114217
1605114522
1605114149
1605115277
1605116241
1605116667
1605118223
1605118669
1605118987
1605119048
1605119255
1605119364
1605119958
1605120049
1605120223
1605120396
1605122717
1605123171
1605123408
1605123710
1605125005
1605125160
1605125261
1605125483
1605124797
1605125767
1605125812
1605126285
1605126471
1605126719
1605126631
1605127898
1605127657
1605127984
1605127944
1605129361
1605129574
1605129519
1605129768
1605130275
1605130774
1605131354
1605131430
1605131624
1605131864
1605133129
1605133084
1605133671
1605134504
1605135374
1605135391
1605135599
1605135992
1605136743
1605137085
1605137396
1605138001
1605138048
1605137958
1605138392
1605137857
1605138728
1605138766
1605139313
1605141048
1605141438
1605142261
1605142478
1605143393
1605145473
1605145731
1605146325
1605146834
1605147938
1605148296
1605148614
1605150164
1605150546
1605150844
1605150984
1605150546
1605150844
1605150984
1605151333
1605151625
1605151711
1605151817
1605151798
1605153231
1605153335
1605153773
1605153917
1605154569
1605155083
1605155406
1605155872
1605155887
1605156453
1605158806
1605159086
1605158148
1605159904
1605161138
1605161203
1605161140
1605162004
1605162177
1605162132
1605162360
1605162872
1605162798
1605163398
1605163642
1605163892
1605164286
1605165111
1605165265
1605165500
1605165614
1605165680
1605165801
1605166004
1605166085
1605166479
1605167314
1605170648
1605171952
1605173928
1605174709
1605175500
1605178124
1605178532
1605179610
1605179976
1605180847
1605181645
1605182589
1605183293
1605184064
1605184784
1605185142
1605185116
1605186278
1605186302
1605186957
1605189281
1605189373
1605190265
1605191583
1605191779
1605192042
1605193078
1605193707
1605194009
1605195914
1605196151
1605196324
1605197130
1605197717
1605198140
1605199539
1605200550
1605200768
1605199308
1605200942
1605201136
1605201297
1605202461
1605203615
1605204475
1605204668
1605205843
1605207200
1605208190
1605208612
1605210256
1605211480
1605213105
1605214034
1605214279
1605215055
1605218146
1605218756
1605218879
1605219499
1605221117
1605221212
1605222143
1605222392
1605224493
1605224806
1605226055
1605228058
1605249934
1605257496
1605259567
1605273369
1605286510
1605287207
1605306836
1605307281
1605309248
1605309671
1605311664
1605312282
1605312829
1605312558
1605314895
1605315808
1605317590
1605319731
1605320497
1605320424
1605321528
1605321754
1605321714
1605324375
1605325367
1605327077
1605332493
1605333494
1605333555
1605334927
1605335097
1605336186
1605336343
1605336382
1605336863
1605337612
1605338137
1605341052
1605342995
1605343310
1605344462
1605345508
1605347237
1605347270
1605347831
1605353638
1605353988
1605354996
1605355447
1605355658
1605355462
1605355915
1605355803
1605356662
1605357322
1605357752
1605358649
1605360767
1605362104
1605363272
1605363518
1605364343
1605364565
1605365381
1605368306
1605369218
1605370414
1605370648
1605372337
1605419130
1605447374
1605474868
1605492705
1605504342
1605514196
1605519538
1605534638
1605545309
1605557771
1605558666
1605563007
1605599980
1605611311
1605611796
1605643795
1605662787
1605680184
1605710869
1605724614
1605728089
1605747499
1605767523
1605787767
1605802805
1605832469
1605851146
1605854115
1605882678
1605886224
1605904987
1605944506
1605969143
1605972232
1605973585
1605987468
1605998034
1606004839
1606018604
1606027914
1606048063
1606079654
1606080432
1606088043
1606105079
1606117748
1606118058
1606124754
1606142897
1606152136
1606179031
1606200187
1606205185
1606217069
1606217606
1606235569
1606281056
1606288547
1606313325
1606323012
1606328980
1606344108
1606364888
1606376677
1606417083
1606458834
1606513426
1606516139
1606522697
1606529751
1606560462
1606564282
1606597392
1606611586
1606624109
1606632108
1606649187
1606692931
1606719140
1606729831
1606734616
1606740615
1606741169
1606756124
1606758546
1606765132
1606768269
1606776257
1606804855
1606825860
1606828282
1606829597
1606868141
1606877497
1606905414
1606914514
1606916456
1606920773
1606962929
1606975674
1606991357
1607001346
1607002484
1607013418
1607015723
1607052948
1607092212
1607123698
1607153824
1607160372
1607190341
1607200276
1607238079
1607240322
1607272618
1607288302
1607344343
1607346918
1607349195
1607384979
1607400810
1607406392
1607415552
1607426942
1607436598
1607497795
1607504132
1607514324
1607521768
1607523790
1607574048
1607632158
1607648229
1607689360
1607690724
1607705704
1607711338
1607740925
1607787380
1607799259
1607799259
1607811889
1607843475
1607873935
1607902184
1607937341
1607963753
1607968616
1607985106
1607998246
1608016298
1608017087
1608019375
1608055360
1608066239
1608154873
1608176648
1608192102
1608200258
1608212316
1608213619
1608214894
1608217750
1608222521
1608233322
1608246817
1608247447
1608294629
1608298013
1608303774
1608306634
1608315246
1608323704
1608336818
1608356979
1608358275
1608367227
1608380826
1608449104
1608457018
1608477924
1608484684
1608490602
1608516757
1608519084
1608529269
1608558781
1608560112
1608581406
1608593164
1608614364
1608629280
1608635571
1608666636
1608677894
1608684208
1608715150
1608724381
1608728775
1608734243
1608757610
1608772203
1608789986
1608805787
1608814909
1608839225
1608843258
1608853990
1608857930
1608869492
1608878203
1608913069
1608918224
1608931794
1608932140
1608938807
1608941412
1608952705
1608956787
1608961936
1609001812
1609007263
1609037928
1609055518
1609076360
1609088987
1609106896
1609121964
1609132118
1609142228
1609144098
1609174082
1609189292
1609198061
1609211915
1609255883
1609256096
1609304781
1609312139
1609324542
1609357753
1609389596
1609461640
1609480267
1609497687
1609505125
1609519635
1609553533
1609554536
1609586329
1609593837
1609597810
1609598380
1609626953
1609690669
1609726973
1609758526
1609821387
1609836965
1609885673
1609902435
1609921099
1609971341
1609971923
