1600001595
1600001943
1600001892
1600002470
1600002703
1600003029
1600004520
1600004520
1600004520
1600005149
1600005141
1600005141
1600006029
1600006079
1600006079
1600006079
1600006079
730000632
730039739
731072913
731086778
731161795
730234498
731168845
730248239
730282674
730339027
731571978
730433469
730472410
731662457
731721300
731742399
731758969
730604839
730621382
730633416
731879817
731880816
730781268
730792805
1600001595
1600001892
1600001943
1600002470
1600002703
1600003029
1600004520
1600005149
1600005141
1600006029
1600006079
1600008106
1600009028
1600009666
1600009804
1600010185
1600010655
1600010851
1600014651
1600014856
1600014919
1600015105
1600016270
1600018559
1600018948
1600021031
1600021531
1600022116
1600022660
1600022874
1600023271
1600024351
1600025013
1600024963
1600027850
1600028327
1600029844
1600029723
1600031007
1600031203
1600034442
1600035757
1600042374
1600043317
1600043406
1600044992
1600046402
1600046806
1600047215
1600047570
1600050681
1600051474
1600052071
1600054154
1600057635
1600058962
1600062556
1600063307
1600065783
1600068130
1600069823
1600073135
1600073443
1600074107
1600074463
1600076150
1600076441
1600076923
1600078017
1600080477
1600082167
1600082750
1600084048
1600084102
1600084158
1600085560
1600085535
1600085895
1600085906
1600090271
1600091677
1600091812
1600092509
1600093296
1600097207
1600098534
1600098585
1600099591
1600100352
1600101121
1600101234
1600101273
1600105282
1600105979
1600110466
1600110692
1600111746
1600113346
1600113336
1600114346
1600115943
1600115991
1600116947
1600117108
1600117435
1600118402
1600120057
1600121932
1600123204
1600123244
1600123828
1600124273
1600124206
1600124192
1600124819
1600125866
1600126513
1600126554
1600129208
1600129861
1600128437
1600131644
1600132328
1600133069
1600133790
1600133863
1600134663
1600136953
1600137413
1600138272
1600138901
1600140052
1600140095
1600141762
1600142768
1600144518
1600147677
1600150630
1600153601
1600153701
1600154755
1600156296
1600158693
1600159042
1600159145
1600160755
1600163114
1600168078
1600170540
1600171158
1600171258
1600173068
1600174027
1600176647
1600177044
1600178455
1600179055
1600180012
1600180317
1600181668
1600183495
1600183509
1600186418
1600187144
1600189450
1600190066
1600190821
1600191648
1600192143
1600194158
1600195341
1600196670
1600196746
1600197496
1600199732
1600200974
1600201049
1600202999
1600203787
1600207637
1600208367
1600209852
1600209842
1600211120
1600211227
1600212694
1600213226
1600213315
1600213574
1600214145
1600214437
1600214602
1600214992
1600216041
1600216191
1600216355
1600216473
1600216547
1600217106
1600218159
1600218686
1600220046
1600221254
1600221368
1600221768
1600222441
1600224700
1600225850
1600226753
1600226708
1600228310
1600230237
1600231169
1600231622
1600233922
1600235655
1600236783
1600236727
1600239298
1600239901
1600240949
1600241449
1600242032
1600242045
1600243140
1600243428
1600244050
1600244240
1600245392
1600245562
1600246124
1600247257
1600247833
1600248020
1600249057
1600250703
1600252367
1600252623
1600253475
1600254593
1600256569
1600258332
1600261318
1600261950
1600265583
1600265750
1600267543
1600267116
1600267805
1600268071
1600268173
1600268244
1600268487
1600268941
1600270231
1600271481
1600272604
1600273387
1600273469
1600273602
1600275256
1600275935
1600276009
1600277397
1600279062
1600281816
1600281663
1600283298
1600283326
1600283786
1600284112
1600284632
1600286809
1600287016
1600287311
1600288030
1600289039
1600289369
1600289908
1600290116
1600290433
1600293500
1600294558
1600297089
1600297390
1600298181
1600299838
1600300860
1600301071
1600305271
1600308460
1600309601
1600310872
1600312311
1600313600
1600314554
1600315064
1600316790
1600317016
1600317529
1600318127
1600318997
1600319017
1600319914
1600319959
1600321234
1600321484
1600321655
1600323409
1600324033
1600324161
1600324687
1600326282
1600329473
1600329444
1600329833
1600330511
1600332263
1600333339
1600333722
1600333999
1600334403
1600337137
1600341184
1600342252
1600342325
1600343025
1600343158
1600343028
1600343736
1600344197
1600344772
1600345120
1600345419
1600348287
1600348481
1600348875
1600349483
1600350233
1600350735
1600351449
1600351564
1600352330
1600355346
1600355863
1600356258
1600357726
1600358414
1600359927
1600364631
1600367533
1600368083
1600369209
1600369710
1600370065
1600370211
1600370179
1600371503
1600371478
1600373064
1600373434
1600374430
1600374587
1600376837
1600377398
1600379531
1600380640
1600380922
1600381686
1600384412
1600385212
1600385863
1600387564
1600387929
1600388285
1600388493
1600388640
1600388987
1600389369
1600389737
1600393909
1600395131
1600398094
1600399044
1600401136
1600402074
1600402109
1600402879
1600404122
1600404252
1600404604
1600405027
1600405531
1600407456
1600407991
1600409954
1600410358
1600410938
1600410966
1600412665
1600413108
1600413490
1600414079
1600414149
1600417181
1600417242
1600417310
1600418867
1600421171
1600422515
1600423375
1600425319
1600425487
1600426017
1600427019
1600428493
1600428505
1600428688
1600429028
1600429613
1600430060
1600430867
1600431661
1600434159
1600436131
1600436568
1600438280
1600439492
1600440277
1600440750
1600440919
1600441870
1600443166
1600444074
1600444307
1600447724
1600448317
1600448811
1600448956
1600449019
1600450601
1600452852
1600454442
1600455094
1600456305
1600459153
1600459156
1600460948
1600461161
1600461110
1600463904
1600466287
1600467307
1600467399
1600469295
1600470860
1600470966
1600477474
1600477928
1600479152
1600479152
1600480326
1600480555
1600483009
1600484482
1600486383
1600486954
1600486954
1600488472
1600491482
1600491994
1600492590
1600494075
1600494659
1600495173
1600496387
1600498179
1600498781
1600499129
1600500053
1600501280
1600501238
1600501670
1600504488
1600505161
1600505668
1600505919
1600506025
1600507649
1600509376
1600511565
1600513017
1600513182
1600513995
1600514072
1600514620
1600515597
1600516565
1600521429
1600523821
1600524432
1600526885
1600529591
1600529483
1600529598
1600530195
1600531052
1600532447
1600534350
1600535637
1600536384
1600537468
1600538322
1600540759
1600541144
1600543309
1600548204
1600548836
1600550492
1600550630
1600551503
1600551827
1600552812
1600552945
1600553731
1600553814
1600556445
1600557085
1600557131
1600558503
1600559580
1600559659
1600559757
1600559945
1600566588
1600567368
1600569326
1600570321
1600575583
1600577164
1600579076
1600583720
1600585085
1600585636
1600587171
1600590643
1600591116
1600591841
1600592842
1600593114
1600595396
1600595546
1600596409
1600597213
1600597677
1600602165
1600602890
1600603789
1600604873
1600606350
1600611335
1600612696
1600613176
1600614821
1600615408
1600616675
1600616705
1600617733
1600619161
1600619555
1600620139
1600620225
1600621458
1600623441
1600623619
1600623648
1600625023
1600626386
1600628559
1600630807
1600632576
1600635290
1600636135
1600638968
1600640033
1600641286
1600642514
1600644244
1600644309
1600646955
1600647045
1600647256
1600647332
1600650472
1600651011
1600651445
1600652271
1600652825
1600654742
1600656247
1600656977
1600657836
1600658282
1600658317
1600658968
1600660034
1600660193
1600661615
1600663467
1600663644
1600663384
1600665551
1600667868
1600668604
1600669152
1600670353
1600670595
1600670870
1600672325
1600673804
1600674007
1600674202
1600674677
1600676915
1600677046
1600677482
1600667996
1600677920
1600678381
1600680539
1600680436
1600681102
1600681637
1600684202
1600684930
1600686183
1600686803
1600687822
1600688115
1600688315
1600688725
1600689173
1600689381
1600689342
1600689522
1600691801
1600692776
1600693921
1600693990
1600694014
1600699145
1600699416
1600699687
1600700175
1600700432
1600703911
1600704555
1600706369
1600707900
1600708150
1600708659
1600708659
1600710120
1600712201
1600712462
1600714401
1600719921
1600720441
1600722030
1600723130
1600723738
1600723689
1600727019
1600727469
1600728180
1600728894
1600729612
1600730092
1600730344
1600730569
1600731136
1600731450
1600735005
1600736119
1600736585
1600736932
1600738056
1600738997
1600743200
1600744294
1600746128
1600747092
1600748022
1600749174
1600749420
1600750457
1600751097
1600751303
1600751948
1600753309
1600754802
1600755034
1600755403
1600756749
1600758310
1600759250
1600759263
1600762319
1600765163
1600766148
1600768401
1600769678
1600770745
1600771424
1600771453
1600771696
1600772620
1600773009
1600775144
1600775938
1600776683
1600777135
1600779244
1600779668
1600780043
1600780363
1600781430
1600781771
1600782169
1600782382
1600784369
1600784827
1600790142
1600792434
1600792787
1600794123
1600794083
1600795067
1600799852
1600801735
1600804134
1600804639
1600805441
1600806301
1600807910
1600809278
1600810631
1600812856
1600815181
1600815423
1600815959
1600818041
1600817972
1600819327
1600820289
1600820961
1600824594
1600824685
1600825240
1600829907
1600832903
1600833921
1600834331
1600834602
1600837138
1600838407
1600838750
1600839854
1600843398
1600844919
1600844910
1600846140
1600847050
1600847490
1600848041
1600848759
1600848753
1600848940
1600849472
1600852072
1600852149
1600853044
1600854033
1600855029
1600855442
1600856864
1600857995
1600858315
1600859103
1600859685
1600861387
1600862026
1600866357
1600868047
1600868818
1600870229
1600870519
1600872596
1600874593
1600875743
1600876131
1600876706
1600877429
1600879678
1600880589
1600881431
1600881849
1600884058
1600884439
1600885492
1600886722
1600887009
1600890681
1600890823
1600890995
1600894860
1600896578
1600899298
1600903601
1600904065
1600904089
1600904506
1600904990
1600904993
1600906293
1600906308
1600907512
1600907990
1600907907
1600908316
1600911237
1600913159
1600913126
1600913468
1600914427
1600914799
1600915024
1600915568
1600915768
1600915694
1600916047
1600917657
1600917799
1600917831
1600918858
1600920200
1600922376
1600922421
1600924210
1600925040
1600925633
1600926832
1600927367
1600927464
1600929743
1600931265
1600932177
1600934923
1600935143
1600936675
1600936938
1600936997
1600936956
1600938489
1600940763
1600942027
1600942533
1600943704
1600944298
1600945009
1600945871
1600947519
1600948737
1600954282
1600954557
1600956755
1600957297
1600957812
1600958031
1600958256
1600958638
1600958770
1600959598
1600959749
1600961697
1600962029
1600962418
1600963959
1600964101
1600964332
1600964473
1600964497
1600968740
1600971562
1600971502
1600972014
1600972122
1600972200
1600974853
1600975273
1600975875
1600975927
1600978049
1600978745
1600979452
1600980093
1600983824
1600988161
1600989614
1600990652
1600990977
1600991111
1600991121
1600991568
1600992526
1600992547
1600992873
1600994021
1600994067
1600995980
1601000044
1601001199
1601007275
1601007569
1601010569
1601011582
1601012041
1601013635
1601015081
1601016131
1601016819
1601016841
1601017050
1601018767
1601019405
1601020960
1601021085
1601021083
1601021164
1601022467
1601022654
1601023947
1601026899
1601028474
1601029267
1601030638
1601031371
1601031597
1601033395
1601035928
1601036017
1601036025
1601036145
1601036323
1601038501
1601039498
1601039536
1601039860
1601040567
1601042749
1601042848
1601043715
1601044365
1601045173
1601045283
1601047020
1601047552
1601049290
1601050003
1601050397
1601050733
1601050688
1601051538
1601052378
1601052491
1601054000
1601055223
1601056134
1601058256
1601059632
1601060611
1601061521
1601064017
1601065254
1601066490
1601067170
1601067705
1601070378
1601071408
1601071957
1601072104
1601075094
1601076326
1601076719
1601078713
1601083411
1601084626
1601084781
1601085717
1601085913
1601087227
1601088174
1601088333
1601089776
1601091285
1601093277
1601094631
1601094772
1601095382
1601096981
1601097574
1601099694
1601100397
1601101079
1601102898
1601104589
1601105450
1601107202
1601107730
1601111974
1601112059
1601112436
1601114035
1601114285
1601115606
1601117514
1601120016
1601120070
1601120151
1601120439
1601121452
1601122620
1601122854
1601123709
1601125671
1601128491
1601129066
1601132906
1601134084
1601135106
1601136453
1601137605
1601140071
1601140553
1601142424
1601142540
1601143853
1601144005
1601144913
1601144965
1601145270
1601145315
1601146829
1601147546
1601151233
1601154320
1601156968
1601160937
1601161244
1601161653
1601161741
1601164124
1601166980
1601168440
1601171717
1601173091
1601173450
1601174807
1601176022
1601176731
1601176631
1601178070
1601179694
1601180283
1601180468
1601183400
1601184913
1601185762
1601186902
1601187358
1601188519
1601190026
1601192237
1601192321
1601192553
1601194345
1601195821
1601196556
1601196735
1601196970
1601199172
1601199661
1601202788
1601204629
1601205971
1601207014
1601208718
1601209225
1601209004
1601210319
1601210639
1601210814
1601211633
1601212633
1601214383
1601216088
1601217229
1601220040
1601220937
1601222150
1601222753
1601223091
1601223641
1601225295
1601230134
1601230459
1601232475
1601233168
1601234502
1601235608
1601236471
1601237650
1601237769
1601237768
1601238590
1601239003
1601239816
1601239594
1601240847
1601241854
1601246206
1601246906
1601247444
1601248529
1601248736
1601250281
1601251916
1601252264
1601254138
1601257145
1601258931
1601258995
1601259341
1601259987
1601260737
1601265107
1601265311
1601270838
1601272452
1601274769
1601276157
1601276768
1601277826
1601278338
1601278452
1601278853
1601279354
1601280370
1601281229
1601282348
1601286417
1601286685
1601288111
1601289907
1601290139
1601291020
1601294415
1601294796
1601297269
1601297359
1601300134
1601300999
1601301279
1601304218
1601305190
1601305601
1601309069
1601312671
1601312965
1601314890
1601317785
1601317948
1601318037
1601319095
1601320267
1601320488
1601320894
1601321893
1601322017
1601322446
1601325962
1601331067
1601331427
1601331633
1601331861
1601332179
1601332520
1601333126
1601333546
1601333807
1601334119
1601334469
1601334815
1601335211
1601336406
1601337713
1601338642
1601338908
1601339921
1601341917
1601343505
1601347278
1601347469
1601347553
1601348547
1601349561
1601349625
1601349931
1601350811
1601353204
1601353607
1601353669
1601355184
1601355432
1601356396
1601357335
1601357486
1601360112
1601360701
1601362450
1601363500
1601363726
1601364184
1601365731
1601366468
1601367244
1601367659
1601367730
1601368481
1601368894
1601369422
1601370544
1601371982
1601374916
1601374873
1601375395
1601376052
1601376704
1601376699
1601377213
1601377371
1601379412
1601379919
1601380610
1601382611
1601383168
1601384655
1601384679
1601384743
1601386552
1601388686
1601388876
1601390080
1601390770
1601392280
1601393061
1601393916
1601395178
1601395209
1601396799
1601396956
1601400277
1601400806
1601400996
1601401967
1601402147
1601402450
1601402904
1601404105
1601408835
1601409730
1601411136
1601411311
1601414517
1601415054
1601415310
1601416064
1601417213
1601419037
1601420046
1601421219
1601421870
1601423537
1601424037
1601424527
1601427147
1601429668
1601431107
1601431481
1601433817
1601434402
1601435709
1601436428
1601437936
1601441214
1601442909
1601443103
1601443441
1601444848
1601445640
1601448538
1601448623
1601451007
1601451134
1601453154
1601453302
1601455411
1601455577
1601456311
1601457605
1601458021
1601458146
1601458416
1601458459
1601458581
1601459330
1601460019
1601461515
1601462960
1601464836
1601465334
1601465706
1601467045
1601467952
1601468988
1601470338
1601470235
1601472541
1601472699
1601473195
1601473817
1601474402
1601477149
1601477371
1601477702
1601479272
1601479996
1601480167
1601480622
1601481618
1601481816
1601482382
1601482455
1601484109
1601484253
1601485183
1601485225
1601486991
1601487452
1601487828
1601488722
1601490697
1601491323
1601491441
1601491786
1601495463
1601495649
1601496131
1601498027
1601502120
1601503097
1601503452
1601503621
1601505814
1601506743
1601507771
1601508702
1601509588
1601512745
1601513061
1601513201
1601514078
1601515751
1601515913
1601516034
1601516170
1601516506
1601517788
1601517859
1601518713
1601519808
1601521020
1601522765
1601525595
1601527881
1601528542
1601528655
1601531190
1601531588
1601532513
1601536054
1601537074
1601538858
1601539594
1601539889
1601541010
1601542227
1601542510
1601544084
1601544392
1601544648
1601545781
1601545867
1601546326
1601547785
1601548642
1601549089
1601550166
1601550755
1601550769
1601551249
1601553991
1601555717
1601556641
1601556977
1601561532
1601561880
1601562742
1601565182
1601570884
1601572142
1601572320
1601572727
1601573279
1601574287
1601575974
1601577372
1601578276
1601578578
1601578748
1601579309
1601580000
1601580925
1601581456
1601581525
1601582189
1601582333
1601582699
1601584290
1601584455
1601584857
1601586152
1601588247
1601588661
1601589074
1601589809
1601590513
1601591165
1601591452
1601591806
1601595260
1601596359
1601596640
1601597827
1601599142
1601599713
1601603023
1601606049
1601609544
1601611318
1601611794
1601612141
1601612422
1601613244
1601613271
1601616249
1601619503
1601619966
1601620628
1601621022
1601621156
1601622605
1601623955
1601624359
1601624937
1601627449
1601627482
1601628827
1601630465
1601631489
1601631675
1601633440
1601635852
1601636792
1601638138
1601638533
1601639010
1601639212
1601639223
1601639414
1601639997
1601641160
1601643497
1601645156
1601645404
1601645511
1601646340
1601645718
1601648170
1601648668
1601649861
1601650543
1601653368
1601653638
1601655482
1601656316
1601656462
1601658376
1601659670
1601660657
1601662333
1601664199
1601665960
1601665948
1601666763
1601667386
1601668415
1601668752
1601670007
1601670290
1601674009
1601675809
1601676221
1601677194
1601677953
1601678706
1601678823
1601679099
1601681303
1601681532
1601681717
1601682893
1601688520
1601689268
1601692722
1601692781
1601694862
1601694759
1601695433
1601696018
1601696516
1601699101
1601699687
1601701205
1601701727
1601702087
1601702160
1601702781
1601702885
1601703102
1601704598
1601706118
1601708224
1601709039
1601709267
1601711423
1601712408
1601712671
1601714538
1601716413
1601717044
1601717672
1601717741
1601718162
1601718528
1601718872
1601720506
1601721317
1601725764
1601726025
1601728872
1601733335
1601734017
1601735312
1601736059
1601739054
1601740488
1601744299
1601745910
1601747895
1601748312
1601749017
1600001595
1600001943
1600001892
1600002470
1600002703
1600003029
1600005149
1600005141
1600009028
1600010655
1600010185
1600014919
1600018948
1600022116
1600024351
1600025013
1600024963
1600029723
1600029844
1600031007
1600042374
1600043317
1600043406
1600046806
1600047215
1600051474
1600052071
1600058962
1600062556
1600063307
1600065783
1600068130
1600073443
1600074463
1600076923
1600080477
1600082167
1600085560
1600085535
1600085906
1600090271
1600091677
1600098534
1600099591
1600100352
1600105979
1600113336
1600115943
1600115991
1600116947
1600117435
1600123828
1600124192
1603065409
1603067052
1603068073
1603069618
1603073343
1603074305
1603075200
1603075699
1603078053
1603078175
1603084215
1603084552
1603085002
1603085437
1603086292
1603087372
1603087517
1603088155
1603088489
1603089382
1603090488
1603091390
1603091861
1603092478
1603094520
1603096683
1603096859
1603097089
1603097572
1603097891
1603098107
1603100055
1603100397
1603101615
1603101829
1603102938
1603103421
1603102671
1603104036
1603104040
1603104447
1603104460
1603104514
1603105059
1603105109
1603107039
1603110598
1603111172
1603111197
1603113145
1603113705
1603114119
1603114578
1603115650
1603116280
1603118295
1603118426
1603118903
1603119149
1603120217
1603120682
1603120942
1603121160
1603121327
1603122388
1603126978
1603129969
1603132728
1603133452
1603134231
1603134235
1603134739
1603134983
1603136626
1603139645
1603139530
1603142872
1603143338
1603144579
1603147636
1603147281
1603150112
1603150352
1603151254
1603151730
1603152648
1603154132
1603155809
1603157910
1603158723
1603161245
1603161918
1603162212
1603163629
1603163890
1603164662
1603168947
1603170471
1603171701
1603172231
1603173015
1603173430
1603174018
1603174724
1603176493
1603177945
1603178023
1603178512
1603179446
1603181839
1603182518
1603185005
1603185138
1603185708
1603188103
1603188477
1603188851
1603190110
1603190718
1603190925
1603191262
1603191493
1603191901
1603192000
1603192006
1603192888
1603193082
1603193681
1603194289
1603198211
1603198517
1603201130
1603202960
1603203614
1603203807
1603203903
1603205249
1603206259
1603207201
1603208231
1603209608
1603210272
1603213183
1603217856
1603218025
1603218158
1603217919
1603218540
1603219991
1603220969
1603220949
1603221291
1603223127
1603227723
1603228172
1603228205
1603229381
1603230083
1603232079
1603233358
1603235735
1603236165
1603242569
1603244204
1603244242
1603245543
1603246619
1603246958
1603251014
1603251477
1603251639
1603253751
1603255033
1603255351
1603258257
1603259469
1603262006
1603262294
1603262447
1603263151
1603264844
1603265111
1603267242
1603267613
1603268481
1603269495
1603270082
1603272046
1603272318
1603273824
1603276452
1603278235
1603282355
1603283344
1603284684
1603285573
1603287364
1603288479
1603288914
1603289161
1603290065
1603291630
1603292232
1603294297
1603299107
1603300616
1603301630
1603303029
1603303168
1603303449
1603304368
1603307778
1603308029
1603308192
1603308294
1603309778
1603310186
1603310826
1603311249
1603312916
1603313823
1603314886
1603315086
1603315941
1603315909
1603319571
1603319195
1603322038
1603322850
1603322945
1603323478
1603323824
1603324261
1603324709
1603324406
1603325648
1603325757
1603326859
1603326805
1603327483
1603327624
1603328015
1603328384
1603332655
1603335069
1603335140
1603334848
1603336565
1603336700
1603338470
1603339110
1603339320
1603344737
1603345725
1603345901
1603346895
1603348591
1603349106
1603349392
1603351683
1603351812
1603353142
1603353325
1603355054
1603355240
1603357742
1603358749
1603361134
1603362138
1603364945
1603364938
1603366705
1603367563
1603371629
1603371816
1603371781
1603374148
1603374355
1603374668
1603374635
1603374774
1603375199
1603376028
1603376250
1603376363
1603376599
1603377492
1603378180
1603379677
1603379854
1603380058
1603381126
1603382388
1603383717
1603383768
1603384329
1603385740
1603387131
1603386943
1603389847
1603392319
1603393623
1603395521
1603396038
1603397937
1603399901
1603400129
1603400229
1603401478
1603401663
1603401852
1603400421
1603403196
1603404199
1603406450
1603406869
1603407358
1603407553
1603408007
1603408546
1603410421
1603412026
1603412569
1603413383
1603416650
1603417438
1603421748
1603421840
1603423467
1603424613
1603427079
1603427062
1603428991
1603432461
1603433625
1603436959
1603437331
1603438257
1603439338
1603440652
1603440758
1603440916
1603441839
1603443769
1603444362
1603444834
1603445145
1603445352
1603445673
1603449248
1603450448
1603450743
1603452312
1603452957
1603452922
1603453747
1603454422
1603455292
1603456730
1603457594
1603458011
1603459202
1603458991
1603459584
1603459825
1603459682
1603459506
1603461386
1603461438
1603462196
1603465096
1603466058
1603467296
1603467619
1603468847
1603472350
1603474524
1603477536
1603479021
1603479486
1603480634
1603483098
1603484090
1603484822
1603487281
1603488269
1603488522
1603489089
1603489454
1603490178
1603490426
1603490450
1603490775
1603491069
1603491413
1603492074
1603492296
1603492790
1603496643
1603498004
1603499571
1603499518
1603502185
1603502521
1603502133
1603503052
1603503219
1603503734
1603505970
1603506167
1603506840
1603507198
1603507681
1603508863
1603509084
1603510503
1603510437
1603510984
1603511210
1603511960
1603512512
1603513692
1603514219
1603516729
1603517494
1603517652
1603518989
1603519421
1603523105
1603527740
1603528619
1603529574
1603529628
1603532804
1603535288
1603536894
1603539059
1603540311
1603540297
1603540088
1603541298
1603543895
1603545057
1603545238
1603548420
1603551590
1603553017
1603555332
1603555678
1603556990
1603556775
1603557847
1603558070
1603559495
1603561198
1603563119
1603565296
1603565577
1603565993
1603567807
1603568262
1603569397
1603570330
1603571527
1603572981
1603573107
1603576333
1603577387
1603579068
1603579669
1603579777
1603580029
1603580051
1603581661
1603581750
1603583060
1603584200
1603584743
1603586249
1603588031
1603588824
1603590231
1603591154
1603592412
1603592645
1603592782
1603594758
1603595175
1603595007
1603597223
1603598213
1603598387
1603599268
1603600513
1603600887
1603601149
1603602672
1603606174
1603606830
1603607122
1603607897
1603610673
1603610675
1603611021
1603613342
1603613355
1603614944
1603615367
1603615437
1603617050
1603618641
1603618000
1603619177
1603621244
1603623868
1603624042
1603625223
1603627217
1603628417
1603630818
1603630916
1603631366
1603631306
1603632807
1603634695
1603636179
1603637251
1603637308
1603637284
1603638322
1603638520
1603639030
1603641729
1603641879
1603643296
1603644189
1603644247
1603644389
1603644458
1603646244
1603648390
1603649427
1603651708
1603654296
1603654327
1603656091
1603656782
1603656978
1603659193
1603659538
1603661130
1603661704
1603662629
1603664709
1603665821
1603667421
1603668006
1603668154
1603669848
1603671870
1603672439
1603672635
1603672943
1603673742
1603674375
1603677937
1603677991
1603678209
1603678181
1603679065
1603678802
1603679509
1603681137
1603682360
1603687078
1603686892
1603687486
1603687988
1603688212
1603688715
1603690931
1603692348
1603693496
1603697782
1603699367
1603701642
1603703784
1603703934
1603704424
1603705272
1603705709
1603707434
1603707505
1603706087
1603708101
1603708395
1603708599
1603709272
1603709674
1603710522
1603714153
1603714342
1603714518
1603715129
1603715364
1603715820
1603715907
1603716767
1603716764
1603717618
1603718488
1603719110
1603720646
1603721338
1603721716
1603723000
1603724884
1603727755
1603726828
1603728251
1603729946
1603731485
1603732236
1603733008
1603733407
1603734351
1603735978
1603738101
1603739217
1603739833
1603739937
1603743713
1603744210
1603745344
1603745441
1603745589
1603747301
1603748550
1603751220
1603751305
1603751271
1603751472
1603753882
1603755629
1603756407
1603756713
1603756916
1603757094
1603758632
1603759124
1603759510
1603760492
1603761199
1603762621
1603763591
1603763986
1603764104
1603766234
1603767495
1603768209
1603769204
1603775504
1603775816
1603775852
1603779248
1603779421
1603780338
1603781407
1603782588
1603783288
1603784248
1603785505
1603786286
1603786611
1603787415
1603787877
1603792999
1603793513
1603794171
1603794486
1603794821
1603795130
1603795396
1603795970
1603796915
1603798930
1603800615
1603801928
1603807411
1603807990
1603808289
1603812638
1603813872
1603818227
1603819232
1603822947
1603823569
1603826556
1603828292
1603828590
1603832410
1603836964
1603844747
1603846878
1603846675
1603847141
1603848489
1603849797
1603852455
1603853823
1603859117
1603861081
1603864635
1603871487
1603876727
1603877977
1603878883
1603882905
1603889973
1603891086
1603891801
1603898929
1603899163
1603899614
1603901791
1603902032
1603902642
1603903374
1603904506
1603906365
1603906456
1603907047
1603906637
1603913012
1603913497
1603914095
1603914202
1603914750
1603918180
1603921398
1603922383
1603928888
1603929650
1603930251
1603935436
1603936374
1603936417
1603937417
1603937775
1603938573
1603939957
1603940750
1603941455
1603941917
1603942540
1603942580
1603944010
1603945982
1603946128
1603946201
1603947036
1603948863
1603950533
1603951642
1603952227
1603952944
1603951762
1603960008
1603960616
1603964572
1603965153
1603966861
1603967262
1603968721
1603970193
1603971562
1603974804
1603976993
1603977648
1603981857
1603981890
1603985521
1603987005
1603986862
1603987380
1603990497
1603994104
1603994221
1603994547
1603995293
1603995565
1603996215
1603996027
1604001635
1604002650
1604002721
1604002908
1604003815
1604004560
1604004547
1604005025
1604005678
1604009279
1604009761
1604010244
1604010521
1604011315
1604011751
1604012673
1604012577
1604013363
1604015755
1604017814
1604018459
1604019480
1604020643
1604020918
1604022235
1604025161
1604027057
1604030066
1604031443
1604032109
1604031966
1604033511
1604033721
1604034003
1604034575
1604036809
1604041194
1604041340
1604044061
1604049436
1604053540
1604053761
1604054465
1604054416
1604056444
1604056739
1604057194
1604058596
1604060317
1604061061
1604061790
1604062343
1604065194
1604067048
1604067862
1604068161
1604068773
1604070849
1604073001
1604073931
1604073948
1604075908
1604075778
1604078699
1604078589
1604080758
1604081944
1604083769
1604083931
1604084003
1604084952
1604087897
1604090259
1604092300
1604092590
1604093407
1604094789
1604096268
1604096297
1604097496
1604097296
1604097738
1604098751
1604099553
1604100189
1604101058
1604105231
1604105887
1604106800
1604109044
1604113036
1604113644
1604113779
1604116228
1604116733
1604117578
1604118190
1604118984
1604119782
1604120504
1604123866
1604124524
1604125619
1604125734
1604127770
1604128241
1604128153
1604129247
1604132667
1604133064
1604133323
1604137367
1604138696
1604138682
1604139718
1604142566
1604145704
1604148201
1604149020
1604149538
1604150188
1604150574
1604153888
1604156437
1604158610
1604158772
1604158991
1604159468
1604159608
1604160824
1604162480
1604163404
1604166305
1604167955
1604170657
1604172162
1604173345
1604173778
1604176693
1604177422
1604174755
1604177740
1604178359
1604178690
1604179626
1604179903
1604181345
1604181556
1604181740
1604185044
1604185035
1604185090
1604188659
1604188718
1604189484
1604189716
1604191236
1604192353
1604192901
1604195967
1604196751
1604196780
1604198075
1604199044
1604199839
1604204926
1604203191
1604206611
1604206854
1604206789
1604210207
1604211032
1604211348
1604211953
1604211901
1604214866
1604216111
1604216214
1604220354
1604221160
1604219563
1604222637
1604222707
1604223377
1604223426
1604225847
1604231066
1604234633
1604235221
1604235734
1604236520
1604236601
1604237354
1604240484
1604241433
1604241608
1604241816
1604243099
1604251273
1604251835
1604252305
1604252481
1604252724
1604252822
1604253087
1604253195
1604253426
1604253612
1604255266
1604256855
1604258553
1604261237
1604261889
1604264848
1604265098
1604265498
1604265630
1604267694
1604268353
1604268416
1604268687
1604272104
1604273064
1604273663
1604278882
1604279298
1604281166
1604281311
1604281777
1604283372
1604284802
1604284871
1604284777
1604285580
1604287030
1604288140
1604288570
1604289428
1604289603
1604291874
1604292195
1604294845
1604295355
1604295471
1604296068
1604296797
1604297880
1604299934
1604300132
1604302278
1604302673
1604302952
1604303305
1604304173
1604305650
1604305852
1604306871
1604307154
1604309479
1604310425
1604314349
1604314482
1604316276
1604317497
1604319176
1604319572
1604320586
1604324116
1604326333
1604327186
1604329890
1604332352
1604335051
1604343783
1604343994
1604344384
1604346291
1604347751
1604348962
1604349107
1604351920
1604353428
1604355524
1604356315
1604356855
1604358959
1604359849
1604359860
1604359898
1604360619
1604362483
1604363520
1604366786
1604366981
1604367147
1604367971
1604369310
1604369322
1604369486
1604370246
1604370590
1604370970
1604371833
1604372727
1604372917
1604373964
1604374528
1604374963
1604375538
1604375647
1604377043
1604377483
1604379490
1604380850
1604382371
1604383134
1604384069
1604384631
1604385222
1604387460
1604391378
1604391396
1604391766
1604398203
1604402487
1604403401
1604404912
1604405313
1604407484
1604412996
1604413249
1604413961
1604416313
1604419524
1604419845
1604421937
1604428246
1604433636
1604443622
1604444973
1604448192
1604454221
1604454914
1604456328
1604457578
1604458455
1604458443
1604459617
1604460007
1604460441
1604460635
1604461058
1604461070
1604463420
1604463724
1604464597
1604465657
1604465959
1604466712
1604467060
1604468537
1604468656
1604469753
1604470799
1604473571
1604473824
1604477896
1604478683
1604479141
1604479750
1604481819
1604482833
1604484042
1604485047
1604485523
1604487107
1604487227
1604489251
1604491096
1604491699
1604491768
1604492286
1604492749
1604492850
1604495340
1604495468
1604497954
1604499949
1604500093
1604500709
1604501034
1604502286
1604504530
1604505203
1604506103
1604506258
1604506422
1604507065
1604507413
1604508141
1604510673
1604511039
1604513033
1604514978
1604515746
1604519220
1604519935
1604520917
1604521044
1604522176
1604522506
1604522674
1604522690
1604523250
1604524520
1604525049
1604525309
1604525706
1604527139
1604527253
1604529799
1604531672
1604533319
1604533517
1604534222
1604535924
1604539057
1604539565
1604539896
1604543770
1604543788
1604544237
1604548920
1604550062
1604550949
1604552496
1604555643
1604555716
1604559002
1604559453
1604561264
1604563457
1604563622
1604564009
1604566757
1604568577
1604569659
1604572597
1604573737
1604575041
1604577349
1604579183
1604580731
1604582164
1604582600
1604583948
1604583986
1604584831
1604585119
1604585194
1604585461
1604585613
1604586743
1604587368
1604587761
1604588231
1604588540
1604590578
1604592371
1604594612
1604595686
1604595848
1604599204
1604599392
1604603368
1604607919
1604608418
1604608716
1604611404
1604612683
1604613084
1604614024
1604614123
1604615097
1604618172
1604618550
1604618678
1604618908
1604619719
1604619693
1604621113
1604622923
1604631086
1604632902
1604636997
1604637390
1604638074
1604642192
1604643595
1604648707
1604651547
1604654087
1604655116
1604658765
1604659151
1604664393
1604664931
1604666849
1604667268
1604667880
1604668185
1604671663
1604671730
1604673987
1604674696
1604676702
1604678360
1604680536
1604682139
1604683831
1604684863
1604685827
1604686341
1604687198
1604687861
1604688943
1604689549
1604690961
1604691793
1604692036
1604694630
1604694986
1604695412
1604697739
1604698887
1604699138
1604699384
1604699834
1604700061
1604700808
1604701571
1604702400
1604705279
1604706974
1604707818
1604709261
1604709772
1604711110
1604714233
1604716279
1604719301
1604720510
1604721622
1604721738
1604725127
1604726006
1604727864
1604730176
1604732057
1604733110
1604733185
1604734896
1604735604
1604736234
1604736587
1604738706
1604740112
1604743015
1604745957
1604749691
1604750227
1604752484
1604752804
1604753017
1604754046
1604755426
1604756101
1604756861
1604757602
1604758166
1604758770
1604758942
1604759299
1604759984
1604761081
1604761539
1604761784
1604762296
1604763399
1604764110
1604764526
1604764479
1604766326
1604766571
1604765939
1604767696
1604769131
1604771401
1604771761
1604771904
1604772118
1604773343
1604774671
1604776891
1604776874
1604777411
1604777466
1604777917
1604779258
1604780396
1604781066
1604783615
1604792379
1604793909
1604794132
1604797867
1604799517
1604801643
1604801989
1604802687
1604804792
1604805326
1604806621
1604807921
1604808852
1604809028
1604808786
1604813158
1604814144
1604814713
1604815396
1604816602
1604816432
1604816665
1604816922
1604819681
1604820561
1604820720
1604820959
1604822501
1604823398
1604823468
1604824591
1604828234
1604829611
1604830814
1604831378
1604831945
1604834274
1604834230
1604834408
1604835784
1604846195
1604846914
1604846912
1604850160
1604855311
1604856995
1604857350
1604858883
1604858416
1604859864
1604862012
1604864226
1604864994
1604865447
1604868575
1604869371
1604868862
1604870008
1604870520
1604870615
1604870997
1604874536
1604874543
1604876655
1604876492
1604876752
1604877005
1604876882
1604877678
1604878773
1604878900
1604879170
1604881652
1604882906
1604883695
1604885042
1604887273
1604887542
1604890862
1604892274
1604892524
1604892588
1604893953
1604894011
1604894163
1604895125
1604895658
1604897310
1604899258
1604903085
1604905117
1604907762
1604908329
1604908999
1604909073
1604910678
1604910772
1604912405
1604912881
1604913191
1604914430
1604914429
1604915490
1604915795
1604915993
1604919325
1604921216
1604921194
1604921283
1604922038
1604922425
1604926858
1604928880
1604929549
1604930318
1604929812
1604931851
1604933643
1604934261
1604934452
1604934541
1604936694
1604936506
1604936931
1604939354
1604941895
1604944944
1604945123
1604945205
1604945836
1604946826
1604947759
1604951868
1604952042
1604954168
1604954268
1604956152
1604958858
1604958881
1604959052
1604960441
1604964816
1604965524
1604965803
1604968392
1604969308
1604970089
1604975095
1604977091
1604978947
1604980512
1604980608
1604981438
1604982057
1604982922
1604983911
1604984974
1604987594
1604987974
1604991671
1604992897
1604996015
1604996279
1604996929
1604997204
1604997317
1604997884
1605002667
1605003473
1605005521
1605005504
1605007754
1605008968
1605008530
1605010668
1605011756
1605012492
1605013439
1605016435
1605020014
1605020700
1605021516
1605023566
1605024327
1605025170
1605025878
1605025889
1605026101
1605027567
1605030225
1605032205
1605034772
1605034747
1605036025
1605037590
1605037598
1605039847
1605040580
1605042349
1605042936
1605046177
1605049584
1605051125
1605052442
1605056112
1605056151
1605057595
1605058298
1605058644
1605058746
1605059349
1605061007
1605061760
1605062843
1605064050
1605064062
1605064575
1605064805
1605065375
1605065457
1605065701
1605066544
1605069058
1605069313
1605069421
1605070184
1605072302
1605075792
1605075889
1605075981
1605076527
1605077099
1605078105
1605078431
1605078860
1605079613
1605081788
1605081899
1605084040
1605087514
1605089383
1605091819
1605092048
1605092766
1605093414
1605093921
1605098212
1605099968
1605100473
1605100763
1605102158
1605104461
1605105010
1605106168
1605107134
1605108462
1605108535
1605109746
1605111251
1605114244
1605115492
1605117666
1605119582
1605119919
1605120610
1605120332
1605121032
1605123932
1605123653
1605124202
1605124231
1605125592
1605125858
1605125854
1605127321
1605128018
1605129289
1605129867
1605130297
1605131681
1605132125
1605134613
1605135335
1605136904
1605138710
1605139208
1605140707
1605143821
1605144147
1605145883
1605148322
1605148631
1605149097
1605149536
1605150263
1605150723
1605150263
1605150723
1605153137
1605153587
1605154887
1605155249
1605157862
1605158079
1605158958
1605159259
1605159319
1605159614
1605159957
1605160188
1605160712
1605161278
1605165022
1605166092
1605166834
1605167100
1605169627
1605170500
1605171023
1605172058
1605172201
1605174321
1605176295
1605176762
1605176717
1605178207
1605178375
1605179317
1605179510
1605180401
1605181240
1605182658
1605183414
1605187722
1605189086
1605189159
1605189221
1605190321
1605193151
1605194014
1605195135
1605195544
1605196443
1605197265
1605197567
1605199076
1605199875
1605201198
1605201786
1605203112
1605203657
1605207058
1605207238
1605207009
1605208303
1605210332
1605212741
1605213685
1605215405
1605215525
1605216104
1605216703
1605219621
1605219813
1605221057
1605221338
1605221635
1605223350
1605227126
1605230882
1605231283
1605233646
1605235186
1605235275
1605235518
1605240941
1605242125
1605245442
1605247171
1605248513
1605248878
1605256494
1605257844
1605259496
1605261015
1605263249
1605263472
1605265412
1605268234
1605268656
1605270578
1605270816
1605274052
1605275159
1605278809
1605279161
1605283726
1605287066
1605289221
1605294252
1605294430
1605295261
1605298240
1605299562
1605301680
1605302345
1605304299
1605304704
1605305991
1605306490
1605307037
1605307465
1605308616
1605309342
1605314886
1605315540
1605316125
1605317118
1605318402
1605318405
1605318690
1605319433
1605321985
1605323123
1605323924
1605324899
1605325746
1605327779
1605328477
1605329277
1605330189
1605331305
1605333729
1605334060
1605334351
1605336399
1605338482
1605338922
1605341305
1605341205
1605342236
1605344390
1605346127
1605347107
1605349460
1605351858
1605352580
1605355601
1605354898
1605356137
1605356922
1605356950
1605357328
1605358184
1605358216
1605359575
1605360038
1605360127
1605361213
1605361610
1605362530
1605363377
1605366741
1605372385
1605372459
1605378904
1605381859
1605383344
1605383470
1605384390
1605384421
1605385476
1605388279
1605388390
1605388566
1605392675
1605392917
1605396597
1605397314
1605398156
1605401168
1605401338
1605402108
1605402318
1605403431
1605408034
1605410371
1605412216
1605412277
1605413813
1605413724
1605418621
1605420273
1605424608
1605425978
1605426952
1605430597
1605431098
1605435831
1605437511
1605442320
1605446546
1605447103
1605449937
1605457767
1605460367
1605468932
1605470118
1605473107
1605478352
1605478453
1605478165
1605479924
1605483295
1605484524
1605492405
1605493146
1605501063
1605501495
1605502419
1605503375
1605504606
1605506713
1605506672
1605508401
1605510132
1605510157
1605511822
1605513057
1605519362
1605520987
1605525182
1605527583
1605533683
1605535099
1605536430
1605538264
1605540775
1605543983
1605545996
1605551845
1605553047
1605554625
1605562211
1605570173
1605574012
1605581956
1605584806
1605585443
1605591776
1605593343
1605593848
1605604185
1605605370
1605611551
1605611744
1605613584
1605618600
1605619111
1605620176
1605622170
1605622712
1605623328
1605623909
1605625316
1605631967
1605637756
1605640105
1605642519
1605643571
1605650039
1605656085
1605656535
1605657510
1605657496
1605659215
1605660837
1605660595
1605667488
1605667577
1605677893
1605678618
1605688736
1605691888
1605696129
1605702774
1605710555
1605711685
1605714842
1605716254
1605719139
1605720449
1605720540
1605723008
1605724113
1605726142
1605727023
1605727809
1605731172
1605733014
1605733244
1605734146
1605741546
1605744675
1605747925
1605750505
1605753858
1605755257
1605756453
1605757569
1605758129
1605760067
1605761789
1605762218
1605763464
1605765901
1605766056
1605767076
1605769015
1605770887
1605772585
1605773136
1605778602
1605779862
1605782089
1605782261
1605786165
1605789141
1605791610
1605792540
1605798744
1605800005
1605801445
1605803215
1605807895
1605808973
1605810194
1605811045
1605815808
1605817524
1605819036
1605821402
1605826344
1605832255
1605835282
1605847325
1605848036
1605850962
1605851935
1605852451
1605854847
1605859392
1605859850
1605862062
1605864111
1605870543
1605875427
1605877820
1605879478
1605880324
1605882123
1605883135
1605883437
1605884828
1605888616
1605889204
1605890469
1605892354
1605892540
1605894376
1605897214
1605899572
1605903432
1605904494
1605905478
1605906007
1605906762
1605910286
1605916270
1605917858
1605921348
1605922287
1605923169
1605924683
1605927102
1605927806
1605928508
1605931267
1605933198
1605943660
1605945165
1605946741
1605947503
1605947765
1605951158
1605953149
1605954187
1605954603
1605957721
1605957614
1605960135
1605961842
1605962530
1605966593
1605967314
1605969030
1605971959
1605972115
1605972892
1605975035
1605976055
1605979059
1605979491
1605980879
1605987235
1605990121
1605994607
1605997499
1606000585
1606004035
1606009247
1606010344
1606012804
1606016060
1606017318
1606017553
1606022233
1606024626
1606028502
1606029133
1606032224
1606033022
1606033867
1606035552
1606037993
1606041886
1606047572
1606049153
1606050458
1606054222
1606056490
1606060550
1606063273
1606063952
1606067678
1606068502
1606073313
1606073545
1606074231
1606074629
1606075753
1606081458
1606082452
1606082435
1606082395
1606082872
1606085196
1606086120
1606090620
1606092557
1606094313
1606094487
1606094551
1606095227
1606099883
1606101181
1606102019
1606102903
1606103310
1606103484
1606106321
1606106392
1606107303
1606107547
1606110103
1606114782
1606116055
1606116131
1606117907
1606119287
1606119494
1606120184
1606121447
1606122714
1606123303
1606128203
1606129185
1606130217
1606131510
1606133145
1606134107
1606137182
1606137571
1606142039
1606142633
1606145446
1606147476
1606148125
1606149825
1606155845
1606157565
1606158715
1606162095
1606168797
1606169333
1606171274
1606171368
1606172492
1606175280
1606177511
1606182898
1606183701
1606184980
1606185971
1606187729
1606193458
1606193573
1606208727
1606209863
1606214179
1606215083
1606218263
1606219133
1606220330
1606222818
1606223856
1606224916
1606226341
1606227208
1606227695
1606227906
1606229216
1606234106
1606234859
1606234982
1606235782
1606236180
1606241816
1606241764
1606246713
1606248547
1606250621
1606251424
1606251865
1606256386
1606260768
1606263658
1606269498
1606269881
1606272088
1606272296
1606274400
1606274648
1606275697
1606276054
1606277188
1606280279
1606280308
1606282210
1606285987
1606298424
1606300074
1606303248
1606305201
1606305784
1606310772
1606310927
1606314141
1606316187
1606317375
1606319015
1606317511
1606324135
1606326802
1606327931
1606332298
1606335600
1606341570
1606342447
1606348005
1606351052
1606353817
1606354329
1606357105
1606358426
1606360738
1606362096
1606363719
1606366732
1606371258
1606371616
1606373787
1606374224
1606374487
1606379138
1606381086
1606382427
1606386823
1606387143
1606387950
1606388129
1606388495
1606390791
1606394166
1606395691
1606397343
1606399310
1606401116
1606401636
1606401839
1606401953
1606405899
1606406469
1606407028
1606411179
1606411966
1606413795
1606420202
1606421836
1606422723
1606421720
1606423404
1606427565
1606428430
1606432799
1606433360
1606435081
1606435343
1606436323
1606443386
1606445736
1606447543
1606448529
1606449080
1606449637
1606451402
1606454558
1606457949
1606467750
1606469130
1606469535
1606471428
1606471438
1606473229
1606476566
1606476640
1606487845
1606488120
1606488385
1606494287
1606499894
1606505615
1606509334
1606510491
1606513110
1606518938
1606522526
1606524524
1606528292
1606531237
1606536107
1606537685
1606538774
1606540623
1606541796
1606542775
1606543794
1606546503
1606547402
1606549621
1606551858
1606552517
1606552725
1606553514
1606553278
1606566098
1606567063
1606567839
1606568099
1606570137
1606572083
1606573079
1606573122
1606582169
1606589822
1606590428
1606592603
1606599509
1606599762
1606601432
1606601196
1606605725
1606609325
1606611084
1606611300
1606615489
1606617206
1606619976
1606623975
1606627717
1606628095
1606631970
1606634945
1606635527
1606640487
1606642935
1606643478
1606653582
1606655799
1606659701
1606663895
1606664903
1606666387
1606668941
1606669376
1606670204
1606670426
1606670621
1606670739
1606670993
1606671669
1606673508
1606674348
1606674642
1606681492
1606690547
1606691708
1606691871
1606694327
1606695744
1606696109
1606698256
1606701225
1606704281
1606708111
1606708842
1606710058
1606712222
1606712650
1606714954
1606716116
1606716453
1606721024
1606726162
1606727711
1606729078
1606738104
1606738122
1606738910
1606741286
1606741466
1606741777
1606742111
1606747854
1606750590
1606756994
1606757333
1606761819
1606768113
1606768699
1606769657
1606770513
1606772527
1606773648
1606777875
1606778499
1606780998
1606783862
1606788197
1606789695
1606791114
1606793375
1606793540
1606797061
1606797591
1606800561
1606803377
1606805829
1606809900
1606809895
1606826811
1606832917
1606846839
1606847440
1606849438
1606850103
1606850551
1606852303
1606853037
1606854270
1606860212
1606863163
1606864405
1606864978
1606869282
1606869827
1606869968
1606870691
1606871641
1606872196
1606872534
1606878009
1606878666
1606879378
1606879442
1606881477
1606882107
1606883221
1606883560
1606885179
1606885727
1606886240
1606894106
1606895999
1606900540
1606909191
1606910250
1606917427
1606923673
1606925067
1606929957
1606936419
1606936595
1606939540
1606939711
1606940210
1606942054
1606945340
1606946821
1606946995
1606947221
1606950139
1606950678
1606952011
1606956581
1606957975
1606957822
1606958803
1606962731
1606964010
1606964941
1606966276
1606967564
1606968886
1606969679
1606969817
1606972616
1606972746
1606973993
1606975307
1606981197
1606981371
1606984480
1606986272
1606987896
1606989556
1606995318
1606995340
1606996124
1606997580
1607001174
1607001453
1607003465
1607016249
1607016784
1607017281
1607021287
1607030904
1607031788
1607032284
1607034917
1607036086
1607041877
1607042222
1607047238
1607053905
1607062512
1607066858
1607070292
1607070914
1607072493
1607072772
1607078746
1607080364
1607081235
1607089146
1607091482
1607092488
1607096162
1607101591
1607102006
1607103125
1607105225
1607107830
1607111093
1607111610
1607113674
1607122716
1607124816
1607125566
1607127689
1607128238
1607132751
1607134002
1607134248
1607134397
1607137952
1607139767
1607141085
1607142562
1607146939
1607146905
1607149189
1607149159
1607150087
1607154304
1607158208
1607160291
1607160861
1607162726
1607162375
1607163849
1607167496
1607167843
1607169293
1607176170
1607181098
1607182515
1607186313
1607188280
1607190893
1607194502
1607194799
1607197108
1607203761
1607204158
1607209415
1607209270
1607212877
1607212942
1607214350
1607218164
1607219442
1607222344
1607222802
1607230870
1607232278
1607232811
1607235223
1607240588
1607242449
1607243978
1607251689
1607251836
1607252527
1607252823
1607253352
1607256240
1607258022
1607263192
1607263809
1607264751
1607265243
1607266112
1607267220
1607269263
1607269790
1607269901
1607277319
1607277391
1607278860
1607279658
1607281049
1607286805
1607288485
1607289762
1607293387
1607296399
1607297582
1607301032
1607308772
1607312867
1607314178
1607314993
1607322328
1607329342
1607337428
1607337645
1607339554
1607342039
1607342662
1607343561
1607347075
1607347565
1607348487
1607349366
1607350526
1607351750
1607354122
1607365336
1607367566
1607373131
1607378808
1607380058
1607381756
1607383996
1607384185
1607384955
1607385405
1607388343
1607388439
1607393764
1607395696
1607398214
1607400500
1607405118
1607406668
1607408630
1607408696
1607408685
1607408843
1607409194
1607411484
1607412638
1607412924
1607418743
1607420459
1607432455
1607434080
1607434423
1607434630
1607436046
1607437641
1607438775
1607441846
1607443009
1607445490
1607445599
1607454310
1607454720
1607456279
1607458652
1607459033
1607461455
1607462883
1607462433
1607468206
1607474777
1607476781
1607477732
1607480475
1607482163
1607481586
1607482260
1607483885
1607484491
1607491948
1607491956
1607493348
1607495573
1607496857
1607500003
1607501182
1607501586
1607503062
1607504818
1607505329
1607520406
1607520386
1607520605
1607521854
1607525789
1607526614
1607526945
1607530608
1607531075
1607531182
1607531329
1607532801
1607533964
1607536529
1607537247
1607538448
1607539571
1607540019
1607543255
1607543459
1607544039
1607545434
1607546579
1607549905
1607551242
1607553768
1607557435
1607557715
1607559207
1607565935
1607568141
1607569686
1607570120
1607570200
1607571145
1607575218
1607575048
1607577052
1607579829
1607582498
1607582547
1607586105
1607586812
1607595212
1607596350
1607596540
1607596924
1607603058
1607607414
1607608037
1607610439
1607614621
1607615950
1607625028
1607630194
1607632864
1607633452
1607638045
1607638395
1607640522
1607642070
1607646474
1607646702
1607649070
1607649838
1607659926
1607662307
1607667615
1607678080
1607679454
1607680639
1607681454
1607681710
1607682218
1607684215
1607688154
1607689606
1607689995
1607691534
1607691707
1607698707
1607699790
1607702913
1607704553
1607706453
1607708102
1607708574
1607708865
1607712604
1607714741
1607715461
1607718331
1607719408
1607719542
1607721825
1607723393
1607725403
1607735723
1607737418
1607737644
1607737713
1607746129
1607747041
1607749253
1607752085
1607754730
1607757212
1607757366
1607757411
1607758615
1607763025
1607764797
1607765393
1607767293
1607769993
1607770119
1607772410
1607775250
1607775522
1607781912
1607782608
1607785424
1607789861
1607791977
1607795802
1607797056
1607797040
1607799671
1607799825
1607802378
1607802597
1607806760
1607816052
1607819936
1607821098
1607821494
1607821753
1607823263
1607825943
1607838872
1607840182
1607842309
1607843903
1607854111
1607857114
1607859026
1607859325
1607859437
1607862840
1607862988
1607867478
1607870104
1607870810
1607871890
1607873811
1607873784
1607875510
1607875349
1607875972
1607878128
1607883933
1607884394
1607885859
1607886536
1607887152
1607887637
1607887641
1607888435
1607889542
1607894058
1607894717
1607899928
1607904582
1607908003
1607911853
1607912975
1607915100
1607915749
1607921623
1607922290
1607925359
1607925794
1607928135
1607928204
1607929010
1607935235
1607943711
1607943870
1607944548
1607949346
1607952614
1607955506
1607955773
1607956493
1607960201
1607963087
1607965044
1607967415
1607974087
1607977700
1607979335
1607982811
1607985661
1607986651
1607986864
1607987558
1607987748
1607988257
1607988927
1607989419
1607989631
1607991865
1607992138
1607994418
1608014359
1608019175
1608019862
1608021260
1608021654
1608021750
1608024857
1608025123
1608026874
1608026829
1608028284
1608030514
1608031139
1608031212
1608031671
1608033013
1608033042
1608034725
1608035751
1608035711
1608035829
1608039623
1608040048
1608040577
1608041068
1608048154
1608049687
1608051154
1608052593
1608052676
1608053328
1608053774
1608055707
1608059090
1608059885
1608060896
1608060902
1608061031
1608062324
1608064790
1608064936
1608066267
1608071248
1608075240
1608076010
1608078936
1608081646
1608083725
1608084240
1608086270
1608087815
1608088173
1608090416
1608091965
1608096209
1608100393
1608104536
1608105892
1608108819
1608108702
1608109853
1608113625
1608115273
1608117626
1608120822
1608121896
1608123535
1608126166
1608130742
1608130951
1608132686
1608133635
1608137599
1608137996
1608139669
1608143172
1608144739
1608144790
1608147596
1608148397
1608151611
1608153259
1608153547
1608158112
1608165019
1608165845
1608167161
1608170401
1608173457
1608173858
1608181974
1608182456
1608184743
1608185288
1608190096
1608190141
1608190865
1608191949
1608192155
1608194368
1608194876
1608197635
1608198159
1608198637
1608201007
1608202713
1608203276
1608203433
1608204757
1608207524
1608208399
1608209108
1608210929
1608211551
1608216191
1608218118
1608219380
1608221511
1608224467
1608225768
1608225975
1608228137
1608230051
1608230986
1608234204
1608241101
1608243217
1608246539
1608247050
1608248107
1608248263
1608248641
1608250745
1608251349
1608254603
1608258016
1608260254
1608262104
1608263020
1608262962
1608263419
1608265497
1608267560
1608272113
1608273361
1608280105
1608280623
1608280849
1608281342
1608282665
1608286271
1608286915
1608287416
1608288550
1608291747
1608294124
1608296122
1608306427
1608313106
1608313913
1608316696
1608318315
1608320379
1608321664
1608322326
1608330446
1608331573
1608331709
1608336160
1608337361
1608339384
1608339507
1608345228
1608348243
1608351646
1608352857
1608352960
1608354620
1608356097
1608357482
1608359957
1608365784
1608366080
1608366843
1608373265
1608375204
1608381107
1608382132
1608383741
1608386678
1608387488
1608390413
1608391123
1608393695
1608393885
1608397665
1608398576
1608400987
1608401758
1608403023
1608403991
1608407912
1608408028
1608410266
1608410627
1608410709
1608411511
1608411314
1608412910
1608415257
1608417338
1608418521
1608424858
1608425537
1608429083
1608431451
1608432212
1608432480
1608434141
1608434591
1608435004
1608436525
1608442298
1608442830
1608448387
1608449137
1608449490
1608451015
1608456058
1608457855
1608464501
1608466194
1608466169
1608466504
1608467223
1608468933
1608469052
1608469631
1608476731
1608477574
1608477664
1608477720
1608477367
1608483228
1608483871
1608488210
1608488744
1608489813
1608489703
1608490762
1608493779
1608494548
1608496295
1608497471
1608499603
1608500044
1608501910
1608503817
1608507306
1608508489
1608508236
1608509921
1608519525
1608521537
1608523432
1608528445
1608530576
1608533786
1608534783
1608535960
1608536452
1608538735
1608547156
1608550065
1608550272
1608552393
1608559259
1608563829
1608565210
1608567222
1608569322
1608574529
1608575654
1608579103
1608581487
1608581783
1608582857
1608587013
1608595202
1608601879
1608604052
1608604484
1608605140
1608607670
1608618097
1608620235
1608623366
1608623416
1608623477
1608628872
1608629514
1608630588
1608630799
1608637441
1608642176
1608642651
1608643736
1608650893
1608654029
1608654145
1608654639
1608656670
1608657554
1608658471
1608658506
1608660960
1608663420
1608668659
1608669850
1608672230
1608675280
1608675916
1608676739
1608677116
1608682332
1608685696
1608689537
1608691030
1608693293
1608694258
1608695496
1608701865
1608704824
1608707546
1608712561
1608712673
1608712779
1608718878
1608721408
1608725322
1608728469
1608731255
1608732063
1608733825
1608736300
1608737157
1608739219
1608740311
1608740641
1608751233
1608757339
1608758728
1608760751
1608762956
1608769045
1608772073
1608775068
1608778330
1608781195
1608784813
1608784900
1608788798
1608789716
1608789652
1608793288
1608794474
1608795211
1608795157
1608796705
1608806256
1608808856
1608813993
1608816539
1608819426
1608819928
1608820690
1608821786
1608823870
1608825364
1608826521
1608827850
1608832924
1608834413
1608838285
1608840553
1608844433
1608860818
1608861416
1608862134
1608863709
1608864134
1608867606
1608869474
1608874313
1608874319
1608876691
1608876924
1608885917
1608886794
1608887049
1608888165
1608892748
1608894329
1608895234
1608897635
1608900637
1608901759
1608919516
1608921225
1608925431
1608929894
1608929886
1608930733
1608931044
1608940226
1608940220
1608942402
1608942806
1608951876
1608954220
1608957951
1608958088
1608958785
1608960463
1608962268
1608963504
1608967097
1608972345
1608975052
1608979623
1608980280
1608982972
1608983340
1608987113
1608987963
1608991305
1608991397
1608992047
1608995214
1608996028
1609001927
1609002319
1609003026
1609004574
1609014704
1609014899
1609015167
1609015646
1609017111
1609018712
1609021681
1609025296
1609026060
1609026780
1609033624
1609034812
1609035215
1609039384
1609039851
1609041915
1609042363
1609044211
1609044166
1609052529
1609053922
1609055083
1609055832
1609056585
1609060145
1609060028
1609060950
1609061327
1609061621
1609064490
1609069207
1609069570
1609070458
1609070932
1609078673
1609084055
1609090435
1609091657
1609092123
1609093725
1609095903
1609097160
1609098402
1609101226
1609103555
1609110769
1609113987
1609116566
1609116783
1609117022
1609117516
1609117466
1609118611
1609126149
1609127440
1609133599
1609135511
1609137678
1609138244
1609138623
1609139781
1609140775
1609142853
1609146678
1609147821
1609147998
1609148906
1609152823
1609153774
1609154540
1609160645
1609163731
1609165837
1609166618
1609167848
1609169265
1609173682
1609173466
1609175710
1609179486
1609181260
1609182851
1609184783
1609184755
1609189829
1609198236
1609199873
1609204173
1609209294
1609209597
1609217725
1609217943
1609219134
1609223926
1609227670
1609228393
1609228569
1609229235
1609230046
1609230131
1609235370
1609235771
1609237312
1609239545
1609239342
1609243368
1609245427
1609248847
1609262421
1609263789
1609277388
1609278334
1609278832
1609280168
1609282060
1609282484
1609287811
1609287931
1609287960
1609289547
1609289815
1609292782
1609293164
1609293259
1609294432
1609300075
1609304680
1609306328
1609307147
1609311919
1609312669
1609318350
1609321304
1609321819
1609323048
1609325382
1609325566
1609325577
1609327335
1609327394
1609327663
1609335216
1609335815
1609340599
1609341543
1609348106
1609349444
1609352086
1609356675
1609361179
1609363484
1609365203
1609367270
1609369986
1609374019
1609375723
1609377014
1609378207
1609379661
1609381424
1609387538
1609390047
1609391856
1609395992
1609396119
1609397556
1609399470
1609399847
1609401026
1609403743
1609403741
1609405920
1609417788
1609423636
1609425358
1609426261
1609430819
1609432441
1609433857
1609434723
1609437123
1609437579
1609438592
1609438900
1609440295
1609446120
1609448675
1609448867
1609450627
1609451207
1609460260
1609460927
1609461255
1609461325
1609463292
1609464208
1609465500
1609468280
1609475518
1609479011
1609479395
1609480161
1609480736
1609484076
1609484382
1609488228
1609492770
1609493744
1609495943
1609498906
1609500864
1609503809
1609506786
1609507016
1609513393
1609518243
1609518603
1609518899
1609519053
1609519238
1609522546
1609524271
1609524790
1609524984
1609529701
1609530470
1609532338
1609533403
1609541110
1609542993
1609545229
1609549638
1609553100
1609553438
1609554370
1609558914
1609560255
1609561351
1609565186
1609564793
1609565617
1609566391
1609568168
1609568876
1609569338
1609570119
1609573439
1609575946
1609576439
1609583747
1609584092
1609584888
1609589837
1609591217
1609592609
1609596253
1609599501
1609604235
1609604508
1609606523
1609607230
1609607215
1609615871
1609617154
1609621129
1609621676
1609626503
1609632654
1609634863
1609636006
1609638406
1609640584
1609643028
1609644313
1609644944
1609646447
1609648576
1609650063
1609650309
1609651966
1609658642
1609659114
1609660376
1609663919
1609663848
1609664903
1609666015
1609666367
1609667081
1609670587
1609673174
1609680963
1609683119
1609683363
1609683664
1609687095
1609689901
1609690709
1609690952
1609690983
1609691187
1609694763
1609695995
1609697361
1609698085
1609698589
1609699986
1609707047
1609709507
1609710083
1609710796
1609712415
1609713895
1609715558
1609716774
1609719282
1609721257
1609722263
1609725149
1609727121
1609727392
1609729126
1609731331
1609733007
1609735985
1609737455
1609737547
1609738630
1609741099
1609746494
1609747574
1609747956
1609750732
1609752345
1609760667
1609760801
1609765225
1609765317
1609771670
1609774186
1609777135
1609778714
1609783375
1609783411
1609783562
1609787020
1609790065
1609790271
1609797736
1609798442
1609800003
1609802675
1609803380
1609803873
1609805076
1609810125
1609811630
1609815063
1609815252
1609816677
1609821525
1609823519
1609824447
1609829581
1609830049
1609837717
1609838643
1609840951
1609841498
1609842145
1609857583
1609863257
1609865644
1609868219
1609871243
1609878850
1609880701
1609883374
1609891044
1609892011
1609893598
1609898395
1609899067
1609900787
1609904803
1609904574
1609907476
1609912433
1609913586
1609915380
1609917451
1609917463
1609918145
1609923098
1609925553
1609926877
1609929439
1609931349
1609932310
1609932949
1609933795
1609934423
1609938005
1609938397
1609939299
1609940667
1609941567
1609942055
1609943686
1609955203
1609958729
1609960076
1609968081
1609968044
1609969629
1609974091
1609981669
1609982007
1609983518
1609988173
1609994296
1609994762
