570000713
570000611
570001490
570001794
570001845
570001831
570002077
570002160
570003413
570003566
570003781
570004018
570004053
570004641
570004728
570006310
570006512
570006740
570007566
570007758
570007885
570008259
570009276
570009892
570009879
570011095
570011587
570011383
