730336400
731647329
731975639
1600031559
1600047114
1600160056
1600202412
1600279179
1600329185
1600366365
1600388024
1600523095
1600603175
1600692561
1600762223
1600836720
1600896727
1600919658
1600993133
1600993804
1601041918
1601118943
1601193802
1601262919
1601342180
1601416778
1601418800
1601442417
1601480572
1601496621
1601526008
1601536450
1601538782
1601543505
1601616408
1601643270
1601669564
1603093565
1603136189
1603143786
1603363791
1603484292
1603487830
1603571301
1603645227
1603666748
1603940662
1603952685
1603966550
1604002012
1604015842
1604043284
1604059808
1604062131
1604120932
1604170042
1604292286
1604582779
1604614451
1604674155
1604708486
1604753654
1604863630
1605067886
1605087026
1605214951
