922000336
922006902
922006986
922017277
922021559
922024370
922000336
921002558
921003034
921003693
921004234
920005695
921005490
921005950
920007351
921013555
920007351
920018127
920019813
920019719
920021874
920026151
920036354
920039298
920039531
920041550
920051301
920051289
920058116
920060036
920060793
920067375
920068978
920093284
920096866
920098136
920100936
920108710
920109338
920110252
920116262
920117859
920121225
920122487
920124016
920124254
920131739
