730287060
1600169668
1600320932
1600323796
1600557120
1600560447
1600680183
1600764538
1601033123
1601039434
1601149289
1601340619
1601628513
1603073817
1603175246
1603244982
1603506277
1603552980
1603575286
1604299753
1604760263
1604834975
1605095926
