730000813
730016261
730019493
730045009
1600000185
1600000185
1600000185
1600000425
1600000425
1600000656
1600000656
1600003866
1600005815
1600007339
730060447
730000813
730045009
730060447
730070875
730098471
731053787
730120978
731060754
731068679
731069614
730132922
731076429
730168792
730169670
730169999
731106275
731110101
730177591
730178221
730193658
730195603
730197255
731150212
731158976
730233912
731170154
731174745
731177318
730254505
731189082
730260130
731189852
730268233
731205150
731207364
730280302
730302624
731232464
731243006
731246670
731250439
730337641
730338895
731270165
731273928
730402114
731540721
730406902
731551635
730418396
730424685
730428629
730430366
730435793
730438013
730440122
731582503
730445978
730450688
731592612
731612388
731616235
731618427
731627850
730490449
730490979
730496156
730512371
731676512
731680772
731688866
730532528
730538009
731744066
731744348
731748979
731749500
730558767
731758397
731762231
730570081
730573195
731784056
731791615
730598892
731796484
730602705
731802112
730608245
731804551
730616087
730619357
731815158
731819599
731822299
730627154
731825430
730634188
730636827
730642583
731842326
730647337
731843368
730653534
730661843
731862818
730669316
731869201
731870934
730679182
730684073
730690881
731889691
730698629
730700156
730700330
731901754
731915868
731936942
731974909
731978166
732008369
730721564
732025608
732037022
732044970
732056869
732060876
730768132
730771622
732066421
732069632
732081602
732090749
730798657
732096076
730815865
730829103
732127501
730836155
1600000185
1600000425
1600000656
1600005815
1600007339
1600008221
1600010515
1600011843
1600011917
1600014758
1600015188
1600016724
1600017658
1600017988
1600020013
1600021321
1600025584
1600026978
1600027491
1600027714
1600028823
1600030959
1600031515
1600033178
1600035454
1600036755
1600039277
1600039716
1600040698
1600041426
1600044569
1600044317
1600044980
1600053873
1600055147
1600057692
1600058231
1600059620
1600060337
1600060487
1600061377
1600063242
1600064262
1600064978
1600068240
1600068538
1600070297
1600070946
1600071578
1600072070
1600072434
1600074588
1600075269
1600077081
1600077801
1600077954
1600078006
1600079966
1600080532
1600081428
1600085097
1600085288
1600087409
1600088331
1600089095
1600090576
1600091344
1600092008
1600091893
1600094184
1600094707
1600095928
1600099018
1600100548
1600105610
1600105938
1600107045
1600107543
1600107863
1600107966
1600110063
1600110256
1600110816
1600111829
1600111888
1600112142
1600114311
1600116025
1600116125
1600117476
1600118599
1600118864
1600121181
1600122427
1600123577
1600123968
1600125482
1600126139
1600127692
1600127785
1600128047
1600128884
1600134090
1600135317
1600135414
1600135623
1600136345
1600137387
1600138889
1600139078
1600139467
1600139818
1600140106
1600143965
1600145404
1600147643
1600148100
1600148746
1600150129
1600150401
1600151241
1600152060
1600152515
1600153083
1600155014
1600156291
1600156407
1600157374
1600157921
1600158727
1600160153
1600160332
1600161178
1600170659
1600171290
1600171505
1600174261
1600174923
1600175044
1600176668
1600177111
1600177573
1600180030
1600182645
1600184568
1600185962
1600186966
1600187020
1600187992
1600192818
1600193171
1600193539
1600194727
1600195093
1600196094
1600197785
1600198850
1600197785
1600199808
1600201193
1600201360
1600201870
1600201846
1600203233
1600206786
1600210783
1600210827
1600211197
1600211489
1600212639
1600215687
1600217590
1600218314
1600219787
1600220629
1600220930
1600221372
1600221595
1600221933
1600222034
1600224800
1600227799
1600228024
1600228135
1600231095
1600231901
1600233582
1600234466
1600234679
1600235401
1600235822
1600236743
1600237447
1600238061
1600239569
1600239745
1600240745
1600241500
1600241802
1600244532
1600246185
1600246303
1600248793
1600248783
1600254783
1600256456
1600257906
1600258017
1600262087
1600262198
1600263067
1600264133
1600264166
1600265401
1600265875
1600265882
1600266145
1600267394
1600267978
1600269178
1600272943
1600275068
1600275872
1600276294
1600279004
1600280991
1600284578
1600284663
1600284721
1600284752
1600284811
1600284963
1600286385
1600288679
1600290233
1600291821
1600292669
1600292901
1600292868
1600293445
1600294194
1600296670
1600297021
1600297312
1600297252
1600297988
1600298760
1600299321
1600300153
1600301393
1600301905
1600301874
1600303795
1600305779
1600306710
1600306796
1600308500
1600308599
1600308472
1600308979
1600312419
1600313968
1600314094
1600315946
1600320279
1600322460
1600326217
1600330129
1600332150
1600333245
1600333664
1600334252
1600334830
1600337878
1600337980
1600341171
1600346820
1600348467
1600349090
1600352436
1600353076
1600353576
1600355750
1600355895
1600357914
1600358027
1600358593
1600359369
1600360933
1600362257
1600362192
1600363208
1600363827
1600364787
1600364851
1600366395
1600366571
1600367026
1600369194
1600369924
1600369952
1600370034
1600370425
1600370428
1600370775
1600374196
1600375736
1600376088
1600377426
1600378071
1600378930
1600381045
1600384728
1600385529
1600386506
1600389038
1600390286
1600390488
1600392232
1600394543
1600395490
1600399854
1600400389
1600400486
1600402176
1600402620
1600403574
1600404505
1600406100
1600407089
1600408346
1600409423
1600410734
1600413111
1600414782
1600416496
1600417029
1600418645
1600419603
1600421048
1600422404
1600422554
1600424089
1600425237
1600425732
1600426711
1600434158
1600434510
1600434894
1600435712
1600436591
1600437284
1600438056
1600443016
1600443509
1600443334
1600447299
1600448193
1600448498
1600449215
1600450783
1600452003
1600454762
1600454740
1600454973
1600456019
1600457944
1600458372
1600458483
1600459340
1600460319
1600461797
1600464693
1600465913
1600466875
1600469065
1600471068
1600472354
1600474544
1600477080
1600477668
1600478068
1600478808
1600479306
1600479522
1600481596
1600481677
1600481701
1600483532
1600485659
1600486671
1600487872
1600487971
1600489657
1600490555
1600490837
1600493930
1600497819
1600498728
1600500372
1600502274
1600503712
1600506008
1600507551
1600510329
1600512430
1600512443
1600513170
1600513928
1600513961
1600516993
1600518884
1600519898
1600523354
1600524303
1600525404
1600525514
1600525808
1600526491
1600527238
1600528055
1600528644
1600529136
1600530645
1600531251
1600532107
1600534369
1600536354
1600536847
1600548834
1600550176
1600549727
1600550722
1600550817
1600552198
1600556992
1600557238
1600557241
1600560058
1600564896
1600565134
1600565416
1600566979
1600567525
1600569146
1600571511
1600573986
1600575750
1600578556
1600581195
1600581312
1600581410
1600583941
1600583907
1600585546
1600586480
1600587311
1600587591
1600587670
1600587933
1600589200
1600589505
1600590966
1600591895
1600591890
1600595202
1600597637
1600599837
1600601741
1600603534
1600606713
1600607272
1600608604
1600609046
1600610528
1600610940
1600613407
1600615826
1600616166
1600617285
1600617448
1600617533
1600617872
1600618210
1600618438
1600619919
1600620622
1600621164
1600621792
1600622910
1600624067
1600625179
1600625704
1600628397
1600633394
1600635114
1600644646
1600645017
1600646144
1600646504
1600648602
1600649340
1600650423
1600651309
1600655223
1600655818
1600657788
1600658954
1600661182
1600662098
1600662453
1600663425
1600663746
1600667106
1600668639
1600668931
1600671842
1600673129
1600674190
1600676476
1600677455
1600679086
1600679136
1600679770
1600681410
1600681950
1600682158
1600682467
1600683366
1600684232
1600685275
1600685589
1600686202
1600686605
1600687471
1600687577
1600689613
1600690732
1600690802
1600690818
1600690816
1600691764
1600693258
1600693537
1600694138
1600696121
1600698371
1600699049
1600700272
1600701083
1600702579
1600702839
1600703070
1600703803
1600704141
1600704489
1600704636
1600705150
1600705427
1600706433
1600706659
1600709520
1600709970
1600712302
1600712409
1600714483
1600714493
1600716106
1600717550
1600719478
1600720030
1600721726
1600722602
1600722853
1600723542
1600723845
1600724129
1600724175
1600725768
1600726829
1600727397
1600728076
1600728900
1600729408
1600731678
1600732220
1600734331
1600734764
1600735022
1600735996
1600737161
1600737709
1600738236
1600738257
1600740766
1600740809
1600740872
1600741072
1600741181
1600743628
1600743728
1600744374
1600744946
1600745041
1600744991
1600749633
1600750609
1600753310
1600753770
1600755712
1600755838
1600755964
1600758759
1600761089
1600761710
1600761960
1600763821
1600767446
1600771085
1600775695
1600778468
1600778719
1600782516
1600786327
1600786753
1600791563
1600793557
1600794525
1600798002
1600799072
1600799571
1600800282
1600801156
1600804386
1600805839
1600809285
1600811468
1600812039
1600812658
1600813706
1600813726
1600817744
1600822129
1600828515
1600829245
1600830389
1600830889
1600831651
1600836392
1600837668
1600837665
1600838730
1600841408
1600842288
1600843944
1600845017
1600845899
1600846624
1600848488
1600848680
1600848769
1600849177
1600851039
1600851559
1600853824
1600854544
1600858309
1600859546
1600859767
1600860810
1600863622
1600864949
1600864860
1600865861
1600869078
1600873261
1600874835
1600876302
1600880207
1600881209
1600881269
1600881549
1600883620
1600884097
1600884736
1600884762
1600886396
1600887043
1600887466
1600888495
1600888570
1600889304
1600889901
1600891375
1600894007
1600894697
1600895027
1600895980
1600898699
1600901477
1600902614
1600902645
1600902927
1600903925
1600905777
1600906911
1600907246
1600907839
1600909043
1600911194
1600912801
1600912836
1600912955
1600915988
1600916668
1600917158
1600918226
1600919505
1600919586
1600922626
1600923760
1600926184
1600926456
1600926566
1600927386
1600928374
1600929287
1600929825
1600930783
1600932797
1600934408
1600934545
1600936263
1600936445
1600936498
1600938542
1600939616
1600943342
1600943517
1600944931
1600946403
1600946716
1600950276
1600951044
1600951839
1600952124
1600952267
1600952820
1600953054
1600953012
1600956122
1600956380
1600957608
1600957642
1600958308
1600959484
1600961212
1600964065
1600964280
1600964520
1600965807
1600966316
1600967712
1600968399
1600970496
1600974298
1600976646
1600976650
1600977183
1600977294
1600978331
1600979186
1600981943
1600982649
1600983377
1600983736
1600984006
1600984729
1600987279
1600989596
1600990250
1600992334
1600992443
1600993874
1600993821
1600994590
1600994640
1600995095
1600995369
1600996336
1600996886
1600997120
1600997347
1600998039
1600999511
1601002413
1601004830
1601005256
1601005833
1601006009
1601009177
1601012689
1601012949
1601015692
1601015741
1601016170
1601016418
1601017512
1601017547
1601017768
1601017940
1601019552
1601019625
1601019879
1601032073
1601032186
1601033656
1601033722
1601035673
1601035952
1601036150
1601037671
1601038505
1601039891
1601041758
1601042431
1601044609
1601046934
1601052442
1601052591
1601053523
1601054302
1601056448
1601057037
1601058738
1601059785
1601059999
1601061253
1601061644
1601062793
1601065950
1601068036
1601068052
1601068126
1601068172
1601068889
1601069628
1601072687
1601075621
1601075979
1601077783
1601078650
1601080153
1601081130
1601083249
1601083375
1601084143
1601086838
1601087113
1601088992
1601091052
1601091682
1601093294
1601093580
1601094311
1601100012
1601100127
1601100632
1601102214
1601102428
1601103445
1601105016
1601105169
1601106662
1601112556
1601112869
1601113321
1601114022
1601114062
1601114527
1601115236
1601115961
1601117693
1601118612
1601118820
1601122748
1601124837
1601126662
1601126769
1601127700
1601129447
1601129649
1601129832
1601131235
1601132043
1601132659
1601133509
1601135347
1601136135
1601136276
1601137634
1601140039
1601140452
1601140781
1601142508
1601142687
1601145727
1601146422
1601147820
1601149936
1601154017
1601155322
1601155910
1601156245
1601156434
1601161378
1601162402
1601163177
1601163946
1601165721
1601165791
1601167991
1601169306
1601170635
1601171884
1601172256
1601173333
1601174269
1601175899
1601177352
1601178152
1601178835
1601179311
1601180252
1601184944
1601186828
1601187535
1601190363
1601191195
1601191828
1601193283
1601194080
1601196309
1601199503
1601199699
1601200103
1601200849
1601201653
1601201683
1601202141
1601203266
1601203916
1601203888
1601205442
1601205526
1601205867
1601210313
1601210657
1601210755
1601211489
1601212172
1601212469
1601213721
1601213885
1601213875
1601213938
1601216664
1601217765
1601219375
1601220959
1601222178
1601222371
1601223865
1601223966
1601225182
1601226670
1601226903
1601228204
1601228466
1601229620
1601229752
1601229964
1601230661
1601231270
1601232226
1601236150
1601236115
1601236244
1601237616
1601237658
1601240474
1601240976
1601244159
1601246593
1601247900
1601249707
1601251370
1601253540
1601256340
1601265817
1601267195
1601268419
1601271040
1601271116
1601272267
1601274554
1601275015
1601276255
1601277078
1601278051
1601278832
1601280635
1601281777
1601282571
1601282770
1601284924
1601285288
1601285350
1601287725
1601288742
1601292404
1601292835
1601293961
1601295147
1601295929
1601297735
1601299536
1601301134
1601301382
1601301402
1601302549
1601305382
1601307407
1601308217
1601308273
1601309246
1601310926
1601311196
1601315336
1601315978
1601317297
1601317879
1601319132
1601319506
1601319517
1601322812
1601324264
1601328746
1601330009
1601330493
1601336242
1601336558
1601337506
1601339838
1601344253
1601344183
1601344608
1601344770
1601345272
1601348733
1601350739
1601354736
1601355487
1601355406
1601357359
1601359825
1601359879
1601362622
1601363632
1601363664
1601370135
1601370588
1601370893
1601371114
1601372003
1601372474
1601374654
1601374893
1601375475
1601376518
1601376604
1601378158
1601378565
1601379258
1601379346
1601380152
1601380560
1601383490
1601385181
1601385776
1601387368
1601387558
1601387692
1601387722
1601387965
1601389545
1601391204
1601391442
1601393006
1601394260
1601395308
1601395716
1601397858
1601398302
1601398677
1601401596
1601402506
1601404717
1601404949
1601405905
1601406549
1601407548
1601407816
1601410139
1601410658
1601411947
1601412136
1601412351
1601416204
1601417061
1601421258
1601421420
1601422275
1601423085
1601424009
1601424436
1601424928
1601426555
1601428457
1601428620
1601429589
1601429842
1601432173
1601432433
1601432532
1601434068
1601435171
1601436521
1601436693
1601438987
1601442453
1601444750
1601444931
1601445904
1601450150
1601451509
1601452422
1601452651
1601453046
1601455156
1601456280
1601457073
1601458293
1601459118
1601459705
1601459719
1601459760
1601460079
1601460193
1601460964
1601461049
1601461039
1601462483
1601463281
1601464496
1601468580
1601468049
1601470879
1601479723
1601482114
1601482253
1601482217
1601482991
1601484365
1601485358
1601485899
1601489986
1601490938
1601491752
1601496444
1601496906
1601497905
1601498634
1601498991
1601501884
1601502098
1601502563
1601504324
1601504424
1601507123
1601511078
1601511358
1601511852
1601512468
1601516323
1601520980
1601522067
1601524897
1601525193
1601526445
1601526746
1601527671
1601528077
1601529453
1601531417
1601535125
1601535483
1601539710
1601543045
1601544500
1601544845
1601545477
1601546465
1601547878
1601549059
1601549193
1601549728
1601552048
1601552369
1601552320
1601553068
1601552974
1601553916
1601554096
1601555380
1601555652
1601556805
1601558295
1601559204
1601560400
1601560546
1601569818
1601575021
1601574923
1601576425
1601576607
1601577906
1601579361
1601579776
1601580890
1601581603
1601581930
1601584525
1601585672
1601585890
1601586648
1601587807
1601589761
1601592016
1601592313
1601592207
1601594595
1601596057
1601596383
1601600740
1601602236
1601603639
1601603793
1601605151
1601607279
1601608911
1601610957
1601611213
1601612095
1601616082
1601616359
1601617644
1601618697
1601619512
1601620442
1601620649
1601621165
1601622377
1601624765
1601626517
1601630110
1601632428
1601632927
1601633457
1601633755
1601633923
1601637043
1601639399
1601639822
1601641162
1601641981
1601642188
1601642216
1601643321
1601643455
1601644136
1601646198
1601646336
1601647117
1601648452
1601649858
1601649945
1601650904
1601651100
1601651387
1601655080
1601656090
1601657008
1601656992
1601657389
1601657890
1601659354
1601660574
1601660562
1601661838
1601661947
1601663624
1601663925
1601665119
1601665491
1601666231
1601666726
1601667121
1601669711
1601671834
1601673117
1601676353
1601676710
1601677011
1601677196
1601678305
1601682333
1601683268
1601683525
1601684226
1601684793
1601685238
1601688705
1601688838
1601689593
1601692412
1601693223
1601693426
1601694461
1601695020
1601698502
1601699666
1601700013
1601702147
1601703162
1601703347
1601705007
1601704977
1601707376
1601709543
1601711435
1601712750
1601712866
1601715194
1601715999
1601716579
1601717676
1601720894
1601721519
1601722048
1601724188
1601724393
1601725364
1601725897
1601727215
1601728111
1601731690
1601731917
1601732593
1600099018
1603065033
1603066882
1603066985
1603067555
1603068634
1603070318
1603070763
1603072326
1603073240
1603074189
1603075097
1603077001
1603078341
1603079648
1603084661
1603085319
1603086128
1603086790
1603088581
1603091219
1603091374
1603091363
1603091923
1603092169
1603092475
1603092918
1603092964
1603099235
1603099624
1603101162
1603101274
1603102591
1603103698
1603109375
1603111889
1603113184
1603113612
1603115540
1603118779
1603122482
1603123089
1603123561
1603124346
1603126071
1603127479
1603128265
1603129693
1603130948
1603134036
1603134151
1603135100
1603137026
1603137302
1603137606
1603138316
1603138617
1603142738
1603143654
1603144401
1603145144
1603145693
1603147429
1603147691
1603150118
1603152285
1603152484
1603155606
1603157124
1603157470
1603164889
1603165972
1603167406
1603171673
1603174302
1603176021
1603176641
1603177625
1603179474
1603180174
1603180591
1603185032
1603185332
1603185464
1603186564
1603186599
1603186577
1603187434
1603188861
1603191468
1603200045
1603201563
1603201926
1603204077
1603205426
1603209472
1603211528
1603212914
1603213902
1603214592
1603216120
1603216415
1603220077
1603221189
1603221551
1603222517
1603222836
1603225812
1603226339
1603228194
1603227774
1603228614
1603230905
1603231895
1603232658
1603233159
1603234787
1603236013
1603238533
1603242006
1603243045
1603246203
1603246710
1603247871
1603248015
1603249372
1603251054
1603251448
1603252583
1603254377
1603256284
1603257524
1603257535
1603258528
1603258831
1603264969
1603266433
1603266522
1603267115
1603271813
1603273334
1603275065
1603276327
1603277079
1603277910
1603278158
1603278879
1603281596
1603282509
1603284484
1603284542
1603286096
1603286677
1603287023
1603288032
1603288519
1603289058
1603290650
1603291688
1603294917
1603295485
1603296339
1603296441
1603296400
1603298272
1603298521
1603299487
1603301697
1603302106
1603303659
1603306808
1603309198
1603309326
1603312214
1603312868
1603314549
1603315411
1603316435
1603316480
1603318755
1603318822
1603319496
1603319961
1603320062
1603320268
1603320410
1603322817
1603324339
1603325529
1603325797
1603326354
1603327501
1603328928
1603333520
1603335170
1603336893
1603338051
1603338529
1603338759
1603341920
1603342680
1603342895
1603344597
1603347360
1603347459
1603350339
1603351997
1603351971
1603351977
1603355260
1603355563
1603356147
1603359834
1603361017
1603361172
1603361329
1603361693
1603362231
1603365409
1603366014
1603366155
1603370231
1603378305
1603378411
1603379295
1603380079
1603380649
1603381116
1603381924
1603388462
1603390906
1603392385
1603393460
1603394850
1603395686
1603396198
1603397455
1603398007
1603398716
1603399285
1603399608
1603400252
1603403124
1603403256
1603403317
1603403911
1603404913
1603405846
1603405883
1603407070
1603409128
1603409678
1603410605
1603410829
1603411339
1603413518
1603417660
1603419166
1603419347
1603420473
1603420658
1603425146
1603426892
1603426678
1603427789
1603429523
1603430183
1603430621
1603430988
1603432239
1603433127
1603433704
1603433654
1603434377
1603435910
1603437334
1603438723
1603438864
1603439524
1603440384
1603441995
1603446421
1603447069
1603447292
1603447933
1603448420
1603449787
1603452704
1603455215
1603458058
1603458790
1603459117
1603460303
1603459976
1603460562
1603460799
1603462027
1603463159
1603465100
1603468165
1603468670
1603468789
1603469084
1603473606
1603473694
1603476231
1603477249
1603478046
1603480168
1603481038
1603481599
1603485743
1603485983
1603487155
1603492183
1603494088
1603496153
1603496408
1603497431
1603499466
1603500553
1603500202
1603500683
1603502345
1603502420
1603502523
1603504176
1603504193
1603504826
1603505610
1603507757
1603508501
1603509426
1603510246
1603510398
1603510907
1603513112
1603514119
1603514814
1603516307
1603516701
1603517331
1603518125
1603518277
1603519924
1603520482
1603521914
1603522425
1603522724
1603524854
1603528107
1603531999
1603532787
1603536469
1603540833
1603547604
1603549110
1603549842
1603549850
1603553682
1603554031
1603554496
1603555841
1603555865
1603556903
1603560257
1603561386
1603561730
1603564049
1603564151
1603566042
1603568316
1603568700
1603569728
1603570939
1603572609
1603573814
1603574297
1603575521
1603575843
1603576701
1603578236
1603582099
1603582118
1603581852
1603586656
1603590061
1603590827
1603592063
1603593787
1603595485
1603598503
1603599286
1603600642
1603601088
1603602229
1603603178
1603606115
1603608441
1603608910
1603610426
1603610931
1603611810
1603613688
1603614963
1603615203
1603615404
1603615599
1603615704
1603619117
1603619251
1603618916
1603620554
1603625253
1603626584
1603628337
1603629840
1603632716
1603633769
1603634226
1603634279
1603637848
1603643325
1603627260
1603644809
1603647662
1603649483
1603650202
1603650195
1603650527
1603651603
1603652449
1603653065
1603658573
1603659011
1603663151
1603663764
1603663287
1603666143
1603667998
1603668382
1603671393
1603672862
1603673402
1603674722
1603674791
1603676686
1603677579
1603678940
1603679675
1603679804
1603681867
1603682300
1603682412
1603683568
1603684057
1603685066
1603685977
1603688344
1603688872
1603689563
1603691157
1603693361
1603694745
1603697707
1603701848
1603703101
1603705239
1603706081
1603706051
1603707902
1603708000
1603712314
1603713644
1603714621
1603715135
1603715667
1603716682
1603717667
1603717862
1603718373
1603718833
1603725356
1603725169
1603726501
1603726621
1603726984
1603730554
1603730615
1603730720
1603732275
1603732530
1603734336
1603735202
1603735504
1603736165
1603740113
1603744779
1603745969
1603746079
1603746693
1603747839
1603748312
1603753032
1603752970
1603754106
1603757266
1603758363
1603758908
1603759714
1603759527
1603760427
1603760774
1603762300
1603762420
1603764284
1603765257
1603767444
1603769026
1603769008
1603769275
1603770204
1603771277
1603775051
1603776658
1603777495
1603779732
1603782649
1603780292
1603785179
1603786826
1603787678
1603787692
1603788170
1603789279
1603790179
1603790954
1603793585
1603794016
1603794463
1603796373
1603796590
1603796660
1603796743
1603812315
1603835022
1603885175
1603893134
1603895957
1603901279
1603903435
1603905174
1603905474
1603908046
1603908419
1603908624
1603911831
1603912123
1603912192
1603917972
1603918565
1603919889
1603921388
1603922033
1603924964
1603926277
1603926874
1603927165
1603927909
1603931148
1603936931
1603945226
1603945768
1603945930
1603947091
1603948597
1603950707
1603952033
1603952341
1603956960
1603958753
1603960170
1603961198
1603962998
1603967208
1603967636
1603968310
1603970406
1603971499
1603973033
1603975055
1603976667
1603980469
1603980803
1603982751
1603986000
1603986310
1603986044
1603986517
1603986931
1603989353
1603990166
1603993834
1603994184
1603996459
1603996607
1603997838
1603998997
1603999772
1604000151
1604001687
1604002941
1604005649
1604009785
1604011708
1604012241
1604012309
1604012596
1604012901
1604014732
1604015050
1604016566
1604018535
1604020278
1604020082
1604024297
1604024055
1604026434
1604030977
1604031410
1604031403
1604032131
1604035656
1604035967
1604036935
1604038609
1604041417
1604043289
1604044145
1604044792
1604045066
1604045238
1604045429
1604045878
1604046091
1604050051
1604050886
1604051519
1604052176
1604052177
1604053942
1604056692
1604056724
1604057455
1604058144
1604062982
1604063950
1604066455
1604067147
1604068380
1604069323
1604069406
1604069957
1604069816
1604074266
1604074879
1604077461
1604079002
1604080577
1604081870
1604082256
1604084214
1604084769
1604085202
1604085503
1604085572
1604088398
1604088532
1604088947
1604088906
1604092475
1604092839
1604093395
1604094164
1604094318
1604099914
1604100299
1604102722
1604104750
1604104992
1604106047
1604106956
1604109415
1604110027
1604112382
1604115461
1604117200
1604121101
1604122097
1604123266
1604123907
1604128531
1604128636
1604128696
1604130146
1604131441
1604132676
1604133652
1604135045
1604138765
1604140506
1604141892
1604144397
1604146877
1604146962
1604150349
1604150438
1604152625
1604155299
1604156855
1604158932
1604158967
1604163985
1604167246
1604167775
1604168123
1604170720
1604171480
1604171645
1604172570
1604174914
1604179664
1604180001
1604180148
1604180209
1604182162
1604183686
1604184535
1604185939
1604187116
1604189464
1604190255
1604190698
1604191577
1604191987
1604192471
1604192630
1604193056
1604194054
1604194370
1604196718
1604198122
1604198648
1604200024
1604200412
1604201347
1604201609
1604202009
1604206083
1604208330
1604209136
1604211990
1604213858
1604214703
1604211216
1604223300
1604224029
1604225553
1604226417
1604226372
1604226317
1604227044
1604227060
1604227158
1604227986
1604228423
1604229077
1604229162
1604230184
1604230735
1604232517
1604238625
1604239582
1604240805
1604241071
1604242364
1604243041
1604243899
1604244680
1604248515
1604248576
1604248644
1604250968
1604252417
1604252709
1604254058
1604254728
1604255086
1604257312
1604257923
1604259249
1604261173
1604262826
1604263000
1604264027
1604264527
1604264735
1604264996
1604266426
1604268174
1604268300
1604269162
1604271364
1604272896
1604273688
1604275565
1604276101
1604276759
1604279490
1604280603
1604282283
1604285068
1604285750
1604289773
1604289986
1604290718
1604292329
1604297530
1604297770
1604299639
1604303347
1604303483
1604304773
1604304946
1604306062
1604307453
1604313037
1604315443
1604315535
1604316107
1604316467
1604321840
1604322198
1604322478
1604323540
1604324375
1604326340
1604329427
1604329861
1604332706
1604332387
1604333560
1604334198
1604334174
1604334289
1604337634
1604341608
1604341688
1604342259
1604343056
1604343202
1604345178
1604349677
1604351406
1604352100
1604352807
1604357145
1604358850
1604358941
1604359703
1604363569
1604364008
1604364801
1604366901
1604367896
1604369300
1604371569
1604373762
1604374240
1604376891
1604378027
1604430243
1604439013
1604443633
1604450320
1604450881
1604451705
1604451849
1604455089
1604455453
1604456616
1604456740
1604459473
1604459669
1604460491
1604463170
1604467197
1604468320
1604467720
1604469988
1604473603
1604476157
1604476964
1604480260
1604483952
1604485082
1604485848
1604488190
1604490335
1604491285
1604492322
1604496567
1604499570
1604499634
1604499962
1604502395
1604502685
1604502512
1604504403
1604503467
1604505010
1604505724
1604507678
1604510223
1604511425
1604511290
1604512834
1604515212
1604516006
1604519695
1604520381
1604521477
1604523692
1604525225
1604526355
1604526693
1604530608
1604530592
1604533238
1604534973
1604536251
1604536606
1604537201
1604538642
1604539527
1604540960
1604543288
1604543437
1604544130
1604544610
1604545045
1604545362
1604545624
1604545658
1604545714
1604546458
1604546698
1604548238
1604551405
1604551758
1604552845
1604553696
1604553967
1604555360
1604558794
1604563625
1604564452
1604566157
1604566596
1604567464
1604570486
1604571794
1604572966
1604573035
1604575403
1604575480
1604579244
1604580416
1604581230
1604581438
1604582192
1604586732
1604587598
1604588361
1604589661
1604590487
1604591132
1604593161
1604593550
1604594023
1604594299
1604600618
1604601364
1604601582
1604602159
1604603359
1604606746
1604607619
1604608685
1604609503
1604609611
1604614604
1604615472
1604615969
1604616201
1604616245
1604616664
1604618283
1604618802
1604619473
1604626455
1604630669
1604633199
1604633957
1604634865
1604637215
1604638774
1604639256
1604639986
1604641679
1604642692
1604642988
1604646470
1604647406
1604648306
1604649654
1604650522
1604650749
1604651274
1604651523
1604651696
1604654830
1604654884
1604655574
1604657830
1604658484
1604660092
1604662957
1604663682
1604664054
1604666109
1604670167
1604670444
1604671172
1604674241
1604676559
1604677681
1604678889
1604678923
1604679330
1604679504
1604682914
1604684588
1604686964
1604686732
1604688423
1604689128
1604689901
1604690707
1604691389
1604691548
1604694087
1604694173
1604694406
1604695308
1604695419
1604695142
1604703283
1604705153
1604707309
1604708293
1604711642
1604711577
1604716210
1604717059
1604717681
1604717665
1604718890
1604719739
1604720233
1604722211
1604722662
1604723718
1604725362
1604725647
1604726367
1604728042
1604728099
1604728918
1604730168
1604730698
1604730713
1604731550
1604732907
1604733155
1604733677
1604734222
1604734826
1604734846
1604735118
1604737882
1604738042
1604738471
1604743316
1604744337
1604747140
1604749861
1604750685
1604752203
1604752091
1604753698
1604753874
1604754746
1604754951
1604756342
1604757080
1604759582
1604764023
1604766343
1604766384
1604768558
1604769768
1604769969
1604770997
1604771407
1604772611
1604773725
1604777212
1604778137
1604779898
1604780058
1604780975
1604781060
1604782425
1604782384
1604783056
1604783657
1604783732
1604783818
1604784451
1604785545
1604785554
1604788117
1604789193
1604793342
1604793874
1604793979
1604794765
1604798931
1604800819
1604800813
1604801030
1604802239
1604803392
1604804026
1604806451
1604807265
1604807984
1604808408
1604810415
1604810699
1604810802
1604812395
1604812404
1604814397
1604814387
1604815790
1604816321
1604817495
1604818358
1604819507
1604821212
1604821734
1604824221
1604826660
1604827462
1604829811
1604831022
1604831066
1604835932
1604837696
1604838825
1604839084
1604840722
1604840878
1604841151
1604841323
1604841593
1604842104
1604842566
1604843187
1604843641
1604843814
1604846339
1604847344
1604847969
1604850630
1604852266
1604854799
1604858530
1604858503
1604860214
1604862028
1604866936
1604866947
1604867040
1604866664
1604867517
1604867995
1604869195
1604870933
1604871345
1604874128
1604875895
1604879562
1604880708
1604883811
1604884141
1604884535
1604888903
1604890574
1604891001
1604891118
1604891504
1604892759
1604893813
1604898195
1604899800
1604899899
1604906188
1604907444
1604907380
1604907835
1604909521
1604914213
1604916550
1604921510
1604921607
1604923413
1604923404
1604924429
1604926087
1604927587
1604928792
1604929637
1604930300
1604930846
1604931819
1604932140
1604933981
1604934917
1604935204
1604938647
1604939662
1604941569
1604943168
1604943618
1604943896
1604945196
1604945317
1604946373
1604946366
1604946657
1604947079
1604946952
1604948751
1604949417
1604949996
1604950626
1604951568
1604951592
1604953668
1604954331
1604954687
1604954755
1604955575
1604958185
1604958572
1604958581
1604958878
1604959787
1604960329
1604960397
1604963565
1604963655
1604964112
1604965594
1604967152
1604968701
1604970032
1604971794
1604974126
1604974390
1604976282
1604976704
1604976826
1604977692
1604977499
1604980231
1604982232
1604983350
1604983451
1604983198
1604985654
1604987177
1604987977
1604990867
1604993594
1604993654
1604993767
1604997902
1604999103
1604999205
1604999547
1604999707
1605001710
1605004442
1605004492
1605004827
1605005592
1605010089
1605010316
1605010416
1605013516
1605014708
1605015449
1605017077
1605017978
1605019484
1605020092
1605022311
1605022853
1605022984
1605023143
1605026108
1605025495
1605028158
1605028168
1605028560
1605029440
1605029533
1605030499
1605031314
1605033668
1605034131
1605035984
1605036531
1605037002
1605039608
1605041513
1605041528
1605042955
1605043384
1605047015
1605050523
1605051224
1605051617
1605053186
1605054183
1605054836
1605054956
1605059146
1605061495
1605061994
1605061619
1605062459
1605063123
1605063171
1605063766
1605064089
1605064312
1605065724
1605067896
1605068778
1605069553
1605069815
1605070096
1605071721
1605076252
1605077343
1605078709
1605080847
1605082604
1605083140
1605083275
1605083421
1605085211
1605085330
1605085547
1605085657
1605087396
1605087394
1605088460
1605090442
1605091906
1605092035
1605093090
1605094708
1605094981
1605099209
1605099900
1605101448
1605101925
1605102026
1605102979
1605103615
1605105510
1605106895
1605108587
1605108956
1605109120
1605110418
1605111806
1605112084
1605112520
1605114549
1605114692
1605114165
1605114950
1605115312
1605116006
1605117261
1605117263
1605121622
1605125497
1605126081
1605128898
1605129860
1605133422
1605133614
1605133939
1605134054
1605135142
1605139652
1605140178
1605145371
1605146507
1605146799
1605147780
1605147458
1605148820
1605150110
1605152093
1605152489
1605152557
1605154226
1605154711
1605156314
1605156993
1605158809
1605159199
1605160141
1605162106
1605162092
1605162788
1605163325
1605164557
1605168860
1605168959
1605169264
1605169774
1605170825
1605170981
1605171090
1605171256
1605173327
1605177217
1605178264
1605179723
1605180951
1605181672
1605181900
1605183122
1605193910
1605198490
1605202803
1605205088
1605205920
1605211621
1605212808
1605216894
1605217059
1605220124
1605221333
1605223984
1605308681
1605310068
1605310485
1605311517
1605312751
1605313033
1605314800
1605315190
1605317524
1605318724
1605322575
1605327066
1605327308
1605327796
1605328314
1605334738
1605336258
1605340329
1605349044
1605353174
1605362653
1605362906
1605364661
1605365122
1605366659
1605366526
1605367536
1605369546
1605369833
1605373333
1605571506
1605604725
1605671153
1605822986
1605859804
1605929612
1605992751
1606085337
1606220025
1606225061
1606551579
1606596268
1606817190
1606819129
1606980110
1607035210
1607046737
1607101331
1607109201
1607179575
1607258331
1607259073
1607275832
1607308260
1607357676
1607506755
1607644557
1607823579
1608063631
1608172386
1608282656
1608394006
1608498391
1608502267
1608622235
1608661769
1608712843
1608790889
1608949024
1608960610
1608969522
1609165609
1609295858
1609339123
1609462834
1609485472
1609572047
1609608135
1609632525
1609753972
1609792043
1609796921
1609816324
1609866380
1609934007
