731672062
1600041400
1600201626
1600285885
1600391490
1600393276
1600409179
1600548280
1600725440
1601181608
1601203475
1601224734
1601302741
1601439192
1603123742
1603156179
1603391196
1603512966
1603547126
1603679000
1603700593
1604250524
1604379366
1604496708
1604557895
1604602739
1604801078
1604804279
1605072958
1605183821
1606898362
1608151786
1608212344
1608387065
1608658833
1609115433
