800000926
800005266
800036358
800052415
800111875
800000926
800005266
800036358
800052415
800111875
800164963
800221636
800236371
800267642
800464956
800488865
800488785
800522620
800750978
800768738
800772100
800853743
800891366
800896362
800946266
801167151
801317812
801554943
801582506
801648586
801655488
