922016361
922017201
922017476
922019282
921002151
920003574
921003219
920005667
921014185
920003574
920005667
920021802
920034977
920039590
920041494
920057109
920080196
920082590
920094224
920094731
920097351
920101009
920107837
920109523
920113556
920125640
920126218
920126903
