730055042
730055042
730094452
730108790
731116461
730294381
731817521
730685203
731952889
732057428
730828031
1600091174
1600437953
1600438460
1600617866
1601011843
1601207276
1601490995
1601518405
1601562889
1601704134
1603087942
1603095746
1603129096
1603586886
1603809372
1603941646
1604050796
1604182548
1604225710
1604941810
1605079290
1606357052
1606877441
1606881554
1607587912
1607865636
1608101844
1608403361
1609067707
