710029852
710045677
710102644
710210204
710211831
710320724
710378268
710380290
710752600
710830740
710954158
711040770
711236901
711252711
711345113
711433723
711547991
711584103
711604456
711753496
711892234
711934655
711952460
712027705
712036769
712067485
712133588
712206193
712217782
712268459
712403007
712465325
712476415
712544953
712567317
712741819
712759250
712830616
712857215
712970282
713037578
713055977
713060970
713067839
713192657
713257277
713398213
713514181
