800004913
800010246
800052493
800055154
800061979
800062790
801011656
800066155
800070778
801016972
800081408
801025308
800083130
800090327
801031691
800093148
801039799
800103553
801045717
800111356
801068927
801069216
801077621
801083677
801084855
800142204
800149542
800149499
800153182
801099245
800004913
800010246
800013519
800052493
800055154
800061979
800062790
800066155
800070778
800081408
800083130
800090327
800093148
800103553
800111356
800142204
800149499
800149542
800153182
800163458
800185069
800200008
800214976
800226579
800235578
800242859
800243286
800249602
800270876
800271712
800272193
800292159
800301153
800318356
800327530
800337345
800356184
800356330
800359858
800377087
800377199
800381465
800383588
800389177
800391351
800392018
800392077
800393246
800396298
800406207
800410093
800415736
800416413
800432475
800488715
800490236
800490643
800498314
800498537
800515928
800520888
800533259
800534235
800550550
800568885
800569813
800596215
800605951
800626961
800633501
800633541
800639033
800666774
800670320
800673248
800677781
800692263
800721021
800724619
800738074
800749240
800752211
800758765
800764947
800771463
800773191
800793459
800794791
800811530
800812146
800841193
800845527
800848646
800861794
800862867
800865657
800870098
800916879
800943353
800951262
800952670
800960308
801011656
801016972
801025308
801031691
801039799
801068927
801069216
801077621
801083677
801084855
801099245
801119082
801150475
801160020
801164397
801164011
801167269
801184478
801186907
801190349
801212736
801249394
801260206
801262187
801262557
801269356
801274230
801295673
801307003
801318828
801324484
801364948
801372797
801381526
801413791
801414883
801428764
801434944
801454060
801481681
801482041
801495702
801496506
801502051
801542076
801562631
801566779
801569479
801577880
801627305
801669822
801673684
801702907
801717809
801723911
801727337
801727568
801737275
801743469
801749993
801778452
801778661
801778693
801782330
801804215
