840013331
840022025
840025826
840064841
840069864
840113189
840115235
840127577
840128660
840135054
840139343
840144072
840181226
840182207
840189091
840203755
840213463
840239372
840246816
840253007
840295152
840297077
840297917
840317858
840318895
840321059
840324281
840327599
840374893
840383021
840405229
840437250
840441289
840441203
840444542
840453820
840462364
840466405
840480297
