730149054
731174467
730258278
731544802
731547737
731571607
731591394
731596752
731703579
730528638
730532630
730543363
730589394
731998068
732057867
732057866
730827143
1600496652
1600719186
1600960401
1601236701
1603600691
1606268558
1606315375
1609944854
