1850007894
1850013609
1850109853
1850112780
610021724
610034014
610045977
610109296
610110283
610129841
610132991
610135035
610136798
610237660
610265636
610307546
610310790
610366816
610372008
610387125
610392063
610447694
610466852
610475956
610555546
610578925
610609577
610622506
610704950
610723438
610745400
