730039342
730032948
730039342
730056278
730067324
731018448
730087254
730089244
730089652
731026433
731035209
730098562
731043544
730108297
731049717
731051608
731051668
730114387
731059636
731060009
731060355
731062202
731061842
730135676
731075551
730138626
731079947
730153427
730153447
731090966
730158089
730166492
731102894
730173006
731107582
730182474
731118598
730189110
731135004
730206632
730212256
731152587
731154080
731154554
730222828
730223741
730227843
731161722
730230104
730232920
731172817
730244276
731176791
731180875
731181336
730263408
730265799
730268566
731202332
730280725
731211217
730289782
731219726
731223442
730297870
730307919
730313096
731240980
731242230
730316867
730320994
731247328
730330171
731270019
731273014
730348008
731536747
730403765
731543749
731545586
730409922
730412616
731552513
730425695
731568273
730433508
730439352
730444697
731586225
730446957
731586730
731587436
730454451
730474535
731615556
731619411
731621703
730486220
731627499
730489238
730500521
730511164
731654999
731658214
731675861
731676087
731698268
731699441
731708349
730527713
730539376
731735148
731741756
731742778
730551455
730553999
731751892
731753213
730561670
730562961
731759127
731761956
731766388
731773539
730600718
730605992
730606189
730610858
731806001
730613108
730623071
730624573
730628710
730631520
730632917
731830168
731833626
730640890
731856031
731860320
731896002
731896038
730702142
731907362
731915385
731924585
731930831
731940500
731963329
731965058
731973906
731983558
731984774
731993278
731997573
731999010
732010173
730719204
730727846
730730402
730732346
730737619
732033957
730749559
732048673
732049327
732051658
732054919
732075027
732075993
732079750
730788184
732082702
730794129
732089005
730799267
730802112
730808724
732107822
730811698
732112552
730821907
730826105
730826407
732122680
732131014
732131459
1600027093
1600033946
1600042949
1600043913
1600050186
1600064613
1600066690
1600069684
1600077663
1600146433
1600159691
1600165478
1600251420
1600274897
1600280527
1600294924
1600303984
1600306136
1600333194
1600341909
1600358440
1600360474
1600375791
1600412762
1600430762
1600483481
1600520186
1600530544
1600531351
1600543337
1600552709
1600556076
1600571155
1600589189
1600597561
1600626967
1600630520
1600657463
1600670148
1600678341
1600703662
1600704412
1600728046
1600742079
1600744683
1600791678
1600791753
1600806891
1600812306
1600831212
1600867549
1600909756
1600957988
1600979613
1600985541
1600985816
1601016195
1601032602
1601048062
1601072055
1601126978
1601216973
1601233609
1601238074
1601238816
1601251726
1601279712
1601300730
1601303539
1601356120
1601356445
1601359679
1601375451
1601469843
1601518276
1601541628
1601569051
1601593289
1601607034
1601618215
1601661549
1601712428
1603072136
1603092873
1603116155
1603144047
1603146318
1603150142
1603152912
1603174679
1603193983
1603220680
1603227418
1603253782
1603275062
1603288829
1603304296
1603306225
1603350488
1603362593
1603376483
1603380089
1603385320
1603399903
1603419036
1603428320
1603450080
1603511394
1603512303
1603518307
1603535914
1603548614
1603581944
1603611542
1603630186
1603659052
1603666351
1603673714
1603691981
1603725383
1603781686
1603813796
1603962006
1604004960
1604010182
1604028567
1604029638
1604091236
1604100619
1604100771
1604129132
1604141292
1604171410
1604174725
1604178230
1604248562
1604309244
1604361166
1604395719
1604452193
1604453185
1604463220
1604495494
1604513877
1604522242
1604567750
1604602026
1604677766
1604709660
1604721212
1604757545
1604809159
1604811345
1604819538
1604843479
1604848395
1604849715
1604858472
1604863744
1604904247
1604914894
1604916731
1604935051
1604948663
1604982983
1604993023
1605002334
1605033104
1605039259
1605074031
1605099982
1605118267
1605204612
1605207763
1605340702
1606777870
1606802839
1606894391
1607195545
1607534066
1607674125
1607949579
1608387582
1608620461
1609138011
1609493535
1609517311
1609630976
