960128817
960201287
960475494
960646083
960776788
960950054
960995688
961081008
961091365
961238549
961312706
961413261
961572379
961814605
961838660
962173936
962175563
962253388
962342526
962359691
962603808
