800015280
800048329
800069912
800070723
800076968
801021068
801031747
801047084
801072755
801095913
800015280
800048329
800069912
800070723
800076968
800178716
800196434
800212877
800214136
800214910
800223685
800251091
800311149
800317150
800319406
800325329
800338593
800389651
800397879
800415679
800443481
800447438
800447393
800480831
800516748
800709764
800718718
800782027
800860499
801021068
801031747
801047084
801072755
801095913
801114569
801206390
801260725
801263910
801266623
801276029
801281331
801294958
801343315
801344078
801348584
801363015
801373386
801373519
801375485
801385365
801433839
801458938
801474344
801533885
801538468
801549081
801589076
801590886
801629500
801638085
801644776
801684295
801709184
801715979
801782310
801784838
801794382
