610007399
610012765
610016306
610046242
610065907
610135860
610141850
610209013
610241015
610245472
610260823
610292067
610294396
610339218
610398040
610427138
610440275
610442240
610490112
610507208
610615890
610653651
610671234
610680103
610735484
