731762649
1600000100
1600013421
1600092466
1600102801
1600103172
1600132839
1600155664
1600214686
1600323147
1600331790
1600342553
1600373278
1600454100
1600517669
1600531784
1600535016
1600561548
1600632135
1600651062
1600743202
1600770589
1600801223
1600823460
1600841859
1600892556
1600931878
1600951881
1600952563
1600964832
1600997868
1601097843
1601117816
1601145787
1601187250
1601188624
1601250769
1601251495
1601300469
1601314034
1601431211
1601479687
1601499016
1601515007
1601598034
1601681416
1601704971
1600092466
1603099268
1603124731
1603162587
1603202390
1603236250
1603240577
1603304468
1603340219
1603356242
1603408270
1603428046
1603441102
1603489629
1603489717
1603523903
1603525787
1603528256
1603564087
1603596102
1603606293
1603611827
1603618869
1603688752
1603704559
1603709137
1603711629
1603728995
1603749991
1603783440
1603986781
1604007310
1604016234
1604023042
1604028898
1604032515
1604096968
1604136562
1604168653
1604228763
1604231692
1604239427
1604253734
1604352683
1604364144
1604377703
1604379183
1604394482
1604403180
1604465828
1604477990
1604478103
1604490127
1604507206
1604556161
1604577430
1604594603
1604656145
1604662577
1604698430
1604723123
1604792416
1604810567
1604864941
1604871803
1604945366
1604947032
1604951106
1605003238
1605032821
1605044879
1605066250
1605092492
1605096971
1605104549
1605109465
1605114629
1605172835
1605200257
1605202115
1605217061
1605220832
1605287163
1605319041
1605356647
1605584572
1605685711
1605703692
1606049172
1606231939
1606293991
1606571828
1606602890
1606683248
1606805186
1606852530
1606870424
1606888401
1606890407
1607224935
1607376230
1607642748
1607645262
1607860021
1607879961
1607911536
1607970069
1607994501
1608050831
1608162337
1608171706
1608202420
1608289653
1608374967
1608603349
1608652134
1608704255
1608709963
1608725745
1608797242
1608970963
1609098339
1609260523
1609331038
1609381379
1609531667
1609575398
1609641058
1609751497
1609832833
