960000174
960001917
960001995
960002497
960003579
960006637
960006549
960010105
960012398
960013158
960018428
960020104
960021683
960022496
960022867
960024950
960028448
960031534
960032404
960033907
960033853
960034969
960041021
960045362
960047850
960048630
960048729
960049271
960051317
960051231
960051893
960053613
960054148
960055850
960056242
960058524
960059100
960059109
960059775
960059933
960066284
960070055
960074479
960075308
960076271
960076397
960080819
960081467
960084465
960084501
960084981
960088792
960089626
960090441
960090934
960090581
960097677
960094183
960101930
960104517
960105805
960108003
960109883
960110260
960110845
960111314
960116002
960117782
960121297
960121804
960125097
960126628
960127617
960127643
960130006
960136303
960136819
960137166
960139747
960140698
960142045
960142391
960142439
960145192
960146170
960148228
960149588
960152826
960153927
960155136
960155199
960155164
960155309
960156006
960157235
960160356
960160137
960163940
960164504
960167263
960169840
960173888
960173982
960174587
960178199
960179002
960180966
960182820
960183264
960185308
960186616
960188188
960189098
960191708
960191915
960193076
960193506
960193745
960195364
960196123
960196249
960198498
960201212
960205796
960208693
960208808
960210197
960211674
960212774
960215384
960218868
960218858
960219014
960224552
960225936
960226143
960227605
960229095
960231045
960231149
960231586
960232236
960232622
960234884
960234906
960236111
960236044
960239667
960240653
960241090
960242237
960244622
960245623
960248895
960249544
960250544
960253721
960256152
960257601
960258580
960265273
960268020
960268333
960269133
960275265
960275135
960276310
960277106
960278498
960279533
960285088
960290285
960291899
960295735
960297415
960297872
960300758
960301911
960302910
960304448
960305355
960305662
960305783
960309234
960313393
960315369
960319209
960322581
960323625
960324924
960325091
960326158
960329341
960332175
960332477
960334546
960339271
960340443
960340653
960341782
960342544
960342827
960343219
960349391
960351825
960353055
960354915
960357640
960358532
960359161
960361970
960362289
960364449
960367347
960371270
960375004
960378588
960381074
960385038
960386334
960386667
960391793
960392312
960392698
960392828
960393970
960395128
960395426
960396573
960396744
960396130
960396771
960398222
960399622
960400664
960401111
960403333
960404404
960404885
960409982
960410218
960416157
960418082
960418949
960423165
960423591
960427817
960428853
960429022
960430359
960430558
960430440
960433609
960434137
960437325
960438991
960441331
960442786
960443903
960444410
960444540
960444526
960444763
960447549
960447630
960450058
960450256
960451625
960456121
960456964
960458795
960459508
960459893
960459765
960461504
960462088
960461999
960463206
960464065
960464564
960468719
960470494
960471865
960479835
960480256
960482207
960482463
960482341
960483355
960486146
960486964
960487095
960487636
960490063
960496673
960499557
960499526
960502991
960504560
960506078
960507546
960507440
960507704
960509168
960509179
960511471
960511526
960513127
960514092
960514675
960519523
960526747
960527730
960534930
960536374
960538600
960540756
960544300
960545702
960545961
960546594
960552080
960553145
960555410
960561636
960563013
960563868
960566565
960566945
960568217
960568963
960571805
960572157
960571599
960574427
960574617
960574955
960576044
960576481
960579186
960581167
960582268
960583325
960584474
960585100
960592795
960594204
960596429
960601190
960603996
960604089
960607711
960608547
960610562
960610746
960614441
960615073
960615834
960615920
960616041
960616061
960617374
960619360
960621423
960622048
960622566
960624023
960624638
960627230
960630380
960631724
960637016
960640109
960644888
960645336
960646116
960647511
960648040
960652422
960653095
960653765
960661192
960663302
960663929
960664474
960664819
960667676
960674827
960679647
960681436
960682151
960682945
960683705
960684575
960690619
960695885
960695931
960697236
960698359
960703886
960704747
960705044
960706837
960706914
960708956
960712237
960713934
960715785
960721923
960722830
960723339
960724311
960725885
960726436
960726356
960729222
960729252
960729864
960729827
960736340
960740840
960740703
960742877
960749671
960751103
960752804
960756658
960758858
960759575
960760198
960767894
960769122
960771041
960773231
960773732
960773898
960774407
960782432
960788857
960792039
960792523
960792765
960795259
960796119
960797117
960798420
960799346
960799789
960801917
960804343
960804581
960806049
960805793
960811699
960812041
960812607
960818228
960818855
960821076
960821246
960829075
960831495
960832104
960836468
960836933
960840327
960841305
960841889
960842457
960843912
960845208
960845468
960846761
960847001
960848914
960849398
960850442
960856215
960860212
960862688
960862625
960863025
960865515
960866014
960869169
960870999
960877400
960877627
960883376
960887145
960889981
960891067
960894416
960894840
960895796
960901569
960902211
960903654
960906126
960907538
960912755
960913155
960914802
960918059
960920782
960922252
960924729
960926993
960929264
960930883
960933544
960935290
960938646
960941305
960943014
960943484
960946834
960948374
960949890
960950555
960955364
960955704
960960887
960962300
960962806
960963347
960964140
960965919
960969801
960970573
960975791
960976946
960978897
960980239
960983797
960987456
960988485
960990287
960992338
960994031
960994870
960996547
960996781
960997107
960997473
961003829
961006961
961010604
961010698
961012293
961013769
961015068
961016113
961018609
961021389
961021719
961022710
961023667
961024056
961024898
961028986
961030150
961030064
961029261
961030463
961030911
961032610
961032728
961032974
961033969
961035719
961037428
961037627
961038660
961039113
961039960
961043279
961046545
961048931
961053199
961054349
961056252
961056579
961059102
961059451
961061635
961065971
961070794
961071130
961072353
961072636
961074916
961077273
961078669
961078631
961081625
961085129
961085463
961087927
961090124
961093227
961097639
961097594
961098715
961099896
961100661
961100534
961102964
961104627
961105796
961107698
961108063
961108560
961109506
961110994
961114055
961113463
961115198
961119637
961119753
961120446
961122559
961122553
961126289
961126811
961128883
961131340
961132651
961134154
961134295
961134424
961134729
961136429
961137699
961139036
961139885
961142686
961143074
961145860
961149654
961151024
961152204
961151999
961154022
961153820
961156425
961161099
961163670
961163958
961164756
961166338
961169253
961169279
961171377
961176951
961178045
961178909
961181560
961184326
961186653
961188137
961191581
961192873
961193709
961195956
961195480
961196478
961196532
961197937
961200458
961203774
961204849
961205702
961206191
961207558
961210230
961213146
961213439
961215626
961215839
961216482
961225472
961227003
961229494
961229948
961230256
961236850
961238816
961239145
961240245
961240183
961240815
961242676
961242905
961247438
961249222
961251272
961252142
961255634
961256592
961259269
961261261
961261412
961263101
961264861
961265229
961269068
961269731
961276200
961278812
961279947
961284027
961287362
961291954
961294494
961294896
961295548
961296477
961297381
961298006
961298772
961303182
961303674
961304464
961307447
961310717
961312146
961313347
961313695
961314579
961315319
961315689
961316436
961318306
961322683
961323575
961323664
961324743
961325486
961330442
961330673
961330836
961331822
961332243
961336800
961340365
961346701
961348312
961348408
961349797
961351009
961351266
961351289
961355365
961356410
961356966
961358629
961358922
961359060
961360050
961361332
961362135
961363374
961364515
961365098
961365244
961366695
961371598
961372952
961373718
961373989
961374257
961375611
961379286
961380035
961381610
961383593
961402674
961405045
961407269
961408926
961409055
961409366
961414335
961421728
961423493
961425002
961432577
961435558
961436136
961437695
961440084
961443981
961445411
961446136
961447287
961449153
961449481
961452907
961453284
961453350
961460999
961462596
961463744
961463344
961470376
961472672
961476254
961477242
961477526
961477506
961477525
961479169
961481454
961481508
961487160
961489956
961491938
961494813
961497527
961497774
961497612
961497925
961498918
961498161
961501224
961507328
961509589
961514313
961515179
961517302
961519742
961521027
961524670
961527308
961529055
961530142
961531522
961534155
961536738
961536962
961539109
961540775
961541066
961541312
961542889
961543500
961542989
961543700
961544028
961546828
961547320
961548347
961550028
961552238
961554047
961554293
961558557
961558579
961559040
961560977
961570156
961572481
961578786
961580308
961580296
961583657
961584401
961588087
961590659
961591025
961591472
961592637
961592735
961594133
961594380
961596705
961596653
961596767
961600683
961600339
961602386
961603038
961603323
961608570
961609973
961610490
961611672
961612324
961612983
961613057
961617329
961619036
961619271
961619584
961620802
961621751
961624362
961626606
961627838
961629063
961630156
961632084
961632737
961631515
961633927
961634019
961634748
961637559
961637636
961637850
961641647
961641712
961642184
961642723
961643512
961644774
961645335
961645516
961649606
961652140
961653042
961655922
961657782
961658401
961658423
961658570
961659517
961660184
961660660
961664731
961665006
961666181
961666663
961667323
961669120
961669838
961669965
961670026
961670961
961671314
961672188
961673439
961676244
961678168
961679832
961681223
961688421
961688587
961690720
961693927
961694597
961697745
961698306
961701341
961702567
961702710
961703931
961704232
961706291
961712087
961712998
961719056
961719598
961719902
961723285
961731228
961735600
961735666
961737987
961738286
961739808
961740325
961743588
961744429
961745023
961745437
961746198
961746896
961746954
961748975
961748471
961751227
961756846
961758782
961759486
961760471
961761444
961762909
961763334
961764644
961765688
961771747
961772891
961772939
961773209
961774604
961777284
961780064
961780610
961781064
961781847
961783193
961784105
961786094
961787969
961788476
961793294
961794829
961795360
961797643
961798120
961801549
961802908
961803525
961803965
961805262
961805630
961807476
961809427
961809646
961813087
961812758
961813387
961813801
961814083
961815120
961815980
961817473
961817914
961818859
961820584
961823119
961823141
961823279
961824010
961826646
961829331
961829350
961830490
961832048
961819492
961837182
961838567
961840162
961841373
961852973
961856574
961856355
961858523
961860790
961861146
961865678
961870247
961870314
961871186
961872192
961874558
961874902
961874871
961877465
961878650
961887624
961888434
961888463
961890760
961892302
961892600
961894327
961894598
961895427
961898591
961903146
961904799
961907040
961907643
961911212
961913056
961925254
961925544
961937585
961938226
961938493
961940425
961942749
961943325
961943761
961943829
961946488
961947473
961950002
961950226
961950881
961952477
961952877
961953077
961956429
961957433
961959618
961960539
961960476
961965862
961966705
961973297
961973778
961974619
961975349
961976475
961977708
961980725
961983620
961985955
961986946
961990113
961994338
961996022
962003076
962004791
962007211
962007462
962008105
962009764
962011078
962013353
962016145
962018334
962019020
962020876
962023758
962031940
962032206
962038710
962040327
962041160
962044201
962047917
962051494
962056570
962056943
962064655
962065745
962066019
962067099
962073978
962078243
962078132
962078960
962081615
962081418
962082574
962084354
962090588
962091906
962094563
962094730
962095210
962096619
962096660
962099512
962100453
962102657
962104669
962107162
962109632
962111482
962111679
962111720
962115496
962119721
962119777
962129847
962130789
962133804
962140957
962141927
962143491
962147996
962148033
962150779
962152286
962153428
962155986
962158029
962159157
962159219
962159918
962160024
962160460
962162184
962163859
962164564
962165765
962168795
962169040
962168521
962171516
962172573
962173055
962174007
962174237
962178762
962180620
962181575
962182467
962184979
962189098
962191430
962192378
962194633
962195147
962195932
962196062
962196374
962196704
962198137
962203507
962203893
962205367
962205453
962207961
962210609
962211443
962211903
962214949
962217660
962221184
962221430
962221532
962222951
962223808
962223809
962224561
962224843
962229178
962229506
962229667
962233260
962234303
962239363
962242541
962248991
962251949
962257159
962257467
962260595
962269059
962268999
962269368
962270856
962274815
962278196
962283000
962285595
962287752
962288312
962289808
962290273
962290321
962293879
962294131
962296645
962300009
962301102
962304875
962304838
962306124
962307598
962309871
962310037
962315400
962315396
962316297
962317879
962317610
962318780
962322448
962322811
962323196
962324206
962324983
962326386
962326689
962329052
962330731
962331302
962334343
962335272
962336313
962339298
962340612
962340623
962341555
962346331
962351124
962353473
962353594
962354221
962354313
962355391
962356506
962357051
962357806
962357747
962359821
962360770
962365241
962366452
962366495
962367698
962368253
962368701
962369156
962371672
962373570
962373792
962374515
962378678
962378857
962380728
962380736
962380725
962380975
962382653
962388601
962390840
962391998
962393320
962397149
962397829
962398390
962398625
962398706
962400187
962402011
962402511
962406354
962406850
962413963
962416108
962419391
962422794
962427850
962428695
962432367
962433756
962434001
962435144
962435616
962435961
962436505
962440755
962447794
962450071
962450656
962454168
962454983
962455316
962457183
962458650
962463325
962469916
962470816
962473410
962474567
962474958
962476941
962478996
962479460
962480385
962482515
962484578
962486696
962489823
962491022
962491202
962492302
962497284
962497617
962497628
962499477
962501882
962506416
962508472
962510561
962511299
962513346
962513647
962518140
962518682
962518946
962520178
962524754
962528002
962528628
962529106
962532124
962532377
962532566
962534592
962543513
962544731
962545527
962546435
962546784
962549245
962553389
962553732
962555675
962556231
962556476
962559259
962559290
962563311
962565771
962566536
962568485
962568371
962569276
962569144
962570466
962571288
962571405
962576095
962576238
962578101
962582549
962583310
962585816
962590204
962592287
962594367
962595032
962597047
962599108
962600093
962600169
962600323
962600364
962600583
962603185
962604494
962607776
962609170
962609467
962609546
962609033
962610894
962611710
962612703
962613033
962617631
962618699
962620998
962622317
962623061
962623926
962625309
962634218
962635171
962636158
962637704
962638725
962639932
962640972
962641724
962641742
962642042
962644619
962645201
962645432
962647392
962651018
962653456
962654388
962655162
962657026
962657956
962659111
962661570
962663316
962664000
962666147
962667250
962668735
962670409
962670958
962670999
962672187
962676761
962678157
962681259
962683558
962686696
962689586
962689946
962690277
962690807
962691213
962698772
962698916
962699600
962699673
962706873
962710186
962710673
962711292
962712079
962712333
962714062
962717216
962716516
962720099
962721493
962722966
962726426
962728005
962733806
962738748
962739130
962739849
962740038
962743084
962746196
962748840
962750319
962751039
962760137
962764919
962765028
962768723
962772669
962778006
962779784
962785503
962786622
962787360
962788569
962788662
962790644
962792738
962793014
