730013983
730046386
730046386
730109841
730112374
730118894
731058486
731066767
731085563
731095699
731127222
731141910
731144947
730223573
730237977
730242634
731175857
731196947
731198000
730269340
731205893
731219069
731238565
731255712
730331069
730336420
731270826
731544415
730413866
731565950
730428008
731572205
730433448
731606863
730479989
731628616
730490356
731653906
730514236
731696872
731721310
730533944
731741956
731757501
730565922
730583100
731776467
731777727
730590283
730594807
731798086
731799344
731806535
730631284
730647488
730651549
730669788
730690299
731958784
732027983
732034851
732038914
730769352
730779519
732078539
730786863
732084396
732086369
732091793
732096096
732108429
732114330
730824836
730836291
1600021180
1600075242
1600095546
1600103168
1600114273
1600179359
1600210122
1600243981
1600246215
1600266248
1600283156
1600290327
1600309281
1600347533
1600389799
1600428331
1600462627
1600496088
1600569377
1600597510
1600642438
1600709002
1600760045
1600764833
1600890468
1600955692
1600969332
1600992769
1601071033
1601095367
1601116442
1601117493
1601122589
1601247093
1601272930
1601282040
1601293622
1601298160
1601306077
1601310923
1601349018
1601360564
1601386482
1601396861
1601401999
1601432346
1601476468
1601481005
1601581433
1601599707
1601629451
1601632386
1601644983
1601646791
1601672566
1601687786
1601691062
1601720917
1601734254
1603065118
1603101781
1603153929
1603228953
1603234940
1603378096
1603428322
1603457584
1603477752
1603506016
1603537269
1603559365
1603586355
1603586836
1603615706
1603646610
1603649656
1603673318
1603729890
1603736416
1603757769
1604017406
1604024428
1604028642
1604082378
1604095017
1604095315
1604114100
1604119686
1604132889
1604177437
1604270157
1604338262
1604347782
1604537150
1604551055
1604561233
1604577319
1604578861
1604607951
1604628012
1604641860
1604671174
1604681257
1604729458
1604730696
1604772435
1604803869
1604814283
1604824659
1604865327
1604917945
1604922224
1604962539
1605015624
1605058482
1605221527
1605329122
1605339809
1606299072
