960014037
960056880
960057867
960076873
960105841
960129383
960136924
960146841
960220537
960296631
960297433
960319169
960330571
960345527
960347528
960364242
960367929
960392794
960403645
960423088
960439445
960451970
960473217
960481331
960494540
960540472
960561292
960571687
960581535
960691331
960712891
960714967
960749583
960752850
960839034
960878925
960887953
960907116
960947776
960972249
961008295
961055758
961060658
961083865
961102706
961146899
961228295
961268735
961348895
961404144
961438379
961514507
961689699
961693748
961770864
961780870
961798493
961898245
961921051
961974705
961974626
962025533
962055409
962083264
962141198
962195173
962209147
962281647
962302702
962349834
962353463
962432635
962513672
962516995
962553026
962625553
962670260
962698542
962725186
962735405
962743309
