800075616
800078391
801030041
800089412
800093851
800094131
800096811
800096811
801038324
800099474
800103089
801044297
800114304
800115071
801066785
800124473
800133353
801078725
801089377
800146878
800147800
801094986
801095900
801096568
800156279
800159233
800061392
800075616
800078391
800089412
800093851
800094131
800096811
800099474
800103089
800114304
800115071
800124473
800133353
800146878
800147800
800156279
800165227
800167239
800167920
800170914
800177399
800185641
800186803
800195504
800196108
800214916
800222269
800226058
800238545
800239021
800267716
800270433
800285316
800307586
800311559
800312412
800312738
800323048
800323191
800323541
800323867
800323750
800338345
800342981
800344310
800343860
800354582
800355257
800369280
800385114
800394306
800401364
800405377
800409954
800410462
800434822
800437504
800440704
800453102
800453751
800458724
800460726
800468986
800472985
800477973
800477877
800478400
800483419
800484030
800489630
800499747
800502752
800508955
800514612
800523820
800527355
800534402
800556687
800560871
800563899
800571774
800571949
800576651
800597322
800599316
800612756
800643376
800649423
800657418
800663932
800674175
800677179
800685885
800689961
800692540
800696784
800700420
800715312
800722130
800744826
800748409
800751780
800756860
800757959
800762367
800768268
800774360
800782086
800786118
800791097
800794754
800802025
800803473
800810864
800815898
800829461
800832363
800834377
800839310
800840079
800842939
800858423
800863907
800868927
800871708
800877562
800884219
800890592
800895086
800896559
800903048
800919078
800925758
800937839
800938672
800948640
800964974
800970799
800978921
800988634
800992652
801008998
801009166
801030041
801038324
801044297
801066785
801078725
801089377
801094986
801095900
801096568
801105735
801111555
801124643
801130065
801143846
801157328
801159088
801165788
801175004
801178453
801178924
801182905
801185225
801193292
801194977
801207901
801208760
801213562
801222655
801224314
801225144
801227447
801231354
801235420
801238118
801254502
801260505
801269077
801272931
801276754
801277365
801281830
801287644
801288069
801298176
801300782
801304502
801314196
801316624
801320799
801336829
801356033
801356324
801372552
801386477
801388940
801391494
801391984
801392280
801408644
801428693
801428750
801434809
801437586
801441121
801441728
801460028
801462426
801466264
801467305
801483480
801489651
801490465
801493396
801495578
801523999
801530440
801530472
801539420
801544871
801545389
801563103
801576775
801589663
801593582
801595853
801597471
801604762
801618504
801625384
801626251
801631561
801642037
801642527
801645798
801655763
801656092
801658733
801665257
801669210
801672351
801680091
801690691
801693866
801711489
801716811
801721064
801722698
801728839
801731415
801738570
801739365
801745638
801758920
801759740
801765106
801781134
801789853
801793664
801802773
801803525
801805317
801807323
801808381
