710289286
710297331
710343760
710344473
710394467
710395320
710395475
710422286
710672446
710682352
710688531
710809036
710822436
710857912
710930182
711117080
711167863
711338196
711362013
711391326
711419727
711435811
711448384
711579778
711674719
711686321
711690703
711766239
711827684
711855057
711977308
711993159
712112097
712147679
712165670
712233738
712323001
712338684
712387385
712443262
712447966
712511063
712523308
712662462
712673973
712681377
712752773
712780169
712783605
712798527
712910811
712923326
712928457
712995650
713102658
713127696
713326817
713346300
713348330
713479793
713486728
