960011950
960236879
960288799
960422772
960548793
960698189
960729712
960747426
960840877
960905160
960911902
961009268
961173956
961231604
961245708
961417450
961428674
961482484
961728862
961738983
961845743
961895729
962043408
962100456
962243043
962298444
962382857
962458362
962542151
962562638
962614926
962618264
962650748
962654113
962674191
962774090
