732024832
1600014879
1600024035
1600071285
1600380152
1600392589
1600464540
1600506580
1600597678
1600704704
1600795790
1600841907
1601038068
1601139514
1601272220
1601325108
1601341663
1601353885
1601546330
1601642564
1601683114
1601721371
1603133110
1603177242
1603186408
1603204624
1603343049
1603400384
1603544902
1603546309
1603753395
1603792322
1604107467
1604310693
1604368631
1604537292
1604588099
1604815866
1604831854
1604921540
1605197243
