710019936
710027432
710067972
710113569
710123097
710156393
710254723
710303768
710512225
710560144
710591971
710671716
710693640
710719124
710724624
710728217
710917545
710996391
711018578
711157052
711298533
711407622
711552534
711590749
711615823
711661811
711918960
712006356
712028540
712072359
712198398
712509076
712526284
712528901
712571752
712598607
712628065
712827725
712852701
712871346
712886377
713039845
713050740
713061029
713077214
713083087
713092908
713095391
713305568
713407012
