710151254
710429871
710541216
710570802
710593969
710957773
711088183
711212451
711240923
711271446
711494116
711808001
711870282
711924061
712111159
712192718
712293803
712303663
712408051
712429421
712477084
712561183
712563970
712577319
712633717
712739886
712848850
712968982
713136798
713178230
713181546
713272193
713278254
713329964
