800010349
800040586
800043937
800048431
800071453
801029334
800125922
800133532
800139234
801083859
801096032
800155786
801101846
802003651
800010349
800040586
800043937
800048431
800071453
800125922
800133532
800139234
800155786
800215675
800225754
800254514
800267819
800296365
800297035
800344688
800353333
800366031
800393196
800411204
800464924
800478282
800531451
800534898
800579073
800588873
800597134
800605973
800616335
800643198
800686967
800691911
800707542
800721644
800755867
800770161
800806076
800813292
800831577
800844446
800872482
800892589
800962424
801029334
801083859
801096032
801101846
801120051
801126224
801172405
801204314
801209693
801209863
801221859
801241063
801275333
801298550
801329562
801390080
801477075
801482533
801524503
801586263
801599515
801642600
801649234
801671360
801700550
801764318
801765110
801774505
801777259
801794620
