730059826
730066208
730073324
731027051
731103723
731191450
731197408
731264154
730347105
731631703
731639997
731734789
730568789
731770776
730694575
731891195
731994043
732041321
1600064465
1600162834
1600196847
1600226169
1600447823
1600665219
1600890000
1600912601
1600977550
1601092858
1601258471
1601377583
1601467656
1601623493
1601628690
1601715908
1601716401
1603443090
1603692656
1603992871
1604195373
1604198201
1604229210
1604343075
1604611961
