1600010401
1600035620
1600492394
1600709587
1600741408
1600805652
1601109617
1601414673
1601621371
1601665754
1600010401
1600035620
1603478489
1603573051
1603790323
1603996395
1604147186
1604157407
1604366500
1604527048
1604531073
1604666931
1604709357
1604803999
1604917599
1604965399
1604993897
1605021356
1605031246
1605076170
1605806821
1605935848
1606032042
1606157105
1606174858
1606197282
1606421586
1606715796
1607027464
1607230746
1607337226
1607646813
1607723512
1607724582
1608025243
1608170810
1608269825
1608392080
1608529944
1608823290
1609075200
1609312451
1609450167
1609562782
1609629310
1609878321
