731944552
730764024
1600226424
1600671545
1600750889
1600806138
1600966108
1601614797
1601640536
1603104129
1603518790
1603570411
1603736491
1603942996
1604143856
1604199649
1604317386
1604393025
1604452626
1604480391
1604849572
1605031442
1605147201
1607118730
1607962843
1609628321
