800000780
800004271
800013023
800040435
800055963
800063710
800069425
801061757
800119721
801069110
801079453
801080793
800138737
801086360
801088466
800154592
801101654
800157476
802003094
800000780
800004271
800013023
800040435
800063710
800069425
800119721
800138737
800154592
800157476
800200498
800227437
800228528
800230911
800246947
800273133
800276954
800294965
800299440
800318686
800322939
800324257
800332909
800341206
800348862
800376004
800378788
800382853
800399785
800416788
800434375
800434594
800452524
800458746
800466085
800474172
800474983
800479976
800511072
800517490
800522647
800523559
800556672
800590483
800590562
800636079
800639785
800658759
800672581
800677144
800680835
800687626
800688530
800706965
800726646
800734131
800739078
800742530
800757070
800760472
800769253
800774673
800790934
800811490
800817312
800824388
800830226
800834547
800851129
800861588
800879004
800931843
800935295
801061757
801069110
801079453
801086360
801088466
801101654
801129919
801136377
801138446
801161456
801165985
801189270
801209320
801210647
801226322
801238930
801263061
801273758
801273722
801279911
801286143
801301310
801339781
801343528
801393396
801421365
801442253
801452462
801457855
801460587
801462309
801465269
801486501
801493241
801519517
801519630
801523562
801525584
801539319
801546876
801552350
801560097
801563239
801576746
801579131
801590214
801599100
801621492
801626019
801629131
801644348
801644603
801677187
801691881
801695239
801708678
801717754
801731687
801745735
801746933
801749695
801763665
801766895
801766624
801789218
801803010
801810454
