920002458
920002458
920011519
920017994
920018234
920020613
920025071
920028981
920040098
920041733
920042602
920045409
920049771
920055841
920057020
920058019
920068180
920068899
920086509
920088612
920090545
920102389
920102159
920117714
920127025
920127191
