960013325
960019825
960023433
960026405
960032180
960032813
960032681
960033485
960036456
960043074
960048135
960049550
960058964
960060841
960061977
960063410
960063481
960074075
960076362
960094728
960098770
960101147
960107012
960111789
960117483
960125662
960137722
960139151
960155558
960156960
960160088
960162602
960165694
960172327
960173270
960183545
960188278
960188776
960191843
960203035
960212649
960214135
960218458
960218910
960225051
960227609
960234961
960235244
960236368
960237989
960250963
960256827
960262905
960262995
960267334
960274087
960274360
960280925
960286328
960288849
960291714
960294551
960296563
960303069
960303586
960323511
960325005
960325398
960327998
960330462
960332781
960333061
960334040
960352901
960353971
960362114
960367282
960369378
960370544
960393865
960396288
960398280
960402791
960417115
960420661
960422843
960426292
960429736
960431467
960433681
960438342
960439239
960454610
960459059
960459868
960463969
960463914
960466802
960467210
960467998
960468416
960469774
960470281
960471303
960472441
960476792
960480983
960484427
960494615
960498784
960501222
960504947
960506697
960514296
960515279
960515327
960516605
960520510
960522079
960525323
960527687
960532912
960538250
960539776
960544718
960546087
960547457
960547520
960549487
960558209
960559325
960559764
960564569
960569620
960575440
960576070
960578638
960580774
960588301
960590177
960592613
960595364
960606929
960608411
960610059
960610770
960611091
960616520
960633154
960646101
960647236
960649654
960652827
960653645
960655588
960660987
960664580
960664992
960676742
960686005
960687571
960695657
960699830
960701387
960727661
960733423
960735930
960739717
960741622
960751438
960759163
960759217
960769569
960777588
960783865
960786191
960787097
960787377
960789916
960791478
960792750
960795022
960795628
960797078
960798199
960798621
960799592
960810442
960812770
960812841
960814281
960816791
960821386
960822328
960824139
960824180
960827924
960829561
960842040
960843424
960843508
960846134
960847563
960848732
960857655
960867900
960869894
960874563
960881343
960884626
960886322
960888997
960892229
960892936
960894231
960898431
960902765
960909226
960916125
960926412
960929799
960929967
960946695
960952151
960951722
960955465
960956158
960966481
960966753
960971403
960973309
960980972
960983554
960983965
960987398
960987542
960991907
960994977
960995863
960998206
961000758
961002075
961004248
961004834
961017255
961017408
961017709
961021707
961024718
961030072
961032035
961032389
961038616
961048007
961059862
961061012
961063645
961063648
961068902
961072417
961073809
961074197
961078238
961081492
961085259
961087286
961090150
961090802
961092233
961094567
961096682
961099955
961100176
961103598
961105714
961105998
961106319
961106802
961109945
961124378
961124572
961125093
961125532
961128703
961132755
961139139
961139447
961148128
961151678
961153738
961154440
961161047
961164188
961170348
961172481
961172512
961172697
961173659
961174855
961180324
961182527
961182908
961200931
961204776
961210834
961212077
961219023
961220158
961231801
961236115
961236593
961242831
961244457
961244393
961247613
961248447
961252368
961256835
961262615
961264507
961265084
961267774
961268908
961276017
961278043
961280976
961284126
961285592
961288158
961290520
961304854
961312397
961320637
961323505
961325064
961325886
961330477
961331073
961337661
961340764
961348219
961348469
961350820
961352397
961359051
961365699
961366077
961366076
961367788
961373525
961381980
961386625
961395138
961395628
961406711
961407866
961415111
961417028
961418991
961425497
961426897
961431972
961432117
961435724
961442829
961449905
961455362
961464881
961469594
961489963
961491028
961506455
961506637
961509669
961510965
961512295
961514468
961514847
961518253
961522384
961522596
961528038
961529626
961532490
961539589
961543483
961546898
961547720
961548240
961554064
961556208
961560073
961561066
961562720
961566046
961571543
961577030
961578181
961581260
961581563
961588117
961596480
961601711
961609308
961616270
961623395
961631599
961636330
961650219
961650700
961659314
961663096
961694690
961703055
961705191
961719557
961724963
961724716
961729305
961729843
961737184
961737946
961738991
961748059
961748237
961754726
961754834
961759283
961759393
961764707
961764571
961770544
961804770
961809918
961815537
961819305
961821788
961822837
961824807
961831606
961833082
961835491
961841524
961848943
961855712
961855712
961858954
961858770
961866867
961873688
961874873
961898238
961898458
961902675
961906234
961908576
961909013
961916646
961918256
961926258
961947295
961948746
961952190
961961100
961969262
961972015
961978961
961981945
961982587
961986021
961992821
961994410
961994852
961995289
962001238
962001845
962005316
962017334
962017523
962019517
962021845
962023642
962028578
962029803
962034889
962047763
962049257
962056290
962078155
962078325
962086910
962088277
962089159
962089789
962090079
962091735
962091945
962092430
962093752
962094215
962105547
962105924
962107440
962110036
962112060
962114532
962122421
962124382
962127942
962132283
962132832
962149236
962154657
962169935
962175284
962188228
962191108
962197110
962206300
962208823
962211109
962220027
962231718
962232422
962249295
962252375
962253094
962258903
962266655
962267121
962273049
962275754
962277160
962283534
962290496
962291714
962293714
962294579
962298224
962314995
962320967
962327094
962333451
962335331
962348234
962354560
962355194
962356831
962356908
962359862
962360301
962362943
962363179
962363448
962364732
962367006
962374716
962378342
962388234
962389669
962390138
962394932
962397512
962400506
962403184
962415077
962423050
962424271
962427442
962428058
962428362
962428845
962430693
962438552
962443722
962443128
962449544
962461277
962463622
962474183
962476588
962479078
962489708
962494831
962499998
962505219
962508243
962509980
962510385
962510369
962512306
962513764
962517795
962517642
962518726
962523004
962522262
962525520
962527401
962532145
962533686
962536615
962539454
962541293
962547139
962560137
962559551
962565196
962568210
962571572
962571493
962577245
962578900
962580765
962585573
962591996
962593247
962597989
962600123
962601401
962603737
962608902
962612337
962616776
962620894
962623234
962626936
962629782
962639779
962640396
962645672
962650208
962663678
962664300
962664300
962667930
962668090
962674482
962686437
962686761
962687169
962692438
962696122
962724342
962729480
962729981
962730447
962732481
962739553
962739702
962745347
962746927
962748649
962756694
962757971
962760932
962761747
962767627
962779674
962784365
962784838
962786982
962790540
