800016205
800092463
801040065
800106864
800124230
800016205
800092463
800106864
800124230
800169179
800188785
800270774
800520710
800574787
800666728
800692313
800828184
800857621
800861143
800880220
801003789
801040065
801107992
801162420
801272830
801356082
801544789
801586195
801610590
801615362
801648913
801678430
801712069
