731046086
730338022
730695862
731955013
730735888
732036619
732069775
732124503
1600034432
1600104613
1600137724
1600154460
1600266035
1600282557
1600387197
1600400195
1600627163
1600642618
1600696793
1600761704
1600953218
1601121344
1601126982
1601151714
1601363331
1601370127
1601456907
1601561492
1601580429
1600034432
1603136235
1603166825
1603202116
1603210174
1603371248
1603402011
1603490669
1603506364
1603630244
1603653372
1603764366
1604069854
1604131148
1604205927
1604246129
1604259976
1604747173
1604794536
1605085207
1605116232
1605320056
1605754319
1606486851
1606961611
1608003281
1608850438
1609215952
1609263936
