640000213
640001739
640003527
640003527
640003527
640000213
640001739
640003527
640008699
1850012273
1850013746
1850014773
1850021645
1850029429
1850037808
1850048531
1850059847
1850060263
1850089743
1850128245
610018060
610037440
610047940
610053863
610063080
610066334
610069687
610133956
610136692
610160341
610161972
610162342
610224133
610234189
610247626
610273463
610274149
610298382
610304917
610305108
610314026
610320100
610376470
610378997
610398178
610403361
610411347
610411458
610422507
610443872
610495754
610506340
610544313
610552586
610586693
610651706
610672295
610689768
610734038
610737218
