730106462
731056176
730178242
731133821
730216548
731152026
731155163
730253316
731184641
730287677
730288393
730337395
731263988
731552616
730437866
731615731
731617351
730572354
731765331
731832808
731869185
731953785
732030635
732031191
732125824
1600025668
1600028843
1600049618
1600061520
1600110193
1600111191
1600141358
1600144946
1600146331
1600165275
1600166839
1600167668
1600177980
1600181233
1600183220
1600203458
1600222249
1600272897
1600298014
1600322989
1600329778
1600364404
1600364404
1600369380
1600377452
1600388442
1600398695
1600433408
1600442177
1600463206
1600472932
1600476197
1600478594
1600488906
1600532519
1600576499
1600586795
1600591292
1600598930
1600600163
1600600681
1600603526
1600665609
1600666852
1600668353
1600681605
1600707496
1600726453
1600740677
1600753193
1600753260
1600787850
1600808673
1600808925
1600840873
1600856784
1600868511
1600871829
1600880675
1600894688
1600904022
1600908078
1600950069
1600974842
1600981687
1600984270
1600984885
1601034286
1601065954
1601074591
1601097156
1601116796
1601135577
1601143574
1601151536
1601163527
1601175914
1601199088
1601208123
1601220084
1601230163
1601241060
1601255261
1601272469
1601286110
1601308841
1601329760
1601330132
1601347457
1601347807
1601358878
1601384309
1601385011
1601404800
1601440865
1601442063
1601445228
1601462063
1601510587
1601523358
1601538854
1601611876
1601642681
1601651656
1601654159
1601690353
1601694209
1601725760
1601725783
1601739033
1601740064
1601744978
1600025668
1600028843
1600110193
1603070762
1603076632
1603105262
1603119369
1603132547
1603137608
1603142733
1603172709
1603174640
1603183548
1603184684
1603246863
1603259792
1603287150
1603307784
1603311281
1603346738
1603369643
1603373211
1603389378
1603445463
1603453415
1603457862
1603481516
1603487396
1603495600
1603510664
1603600282
1603612081
1603660075
1603661468
1603674977
1603675305
1603683069
1603707087
1603751036
1603751377
1603773123
1603784164
1603850230
1603865999
1603886784
1603957525
1603978558
1604007649
1604007672
1604019890
1604036688
1604052368
1604106038
1604124213
1604168038
1604172074
1604182705
1604231160
1604235918
1604237386
1604238211
1604256197
1604279467
1604285964
1604292333
1604324190
1604348111
1604396811
1604416646
1604427912
1604474830
1604488294
1604515260
1604529858
1604569512
1604578392
1604590632
1604605220
1604622685
1604624066
1604643337
1604654995
1604669373
1604678485
1604679003
1604720507
1604795916
1604804467
1604806503
1604816051
1604827342
1604830369
1604831923
1604840271
1604851062
1604862947
1604899791
1604960345
1604961151
1604983757
1604994399
1604998701
1605008964
1605011062
1605046307
1605070101
1605072843
1605094548
1605126009
1605148692
1605180127
1605200602
1605202116
1605222895
1605239611
1605265616
1605273637
1605304656
1605327782
1605341066
1605341958
1605347993
1605371887
1605387226
1605395262
1605397296
1605402417
1605420741
1605434665
1605463619
1605476557
1605562959
1605609700
1605623962
1605632708
1605642887
1605704160
1605718079
1605728262
1605732898
1605737103
1605740264
1605756522
1605771300
1605781424
1605807312
1605820524
1605825220
1605909952
1605935466
1605970990
1606011787
1606025217
1606028435
1606032530
1606039589
1606065177
1606075717
1606092895
1606114334
1606116040
1606151067
1606167117
1606178656
1606209594
1606220398
1606305834
1606327292
1606334126
1606342105
1606373367
1606398315
1606404630
1606412819
1606417960
1606431857
1606471284
1606507957
1606513108
1606526198
1606533035
1606536930
1606568079
1606577596
1606632147
1606634222
1606647052
1606652227
1606664374
1606681776
1606721290
1606723933
1606729571
1606747853
1606787447
1606881543
1606891388
1606912817
1606940938
1606960675
1607006908
1607059011
1607073570
1607172283
1607177786
1607179150
1607187247
1607208403
1607229822
1607277143
1607314566
1607372695
1607432317
1607433008
1607464664
1607477263
1607483166
1607552974
1607569567
1607596690
1607597115
1607610945
1607667202
1607685306
1607692633
1607734198
1607762911
1607788919
1607905248
1607908633
1607923050
1607952438
1607957808
1607963017
1607998041
1608001877
1608015821
1608047807
1608094249
1608122220
1608137663
1608193554
1608209691
1608218946
1608307256
1608341658
1608354335
1608362089
1608391785
1608411857
1608425205
1608443779
1608479195
1608503905
1608515742
1608517333
1608523998
1608535904
1608548914
1608552292
1608565966
1608567124
1608575505
1608634145
1608652932
1608669290
1608692164
1608718371
1608724854
1608734900
1608798723
1608815970
1608852043
1608869796
1608885147
1608950288
1608955159
1608958589
1608969433
1608983208
1609023646
1609034023
1609045659
1609075959
1609113764
1609136310
1609141848
1609170736
1609209537
1609217135
1609224370
1609246251
1609252999
1609253520
1609274087
1609283940
1609286045
1609311564
1609351220
1609404895
1609521213
1609530339
1609538428
1609554179
1609559809
1609573148
1609581210
1609593210
1609610629
1609623471
1609732922
1609740656
1609750579
1609822057
1609966484
1609985729
1609996147
