710019555
710129793
710409457
711052723
711064106
711514118
711536676
711555902
711923385
712075839
712075839
712245748
712263631
712561705
712571805
712654295
712684915
712752950
712873901
713382160
