710199103
710683598
710728010
710835057
710865643
710900430
710916013
710955893
711053288
711094648
711116166
711119491
711134082
711566766
711587538
711637658
711673800
711673525
711832458
711929118
712024357
712144182
712395680
712487455
712506171
712516108
712567963
712612871
712726678
712743511
712881535
712936745
712937782
712964633
712969172
713118936
713278458
713295240
713345765
