1600075445
1600109479
1600170484
1600199631
1600248808
1600281474
1600282780
1600308277
1600317032
1600351064
1600399527
1600430831
1600498848
1600618379
1600678395
1600681666
1600740099
1600774062
1600865436
1600877217
1600879545
1600943146
1600978494
1600979549
1601016314
1601069802
1601090877
1601231457
1601247612
1601288947
1601327295
1601413915
1601491796
1601537955
1601559043
1601636469
1601648602
1601663576
1603065034
1603164591
1603223626
1603274462
1603362175
1603367588
1603429930
1603449825
1603549177
1603550145
1603587142
1603723836
1603959188
1603996557
1604005918
1604013268
1604031351
1604033627
1604046422
1604065737
1604120673
1604193092
1604281153
1604347775
1604479478
1604573274
1604579320
1604594349
1604714565
1604732838
1604772875
1604790306
1604822026
1604828705
1604859089
1604920995
1604987855
1605012638
1605131771
1605143688
1605150399
1605150399
1605170164
1605220958
1605329979
1605513898
1605545664
1605589583
1606134294
1606408666
1607935492
1608159433
1608848228
1608848445
1608861542
1609096889
1609574288
1609856113
