730175197
730324494
731644220
1600235294
1600362076
1600541072
1600614596
1600723330
1600834029
1601404306
1601494710
1601673529
1603163168
1603472294
1603527117
1603627248
1603700799
1603985738
1604586874
1605897569
1606066364
1606176403
1606452993
1606912069
1608178559
1609047185
1609344738
