960192813
960235905
960279577
960366764
960372905
960421955
960436039
960456159
960475356
960493252
960502648
960553232
960557632
960667946
960792335
961013740
961042373
961202772
961292058
961304446
961317342
961341482
961392899
961454654
961541724
961624569
961643130
961650137
961695310
961703011
961714524
961766988
961871637
961933514
961953557
962033100
962105864
962178262
962190587
962305625
962402686
962402816
962426730
962435292
962607637
962664427
962664427
962732590
