710103249
710110291
710114858
710288895
710316679
710357260
710364934
710367098
710416735
710423243
710466101
710686501
710725354
710736203
710753692
710755366
710829364
710884872
711032482
711212642
711219204
711228239
711253162
711261891
711324437
711346247
711361461
711410174
711488466
711523253
711529031
711531697
711533531
711796567
711822689
711851227
711860089
711979098
712018231
712019080
712048816
712101742
712133905
712221880
712247636
712411101
712417147
712448544
712449765
712557794
712642590
712645330
712657977
712706120
712725304
712813097
712860353
712875097
712937011
712946692
712951785
712963226
712967130
713001706
713094717
713115110
713116511
713154861
713270548
713333231
713349140
713398710
713402716
713431921
713540575
