1600400940
1600467993
1600507089
1600625670
1600822363
1600896442
1601091536
1601111613
1601200930
1601290937
1601547564
1601649873
1603163105
1603398029
1603481270
1603521041
1603592443
1603619835
1604001858
1604136081
1604210948
1604487416
1604677880
1604678530
1604755626
1604869382
1605043810
1605353483
