960082135
960178180
960241655
960329486
960356300
960492260
960568993
960573952
960797228
960845943
960864846
960918505
960923838
960925490
960987750
961015175
961086868
961114538
961197325
961287278
961304989
961521535
961551240
961593713
961625601
961862143
961920492
961997679
962053186
962064296
962206740
962209329
962244397
962266393
