1600034479
1600034160
1600057550
1600311392
1600321476
1600344135
1600626449
1601127633
1601472560
1603701216
1604369779
1604598474
1604663477
1605373568
1605873935
1606555686
1608603506
1608704126
1609012277
1609185189
