710168691
710181568
710257698
710451870
710495128
710521442
710578774
710683510
710694778
710707363
710833284
710864395
711086180
711099275
711159669
711579070
711698917
711712993
711859255
711998289
712201440
712399001
713047181
713068218
713112725
713130586
713150206
713181938
713315290
713401225
713471443
