731790266
1600007793
1600034596
1600076961
1600123565
1600228471
1600413214
1600467847
1600517334
1600573890
1600575157
1600611493
1600865720
1600971370
1601044636
1601079001
1601193704
1601201466
1601211659
1601214884
1601239893
1601248555
1601298692
1601348743
1601407118
1601410104
1601506836
1601575413
1601614789
1601633173
1601667796
1601701564
1603117199
1603192989
1603238817
1603247638
1603261876
1603267604
1603331720
1603357371
1603537866
1603587259
1603680884
1603773535
1603927024
1603937180
1603999000
1604036964
1604099086
1604231027
1604231980
1604235190
1604253169
1604253914
1604300352
1604311009
1604312443
1604354961
1604365469
1604492045
1604510990
1604668439
1604719107
1604838951
1604967925
1605046400
1605085964
1605112730
1605173157
1605180897
1605328880
