640003726
640003924
640003924
640003726
640007236
640006935
1850000125
1850000427
1850001133
1850002026
1850002110
1850002206
1850002809
1850003599
1850004487
1850004355
1850004706
1850004787
1850005554
1850005386
1850006018
1850006623
1850006738
1850007077
1850007821
1850008223
1850008304
1850010585
1850010530
1850010962
1850011121
1850011348
1850012055
1850012150
1850012560
1850013428
1850013668
1850013718
1850014227
1850014690
1850014825
1850014941
1850015244
1850015721
1850015905
1850015832
1850016706
1850016532
1850016830
1850017150
1850017132
1850017291
1850017368
1850017525
1850017770
1850018048
1850018035
1850018315
1850018636
1850019802
1850020242
1850021373
1850021961
1850022213
1850023861
1850023905
1850024289
1850024436
1850025380
1850025718
1850025802
1850026479
1850026294
1850026190
1850026696
1850026780
1850027005
1850027226
1850027606
1850027610
1850027735
1850027804
1850027616
1850027996
1850028630
1850028420
1850028766
1850028543
1850029000
1850029093
1850029012
1850029425
1850029560
1850029481
1850029845
1850029735
1850030553
1850031249
1850031608
1850032084
1850032329
1850033111
1850033385
1850033409
1850033515
1850034499
1850034669
1850035015
1850035222
1850035463
1850035700
1850036250
1850037169
1850037514
1850037479
1850037563
1850038765
1850039346
1850039361
1850039343
1850039349
1850039688
1850040013
1850040181
1850040623
1850040738
1850040819
1850041251
1850041431
1850041484
1850041997
1850041952
1850042196
1850041853
1850042124
1850042590
1850042398
1850043672
1850043760
1850043716
1850043753
1850044035
1850044084
1850043786
1850045590
1850045627
1850045852
1850046574
1850046753
1850047387
1850047489
1850048878
1850049323
1850049495
1850050146
1850050057
1850050300
1850050864
1850051388
1850051742
1850051682
1850052086
1850052228
1850052434
1850052556
1850052315
1850052668
1850053510
1850054025
1850054163
1850054363
1850054813
1850055060
1850056170
1850057622
1850057816
1850058330
1850058792
1850058602
1850059156
1850060589
1850061229
1850061585
1850061605
1850061419
1850062071
1850062159
1850063102
1850063531
1850063642
1850063730
1850064382
1850064767
1850065237
1850065685
1850065604
1850065363
1850065744
1850065825
1850065902
1850065930
1850066403
1850067103
1850067396
1850067339
1850067245
1850068076
1850068123
1850068303
1850068256
1850068417
1850068881
1850068610
1850069083
1850069703
1850069804
1850070129
1850070745
1850071137
1850071096
1850071340
1850071341
1850071435
1850071390
1850071679
1850072001
1850072519
1850072552
1850072933
1850073088
1850073324
1850073500
1850073510
1850073833
1850074168
1850074514
1850075664
1850075921
1850075980
1850077122
1850077161
1850078235
1850078214
1850078191
1850078719
1850079141
1850079831
1850079895
1850079994
1850080521
1850080402
1850080582
1850080945
1850082379
1850082390
1850082608
1850082743
1850083174
1850083258
1850083620
1850083607
1850083999
1850084102
1850083940
1850085247
1850088250
1850088147
1850088272
1850088377
1850090428
1850090616
1850090987
1850091285
1850091534
1850091570
1850091737
1850092194
1850092765
1850092980
1850093018
1850093069
1850093794
1850093907
1850094106
1850094895
1850095410
1850095439
1850095627
1850096204
1850096387
1850097201
1850098000
1850098234
1850099491
1850100133
1850100515
1850100907
1850101080
1850101267
1850101656
1850101460
1850102786
1850103425
1850103551
1850103512
1850103686
1850103611
1850103995
1850104761
1850105039
1850105190
1850105410
1850105915
1850106396
1850106494
1850106583
1850106951
1850107123
1850107192
1850107821
1850108392
1850108879
1850108392
1850109797
1850110657
1850110870
1850110802
1850111092
1850111855
1850112386
1850112400
1850113732
1850113914
1850114048
1850115002
1850115361
1850115881
1850115844
1850116487
1850116550
1850116974
1850117318
1850117613
1850117838
1850117904
1850118185
1850118039
1850119386
1850119637
1850119733
1850119755
1850120269
1850120037
1850120693
1850120781
1850121262
1850121290
1850122049
1850122009
1850123079
1850123195
1850123437
1850123782
1850123859
1850124233
1850124607
1850124843
1850124840
1850124808
1850125035
1850125844
1850126275
1850126333
1850126359
1850126566
1850126696
1850126975
1850126921
1850127262
1850127433
1850127444
1850127727
1850127796
1850127872
1850128069
1850128178
1850127967
1850128322
1850128363
1850128424
1850128570
1850128779
1850128976
1850129328
1850129476
1850129585
1850130811
1850130783
1850132299
1850132470
1850132717
1850132550
1850132362
1850132922
1850133319
1850135212
1850135340
1850135460
610002224
610014737
610025584
610031137
610032746
610032683
610035285
610036391
610043963
610044470
610047787
610057628
610063511
610081492
610085057
610085388
610085341
610086381
610087448
610102483
610103873
610109929
610111289
610113870
610125388
610129982
610130581
610132511
610135925
610169664
610174188
610176003
610176528
610176645
610182343
610190032
610204009
610204883
610207962
610210157
610213025
610233867
610234620
610243298
610256464
610271491
610279401
610293408
610306748
610311406
610326277
610342606
610352539
610365655
610378417
610385481
610391156
610391423
610393508
610405376
610421488
610429748
610431123
610442382
610445305
610469732
610485528
610488157
610489321
610507407
610509808
610511174
610511935
610520846
610521492
610547324
610550498
610557473
610568888
610574855
610585855
610590051
610593936
610598398
610601640
610621180
610628565
610641845
610642926
610659640
610678764
610689931
610701504
610701638
610718417
610725407
610732262
610743327
