1850003361
1850012801
1850014447
1850045027
1850045216
1850051211
1850067255
1850076333
1850102702
1850116847
1850127022
1850130633
610021873
610077197
610096797
610125101
610157941
610291638
610296815
610314073
610314262
610494611
610499089
610537610
610538578
610556178
610660606
610688472
610689604
610705870
610724421
610752568
