710106537
710125452
710127277
710132731
710151775
710209508
710212869
710267673
710374021
710464148
710482202
710702191
710730815
710906120
711282156
711290421
711297706
711510553
711519346
711648834
711843128
711893202
712025908
712036997
712075107
712131293
712245198
712269483
712293504
712495902
712545600
712587790
712670882
712672641
712869472
713034542
713138528
713151215
713217348
713271674
713408087
713416590
713437406
713483423
