840048910
840058058
840119942
840128591
840131522
840146986
840177318
840184531
840286319
840297608
840298038
840325343
840349055
840365159
840383500
840395700
840421703
840438738
840449129
840477169
840477612
840483796
