710001936
710011118
710026105
710033527
710057257
710058433
710083383
710087072
710133743
710134473
710135214
710137130
710153585
710154990
710158559
710159404
710160785
710166968
710173472
710179246
710182092
710199143
710201571
710203168
710208481
710269617
710290144
710302680
710312656
710324042
710373206
710422811
710433305
710446387
710499785
710509354
710528173
710548611
710566859
710616347
710616802
710629021
710631801
710731662
710733469
710743628
710778285
710790160
710790869
710824765
710847498
710856623
710862939
710948125
710979296
710983257
710986537
711002096
711028425
711033145
711047213
711064044
711065062
711144088
711155566
711159339
711189317
711201345
711219939
711244929
711284953
711297123
711331018
711338999
711345334
711355192
711390517
711432877
711434902
711452411
711464380
711465257
711473895
711478433
711489004
711517798
711570366
711570570
711597890
711599297
711651631
711659562
711660450
711676585
711727517
711735486
711740074
711755633
711794247
711804780
711820920
711869686
711891809
711906136
711907532
711925803
711935388
711976453
712005629
712012716
712086729
712105893
712153141
712187664
712205018
712208271
712216914
712220467
712223063
712230549
712230410
712259245
712285614
712299303
712308603
712341412
712363015
712386273
712389036
712400393
712411923
712420197
712426270
712442073
712444060
712453289
712468368
712472755
712474398
712495794
712521720
712535828
712540994
712550493
712565758
712570158
712579181
712590011
712612385
712614379
712632752
712635827
712656408
712671230
712681183
712698428
712713018
712729803
712755036
712757422
712765640
712855717
712866973
712910905
712936750
712943772
712995305
712997153
712996801
713006749
713023152
713039279
713087822
713171549
713175173
713178064
713187996
713189500
713228068
713228842
713249121
713295243
713308837
713328029
713330293
713342835
713359707
713365355
713367552
713383901
713414864
713464886
713487131
713491090
713519330
713526673
