840000533
840012416
840054910
840085072
840092553
840101726
840110702
840150302
840238080
840243014
840250918
840285677
840310708
840329842
840345923
840391407
840430270
840444740
840459453
840466734
840474060
