1600026508
1600052205
1600094639
1600096567
1600102015
1600110104
1600143499
1600172524
1600175680
1600204627
1600226002
1600262308
1600268294
1600305116
1600395187
1600405836
1600422876
1600424686
1600502990
1600521936
1600533282
1600543580
1600569951
1600577092
1600628846
1600661794
1600674454
1600697730
1600737717
1600748928
1600751145
1600756975
1600764659
1600796003
1600826995
1600854641
1600856366
1600863681
1600880755
1600885127
1600888575
1600963333
1600980952
1600985851
1600989221
1600994443
1601011120
1601058665
1601075902
1601136074
1601147856
1601156489
1601171716
1601220319
1601263111
1601266085
1601276794
1601360521
1601375096
1601391645
1601396529
1601417632
1601442867
1601445564
1601472485
1601482386
1601493387
1601500555
1601532069
1601548122
1601618604
1601644365
1601644714
1601648618
1601703704
1600052205
1603073883
1603089832
1603099769
1603123208
1603159737
1603182032
1603247161
1603341880
1603387401
1603388536
1603425603
1603455510
1603460586
1603563914
1603563776
1603617576
1603650631
1603668498
1603674006
1603678743
1603679984
1603694475
1603695314
1603795288
1603924749
1604014019
1604049064
1604059802
1604149648
1604160330
1604227398
1604311066
1604353121
1604463105
1604496481
1604520762
1604522803
1604564802
1604570409
1604584171
1604645009
1604670373
1604684108
1604717216
1604726287
1604768689
1604788793
1604792588
1604805194
1604810188
1604818713
1604828888
1604851161
1604882266
1604886838
1604911490
1604914932
1604981046
1605037449
1605088043
1605124686
1605145558
1605179300
1605235451
1605309639
1605344064
1605674871
1606162283
1606210048
1606237138
1606361643
1606480713
1606634307
1607108767
1607553551
1607792317
1607809351
1608510439
1608867588
1609276322
1609936031
