840005871
840008722
840012196
840012906
840015895
840016973
840019590
840024088
840024550
840025167
840027010
840027297
840034841
840039344
840040985
840044634
840050816
840052766
840054373
840054943
840054988
840055862
840057695
840059313
840059274
840060524
840062184
840062750
840064167
840069977
840071614
840072086
840074708
840075057
840075562
840076154
840081077
840082863
840084844
840090694
840092268
840094112
840095244
840095481
840101418
840103778
840105050
840105323
840106231
840109310
840109928
840114095
840116980
840119083
840120246
840125826
840125925
840127354
840132288
840136804
840140277
840141564
840143759
840144621
840148584
840149995
840154302
840155232
840156400
840163764
840165869
840167077
840167739
840180527
840180546
840180848
840193232
840196154
840197108
840197636
840198819
840199449
840201645
840202215
840204598
840212070
840213344
840217685
840217687
840217866
840217801
840220013
840221254
840222468
840222458
840225970
840231861
840232650
840233679
840234517
840235553
840246670
840247379
840251011
840258605
840261990
840262121
840266102
840268410
840271345
840274353
840277705
840279195
840280698
840284140
840290241
840292196
840299996
840313173
840314014
840324791
840331987
840331259
840335727
840336061
840339239
840344664
840349642
840356879
840359867
840365060
840372800
840373358
840377474
840377767
840377777
840377948
840380745
840384009
840383716
840384542
840386095
840391706
840392374
840392479
840393873
840395633
840397711
840403009
840408106
840410139
840410924
840419011
840423359
840423974
840429450
840431447
840431929
840435667
840436246
840437527
840439317
840439572
840445307
840445809
840451899
840452198
840452822
840453275
840458040
840462567
840464404
840465589
840472640
840477162
840483196
840485538
