731065492
730172973
730174710
730179042
731122279
731172945
731209826
730403175
731553402
730446178
731592399
731648570
731680706
730533078
730567673
730600818
731796601
730664571
730699569
731908768
731920077
731935132
731966381
730719075
730740503
732106969
730814704
1600102478
1600140416
1600201316
1600275282
1600278330
1600308561
1600566491
1600579525
1600739776
1600811878
1600832143
1600852842
1601278277
1601312724
1601505672
1601542240
1601612575
1601733485
1603115736
1603124246
1603131265
1603188266
1603323892
1603406274
1603416469
1603460097
1603476727
1603502717
1603527310
1603606246
1603742422
1603749177
1603983398
1603984130
1604055683
1604066226
1604066852
1604086717
1604139421
1604248328
1604302683
1604323983
1604324156
1604418267
1604460776
1604539433
1604721716
1604856268
1604872684
1605004763
1605076590
1605087271
1605128608
1605173625
1605199842
1605344463
1605357839
1605736288
1605782442
1605812123
1606085129
1606164161
1606192603
1606219092
1606307268
1606706962
1606718138
1606797167
1606903161
1607126218
1607282483
1607675859
1607679286
1607680940
1607757933
1607793041
1607918448
1607968178
1608023617
1608127308
1608345357
1608366934
1608429411
1608509050
1608527174
1608637141
1608694805
1608782791
1608858120
1608874135
1608985975
1609001838
1609237282
