960028915
960036766
960047712
960098851
960108947
960124837
960136545
960147415
960154661
960169085
960195614
960207153
960227285
960248517
960250850
960260341
960261745
960299743
960301920
960316396
960364782
960378501
960386335
960389400
960399282
960527726
960555142
960605091
960611362
960618698
960636651
960645600
960645792
960654005
960687920
960722198
960732226
960773700
960776512
960813875
960834021
960834280
960858966
960878436
960983653
960988523
960999246
961008140
961015188
961036504
961087457
961114060
961119151
961137145
961145201
961150137
961151699
961180373
961191110
961210771
961219530
961227807
961244583
961249062
961258542
961287927
961293895
961293937
961298585
961318913
961330826
961338720
961347188
961366827
961381101
961396133
961458178
961507284
961520948
961521143
961526326
961526238
961530164
961534421
961546217
961566562
961590879
961623608
961668270
961685633
961696930
961718268
961734920
961788488
961815395
961834862
961851408
961860126
961860643
961902467
961909367
961914330
961938257
961953148
961990658
961990825
962009964
962013512
962021744
962198844
962216881
962246370
962248824
962252025
962268207
962293022
962337633
962388625
962397142
962475424
962509103
962513482
962523171
962561981
962565116
962568291
962596428
962610696
962614139
962627213
962639448
962648823
962690644
962711412
962714509
962741708
962757347
