730064375
730436215
730515752
731772021
731901436
730760513
1600153650
1600170423
1600363062
1600449533
1600485603
1600486443
1600517972
1600527983
1600643180
1600697733
1600726376
1600798883
1600810269
1600869410
1600900073
1600917194
1601127131
1601158846
1601233364
1601247664
1601329920
1601338591
1601443574
1601443675
1601559813
1601579758
1603074770
1603132499
1603182791
1603237642
1603288554
1603351091
1603360459
1603499475
1603561664
1603593188
1603650842
1603670623
1603699109
1603709566
1603753616
1603758710
1603761836
1603796346
1604166224
1604171863
1604235504
1604286134
1604294304
1604306072
1604490723
1604492018
1604505210
1604594542
1604604296
1604613399
1604665891
1604741941
1604742604
1604798574
1604835181
1604838728
1604849225
1604851751
1604883729
1604911525
1604926077
1604926150
1604953565
1604963728
1604992250
1605002361
1605310560
1605325729
1605342608
1605370068
1605601265
1605664601
1605741783
1605748542
1605819950
1605924823
1605980731
1606107851
1606169894
1606289756
1606385423
1606718108
1606807587
1607137853
1607356177
1607361535
1607497916
1607600184
1607616370
1607668135
1607717537
1607911593
1607969116
1608039155
1608216340
1608226694
1608392534
1608420942
1608707647
1608748841
1608822489
1608833113
1608863219
1608978971
1609029201
1609151919
1609235395
1609466269
1609551240
1609585997
1609611103
1609828748
