710000596
710002457
710003469
710022097
710032632
710069162
710086335
710096813
710101176
710103897
710112676
710125981
710162405
710162253
710167406
710168960
710171795
710183104
710196190
710203153
710204213
710209344
710211461
710218758
710237058
710239427
710239809
710261643
710268480
710270275
710290463
710306034
710327534
710328911
710338605
710353842
710355776
710364725
710366040
710379304
710383522
710400620
710424852
710438582
710449406
710458236
710465151
710478753
710481114
710498868
710499678
710515819
710516714
710529990
710531245
710532648
710539417
710540285
710552882
710557135
710568473
710590891
710593684
710598323
710601925
710630027
710650235
710659124
710660751
710676974
710694674
710695462
710697799
710703215
710705653
710716131
710727401
710733475
710735775
710738114
710739338
710749784
710753380
710775841
710781434
710788240
710792822
710805755
710806511
710816965
710818204
710820307
710826183
710856536
710857847
710862819
710889499
710918687
710935582
710946802
710951334
710964990
710983576
711041653
711050837
711056046
711061076
711077163
711096738
711103419
711105976
711112532
711169774
711177044
711177328
711196323
711211075
711217287
711225448
711231183
711245031
711258657
711282671
711289031
711307307
711308732
711313470
711324680
711324836
711332822
711332911
711341399
711378375
711378482
711387443
711393297
711396591
711436379
711436450
711452010
711467677
711473749
711496566
711502701
711509774
711518128
711530862
711531778
711542011
711542419
711549215
711563340
711587252
711594907
711597282
711597374
711605867
711619362
711645796
711683396
711683729
711689064
711714696
711719478
711722233
711735067
711742858
711761694
711767101
711770948
711773362
711780303
711805315
711813829
711817461
711821867
711835926
711842285
711842943
711849494
711850044
711858397
711861336
711868439
711875666
711883164
711888575
711896552
711897505
711899188
711903417
711904847
711913406
711921555
711931228
711933717
711936630
711945092
711959333
711968405
711969605
711997711
712013338
712019986
712052165
712066366
712078547
712099938
712107175
712113572
712117745
712118246
712119289
712123020
712125027
712130881
712132120
712135895
712149751
712155106
712159548
712160537
712162145
712168860
712171295
712173930
712185346
712208634
712195988
712213426
712218730
712223859
712224670
712226811
712244936
712247004
712253327
712255754
712256468
712261050
712263989
712267540
712278847
712285770
712294625
712317112
712327935
712335352
712346001
712367465
712379384
712384659
712385181
712424459
712429705
712436923
712440513
712454385
712458792
712461334
712477627
712478068
712478567
712490837
712508360
712526557
712529890
712545669
712548516
712552414
712562067
712585068
712622724
712627638
712630181
712640843
712641938
712648603
712659591
712668789
712676672
712688400
712706076
712707588
712714966
712715228
712720855
712721641
712731104
712735097
712737511
712801495
712811411
712812816
712833523
712842847
712851642
712852531
712856367
712857278
712862680
712865565
712869601
712877869
712891633
712897091
712911449
712919712
712920867
712920719
712921693
712941495
712966795
712973636
712999818
713008925
713016116
713023925
713045838
713047611
713064545
713066515
713069929
713072592
713076415
713077376
713091051
713119369
713119688
713130682
713140310
713144201
713146743
713152079
713153472
713165226
713179916
713187221
713199941
713207077
713223901
713230199
713236441
713237999
713240607
713245799
713249630
713254929
713262074
713274531
713277212
713296966
713327683
713328599
713335791
713343539
713344728
713359232
713359686
713392592
713400248
713415069
713417905
713433540
713433846
713447372
713457328
713465961
713466579
713477362
713492870
713493808
713498454
713507958
713511045
713514903
713524800
713526138
