1600001819
1600001978
1600001978
1600001978
1600005537
730036706
730064049
730073492
730078655
730081629
730088412
730097595
730099361
730106011
730107984
730116136
731066610
730139516
730144081
730144940
731081602
730146107
730146799
731085659
730149808
730150771
730155822
730162497
730167203
730171101
731107785
731115598
731116333
731133865
730200840
730200630
731136142
731137646
730204698
730206283
730216052
730218331
730230614
731181808
731184191
730255882
730257403
730260611
730269361
731199302
730273613
730274525
730282457
730283914
731214154
730286410
731217425
731218809
731220606
730298643
730299110
731227711
731230683
731232307
730305597
730311322
731241265
730330070
730330218
731256412
730337866
731264342
731268489
730345873
730347303
730347613
731545730
731547799
730418154
730429832
730450568
730449960
731595594
731596204
731599955
730461946
731606544
731607659
730468801
731612035
730477940
730483896
731624547
730495777
731644377
731646720
730506691
731653112
730513455
731656607
730515201
730516113
730518178
731660585
730519963
731665899
731672154
731674911
731689584
731692039
731694565
731704272
731707150
731710287
731715604
731715945
731716308
731720613
731724419
730538318
730540682
731736259
731739835
730551614
731752634
731757938
731757238
731757971
730569263
731764400
731766581
731766995
731767827
730577505
731777015
731784387
731790529
731790622
731797935
731799144
730617584
731813857
730621488
731817081
730622659
731818881
731821672
730627352
731827096
730632724
731828394
730633942
730645428
730657395
731870526
731878620
731879570
730693895
730694476
731891017
730697069
731894597
731895961
731896547
731897143
731900629
731900794
730703702
731904213
730705191
731912779
731917592
731927026
731929560
731936678
731952185
731956889
731959080
731959800
731971865
731978433
731997123
730706472
732003834
730708952
730718594
732013774
730723109
732025781
732033001
730747196
732042093
732042649
732043648
732045784
732045986
732047684
732048507
732049050
732050724
730757377
732052207
732053536
730766864
732067502
730774244
732086166
732087410
732090547
730797494
730799554
732096168
732099164
730807197
730808369
730809105
730809810
732116135
732122015
730832832
732133107
1600001819
1600005537
1600010600
1600011626
1600019794
1600022386
1600022519
1600025374
1600025577
1600028400
1600036290
1600042676
1600043481
1600045978
1600049405
1600054895
1600056738
1600061701
1600068513
1600068870
1600070289
1600070368
1600070664
1600070829
1600074101
1600075418
1600076664
1600077255
1600079585
1600082262
1600082762
1600085478
1600086396
1600091347
1600091954
1600096530
1600099215
1600101272
1600104910
1600105338
1600109166
1600110957
1600113094
1600113306
1600114070
1600114274
1600114334
1600116737
1600119912
1600135729
1600137966
1600145388
1600146301
1600146707
1600146954
1600155311
1600162526
1600165147
1600169238
1600169326
1600169953
1600170263
1600175957
1600178028
1600179170
1600182322
1600187470
1600187625
1600187913
1600188105
1600189909
1600192161
1600194550
1600194607
1600198057
1600198778
1600199240
1600207635
1600210316
1600211462
1600211782
1600214809
1600216611
1600217728
1600218327
1600222479
1600223459
1600225320
1600230012
1600231392
1600233402
1600233905
1600237108
1600238846
1600240519
1600241423
1600242398
1600244767
1600244442
1600244969
1600246882
1600246978
1600248146
1600248706
1600251611
1600258609
1600258761
1600261436
1600264932
1600268423
1600273085
1600273184
1600273510
1600277894
1600282036
1600284366
1600284921
1600286207
1600289137
1600292978
1600294798
1600296040
1600296666
1600300188
1600300334
1600300408
1600300867
1600301044
1600304717
1600305229
1600307677
1600307709
1600310711
1600312492
1600314160
1600314948
1600315124
1600317030
1600316216
1600318475
1600321965
1600326928
1600327905
1600331131
1600340100
1600340590
1600344736
1600349799
1600350905
1600353156
1600353307
1600359655
1600361769
1600362329
1600377907
1600380053
1600389043
1600397661
1600402149
1600403733
1600405761
1600406533
1600412866
1600415264
1600418380
1600418785
1600419319
1600420901
1600422324
1600426803
1600427253
1600427253
1600440567
1600441467
1600451920
1600453922
1600459803
1600467015
1600468114
1600470811
1600475385
1600485073
1600484998
1600485395
1600488870
1600494985
1600498169
1600502204
1600502272
1600503617
1600507334
1600509819
1600510115
1600510693
1600514591
1600515075
1600517569
1600517725
1600517903
1600518043
1600524016
1600524749
1600526420
1600528075
1600529529
1600533868
1600541319
1600541451
1600541896
1600547327
1600547710
1600547928
1600549026
1600549512
1600553777
1600553788
1600556408
1600558189
1600559943
1600561440
1600563527
1600566701
1600570658
1600570746
1600573107
1600576561
1600578510
1600591792
1600592421
1600593755
1600597458
1600598897
1600601257
1600602510
1600604370
1600605185
1600605448
1600605533
1600605830
1600606025
1600606815
1600613597
1600615048
1600616155
1600616868
1600619357
1600623741
1600635053
1600636490
1600638497
1600638842
1600639411
1600643047
1600644377
1600645871
1600651501
1600657437
1600657935
1600657929
1600658489
1600660135
1600660491
1600660707
1600665852
1600668466
1600674036
1600674740
1600677140
1600678578
1600679060
1600684053
1600684667
1600685248
1600690284
1600693232
1600695861
1600696311
1600705151
1600706322
1600709267
1600714592
1600715656
1600721195
1600726316
1600728852
1600733552
1600735805
1600739624
1600739792
1600741842
1600747165
1600750415
1600751069
1600751949
1600758763
1600760031
1600761823
1600761700
1600764998
1600765974
1600766290
1600768320
1600769949
1600772186
1600772468
1600775261
1600782152
1600783241
1600783861
1600791909
1600793209
1600794036
1600795590
1600802822
1600802947
1600805186
1600806120
1600807405
1600808539
1600809106
1600812138
1600812138
1600814589
1600815590
1600816440
1600817179
1600822945
1600823717
1600825824
1600828204
1600830003
1600830771
1600830694
1600834596
1600835706
1600837459
1600837615
1600843932
1600845411
1600845996
1600847126
1600850464
1600855546
1600855865
1600859969
1600860524
1600861756
1600863217
1600864205
1600866050
1600871439
1600872279
1600876884
1600879270
1600882762
1600883467
1600883613
1600886873
1600897349
1600899572
1600900254
1600900365
1600901178
1600905914
1600907005
1600908626
1600910526
1600916496
1600925990
1600926025
1600926240
1600931114
1600931745
1600933469
1600936403
1600939036
1600941262
1600941418
1600944887
1600945454
1600947313
1600949160
1600950716
1600951362
1600953435
1600955230
1600959936
1600963698
1600965098
1600968518
1600969136
1600971782
1600971966
1600972507
1600972656
1600975025
1600976081
1600979453
1600984255
1600986647
1600987116
1600989098
1600989646
1600991000
1600991477
1600991939
1601000079
1601000938
1601001169
1601002389
1601003447
1601004941
1601006116
1601008685
1601017990
1601020692
1601021172
1601022819
1601023972
1601026728
1601027584
1601030380
1601033834
1601035931
1601036420
1601037767
1601038705
1601041023
1601041995
1601042937
1601043538
1601043757
1601045906
1601046411
1601046592
1601048139
1601049188
1601051082
1601052521
1601053554
1601056432
1601056972
1601059861
1601063023
1601063561
1601063832
1601064457
1601067770
1601067750
1601070995
1601072826
1601077341
1601077875
1601081621
1601089836
1601093390
1601094672
1601097009
1601100952
1601102551
1601104534
1601108397
1601108534
1601109135
1601117391
1601120902
1601124845
1601127166
1601131327
1601136430
1601138286
1601141723
1601147830
1601148416
1601148646
1601150236
1601150917
1601152079
1601157765
1601158425
1601159111
1601165550
1601166775
1601168806
1601171327
1601171673
1601171958
1601174138
1601174311
1601174639
1601177484
1601179103
1601179792
1601179853
1601181041
1601184354
1601188455
1601189055
1601189942
1601191085
1601197397
1601201310
1601201468
1601210138
1601211071
1601211556
1601211911
1601212539
1601213272
1601219731
1601225353
1601232177
1601232478
1601233962
1601236180
1601236198
1601236445
1601238426
1601240076
1601243949
1601248507
1601249774
1601251480
1601251678
1601252640
1601256447
1601260340
1601264428
1601264591
1601265492
1601274100
1601277245
1601280879
1601280975
1601281923
1601282402
1601283140
1601286324
1601289184
1601289408
1601290392
1601296961
1601299570
1601299645
1601300359
1601306806
1601307390
1601308986
1601311912
1601312011
1601313181
1601315292
1601315929
1601317330
1601318463
1601320106
1601325596
1601326651
1601327642
1601328327
1601330245
1601331881
1601332074
1601334389
1601336223
1601337395
1601339286
1601340252
1601342383
1601347898
1601349219
1601349131
1601353901
1601356717
1601360717
1601362142
1601362887
1601363357
1601365675
1601369851
1601370424
1601373792
1601373903
1601374944
1601375214
1601376726
1601376899
1601379670
1601381343
1601381424
1601383761
1601386340
1601399499
1601401219
1601407911
1601408893
1601408952
1601410728
1601411021
1601423372
1601423936
1601424718
1601424719
1601425281
1601427076
1601427156
1601428392
1601428686
1601428992
1601433861
1601434028
1601436733
1601437861
1601441181
1601447076
1601447173
1601447800
1601448238
1601455121
1601455812
1601456344
1601459615
1601464493
1601464566
1601470318
1601472677
1601474576
1601477136
1601479803
1601480356
1601483801
1601486178
1601488827
1601490493
1601492185
1601494086
1601497525
1601501971
1601501824
1601505231
1601508468
1601509231
1601512550
1601513714
1601516049
1601518059
1601521689
1601524109
1601524187
1601526244
1601535504
1601536319
1601537931
1601539156
1601539355
1601546237
1601547384
1601549820
1601553758
1601563416
1601563542
1601564390
1601565404
1601568430
1601569156
1601570715
1601571760
1601572568
1601573183
1601576884
1601578757
1601581272
1601582188
1601585931
1601585887
1601591365
1601594301
1601595270
1601595386
1601595841
1601597083
1601600293
1601601425
1601605336
1601605973
1601609314
1601610753
1601617227
1601619223
1601622740
1601627464
1601632727
1601636267
1601636439
1601638349
1601639191
1601649447
1601656659
1601671573
1601672932
1601674792
1601676803
1601678549
1601680821
1601685424
1601685470
1601685457
1601685452
1601686611
1601687397
1601688112
1601688839
1601693079
1601694733
1601696436
1601697375
1601697899
1601706038
1601707668
1601708960
1601709048
1601714456
1601714997
1601716096
1601717387
1601720225
1601721735
1601726776
1601727811
1601730065
1601730874
1601731466
1601732056
1600005537
1600049405
1600054895
1600056738
1600070368
1600082262
1600085478
1600099215
1603066482
1603071900
1603073245
1603075267
1603076640
1603077546
1603077824
1603079446
1603080692
1603082505
1603087986
1603088773
1603090995
1603093433
1603097608
1603097476
1603098531
1603099481
1603105519
1603106335
1603108908
1603111339
1603111660
1603114907
1603117891
1603119042
1603120204
1603126169
1603128381
1603128394
1603127592
1603128769
1603132461
1603134751
1603137370
1603138709
1603143160
1603144993
1603145374
1603147736
1603151745
1603152003
1603152492
1603153583
1603162973
1603168897
1603175377
1603176249
1603178350
1603178362
1603181836
1603183790
1603186150
1603186103
1603188303
1603192004
1603192163
1603192392
1603192851
1603194509
1603196726
1603196828
1603198598
1603199061
1603203262
1603207207
1603211987
1603213899
1603214102
1603217873
1603217531
1603222491
1603223290
1603226023
1603230363
1603231067
1603240745
1603245116
1603249468
1603251023
1603251750
1603253970
1603258480
1603258680
1603258444
1603258929
1603260303
1603261025
1603262969
1603264002
1603265342
1603267203
1603269930
1603274703
1603280474
1603283905
1603284919
1603287717
1603287960
1603288529
1603289073
1603291212
1603298248
1603298900
1603299405
1603301478
1603305173
1603306560
1603307523
1603309084
1603311958
1603312577
1603315174
1603316826
1603318192
1603320643
1603321018
1603323288
1603324457
1603327436
1603330618
1603333870
1603339795
1603341240
1603343531
1603349827
1603350078
1603351151
1603352787
1603356717
1603363976
1603366679
1603371180
1603375190
1603376717
1603378526
1603380556
1603383037
1603387989
1603391763
1603394565
1603398900
1603400353
1603402738
1603406623
1603407425
1603407501
1603408696
1603417777
1603418273
1603425796
1603425901
1603426084
1603431510
1603432236
1603434644
1603435990
1603438142
1603439415
1603442134
1603444239
1603445822
1603446828
1603448815
1603450629
1603450608
1603451415
1603455634
1603456761
1603458608
1603459084
1603461731
1603463149
1603464567
1603471971
1603474420
1603481484
1603484726
1603484778
1603485598
1603494899
1603502409
1603503844
1603506456
1603506172
1603508550
1603512922
1603515397
1603519978
1603521338
1603524017
1603524802
1603529417
1603529832
1603537097
1603539705
1603543585
1603545579
1603550320
1603553997
1603562239
1603562356
1603565908
1603580861
1603581603
1603583924
1603584072
1603591037
1603592410
1603596251
1603599023
1603599486
1603601079
1603601392
1603602806
1603604642
1603608189
1603606645
1603610419
1603619622
1603620594
1603621584
1603621848
1603622051
1603625805
1603626902
1603632269
1603632341
1603633659
1603633574
1603634667
1603636222
1603637539
1603644616
1603655814
1603657169
1603657485
1603662640
1603669431
1603669614
1603672057
1603672782
1603676838
1603678356
1603681430
1603682249
1603685678
1603692646
1603699866
1603702501
1603702655
1603703916
1603705026
1603710186
1603711946
1603714577
1603715440
1603716439
1603727182
1603728954
1603729848
1603731643
1603733584
1603733646
1603738471
1603738965
1603739694
1603741228
1603751390
1603755628
1603756326
1603757135
1603759057
1603764235
1603765890
1603766497
1603769744
1603771007
1603771020
1603772315
1603773049
1603776526
1603777653
1603779873
1603786732
1603787533
1603817584
1603834857
1603852038
1603860623
1603869658
1603879676
1603890685
1603903314
1603906201
1603906078
1603908551
1603908996
1603909306
1603909942
1603917074
1603917422
1603918863
1603919561
1603920013
1603926351
1603926626
1603941696
1603954973
1603957209
1603968633
1603974946
1603996266
1604000791
1604001505
1604001984
1604002201
1604004184
1604010473
1604010369
1604011421
1604014191
1604020789
1604021133
1604021872
1604024447
1604031661
1604032829
1604033590
1604034247
1604037511
1604039937
1604044894
1604048998
1604048975
1604059745
1604062051
1604063379
1604063752
1604064312
1604066658
1604067460
1604069953
1604076453
1604076620
1604077239
1604079490
1604095003
1604094920
1604097385
1604100986
1604101247
1604104103
1604106966
1604109434
1604110144
1604112971
1604113799
1604113881
1604115383
1604117653
1604120001
1604122372
1604129701
1604134417
1604135711
1604135787
1604137890
1604141674
1604143993
1604145758
1604146395
1604148259
1604151911
1604153821
1604154760
1604163439
1604164215
1604172041
1604173256
1604174640
1604176059
1604176416
1604177949
1604181553
1604183682
1604184861
1604184913
1604185378
1604186653
1604186787
1604187470
1604188101
1604190413
1604191082
1604191901
1604192776
1604196308
1604208465
1604210014
1604210279
1604211380
1604213539
1604213716
1604217619
1604230868
1604233181
1604235395
1604235903
1604237007
1604238038
1604239316
1604240001
1604240380
1604240495
1604245943
1604247297
1604247854
1604249042
1604251645
1604254986
1604259066
1604259384
1604259598
1604265068
1604269175
1604274442
1604276214
1604277460
1604276142
1604276617
1604286628
1604289065
1604294003
1604300701
1604301452
1604302834
1604304648
1604315176
1604316342
1604319839
1604323408
1604333615
1604335473
1604338499
1604341011
1604344709
1604351099
1604355401
1604356504
1604362173
1604367666
1604373194
1604373397
1604374989
1604375257
1604375474
1604377606
1604378714
1604394227
1604409093
1604425939
1604435382
1604443950
1604448087
1604451895
1604457198
1604458413
1604469730
1604470053
1604470218
1604477430
1604481895
1604481793
1604488492
1604488462
1604492625
1604494984
1604498301
1604499842
1604500727
1604500808
1604503270
1604504729
1604505144
1604507789
1604511246
1604513480
1604516232
1604518509
1604520473
1604520922
1604525379
1604525685
1604527998
1604528292
1604535720
1604539225
1604542598
1604542611
1604542660
1604543187
1604544563
1604547423
1604548675
1604548727
1604549703
1604555466
1604556478
1604560529
1604561396
1604563996
1604565966
1604572022
1604575464
1604578444
1604579401
1604580200
1604580797
1604580767
1604582326
1604585786
1604586037
1604588251
1604588370
1604591382
1604593629
1604594085
1604594116
1604594120
1604598026
1604601731
1604601662
1604601950
1604606276
1604612494
1604616728
1604618587
1604618674
1604619027
1604622726
1604625140
1604631032
1604632936
1604637042
1604638857
1604643421
1604644098
1604646035
1604647292
1604651246
1604652404
1604653110
1604654569
1604655372
1604657188
1604657293
1604661792
1604663850
1604666272
1604666760
1604668603
1604669659
1604672274
1604672425
1604678038
1604679021
1604684950
1604693789
1604696539
1604705750
1604706489
1604711319
1604713198
1604713734
1604718346
1604719989
1604724312
1604725458
1604727380
1604727718
1604733562
1604734236
1604737162
1604738664
1604749546
1604749975
1604751140
1604752271
1604752967
1604756698
1604757034
1604763181
1604764938
1604766216
1604766475
1604770119
1604769928
1604771025
1604774387
1604777378
1604778278
1604781747
1604784392
1604786699
1604786835
1604788336
1604788634
1604796313
1604796657
1604797914
1604800415
1604805353
1604811230
1604814105
1604819087
1604826587
1604836039
1604836672
1604836799
1604840900
1604841863
1604843747
1604846639
1604849979
1604856498
1604857438
1604858531
1604859884
1604869085
1604874291
1604874295
1604875647
1604878540
1604879700
1604880502
1604883071
1604884099
1604888942
1604888911
1604890843
1604894803
1604906593
1604906686
1604907242
1604908106
1604909376
1604915789
1604919629
1604920969
1604921771
1604922585
1604940607
1604940783
1604946227
1604946397
1604946806
1604949385
1604949700
1604954037
1604957741
1604964319
1604969886
1604974253
1604975947
1604976214
1604976486
1604976947
1604978721
1604981786
1604981940
1604984938
1604986721
1604987600
1604987692
1604991952
1604992903
1604996750
1604996993
1604999032
1605003537
1605013189
1605017526
1605017909
1605018962
1605019339
1605021420
1605024025
1605024901
1605024930
1605025081
1605025087
1605027572
1605027554
1605027694
1605028331
1605028864
1605029340
1605032606
1605032058
1605033418
1605039515
1605042984
1605046371
1605047749
1605052004
1605054099
1605054566
1605061614
1605062609
1605063525
1605064386
1605064503
1605064823
1605065538
1605069519
1605072204
1605073694
1605076591
1605080358
1605081578
1605082533
1605084465
1605087825
1605090713
1605096725
1605098310
1605099373
1605102623
1605104414
1605105955
1605107049
1605107851
1605109496
1605112440
1605112509
1605113737
1605118171
1605119669
1605120446
1605122965
1605124278
1605125013
1605127978
1605129471
1605138572
1605142973
1605145882
1605148494
1605151441
1605152911
1605155255
1605156350
1605157740
1605163524
1605164513
1605166050
1605172765
1605172924
1605175001
1605179521
1605181986
1605183250
1605190530
1605198819
1605201043
1605207805
1605208799
1605209590
1605211722
1605215139
1605215211
1605217029
1605224034
1605233683
1605240576
1605266856
1605307178
1605307813
1605308603
1605309743
1605310002
1605314786
1605320217
1605322064
1605328717
1605329382
1605331815
1605332023
1605340990
1605342638
1605344344
1605349679
1605349873
1605353264
1605357537
1605365272
1605376050
1605406480
1605415496
1605426449
1605447265
1605480776
1605499540
1605507786
1605512733
1605515233
1605560555
1605571090
1605572682
1605590781
1605595474
1605613694
1605616987
1605611975
1605646597
1605764774
1605811937
1605817720
1605824703
1605843030
1605860046
1605862550
1605870028
1605879491
1605881718
1605902806
1605910503
1605921997
1605934240
1605938867
1605953815
1605958507
1605995833
1605997217
1605998115
1606014710
1606048387
1606061759
1606067201
1606142102
1606154155
1606158315
1606202243
1606233440
1606267110
1606283555
1606290009
1606292602
1606296939
1606302871
1606306493
1606306832
1606355656
1606364071
1606394562
1606436390
1606437237
1606494182
1606576617
1606620196
1606637886
1606650426
1606687165
1606710732
1606711069
1606715058
1606725177
1606762354
1606763719
1606807529
1606838752
1606839514
1606845207
1606857216
1606857855
1606929076
1606958317
1606965334
1606989947
1607025705
1607025835
1607070905
1607072442
1607087554
1607100045
1607100933
1607131926
1607133367
1607146144
1607146967
1607167029
1607177232
1607196993
1607197928
1607204217
1607207709
1607231028
1607245952
1607251374
1607254216
1607260250
1607288242
1607288932
1607296218
1607346752
1607351138
1607357734
1607358076
1607369735
1607409751
1607412929
1607468441
1607486898
1607517679
1607525333
1607526225
1607541683
1607552845
1607553678
1607555963
1607571348
1607582223
1607626544
1607649970
1607661851
1607690453
1607708590
1607710538
1607778387
1607783106
1607805561
1607807032
1607807658
1607869048
1607903377
1607938220
1607948675
1608014312
1608023864
1608043837
1608047109
1608063528
1608082153
1608085572
1608086298
1608091687
1608118917
1608149510
1608149687
1608166923
1608178159
1608233429
1608239156
1608259177
1608278043
1608284359
1608293684
1608323398
1608339592
1608348415
1608357570
1608391575
1608398364
1608413835
1608420786
1608457475
1608462963
1608488154
1608517493
1608522772
1608551937
1608598218
1608600363
1608627335
1608640815
1608662680
1608717604
1608747863
1608759025
1608800264
1608837367
1608867948
1608881684
1608883265
1608894367
1608933613
1608949312
1608957077
1608970975
1608973834
1608988671
1608994684
1608997113
1609009998
1609034184
1609039815
1609062829
1609089108
1609094227
1609097711
1609123677
1609140143
1609301643
1609302121
1609315494
1609325754
1609331327
1609340431
1609369340
1609380821
1609402088
1609412849
1609479603
1609540427
1609556479
1609567546
1609597049
1609600665
1609603185
1609630345
1609636652
1609645521
1609655978
1609667444
1609688208
1609707165
1609709372
1609734072
1609773384
1609781497
1609794788
1609809089
1609816065
1609816685
1609878922
1609920389
1609931797
1609934955
1609953698
1609970747
1609999210
