730008503
730046800
730049312
1600002340
1600006034
1600006426
1600006426
1600006426
1600007448
1800001193
730058053
730008503
730046800
730049312
730058053
730109062
730116788
731072523
730140995
730149189
730152780
730171108
730177132
730182824
731133522
731146489
731152072
731152882
730226088
731164232
731177453
730251301
731186041
731188189
731190907
731201899
730275315
730292427
731247297
730329130
731259438
731270897
731537081
731541266
730420873
730442806
730448006
731589535
731604443
730468333
730497766
731657208
731662358
731691173
731697757
731716951
731720324
730534031
731759800
730577184
730583469
731797908
730607507
730613373
730617563
731818998
730629734
730637340
730642713
730644936
730650849
731872420
730680553
731897787
730701226
731916514
731923408
731925033
731944212
730712656
730717736
732028105
730739423
730739873
730751641
732069435
732074274
732107464
732108095
732117222
730830965
730837402
1600006034
1600006426
1600007448
1600012079
1600014526
1600018159
1600020147
1600021813
1600023423
1600023665
1600028869
1600030537
1600032388
1600032757
1600034266
1600037719
1600043632
1600044543
1600045601
1600048485
1600049857
1600050541
1600051848
1600051883
1600051883
1600051848
1600058988
1600060869
1600060913
1600062819
1600067867
1600072057
1600075034
1600075360
1600080023
1600081882
1600088285
1600090771
1600100203
1600101245
1600106445
1600106689
1600107089
1600109765
1600109915
1600113315
1600113445
1600118660
1600120068
1600121836
1600126364
1600126919
1600127796
1600128376
1600131010
1600133468
1600134211
1600137607
1600139044
1600145339
1600147007
1600148482
1600149027
1600149458
1600151883
1600156921
1600156951
1600157231
1600157372
1600157589
1600159542
1600160604
1600165536
1600167533
1600169247
1600170174
1600170152
1600175658
1600176484
1600181749
1600181826
1600182018
1600186925
1600187409
1600189830
1600192269
1600194858
1600197566
1600205044
1600205317
1600206389
1600206847
1600208836
1600210780
1600212572
1600213279
1600213621
1600216656
1600223439
1600226489
1600230313
1600234377
1600234923
1600234926
1600237903
1600238448
1600241404
1600241388
1600242934
1600243793
1600248222
1600248898
1600251689
1600254518
1600255710
1600259776
1600264953
1600265853
1600269363
1600274582
1600275502
1600277298
1600277861
1600278268
1600280451
1600285006
1600287091
1600287263
1600287775
1600288442
1600291784
1600293089
1600295835
1600296629
1600299265
1600299661
1600299929
1600302891
1600304171
1600306221
1600309867
1600312267
1600314310
1600316299
1600317613
1600317978
1600319030
1600319142
1600323139
1600323811
1600325051
1600327832
1600338843
1600340850
1600347024
1600348319
1600348381
1600354172
1600355644
1600361409
1600370337
1600374200
1600375710
1600377771
1600378600
1600381436
1600382742
1600383617
1600385649
1600386524
1600388165
1600388694
1600388780
1600390388
1600391184
1600406801
1600408957
1600409800
1600411702
1600413296
1600421120
1600421973
1600423515
1600423532
1600428445
1600428869
1600429584
1600429381
1600430217
1600431259
1600438653
1600438969
1600443989
1600445518
1600446667
1600447043
1600448346
1600451183
1600452666
1600454609
1600454916
1600456260
1600459282
1600460341
1600461421
1600464582
1600466603
1600467221
1600467591
1600470963
1600474166
1600474837
1600480514
1600483827
1600484964
1600498066
1600501201
1600501681
1600505816
1600506899
1600507123
1600508313
1600509213
1600510071
1600511653
1600514450
1600517592
1600519495
1600522483
1600522983
1600524597
1600527679
1600531767
1600534241
1600535796
1600536911
1600537019
1600539361
1600540296
1600541428
1600543014
1600556940
1600557007
1600565367
1600567848
1600569476
1600573124
1600573933
1600581941
1600582704
1600583674
1600584214
1600584576
1600585995
1600587236
1600590284
1600591700
1600594245
1600595300
1600595704
1600595773
1600603970
1600604991
1600605266
1600612444
1600612977
1600617304
1600617491
1600620054
1600624325
1600624809
1600629093
1600629950
1600631436
1600631954
1600634333
1600636176
1600638122
1600639022
1600639868
1600640700
1600641731
1600643253
1600643355
1600643213
1600647631
1600648561
1600650888
1600654665
1600654994
1600656470
1600662855
1600667422
1600668114
1600675739
1600681747
1600689332
1600701241
1600702388
1600703149
1600704191
1600707790
1600707826
1600708076
1600712736
1600716740
1600716981
1600717130
1600720319
1600721795
1600725475
1600726500
1600726646
1600732012
1600733016
1600734504
1600739775
1600744100
1600746075
1600750592
1600751116
1600752254
1600758602
1600762115
1600764955
1600765780
1600766415
1600768403
1600771325
1600779191
1600782410
1600783036
1600784868
1600785122
1600785196
1600785581
1600786292
1600789389
1600790534
1600790878
1600793803
1600797020
1600798642
1600798923
1600802123
1600802926
1600804794
1600805512
1600810598
1600812535
1600815894
1600819555
1600819635
1600821599
1600822223
1600826033
1600833904
1600834577
1600838869
1600843757
1600847269
1600848840
1600852655
1600861595
1600862040
1600862356
1600868842
1600872886
1600874138
1600879670
1600883487
1600884862
1600890181
1600892579
1600893617
1600893628
1600895697
1600896397
1600897608
1600903745
1600905412
1600908674
1600910435
1600912511
1600920131
1600920353
1600920492
1600920735
1600926219
1600929369
1600930614
1600936626
1600939386
1600939362
1600942603
1600943191
1600944352
1600948683
1600950018
1600955112
1600958465
1600963013
1600966147
1600968051
1600969473
1600970056
1600970350
1600970893
1600971107
1600974859
1600975817
1600978890
1600981035
1600985921
1600987337
1600988324
1600989508
1600993512
1600996427
1600996520
1600996686
1600998058
1600998558
1601004214
1601005207
1601008790
1601011759
1601017146
1601017686
1601021798
1601022108
1601024781
1601029979
1601037572
1601037994
1601038590
1601043985
1601044538
1601048793
1601054853
1601055669
1601056914
1601063197
1601064664
1601070037
1601070068
1601072042
1601073211
1601075126
1601077622
1601078706
1601081912
1601085572
1601086561
1601087703
1601088899
1601090154
1601093906
1601095573
1601096234
1601099721
1601099853
1601102037
1601104322
1601105669
1601106133
1601112201
1601112726
1601115315
1601116664
1601121969
1601125191
1601127260
1601131695
1601131958
1601138648
1601141903
1601150556
1601154322
1601155108
1601155860
1601167081
1601167299
1601170130
1601170141
1601171435
1601172961
1601177404
1601177827
1601181421
1601184234
1601187340
1601188936
1601194313
1601194946
1601201151
1601205093
1601205243
1601212170
1601215018
1601222375
1601224512
1601225412
1601226389
1601226641
1601226618
1601228310
1601234167
1601241665
1601244600
1601245020
1601245829
1601247959
1601248458
1601248710
1601249409
1601258499
1601264804
1601268759
1601272630
1601276235
1601280551
1601280996
1601287127
1601291944
1601293836
1601294062
1601296823
1601304895
1601308336
1601312905
1601314761
1601315687
1601318872
1601320235
1601322561
1601327719
1601327656
1601327726
1601328189
1601328305
1601328601
1601331403
1601331839
1601335170
1601336129
1601339085
1601339927
1601346228
1601347140
1601356185
1601360500
1601361564
1601360750
1601362917
1601364176
1601365720
1601367510
1601369797
1601370961
1601374042
1601376115
1601379463
1601383630
1601384490
1601385789
1601394411
1601397421
1601397600
1601402754
1601404755
1601405649
1601407110
1601409005
1601409186
1601411099
1601411202
1601412036
1601412408
1601413396
1601413544
1601416374
1601416589
1601417506
1601418122
1601423189
1601423751
1601424391
1601424829
1601426333
1601427741
1601435070
1601437075
1601447903
1601452101
1601452828
1601453620
1601458830
1601466447
1601466846
1601467766
1601469577
1601470900
1601472245
1601476209
1601478019
1601478042
1601478177
1601478261
1601479276
1601479544
1601485624
1601486002
1601488546
1601490285
1601495836
1601496169
1601497685
1601500100
1601502014
1601502266
1601503393
1601505540
1601507597
1601510155
1601510954
1601513690
1601517356
1601522850
1601524642
1601530519
1601534608
1601535843
1601548767
1601551635
1601551980
1601553664
1601554526
1601556827
1601559145
1601561511
1601564377
1601566205
1601567479
1601568066
1601569076
1601570870
1601572901
1601572989
1601574478
1601574991
1601575814
1601579837
1601581273
1601587221
1601587787
1601592402
1601593700
1601597668
1601607105
1601607590
1601607594
1601608080
1601608399
1601609970
1601610647
1601611068
1601611691
1601612505
1601616573
1601618216
1601618466
1601622020
1601626889
1601629063
1601629350
1601629528
1601634269
1601641579
1601642652
1601645524
1601646031
1601647251
1601649220
1601652174
1601652263
1601652263
1601654323
1601655172
1601657852
1601665269
1601666570
1601668493
1601671290
1601673260
1601676842
1601677672
1601678331
1601679944
1601685493
1601686570
1601688099
1601698685
1601708247
1601711407
1601714977
1601715751
1601719056
1601720349
1601723472
1601723997
1601725259
1601726691
1601730020
1601733732
1601743409
1601749407
1600106445
1603064923
1603066378
1603067498
1603069207
1603069858
1603076986
1603079318
1603084769
1603092592
1603093132
1603093943
1603094234
1603099257
1603101120
1603101135
1603104612
1603106147
1603107226
1603110322
1603111454
1603117264
1603117676
1603132877
1603134415
1603134702
1603134768
1603137313
1603138997
1603144150
1603144258
1603144520
1603144627
1603145466
1603150160
1603153087
1603153675
1603157975
1603158269
1603159321
1603159991
1603163157
1603163185
1603164564
1603165282
1603168975
1603169232
1603169498
1603171486
1603172676
1603176114
1603181762
1603181144
1603185540
1603186146
1603188950
1603189138
1603194574
1603195694
1603201625
1603205479
1603206102
1603207925
1603208803
1603209206
1603211296
1603214052
1603215253
1603217665
1603223035
1603229085
1603230117
1603239774
1603242930
1603246727
1603249844
1603251619
1603251896
1603252075
1603253182
1603254789
1603255180
1603258072
1603258659
1603261145
1603261557
1603262641
1603263688
1603263612
1603267289
1603268850
1603268905
1603271737
1603274531
1603278177
1603281108
1603282314
1603284017
1603285364
1603289466
1603290052
1603290683
1603291949
1603301211
1603304327
1603304334
1603309234
1603312755
1603314220
1603314253
1603320744
1603320364
1603323900
1603327548
1603328822
1603329867
1603336162
1603337057
1603344609
1603355577
1603358375
1603363449
1603364489
1603367900
1603369109
1603375929
1603377457
1603381728
1603382754
1603385764
1603387171
1603388350
1603397835
1603383451
1603399716
1603399828
1603401629
1603407113
1603409212
1603411105
1603427486
1603427527
1603427796
1603429685
1603431157
1603433547
1603435082
1603438675
1603439738
1603441531
1603444701
1603451902
1603452938
1603454857
1603466043
1603470439
1603472037
1603472892
1603473112
1603474068
1603482689
1603489192
1603489614
1603491564
1603492401
1603493605
1603493732
1603496437
1603499002
1603498970
1603498739
1603502272
1603502832
1603503391
1603504718
1603506438
1603506787
1603506745
1603508911
1603509070
1603509251
1603516231
1603516969
1603519744
1603520086
1603522225
1603522550
1603523381
1603528085
1603529821
1603538895
1603539090
1603540174
1603540710
1603541077
1603541355
1603542746
1603546442
1603551161
1603553987
1603554117
1603554876
1603560738
1603567214
1603568679
1603570155
1603573531
1603574958
1603579224
1603582283
1603585884
1603586621
1603587478
1603587585
1603588078
1603589850
1603591813
1603592798
1603594974
1603597704
1603601313
1603603732
1603606100
1603606780
1603608349
1603608617
1603614677
1603620084
1603622996
1603625932
1603632052
1603632962
1603634821
1603636994
1603637078
1603637623
1603642701
1603644173
1603646128
1603646231
1603646475
1603649654
1603651175
1603651972
1603655407
1603656521
1603656518
1603658523
1603658615
1603661583
1603666456
1603672450
1603672799
1603677403
1603678519
1603679900
1603680709
1603681116
1603690054
1603690617
1603691063
1603691282
1603691216
1603691749
1603699848
1603701485
1603703523
1603704955
1603708069
1603710173
1603712516
1603714707
1603715629
1603718026
1603722142
1603722442
1603722557
1603722924
1603726155
1603730953
1603731235
1603732588
1603733918
1603734329
1603735271
1603738496
1603739693
1603744392
1603747531
1603749556
1603751331
1603751249
1603752734
1603752829
1603756418
1603758152
1603766410
1603767224
1603767791
1603768491
1603773471
1603781735
1603782134
1603784520
1603789513
1603792981
1603799248
1603821079
1603842940
1603866926
1603883975
1603886978
1603888310
1603888453
1603888721
1603890682
1603892656
1603895253
1603895327
1603899821
1603905893
1603907969
1603909054
1603911797
1603920387
1603920760
1603921617
1603921994
1603922034
1603923421
1603926191
1603929238
1603931799
1603932129
1603933706
1603936479
1603937132
1603939411
1603940948
1603946615
1603946722
1603949241
1603952000
1603964676
1603965534
1603968342
1603972980
1603984681
1603984814
1603992869
1603993061
1603993890
1603994555
1603998536
1603998746
1604000971
1604003458
1604005271
1604005789
1604014785
1604014994
1604015308
1604016442
1604018958
1604023966
1604024389
1604030742
1604034173
1604034380
1604036434
1604039108
1604039304
1604045361
1604046128
1604047755
1604052729
1604053370
1604056747
1604057576
1604062947
1604065466
1604070084
1604076415
1604077723
1604078447
1604087488
1604089936
1604092809
1604095043
1604099194
1604100417
1604101979
1604110707
1604111623
1604114723
1604119657
1604126059
1604132639
1604141822
1604142768
1604147922
1604149666
1604155629
1604157638
1604163819
1604163960
1604163250
1604167145
1604167782
1604168176
1604168316
1604169025
1604172881
1604179670
1604180263
1604181296
1604183464
1604185447
1604185951
1604189489
1604194384
1604195431
1604196556
1604198386
1604199402
1604201982
1604203820
1604206012
1604211606
1604212749
1604216970
1604219463
1604220575
1604220990
1604226136
1604230879
1604231694
1604233574
1604235364
1604236840
1604238829
1604243361
1604246680
1604246596
1604253646
1604259319
1604263812
1604264257
1604268861
1604272167
1604275515
1604275854
1604277440
1604285728
1604285931
1604288605
1604288643
1604290283
1604291723
1604292540
1604293756
1604299919
1604304307
1604307934
1604309958
1604314120
1604315191
1604319943
1604322558
1604325856
1604329095
1604329469
1604331851
1604332115
1604345444
1604348762
1604351008
1604353219
1604353346
1604354794
1604357767
1604357086
1604358701
1604360699
1604362392
1604363817
1604367852
1604367866
1604370864
1604372899
1604374316
1604375530
1604375962
1604377271
1604377873
1604384943
1604387219
1604399029
1604408395
1604423266
1604426055
1604429182
1604438022
1604440162
1604440414
1604443314
1604444023
1604444756
1604458533
1604461788
1604463754
1604465148
1604465135
1604475925
1604476896
1604479559
1604482337
1604484600
1604487407
1604488637
1604494057
1604499648
1604500893
1604499880
1604500987
1604505403
1604508445
1604523931
1604525692
1604525740
1604528122
1604530950
1604531176
1604532897
1604536806
1604539403
1604541677
1604546289
1604546552
1604547305
1604551850
1604555567
1604558241
1604566062
1604581049
1604583531
1604585337
1604588898
1604589004
1604591656
1604599312
1604601185
1604601736
1604604505
1604604867
1604606053
1604606485
1604608698
1604611844
1604612736
1604613027
1604616941
1604621693
1604627956
1604630909
1604634138
1604637365
1604637934
1604643792
1604646347
1604657606
1604660906
1604662672
1604663098
1604663302
1604665940
1604669510
1604671200
1604672287
1604673249
1604679563
1604680082
1604680394
1604680927
1604681037
1604683421
1604684583
1604685795
1604686872
1604687704
1604688606
1604691198
1604691757
1604691871
1604692287
1604693482
1604693806
1604697632
1604698117
1604700869
1604701741
1604704707
1604707704
1604709731
1604710112
1604714700
1604715079
1604715463
1604716055
1604717697
1604718426
1604718953
1604722325
1604722992
1604727369
1604728927
1604734328
1604736582
1604737657
1604743948
1604747716
1604748481
1604750688
1604755351
1604755427
1604755720
1604756383
1604761510
1604763845
1604763986
1604765804
1604772399
1604773736
1604775855
1604777028
1604777895
1604779313
1604783180
1604788313
1604788595
1604792164
1604795941
1604796681
1604797009
1604809667
1604810064
1604810128
1604819841
1604821584
1604823697
1604827021
1604827421
1604828728
1604830537
1604837329
1604838392
1604841705
1604841867
1604842982
1604844269
1604846959
1604853030
1604855395
1604857356
1604858076
1604864854
1604867095
1604868541
1604868787
1604874200
1604874259
1604878588
1604882375
1604883740
1604884944
1604886296
1604889383
1604890314
1604892114
1604893610
1604897917
1604899507
1604903031
1604903634
1604906156
1604907333
1604909297
1604909790
1604911027
1604917309
1604920704
1604922495
1604923739
1604928228
1604929077
1604931688
1604936295
1604941871
1604942754
1604952645
1604954585
1604958202
1604961306
1604964878
1604972419
1604975108
1604975149
1604975140
1604975763
1604976072
1604979884
1604992690
1604993937
1605000178
1605000193
1605001272
1605003422
1605003898
1605004486
1605006834
1605006819
1605008869
1605011165
1605012131
1605014630
1605019594
1605022512
1605030209
1605030635
1605031478
1605036407
1605036487
1605041591
1605042111
1605044408
1605045914
1605048692
1605058113
1605059475
1605060064
1605059992
1605063148
1605065189
1605067604
1605068100
1605075703
1605075894
1605075921
1605076256
1605078254
1605079380
1605086923
1605089554
1605094260
1605095491
1605103274
1605108053
1605111999
1605114305
1605114944
1605115208
1605116026
1605116634
1605116645
1605117444
1605119205
1605120175
1605123521
1605125121
1605128922
1605132258
1605134284
1605135018
1605136296
1605141167
1605142547
1605147379
1605149875
1605151786
1605152247
1605153399
1605162577
1605169198
1605171127
1605174428
1605176211
1605177640
1605178739
1605179538
1605193111
1605194556
1605206758
1605207638
1605208112
1605208646
1605212194
1605218867
1605219562
1605221807
1605224749
1605247037
1605251923
1605255007
1605267767
1605301311
1605310509
1605313969
1605317151
1605318311
1605318363
1605323408
1605326901
1605327526
1605335726
1605340745
1605341156
1605341668
1605342486
1605343383
1605343561
1605345261
1605352208
1605367370
1605366548
1605382324
1605385210
1605406458
1605425808
1605432250
1605454956
1605480086
1605496112
1605497340
1605513795
1605534107
1605538983
1605540910
1605542534
1605556413
1605556920
1605564884
1605566916
1605580820
1605589658
1605593872
1605602488
1605609397
1605614155
1605621310
1605647018
1605647367
1605661271
1605675109
1605695553
1605707223
1605712542
1605723930
1605739622
1605786256
1605797979
1605805185
1605807943
1605819195
1605828332
1605841112
1605854361
1605864650
1605872825
1605874478
1605878631
1605890278
1605910498
1605945484
1605959559
1605975785
1605978755
1605996405
1606009661
1606038479
1606040808
1606068259
1606071565
1606103176
1606116669
1606132766
1606180586
1606188155
1606237641
1606251454
1606281817
1606285090
1606287699
1606291936
1606331727
1606343820
1606383261
1606387624
1606394157
1606401943
1606405509
1606419752
1606440985
1606442416
1606444282
1606445750
1606465620
1606480107
1606483488
1606518261
1606553810
1606573235
1606580046
1606586528
1606588888
1606591666
1606600910
1606608900
1606620684
1606651453
1606666067
1606672921
1606691760
1606706449
1606747097
1606772767
1606783464
1606843057
1606877518
1606891380
1606895177
1606912620
1606922770
1606935830
1606949703
1606959557
1606974449
1607012761
1607023534
1607028456
1607032401
1607053157
1607053879
1607056501
1607088064
1607116141
1607136304
1607145301
1607173964
1607177050
1607184232
1607189909
1607198870
1607215656
1607216813
1607235667
1607294124
1607310246
1607311233
1607321774
1607326404
1607335992
1607361476
1607380000
1607388682
1607401612
1607401875
1607412452
1607416773
1607422039
1607430558
1607466093
1607474242
1607493210
1607503311
1607504733
1607533622
1607534110
1607543558
1607544727
1607548889
1607551715
1607554869
1607560709
1607607947
1607646064
1607665671
1607679705
1607684764
1607692370
1607719696
1607735662
1607760003
1607811900
1607814886
1607835319
1607844114
1607847690
1607858931
1607863234
1607892171
1607907060
1607924331
1607932709
1607941873
1607945133
1607947744
1607978969
1607980941
1607996633
1608001586
1608005475
1608007102
1608010641
1608036880
1608042607
1608066589
1608067479
1608089414
1608107970
1608126962
1608137002
1608142618
1608148201
1608158058
1608164908
1608175642
1608184821
1608221439
1608238433
1608241522
1608272800
1608279017
1608310131
1608317464
1608375585
1608424973
1608439295
1608440568
1608449175
1608455449
1608457289
1608479343
1608479630
1608533543
1608564645
1608565996
1608594646
1608601294
1608605754
1608611920
1608619490
1608638136
1608655313
1608657337
1608664895
1608671845
1608679038
1608709715
1608718227
1608719356
1608740290
1608749441
1608753299
1608764847
1608794852
1608800414
1608840372
1608846845
1608847068
1608852114
1608893699
1608901209
1608920206
1608932892
1608984567
1608998664
1609007038
1609014879
1609029546
1609029578
1609042282
1609073208
1609075695
1609100348
1609122128
1609127494
1609134553
1609143768
1609161644
1609182296
1609183710
1609183770
1609188007
1609196758
1609202259
1609229579
1609249674
1609254240
1609269666
1609269728
1609275382
1609281534
1609294446
1609308151
1609313693
1609314577
1609321321
1609329163
1609335095
1609357848
1609372173
1609384577
1609388298
1609411757
1609427780
1609452454
1609469429
1609485612
1609485663
1609508356
1609526204
1609533084
1609540492
1609549046
1609568085
1609600474
1609610630
1609616015
1609619812
1609621084
1609643514
1609661768
1609669923
1609679042
1609685863
1609689264
1609691559
1609708062
1609714352
1609720431
1609769610
1609785252
1609797641
1609804120
1609816165
1609820152
1609820165
1609830499
1609831339
1609837554
1609880850
1609910643
1609938033
1609938971
1609993192
