960623066
960740189
960773617
960827052
960852476
960908732
960982433
961064088
961107945
961378906
961451614
961576605
961612480
961994940
962037037
962228886
962317670
962408817
962500983
962543357
962608575
962652649
962736028
