960066059
960068458
960133502
960201663
960293113
960298350
960303634
960311138
960335330
960365104
960369986
960374495
960460301
960490427
960532783
960584891
960609942
960616314
960649614
960659915
960700089
960724595
960823966
960935060
960956308
961046338
961047334
961136428
961231953
961292213
961408141
961499086
961518135
961626368
961629660
961644178
961692989
961772840
961890486
961906933
961935961
961945271
962015590
962039341
962177849
962219559
962223249
962247005
962256027
962274090
962302880
962333714
962367291
962377070
962390304
962413532
962471048
962524571
962617188
962702361
962741763
962773207
962790351
