922010395
922015133
922017151
922017680
922019341
922020424
922026873
922028365
920002168
920002310
920004106
920004467
921003496
921004120
921004951
920006582
921008122
921009152
920007598
921011960
920007674
921014359
921015536
920002168
920002310
920004106
920004467
920007598
920007674
920014493
920015916
920017817
920023213
920023406
920026260
920031791
920043783
920046960
920047967
920049361
920051303
920059526
920061224
920064688
920071039
920074295
920081320
920103763
920104177
920107140
920107931
920123622
920124124
920127969
