730020750
730031833
730031833
730062602
730077777
730089873
730142721
731086998
731154411
731164607
730237071
731172312
731180657
731191252
730281591
730288415
731239321
730329982
730403198
730437774
730450559
731594505
730459403
731604432
731604607
731627024
731636643
730497759
730504339
730505893
731651843
730538351
731741169
731780340
730610251
730616726
731819286
731844754
730661938
730666904
731874193
731888459
731900653
731914727
731929460
731931873
731954164
731965466
731991072
730725071
730738444
732042736
732069826
732096956
732098810
732117904
730828543
732126880
730832426
1600122682
1600160215
1600161465
1600186780
1600213364
1600216490
1600230124
1600254427
1600339740
1600407619
1600709317
1600814810
1600846832
1600893429
1600942844
1601045538
1601051744
1601093175
1601128497
1601204150
1601418617
1601429246
1601572993
1601584444
1601613603
1601712708
1603082087
1603082416
1603249827
1603286763
1603350631
1603469393
1603474070
1603619847
1603898470
1603995528
1604048707
1604063510
1604141487
1604226005
1604304111
1604498548
1604550375
1604595946
1604727172
1604828843
1604904168
1604986432
1605150082
1605152167
1605361192
1605522922
1605823047
1606876503
1607170866
1607999889
1608591937
1609215273
