730128905
730644847
1600132010
1600837076
1600851925
1600992163
1601032981
1601110311
1601185623
1601481234
1601574356
1603073172
1603132626
1603159932
1603236831
1603392832
1603395531
1603425703
1603435358
1603472495
1603782633
1603914124
1604213816
1604632024
1604711587
1604738179
1604853862
1605108803
