800008230
800074839
801022287
800080309
801045154
800106519
800113021
800008230
800074839
800080309
800106519
800113021
800232926
800430819
800580219
800734727
800810084
800817170
800868980
800976152
801022287
801045154
801111867
801210911
801219979
801255958
801290774
801354181
801363705
801419157
801636868
801643218
801670749
801773305
801782469
801787423
801816690
