730216082
731585108
731603550
1600018907
1600024370
1600046607
1600092859
1600109603
1600132607
1600144309
1600150769
1600208799
1600213002
1600227261
1600235275
1600241710
1600244519
1600245216
1600259371
1600262941
1600295387
1600343858
1600388016
1600449051
1600479533
1600482363
1600500469
1600504424
1600522131
1600534292
1600549615
1600577183
1600578019
1600590270
1600631605
1600653640
1600665550
1600671936
1600700695
1600752363
1600780589
1600789779
1600791948
1600827978
1600830795
1600890091
1600911297
1600947386
1600947778
1600959006
1600971831
1600987952
1601025914
1601056337
1601093829
1601098323
1601108354
1601157911
1601164281
1601177348
1601224312
1601228449
1601233898
1601246949
1601247762
1601283076
1601308769
1601312068
1601335782
1601341385
1601347910
1601353214
1601358008
1601364258
1601369379
1601440146
1601445447
1601471193
1601471436
1601511055
1601512787
1601518920
1601526226
1601529266
1601554493
1601554732
1601561419
1601564895
1601568993
1601581704
1601628913
1601638406
1601650177
1601664631
1601710411
1601726990
1601729531
1601731315
1603073171
1603087801
1603115858
1603147104
1603148977
1603169141
1603173685
1603176423
1603181698
1603201753
1603203912
1603209003
1603228698
1603233522
1603263405
1603263791
1603272911
1603274374
1603293162
1603338608
1603364826
1603373095
1603393407
1603409640
1603433088
1603458532
1603486998
1603497090
1603500186
1603501977
1603508741
1603529300
1603548332
1603585103
1603594834
1603611063
1603623975
1603630811
1603633379
1603643487
1603645122
1603688462
1603730654
1603772309
1603772802
1603790228
1603903172
1603912209
1603944346
1603952304
1603953092
1603964083
1603985691
1604000805
1604011491
1604070121
1604123044
1604190265
1604220151
1604239506
1604242636
1604248079
1604268016
1604268556
1604277695
1604287321
1604312033
1604313815
1604337822
1604351145
1604354428
1604372330
1604372817
1604444499
1604452451
1604470168
1604475996
1604493732
1604510450
1604517731
1604544164
1604554267
1604555118
1604560701
1604564977
1604573792
1604583793
1604591538
1604594171
1604617382
1604624203
1604661825
1604664675
1604675615
1604700419
1604743052
1604762593
1604762676
1604769726
1604779828
1604785441
1604786494
1604802874
1604813449
1604827043
1604834431
1604850398
1604851789
1604898596
1604982031
1604993579
1604999542
1605027224
1605030713
1605035741
1605040455
1605067916
1605069133
1605079750
1605149272
1605180474
1605208701
1609830983
