800005189
800044725
800070374
801015497
800073471
801051059
800115447
800126631
800135565
802001861
802005736
800005189
800044725
800070374
800073471
800115447
800126631
800135565
800162639
800186443
800196481
800196859
800250874
800350911
800352083
800354438
800368556
800384300
800387014
800399160
800435454
800496428
800516416
800560938
800565947
800580835
800590537
800643181
800652001
800685245
800718438
800725951
800745242
800810962
800824066
800869447
800889895
800926059
800946544
801015497
801051059
801110721
801171293
801183823
801198161
801230229
801255013
801292910
801303242
801363291
801363715
801367404
801371497
801383640
801393643
801483375
801495846
801503053
801531120
801585834
801602662
801633625
801650141
801657391
801676003
801677362
801682363
801729385
801733487
801760510
801788857
801813091
