800005662
800030637
802000193
800056611
800079975
800085420
800085525
800088055
801029344
801044193
800113825
800115857
801065579
800154319
801102875
800005662
800030637
800056611
800079975
800085420
800088055
800113825
800115857
800154319
800520615
800591624
800619618
800669780
800762289
800830100
800848149
800861846
800861990
800876929
800890311
800915236
800938454
800992013
801029344
801065579
801164137
801171086
801179162
801185175
801197030
801199505
801211255
801249490
801276376
801293278
801338964
801413804
801448844
801456887
801461755
801471376
801477770
801481567
801524881
801555118
801588544
801612905
801771896
801806566
