1600271204
1600789197
1600850078
1601051115
1601409735
1601445247
1601546462
1601663986
1603101927
1603347030
1603444129
1603454844
1603747488
1603900588
1603940444
1604011645
1604028974
1604320779
1604360418
1604417526
1604897638
1605019912
1605226075
1605361547
1605813329
1605892594
1606903942
1606995889
1607591263
1608005656
1608094133
1608259201
1609211056
1609333655
