730288652
1600050649
1600194878
1600211347
1600230754
1600250237
1600304338
1600314759
1600319707
1600365223
1600423273
1600438183
1600460005
1600563814
1600565980
1600581219
1600663350
1600768763
1600833822
1600904469
1601055359
1601317485
1601330284
1601503361
1601551862
1601685732
1601686334
1603070110
1603546517
1603603111
1604217627
1604325607
1604360929
1604363004
1604368668
1604454120
1604550259
1604552303
1604759560
1604765735
1604860332
1604874179
1604933796
1604978546
1604982789
1605031930
1605130859
1607452652
