800081196
800111156
800145726
800081196
800111156
800145726
800227105
800302941
800340959
800464395
800465758
800552425
800636707
800729800
800917439
800983590
801187629
801207946
801322424
801393932
801502092
801518015
801643805
801651096
801668978
801787691
