922002498
922006792
922009736
922010795
922010905
922011543
922015906
922016783
922018340
922023100
920003988
921007011
920003988
920010042
920012562
920017831
920026897
920033986
920039238
920077730
920079156
920087124
920091212
920092855
920095058
920095096
920114680
920128758
