710019758
710168605
710261852
710358729
710421581
710435170
710466456
710846005
710905403
710938811
710980834
711169149
711201734
711611099
711628097
711647443
711660435
711667529
711714447
711879769
711891772
711975875
712289993
712305182
712424099
712449207
712587833
712628500
712629233
712738356
713043808
713055769
713166420
713306886
713342287
713393943
713459865
713490730
