960109258
960135352
960238757
960383364
960495873
960540589
960573658
960768800
960770248
960882750
960970711
961134908
961163496
961207709
961323118
961530001
961556368
961826527
962189668
962231702
962361604
962368650
962422770
962522524
962551258
962565201
962677735
