1600000907
730623510
732120627
1600000907
1600025466
1600039354
1600041232
1600181234
1600337090
1600387757
1600459804
1600464968
1600557932
1600581375
1600687505
1600713809
1600758436
1600826757
1600856433
1600856622
1600893635
1600908087
1600953246
1601037969
1601039521
1601039574
1601096681
1601166198
1601193965
1601283744
1601307140
1601373686
1601445379
1601469100
1601529405
1601629575
1601659229
1601700612
1601724434
1601751289
1600000907
1600025466
1600039354
1600041232
1603067321
1603089724
1603176333
1603202290
1603220473
1603250003
1603259807
1603295356
1603489016
1603498983
1603503719
1603529741
1603547540
1603780734
1603844100
1604104368
1604112672
1604149531
1604161282
1604175465
1604181033
1604187741
1604227784
1604266303
1604377093
1604464329
1604472216
1604485877
1604485999
1604577596
1604601243
1604623836
1604637359
1604643986
1604682857
1604699121
1604761565
1604764259
1604787849
1604895787
1605059220
1605081925
1605112991
1605161040
1605181771
1605187823
1605199144
1605336164
1605445442
1605589814
1605596373
1605603383
1605630454
1605634800
1605761467
1605876156
1605887177
1605947889
1606107622
1606213177
1606228520
1606283197
1606318702
1606329754
1606353048
1606363151
1606508798
1606515173
1606594617
1606617240
1606660757
1606660890
1606690553
1606758646
1606802759
1606805615
1606853446
1606953631
1606965472
1607009897
1607053951
1607068537
1607111293
1607114714
1607118008
1607218251
1607248572
1607261163
1607265353
1607348110
1607362936
1607429231
1607480538
1607516287
1607545862
1607601539
1607605254
1607624290
1607698756
1607752607
1607758880
1607780117
1607808878
1607813753
1607913638
1608013769
1608019436
1608067681
1608086307
1608113165
1608148855
1608232140
1608251079
1608287522
1608306097
1608311485
1608323998
1608326076
1608381041
1608395733
1608462907
1608537395
1608575064
1608625346
1608715495
1608763457
1608784704
1608826453
1608828945
1608874275
1608884721
1608889511
1608890601
1608894853
1608970520
1609055686
1609173396
1609286390
1609341178
1609500704
1609523498
1609546385
1609547952
1609751541
1609822149
1609867058
1609879264
1609900368
1609907446
1609915917
1609958041
