710073336
710284944
710336709
710408667
710465301
710634243
710815971
711206394
711479478
711571641
711705522
711818996
711847720
712159588
712465223
712627243
712686083
713038585
713197356
713441000
