731037340
1600035382
1600124950
1600308045
1600518283
1600540555
1600665831
1600769630
1600769970
1600796927
1600858776
1601157662
1601383099
1601566124
1601617783
1603160171
1603263967
1603321921
1603334392
1603368143
1603429117
1603429846
1603437261
1603544930
1603583205
1603611192
1603717307
1603774935
1604119031
1604215847
1604286751
1604303712
1604831889
1604858573
1604891495
1604908803
1605025595
1605155910
1605166510
1605327462
1606877102
