731142113
730429127
1600008875
1600009306
1600027717
1600029685
1600033121
1600047173
1600052019
1600053300
1600053512
1600055100
1600055098
1600056871
1600077501
1600081619
1600091197
1600091594
1600096255
1600099897
1600105480
1600114844
1600130273
1600140541
1600140805
1600154526
1600155751
1600159670
1600162853
1600175892
1600188018
1600188012
1600195177
1600195953
1600200241
1600204181
1600204572
1600209932
1600224729
1600225486
1600235809
1600243946
1600256996
1600265137
1600265872
1600268129
1600268842
1600270558
1600271796
1600274594
1600286881
1600289179
1600291612
1600293464
1600298054
1600306147
1600323770
1600328769
1600333512
1600335020
1600340318
1600343864
1600349368
1600354415
1600363084
1600367380
1600387649
1600391488
1600402859
1600404107
1600405466
1600416070
1600416346
1600416842
1600424894
1600440351
1600441850
1600445712
1600459116
1600485880
1600491745
1600496319
1600503816
1600506849
1600507203
1600509175
1600514757
1600515366
1600517380
1600519297
1600520046
1600521675
1600526904
1600532348
1600533061
1600533519
1600533358
1600533735
1600537316
1600547526
1600562172
1600566931
1600572311
1600582715
1600586415
1600588453
1600595557
1600596600
1600609074
1600614946
1600620515
1600624333
1600629572
1600633036
1600635750
1600639446
1600647371
1600648006
1600648970
1600649647
1600659874
1600666174
1600667600
1600675781
1600682623
1600684195
1600701548
1600715006
1600717094
1600723943
1600729123
1600736509
1600743190
1600749376
1600766371
1600775554
1600789139
1600791371
1600799515
1600810938
1600815299
1600824156
1600825882
1600827850
1600828029
1600835509
1600835917
1600851597
1600863761
1600863523
1600868710
1600876601
1600895993
1600899153
1600899168
1600911987
1600912590
1600912950
1600914499
1600915477
1600919738
1600919935
1600929508
1600930562
1600950342
1600950643
1600961558
1600967299
1600971305
1600986139
1600988913
1600992397
1600992630
1600998506
1601003294
1601005367
1601005635
1601009096
1601013477
1601013646
1601016001
1601020085
1601020387
1601025800
1601028753
1601038446
1601041133
1601047661
1601052352
1601057092
1601058240
1601063202
1601080200
1601105873
1601121893
1601130210
1601133306
1601136735
1601138716
1601153014
1601153172
1601166650
1601186790
1601187046
1601196411
1601197355
1601204001
1601205089
1601207840
1601208281
1601216390
1601216994
1601227411
1601236582
1601260028
1601262777
1601263464
1601265548
1601266072
1601268114
1601270669
1601272434
1601273244
1601279845
1601289699
1601290998
1601295875
1601296333
1601299988
1601302672
1601305766
1601311950
1601324485
1601324776
1601330526
1601331387
1601333707
1601357916
1601379574
1601386375
1601388363
1601393369
1601397878
1601398455
1601404656
1601411808
1601412547
1601413247
1601428744
1601430279
1601444236
1601449185
1601453842
1601472211
1601474575
1601475944
1601479085
1601497814
1601498240
1601504835
1601517210
1601530583
1601531961
1601533187
1601537043
1601538368
1601551401
1601555345
1601556704
1601563450
1601566020
1601568285
1601568510
1601572275
1601573461
1601578296
1601581271
1601582946
1601585641
1601589665
1601590698
1601594520
1601595934
1601596302
1601601870
1601602050
1601612391
1601615300
1601616786
1601617992
1601617997
1601620764
1601620931
1601622285
1601626295
1601627213
1601634829
1601643764
1601643881
1601644971
1601648146
1601651086
1601656326
1601656730
1601658740
1601666364
1601674746
1601675245
1601676030
1601703901
1601710271
1601716863
1601724832
1601724994
1601731782
1601733959
1603065638
1603073418
1603077152
1603087534
1603094403
1603107453
1603113591
1603130190
1603132701
1603133119
1603134718
1603134921
1603146663
1603148198
1603150238
1603150944
1603159683
1603164286
1603172021
1603178468
1603181403
1603190927
1603206814
1603207444
1603217478
1603229688
1603231678
1603242281
1603247301
1603247294
1603254210
1603254302
1603254488
1603255677
1603260672
1603261856
1603265619
1603272894
1603285567
1603293330
1603293707
1603293180
1603294623
1603302924
1603320680
1603322969
1603324057
1603328055
1603333831
1603339725
1603342311
1603346282
1603354150
1603362809
1603366071
1603368661
1603371822
1603376991
1603378058
1603381159
1603382209
1603385923
1603388815
1603397955
1603400077
1603403629
1603409599
1603412452
1603414025
1603417918
1603423262
1603427220
1603428013
1603428112
1603432301
1603437740
1603441805
1603442271
1603445028
1603448278
1603454256
1603456035
1603458306
1603474503
1603475113
1603477217
1603479578
1603480508
1603481990
1603483065
1603488252
1603489122
1603490721
1603493243
1603497041
1603506117
1603508498
1603511882
1603517659
1603526719
1603530676
1603536047
1603552428
1603562546
1603562579
1603567173
1603571394
1603578009
1603578861
1603579036
1603582960
1603594716
1603604268
1603604658
1603606884
1603608582
1603611369
1603614883
1603616430
1603617289
1603617310
1603621527
1603628315
1603629582
1603644226
1603646182
1603647950
1603652691
1603660579
1603661814
1603673538
1603674784
1603679253
1603684340
1603710142
1603712112
1603723655
1603735012
1603737105
1603743345
1603750134
1603762204
1603768972
1603769814
1603775581
1603791430
1603904858
1603914640
1603920006
1603926770
1603933001
1603936940
1603939275
1603945999
1603949204
1603950392
1603954299
1603962093
1603968197
1603971478
1603980168
1603982429
1603984691
1603984929
1603988562
1603989004
1603993544
1604005099
1604011368
1604020863
1604023947
1604027252
1604028830
1604037693
1604053493
1604054809
1604054740
1604055073
1604061862
1604063785
1604067223
1604075542
1604075927
1604092737
1604101976
1604102221
1604105435
1604105663
1604107745
1604108874
1604112227
1604119395
1604122467
1604122585
1604124436
1604129158
1604133011
1604134752
1604139334
1604144734
1604159457
1604161202
1604165031
1604167036
1604168861
1604171102
1604171346
1604183981
1604187664
1604201927
1604202494
1604204229
1604205273
1604207972
1604228413
1604231555
1604234797
1604242543
1604246363
1604253329
1604255899
1604256939
1604258784
1604260778
1604272693
1604275659
1604287874
1604290529
1604302183
1604309571
1604310562
1604314543
1604315543
1604316615
1604317249
1604317566
1604328117
1604337742
1604339959
1604340353
1604346766
1604350787
1604353717
1604358418
1604377634
1604461027
1604469996
1604473798
1604481256
1604486592
1604498471
1604502990
1604506520
1604513245
1604514054
1604516235
1604517147
1604518155
1604520474
1604524255
1604526228
1604528303
1604528836
1604529925
1604532249
1604536693
1604546430
1604547577
1604555982
1604559610
1604583764
1604585922
1604589252
1604601567
1604608241
1604609820
1604610084
1604610438
1604614562
1604615069
1604633346
1604634358
1604637490
1604655851
1604660594
1604672740
1604684815
1604686165
1604689909
1604694147
1604705100
1604708313
1604721962
1604733972
1604741965
1604748422
1604755668
1604766703
1604774278
1604776867
1604784501
1604788407
1604791024
1604792336
1604798152
1604798547
1604803409
1604813506
1604826127
1604833481
1604838225
1604839734
1604839850
1604845208
1604849302
1604852543
1604860263
1604864402
1604869460
1604870280
1604875398
1604888408
1604894958
1604900828
1604902766
1604904510
1604912701
1604915335
1604917191
1604925110
1604928558
1604930762
1604934902
1604935102
1604941039
1604947199
1604948173
1604965627
1604971995
1604976566
1604993132
1604998157
1605002724
1605003789
1605003650
1605017016
1605022181
1605025501
1605032151
1605034580
1605064391
1605065380
1605066664
1605077797
1605081006
1605082623
1605082791
1605085021
1605088735
1605095525
1605096325
1605110091
1605116497
1605141847
1605142117
1605142803
1605144270
1605146220
1605148563
1605149076
1605158803
1605172068
1605174755
1605180614
1605185482
1605184795
1605188143
1605192526
1605197485
1605197982
1605212422
1605216583
1605280341
1605307420
1605312482
1605330249
1605333376
1605354051
1605508366
1605538741
1605618781
1605710771
1605823504
1605885135
1605905538
1606024614
1606213900
1606282083
1606327020
1606333949
1606363269
1606441576
1606456771
1606476439
1606749398
1606758480
1606869870
1607439182
1607456324
1607521141
1607672505
1607763867
1607882222
1607922737
1607936111
1608001527
1608053025
1608403567
1608686477
1608717575
1608759570
1608877429
1608878180
1609002874
1609106802
1609119238
1609314475
1609768089
1609770348
1609779425
1609909811
1609912399
1609968457
1609984929
