960039244
960067117
960074368
960074540
960095165
960103156
960120312
960208084
960227007
960277323
960293505
960325936
960330965
960363709
960388349
960412081
960415701
960460886
960492848
960508507
960515911
960540773
960543518
960546170
960591117
960601888
960623937
960626829
960664287
960665175
960676765
960689701
960709448
960726718
960774518
960796159
960800300
960808679
960812081
960832623
960850727
960855167
960868032
960887026
960897158
960901982
960909563
960933986
960939417
960947296
960957748
960960605
960993802
960996979
960998659
961013926
961019236
961022488
961040748
961051579
961052801
961077523
961081279
961092517
961094568
961099586
961101148
961105245
961107871
961108539
961115993
961129449
961151413
961159491
961160350
961162210
961168384
961176940
961181883
961190089
961195687
961259121
961259903
961275538
961300101
961307424
961307954
961314428
961329931
961353637
961368721
961373522
961420252
961482381
961489745
961492954
961539827
961570120
961573565
961594971
961600340
961621308
961622526
961630497
961641850
961651358
961659574
961659614
961660819
961680094
961680726
961699074
961701261
961710230
961735093
961753955
961762434
961796433
961805980
961841184
961842363
961849952
961874738
961885074
961920609
961932809
961981040
962029728
962063315
962079698
962093806
962120322
962136406
962144518
962167121
962190872
962233703
962328109
962365192
962370783
962383098
962419874
962462031
962479986
962485292
962488482
962496679
962518768
962531075
962549186
962569701
962586465
962593407
962607046
962614435
962625286
962647773
962660803
962688592
962695672
962698608
962701132
962723684
962726310
962767889
962768485
