730051133
731135407
731178084
730436613
730529129
730546057
731969574
732129326
1600008912
1600010940
1600020398
1600028260
1600031026
1600034543
1600034897
1600035368
1600036945
1600037273
1600047991
1600069330
1600083828
1600093579
1600097397
1600100040
1600106969
1600111934
1600114131
1600121967
1600125223
1600129716
1600139357
1600152554
1600154838
1600167424
1600170879
1600172684
1600182726
1600200667
1600201679
1600201732
1600206601
1600226135
1600232336
1600232853
1600253443
1600268372
1600271717
1600273236
1600282498
1600284650
1600286383
1600287561
1600298274
1600303464
1600307616
1600321646
1600322768
1600323016
1600323074
1600340777
1600358694
1600369647
1600371519
1600372350
1600379032
1600381719
1600412376
1600418026
1600448654
1600459981
1600465300
1600479047
1600479193
1600529111
1600537656
1600544939
1600545451
1600547449
1600551234
1600557924
1600564384
1600580062
1600582648
1600584201
1600596062
1600597324
1600605008
1600612753
1600621982
1600630326
1600634768
1600646388
1600659800
1600679712
1600681299
1600682926
1600683399
1600694287
1600695851
1600696632
1600708955
1600711316
1600712961
1600719618
1600728443
1600729332
1600745039
1600750882
1600758671
1600764755
1600791688
1600807237
1600813892
1600815772
1600816454
1600819716
1600820332
1600833668
1600846987
1600848690
1600861776
1600878910
1600880739
1600887221
1600909221
1600918498
1600933904
1600953497
1600963788
1600966680
1600985691
1600986021
1600989609
1600990710
1601001125
1601002816
1601011057
1601012794
1601025336
1601035746
1601045905
1601055286
1601077799
1601084746
1601098318
1601113202
1601115543
1601120445
1601127735
1601129155
1601144768
1601145667
1601149131
1601181254
1601191035
1601193709
1601199843
1601201599
1601212648
1601217417
1601219082
1601221866
1601226551
1601246158
1601246671
1601268460
1601289837
1601289866
1601303337
1601319593
1601338910
1601338971
1601347043
1601352083
1601356410
1601372799
1601373699
1601377762
1601381181
1601384294
1601386466
1601396885
1601397485
1601403478
1601404581
1601411526
1601427493
1601431689
1601434304
1601451168
1601451964
1601454423
1601460631
1601470686
1601472258
1601472678
1601474058
1601483827
1601485578
1601491019
1601493857
1601495897
1601498647
1601501606
1601511761
1601518312
1601526655
1601529444
1601534558
1601556891
1601571826
1601612172
1601615233
1601616154
1601617824
1601626366
1601627703
1601635866
1601640251
1601648003
1601649770
1601650589
1601652503
1601658458
1601672664
1601674404
1601685202
1601690049
1601699462
1601712257
1601730593
1601732424
1603078766
1603104747
1603107051
1603133975
1603139349
1603140129
1603144920
1603146669
1603156062
1603162558
1603173534
1603174651
1603182681
1603189531
1603218863
1603219143
1603228995
1603233034
1603242945
1603245525
1603252265
1603252995
1603255036
1603268427
1603270316
1603273737
1603280286
1603287487
1603297752
1603301746
1603309024
1603323485
1603328852
1603335333
1603341072
1603350696
1603383142
1603388097
1603394779
1603395423
1603413003
1603429291
1603429752
1603438611
1603443049
1603443353
1603446413
1603448845
1603453313
1603484723
1603501136
1603524109
1603568760
1603568782
1603591986
1603603794
1603608488
1603610837
1603618207
1603620750
1603634847
1603635796
1603676800
1603681771
1603683567
1603684426
1603688088
1603695672
1603720557
1603723777
1603730379
1603730990
1603733036
1603741302
1603751537
1603754509
1603756245
1603764438
1603765591
1603769132
1603769685
1603775040
1603779695
1603781034
1603788187
1603789712
1603905196
1603906256
1603911752
1603924117
1603931997
1603941573
1603952551
1603960520
1603968550
1603971257
1603975640
1603998938
1604001478
1604017915
1604021532
1604022061
1604031407
1604032173
1604044577
1604047851
1604073308
1604078002
1604105879
1604112797
1604116179
1604123001
1604123560
1604126025
1604127780
1604128132
1604170077
1604183189
1604185887
1604203000
1604207427
1604214817
1604222936
1604234057
1604236885
1604238836
1604243161
1604243646
1604249152
1604254913
1604261140
1604262149
1604287727
1604300901
1604304579
1604312487
1604315120
1604319975
1604348417
1604370228
1604377106
1604378967
1604382368
1604426861
1604448227
1604470652
1604476077
1604489311
1604489588
1604493441
1604495701
1604499749
1604504369
1604505549
1604505756
1604508931
1604509858
1604516953
1604535103
1604541619
1604552054
1604553377
1604574783
1604590035
1604590546
1604595002
1604606481
1604611445
1604614360
1604625342
1604629775
1604618887
1604637614
1604642729
1604656025
1604660335
1604666314
1604676072
1604688013
1604691797
1604695186
1604698122
1604705260
1604708539
1604718418
1604729875
1604733240
1604737824
1604755823
1604763679
1604769976
1604778491
1604786426
1604797271
1604800765
1604812665
1604822645
1604824772
1604829419
1604841820
1604841965
1604847859
1604850886
1604858518
1604863093
1604880724
1604903501
1604906409
1604913242
1604916343
1604924202
1604935923
1604944079
1604961743
1604967729
1604973718
1604980234
1604980641
1604990531
1605006916
1605009028
1605011882
1605019577
1605042601
1605050260
1605052636
1605061891
1605071848
1605073484
1605088624
1605091018
1605094259
1605095610
1605104127
1605115905
1605120912
1605142429
1605144161
1605164732
1605168532
1605169530
1605174529
1605176201
1605179717
1605187238
1605198881
1605317250
1605340636
1605345728
1605523999
1605627349
1606024578
1606402425
1606850093
1606896166
1606909821
1607512475
1607605340
1608817384
1609003306
1609152152
1609381730
1609430385
1609490774
1609590400
