1600076272
1600181531
1600533880
1600604956
1600630016
1600803407
1600824271
1601153590
1601212897
1601222925
1601413811
1601464788
1601558617
1603081191
1603138466
1603159382
1603314959
1603449088
1603496322
1603688396
1603964882
1604221962
1604521672
1604585791
1604717663
1604875064
1604957420
1605141775
1605161597
1605301852
1605326383
