800023890
800041254
800068441
800081207
801051482
800115213
800121666
801068878
801071424
800149982
801095135
801100176
800023890
800041254
800068441
800081207
800115213
800121666
800149982
800179329
800249874
800262459
800274314
800402890
800495998
800576912
800597849
800609116
800654248
800680021
800705756
800733450
800767730
800802669
800862672
800887368
800896780
800910469
800961101
801051482
801068878
801095135
801100176
801160194
801187009
801277952
801291475
801321748
801453190
801468750
801480319
801494657
801536114
801542606
801555892
801623574
801626806
801648526
801663767
801682696
801741665
801794739
