710073820
710127984
710162754
710171194
710186415
710192278
710357258
710380286
710482761
710508841
710560501
710667049
710682721
710690559
710690559
710729164
710762485
710769778
710834144
710835804
710968278
710999193
711017707
711057803
711059917
711094224
711105832
711232873
711281288
711343871
711345496
711369129
711375323
711390730
711503563
711506574
711506950
711687973
711697886
711706765
711742088
711746323
711786202
711803444
711813664
711876672
711882284
711898386
711903912
712054395
712057025
712158294
712297271
712297193
712312592
712333987
712371700
712492634
712535365
712555308
712563065
712593789
712630271
712949128
712955238
712987495
713005124
713038086
713160297
713186652
713247354
713252547
713254867
713264012
713299603
713336589
713381824
713404329
713419303
713432773
713456289
