731578273
731865970
730757025
1600012058
1600030026
1600050962
1600051508
1600052138
1600106468
1600126263
1600171597
1600177887
1600187807
1600196172
1600199943
1600207864
1600225235
1600233387
1600263701
1600279009
1600292757
1600329349
1600368034
1600390029
1600411968
1600481444
1600509026
1600512487
1600514237
1600519672
1600560168
1600571839
1600572602
1600580747
1600595636
1600606168
1600612678
1600632583
1600650731
1600653871
1600677671
1600682331
1600687805
1600702321
1600703180
1600711598
1600716692
1600726354
1600726610
1600735363
1600765546
1600780045
1600800840
1600812866
1600824673
1600836796
1600851705
1600864583
1600882718
1600919389
1600928459
1600993758
1601047025
1601066130
1601093224
1601094374
1601154806
1601159488
1601160219
1601168415
1601210611
1601216821
1601224881
1601249108
1601254548
1601273998
1601290442
1601359863
1601371444
1601471078
1601473697
1601517227
1601527584
1601552618
1601579253
1601587748
1601649248
1601652028
1601652163
1601652173
1601656377
1601657079
1601690604
1601724443
1601724921
1601739529
1601749808
1600012058
1600030026
1600050962
1600051508
1600052138
1600106468
1603076591
1603088561
1603103632
1603116390
1603128684
1603129978
1603131676
1603137034
1603144145
1603149638
1603168240
1603179655
1603201865
1603210977
1603216366
1603235861
1603247634
1603258867
1603296691
1603299182
1603365921
1603388274
1603418783
1603433091
1603439906
1603446006
1603458360
1603487444
1603488986
1603562601
1603577618
1603640954
1603641728
1603650921
1603652049
1603665514
1603670168
1603670747
1603691128
1603713824
1603715189
1603718993
1603729114
1603733789
1603737838
1603750655
1603755707
1603758442
1603776817
1603802430
1603821676
1603891882
1603900243
1603910586
1603925494
1603930435
1603945498
1603972118
1603988198
1604028295
1604051640
1604078445
1604091562
1604103341
1604153587
1604158350
1604164521
1604190733
1604216750
1604216886
1604221691
1604222466
1604239612
1604251012
1604283562
1604293937
1604300754
1604302798
1604308259
1604317555
1604331643
1604335236
1604363253
1604406055
1604412150
1604420429
1604422500
1604434449
1604434534
1604443399
1604459533
1604463469
1604489804
1604509937
1604564100
1604577052
1604598853
1604609081
1604626988
1604637882
1604703150
1604717717
1604723867
1604741672
1604770869
1604771546
1604773976
1604775842
1604792688
1604803336
1604809697
1604835225
1604837177
1604870229
1604888047
1604909288
1604914775
1605006073
1605017079
1605027611
1605043977
1605046694
1605052607
1605055859
1605066078
1605085102
1605109207
1605137381
1605203973
1605219168
1605221379
1605243567
1605253170
1605290140
1605299455
1605321447
1605330090
1605345521
1605365823
1605369716
1605376772
1605382751
1605388352
1605389481
1605397408
1605410445
1605429939
1605440995
1605445570
1605447110
1605455533
1605464978
1605465132
1605475700
1605476394
1605501267
1605522477
1605526953
1605537178
1605562386
1605580694
1605592406
1605605853
1605607542
1605665657
1605669216
1605676682
1605680000
1605682440
1605704574
1605710983
1605717131
1605737744
1605761936
1605783281
1605784967
1605789304
1605804047
1605807555
1605812824
1605820789
1605863985
1605899772
1605900010
1605908673
1605923207
1605926056
1605928530
1605940561
1605942121
1605951177
1605957333
1605984937
1606063909
1606075723
1606076816
1606080268
1606084748
1606100222
1606100376
1606112628
1606123809
1606147145
1606159762
1606199401
1606202585
1606209835
1606227482
1606285786
1606300585
1606363400
1606382476
1606383331
1606411799
1606416110
1606421815
1606474179
1606483190
1606536201
1606538153
1606542114
1606578590
1606579141
1606591384
1606600141
1606607704
1606643573
1606668009
1606691418
1606721871
1606723766
1606731774
1606739928
1606743945
1606757083
1606766842
1606780795
1606786972
1606829319
1606832442
1606836632
1606846184
1606860083
1606881020
1606882445
1606889714
1606916262
1606920633
1606944496
1606951113
1606974781
1606997314
1607002029
1607046689
1607063033
1607088254
1607094691
1607102980
1607105124
1607124683
1607125796
1607128136
1607158597
1607168557
1607177136
1607184489
1607187391
1607193665
1607210519
1607230344
1607231101
1607244346
1607278439
1607283368
1607283914
1607310233
1607343407
1607357514
1607374812
1607397509
1607404172
1607410485
1607412958
1607447396
1607458135
1607460120
1607470566
1607480480
1607541694
1607553554
1607555933
1607562729
1607565456
1607586330
1607631874
1607689558
1607693054
1607699797
1607729166
1607737878
1607753475
1607784569
1607787498
1607788754
1607806368
1607814120
1607851116
1607857708
1607875273
1607907914
1607936428
1607972582
1607996907
1608005370
1608006197
1608069737
1608075533
1608076277
1608146458
1608180617
1608204311
1608205042
1608253872
1608264201
1608266423
1608267895
1608277378
1608311505
1608368664
1608430184
1608468882
1608478907
1608488331
1608491097
1608501118
1608599427
1608629717
1608631512
1608637908
1608647326
1608649552
1608661374
1608664553
1608687891
1608687969
1608721197
1608743282
1608743793
1608756803
1608758209
1608810257
1608810936
1608846125
1608896919
1608923787
1608927989
1608960201
1608961424
1608966900
1609022765
1609028409
1609034907
1609054019
1609066405
1609076546
1609080651
1609146800
1609168844
1609170207
1609176001
1609184014
1609326233
1609337689
1609347688
1609377842
1609389216
1609415115
1609452988
1609453860
1609461535
1609476568
1609590409
1609622453
1609720488
1609728142
1609728184
1609728305
1609747484
1609764447
1609773746
1609774956
1609798108
1609809284
1609818830
1609819686
1609829585
1609850814
1609851357
1609851810
1609876367
1609924920
1609934824
1609944518
1609949219
1609970923
1609986716
1609990172
1609991689
