730006072
730007547
730021967
730023667
730024175
730025021
730025610
730030177
730036847
730050742
730050721
730053354
730055207
730007547
730030177
730036847
730050721
730050742
730053354
730062484
730066160
730089619
730091197
730092018
731025875
731028096
731031330
730095814
731037509
730101260
730104109
731044228
730108607
730108972
731049135
730117373
731061886
731067304
731071855
731072779
731083333
731098788
731104471
730170577
731107204
730173949
731113040
730180832
730186015
730196373
731138665
731150801
731157973
730226307
730227873
731160619
730231340
730236091
731173592
731185787
730264396
731194643
730283668
730289429
730292614
730299769
730302145
731230387
730305244
731233095
731234324
730308691
731236928
731249534
731252030
730329751
731260463
731268162
731268884
731269653
731536915
731545486
730407156
731548981
731558744
731562394
730424300
731563532
730431272
730436252
731576648
730438556
730447100
730452749
731598457
731600869
730467290
731615400
730479881
730481318
730492709
730494391
731640341
731641483
731642743
731646378
731655020
731656045
730515387
731685984
731691052
731700780
731705503
731712605
731716897
730526647
731718611
730531510
731739441
731741129
730553571
731758228
731758479
730576257
730581717
731777342
731789395
730602972
731799440
730605654
731803042
731806476
730615977
731818380
731819471
730625356
731824356
731826712
730632352
730641790
731841994
731842336
730655145
731855170
731858743
731885558
730689960
730690290
731887915
730693972
730694945
731895214
731905195
731921299
731922414
731931221
731938775
731941482
731957167
731961120
731965863
731972656
730717540
730718280
730722625
730724009
732019606
732024095
732026865
732028955
730734158
730734441
730735979
732034014
732039731
730748754
732044784
732053885
730763357
732063897
730772318
730772649
732067531
730773720
730779804
730780175
732075275
732083879
730794318
732092855
732114375
732119546
732121798
732128190
730833272
1600031784
1600047107
1600169984
1600203564
1600208326
1600285246
1600288778
1600295290
1600379097
1600413952
1600439129
1600444188
1600447344
1600478086
1600665539
1600668799
1600743549
1600771072
1600884498
1600930465
1600948366
1601023845
1601053613
1601093777
1601133684
1601145835
1601177395
1601212250
1601212513
1601244142
1601351975
1601399548
1601656484
1601668607
1601689396
1603162017
1603187034
1603281863
1603303568
1603331470
1603341277
1603349564
1603356014
1603487413
1603544177
1603550340
1603559684
1603582443
1603613896
1603623852
1603668744
1603704263
1603769317
1603885702
1603947515
1604021778
1604058829
1604147382
1604201878
1604212641
1604243375
1604260162
1604321274
1604326003
1604503027
1604571572
1604650618
1604701387
1604754932
1604889412
1604893529
1604937000
1605056284
1605064000
1605168277
1605189204
1605200544
1605329246
1605725527
1605991511
1608571819
1608647047
1609047482
