730037044
731023596
731057273
730131937
730157899
731127008
730201894
730300634
730512185
730532082
730563898
731802928
730623070
730634750
730650911
731918491
1600447857
1600603119
1600905815
1600913195
1600952461
1603370450
1603535086
1603561597
1603570199
1603727925
1604176725
1604323735
1604806131
1604907929
1604996480
1605519420
1605904214
1606471297
1606578477
1606994775
1607248200
1607342137
1607391245
1607425626
1607575589
1607890680
1608062484
1608202991
1608254742
1608402683
1608569014
1609056148
1609207081
1609247151
1609584639
1609625715
1609636945
1609890461
