710002288
710136798
710182817
710250857
710355646
710420533
710614936
710644978
710659619
710923175
711005746
711084838
711097451
711133479
711219030
711264645
711283128
711464185
711608096
711615733
711693982
711721700
711771914
711969646
711973876
712057876
712194340
712352768
712373960
712608271
712648815
712683437
712881468
712935424
712964289
712971270
712987155
713082156
713100304
713147063
713203741
713228129
713286434
713298643
713311423
713339742
713380857
713385305
713509342
713520065
