730000488
730009051
730015813
730022202
730026330
730043275
1600000126
1600000126
1600001012
1600001102
1600001102
1600001240
1600001284
1600001284
1600001284
1600001389
1600001284
1600001862
1600001678
1600001678
1600001729
1600001790
1600001790
1600001790
1600002528
1600003491
1600003856
1600004181
1600004181
1600004181
1600004181
1600005636
1600005813
1600005800
1600006622
1600006622
730060032
730000488
730043275
730060032
730089117
731027626
731035640
730103747
731056214
731058803
730128841
730139300
730144681
730150343
730151156
730151352
730167600
730169221
730185791
730188205
730188503
731127937
730199797
730210517
730220859
730221027
730222498
730238185
730245598
731180160
730252691
730256955
731195176
730270066
730276431
730281244
731222387
731223700
731225097
730299467
730300903
731231064
731237868
730334600
730339264
731265575
730343770
730344073
731277248
730403273
731555254
731560508
731568133
731576506
731581481
730450226
730451317
731599105
730460450
731602776
730464560
731607504
731608377
731609279
731613239
730477555
730478508
730483230
730484929
731626383
731628140
731634778
730496061
731650701
730509665
730514644
730521745
731666219
731672913
731677605
731683859
731693597
731694252
731698959
731701983
731705294
731707442
730527622
731722543
731722246
730537741
731732005
730540607
730542224
731746757
731750177
730559576
731756264
731777404
731787217
731788639
730601482
730604211
731802756
730612342
731812695
731815929
730629958
731829555
731829921
731831397
731831773
731840115
730653216
730653597
730654799
731857472
730675551
730677879
730683077
731880712
731889789
730694201
731891211
730697910
731918488
731921120
731926243
731933342
731954578
731968176
731969628
731978204
731984508
731998896
730714316
732028028
732035059
732036241
730750845
732064302
730772507
730773977
732079127
730788922
732102825
730808116
730811279
732120157
730834324
1600000126
1600001012
1600001240
1600001284
1600001678
1600001729
1600001862
1600002528
1600003491
1600003856
1600004181
1600005636
1600005800
1600006622
1600007695
1600009037
1600012247
1600012374
1600012851
1600014838
1600015662
1600015708
1600016672
1600016744
1600017046
1600020171
1600020661
1600021465
1600021492
1600021963
1600021963
1600022065
1600022302
1600024071
1600025133
1600026000
1600026715
1600027448
1600028885
1600030373
1600032092
1600032490
1600034115
1600034332
1600034624
1600036583
1600037085
1600037367
1600037367
1600039106
1600041050
1600041361
1600041921
1600043150
1600043896
1600044102
1600045895
1600046202
1600046686
1600048257
1600049052
1600048991
1600049202
1600050080
1600051148
1600052374
1600052974
1600053978
1600054735
1600056248
1600057531
1600057728
1600058090
1600058526
1600058767
1600059509
1600060183
1600061134
1600065103
1600065892
1600068165
1600068309
1600068545
1600068676
1600068678
1600070555
1600071570
1600075071
1600075189
1600080225
1600081196
1600081561
1600081761
1600082830
1600082977
1600083820
1600084110
1600084626
1600085305
1600085484
1600085711
1600085783
1600086195
1600088514
1600090655
1600092192
1600092409
1600093272
1600095693
1600095913
1600096639
1600097814
1600098594
1600099111
1600100887
1600101158
1600101289
1600101734
1600103471
1600103688
1600104206
1600109828
1600109846
1600110178
1600110420
1600110813
1600111077
1600112773
1600114136
1600114335
1600114887
1600115041
1600115458
1600115840
1600116221
1600117144
1600118255
1600118931
1600120482
1600121998
1600122410
1600122497
1600122928
1600123649
1600125736
1600127452
1600127488
1600128188
1600131662
1600132926
1600133970
1600134373
1600134626
1600135996
1600136900
1600137691
1600137792
1600139346
1600139624
1600139939
1600141538
1600141993
1600141552
1600142834
1600143248
1600143513
1600143811
1600143971
1600145382
1600146522
1600147066
1600147117
1600147239
1600148760
1600149039
1600151692
1600153349
1600153628
1600155055
1600156042
1600156870
1600156976
1600157026
1600157572
1600160514
1600160632
1600161198
1600161818
1600162024
1600163077
1600163424
1600164887
1600165066
1600165479
1600165499
1600166401
1600169089
1600169355
1600169584
1600170052
1600173081
1600173124
1600175218
1600176781
1600177431
1600178699
1600182617
1600184283
1600184900
1600186036
1600186291
1600186849
1600188108
1600190016
1600190340
1600191599
1600191615
1600192972
1600194228
1600194604
1600194827
1600195801
1600196426
1600197377
1600198515
1600198566
1600199079
1600199122
1600199646
1600199727
1600203050
1600203809
1600205050
1600206316
1600206798
1600207834
1600207910
1600208638
1600209384
1600213022
1600214230
1600216968
1600217637
1600217660
1600218986
1600220084
1600220345
1600221882
1600222503
1600222960
1600222972
1600224083
1600224300
1600224455
1600224463
1600224751
1600225563
1600226206
1600226614
1600227171
1600227129
1600228700
1600229011
1600230140
1600230443
1600230549
1600232495
1600232236
1600232997
1600234190
1600235737
1600236219
1600237714
1600237832
1600237836
1600239528
1600239574
1600240016
1600240049
1600240139
1600240275
1600242517
1600243558
1600243772
1600243928
1600244660
1600245126
1600245177
1600245556
1600245819
1600246478
1600246814
1600246952
1600248260
1600248558
1600255180
1600255636
1600256771
1600257539
1600257604
1600259684
1600261410
1600261672
1600261812
1600262129
1600265380
1600266157
1600267159
1600268665
1600270819
1600272264
1600272287
1600274189
1600274409
1600275523
1600276134
1600276268
1600276748
1600277248
1600277065
1600278750
1600279030
1600279664
1600280598
1600281346
1600281409
1600282225
1600282995
1600283694
1600284615
1600284662
1600284931
1600286666
1600286955
1600287518
1600288851
1600289571
1600289934
1600290065
1600290315
1600290458
1600290901
1600291574
1600293123
1600293585
1600293693
1600293878
1600294320
1600294602
1600296538
1600298737
1600301877
1600302539
1600302671
1600304730
1600304879
1600308430
1600309403
1600313415
1600313590
1600314674
1600315050
1600315109
1600315450
1600315937
1600317417
1600317875
1600319123
1600320658
1600323427
1600323455
1600325436
1600325426
1600325924
1600326853
1600327039
1600327780
1600328966
1600329432
1600331877
1600333583
1600334482
1600335406
1600336499
1600337582
1600339718
1600339755
1600340600
1600341500
1600342584
1600342840
1600343775
1600344038
1600344211
1600344563
1600344945
1600347177
1600347982
1600349719
1600350318
1600350630
1600350696
1600351377
1600352849
1600353956
1600354155
1600357234
1600359145
1600359489
1600359430
1600360115
1600361279
1600361318
1600361539
1600362043
1600362002
1600362241
1600364986
1600366305
1600367580
1600369564
1600369650
1600369815
1600370499
1600371216
1600372404
1600372356
1600375552
1600377558
1600378842
1600379920
1600382003
1600384137
1600385850
1600386551
1600387953
1600388060
1600388558
1600389403
1600390047
1600390305
1600390710
1600391049
1600392672
1600393819
1600394381
1600394888
1600397604
1600397599
1600398952
1600399512
1600400056
1600402742
1600402734
1600402852
1600403844
1600404973
1600405123
1600405160
1600405463
1600405792
1600405964
1600406599
1600407504
1600407897
1600408216
1600408962
1600409696
1600410333
1600412329
1600412536
1600412711
1600414779
1600415624
1600415796
1600416329
1600416259
1600416590
1600417056
1600416613
1600417623
1600417541
1600420767
1600422459
1600422629
1600422982
1600423835
1600423905
1600425215
1600425412
1600425912
1600426735
1600426840
1600426987
1600427220
1600427488
1600427781
1600428567
1600429285
1600429560
1600430041
1600430213
1600431084
1600431326
1600431448
1600431928
1600432470
1600432445
1600433041
1600433505
1600434763
1600434808
1600436443
1600436826
1600437273
1600437330
1600438798
1600440105
1600440379
1600441717
1600442125
1600442145
1600443899
1600444429
1600444896
1600444892
1600446235
1600446385
1600447223
1600447771
1600450400
1600454297
1600454372
1600456625
1600456583
1600457525
1600458378
1600458898
1600459077
1600459220
1600462090
1600464172
1600464849
1600464839
1600466337
1600467040
1600467262
1600467683
1600469891
1600470267
1600472617
1600473001
1600473389
1600473661
1600474497
1600476162
1600476461
1600476663
1600477110
1600478250
1600478790
1600479719
1600483748
1600486724
1600487320
1600487856
1600488165
1600488213
1600490571
1600490887
1600492788
1600494314
1600494812
1600495567
1600495708
1600496894
1600497722
1600498935
1600500146
1600500305
1600500511
1600500603
1600501601
1600502406
1600502767
1600504063
1600505874
1600506920
1600507229
1600507381
1600507892
1600508073
1600509936
1600509934
1600513133
1600513433
1600513579
1600514489
1600514812
1600515566
1600515953
1600516915
1600518115
1600518124
1600519883
1600520692
1600521280
1600521492
1600522688
1600523540
1600526941
1600526876
1600528058
1600527919
1600528766
1600528998
1600531586
1600532264
1600532182
1600532943
1600533214
1600535111
1600535731
1600536172
1600536563
1600537273
1600537347
1600537395
1600537648
1600538485
1600538677
1600539295
1600539557
1600539554
1600540280
1600543429
1600544398
1600544407
1600544834
1600545762
1600546060
1600546934
1600547005
1600549078
1600549095
1600549654
1600549495
1600550326
1600550706
1600550653
1600550812
1600551195
1600551883
1600551954
1600552857
1600552979
1600554176
1600554993
1600556474
1600558170
1600559387
1600559809
1600561414
1600562868
1600564142
1600564604
1600564915
1600565824
1600565873
1600567446
1600567600
1600568048
1600568053
1600569750
1600572715
1600573508
1600574739
1600574616
1600574667
1600574800
1600575526
1600575609
1600576054
1600577024
1600577281
1600578663
1600579106
1600579453
1600579921
1600580348
1600580917
1600581137
1600582595
1600584654
1600585378
1600586938
1600587701
1600588254
1600588955
1600589439
1600589674
1600590205
1600592966
1600593417
1600593797
1600595799
1600596924
1600597387
1600599343
1600602660
1600603910
1600605125
1600606508
1600606967
1600609333
1600610034
1600610101
1600610955
1600611317
1600612132
1600612518
1600613499
1600615436
1600615757
1600617113
1600617693
1600618112
1600618566
1600620797
1600621866
1600621872
1600622524
1600623230
1600625598
1600626311
1600627042
1600629817
1600630057
1600630838
1600632174
1600633547
1600633735
1600636989
1600638102
1600638240
1600638714
1600639416
1600639658
1600639852
1600640444
1600640688
1600641362
1600642580
1600642919
1600644112
1600645149
1600646595
1600646715
1600647808
1600647905
1600649749
1600650494
1600651729
1600651815
1600652303
1600652677
1600653399
1600653849
1600653894
1600657168
1600659638
1600660248
1600660388
1600661363
1600662318
1600663134
1600663359
1600666869
1600667975
1600668487
1600670161
1600671923
1600672513
1600673368
1600673898
1600674201
1600674692
1600677398
1600677488
1600678727
1600678858
1600679679
1600681408
1600683815
1600684349
1600685969
1600688641
1600689246
1600689356
1600690655
1600690780
1600690797
1600692269
1600693800
1600694433
1600694293
1600694701
1600694953
1600695969
1600698245
1600698842
1600699644
1600699776
1600701992
1600702686
1600703044
1600703403
1600704263
1600705827
1600706061
1600708243
1600711242
1600711332
1600711804
1600713561
1600713645
1600715144
1600715462
1600715717
1600716883
1600717856
1600717948
1600718308
1600719328
1600719446
1600719483
1600721984
1600722561
1600724168
1600731249
1600732595
1600733967
1600734014
1600734041
1600736741
1600737916
1600739077
1600739313
1600742072
1600742923
1600743392
1600743869
1600744339
1600745379
1600746006
1600746711
1600747630
1600747868
1600752339
1600754252
1600756260
1600756502
1600759199
1600761184
1600761255
1600761773
1600762634
1600762656
1600768344
1600769448
1600769955
1600770536
1600772690
1600774229
1600776569
1600776881
1600777295
1600779111
1600780085
1600781157
1600782811
1600784902
1600787162
1600787852
1600788385
1600789245
1600789952
1600791540
1600791599
1600793567
1600796420
1600798847
1600799638
1600800939
1600802866
1600802946
1600804104
1600804813
1600805102
1600806093
1600806335
1600798721
1600808177
1600808235
1600810847
1600812345
1600812989
1600813036
1600813314
1600813420
1600814315
1600814695
1600814939
1600815786
1600816932
1600817094
1600819740
1600823318
1600824733
1600826785
1600827495
1600828563
1600830707
1600832943
1600832847
1600835552
1600835575
1600837119
1600837413
1600837559
1600837599
1600839055
1600839294
1600839899
1600843755
1600844631
1600844713
1600846064
1600847768
1600847756
1600848424
1600849417
1600851331
1600852164
1600854788
1600855880
1600856362
1600857034
1600858633
1600859230
1600859228
1600859316
1600859412
1600859956
1600862531
1600863075
1600863223
1600866920
1600867636
1600868164
1600869314
1600870394
1600871139
1600871339
1600871706
1600872324
1600872780
1600873113
1600873387
1600873981
1600877116
1600877489
1600877571
1600878487
1600880725
1600882212
1600883198
1600883986
1600885532
1600885560
1600886072
1600886284
1600886675
1600887007
1600888465
1600889016
1600889346
1600890840
1600891230
1600892992
1600893031
1600895053
1600895762
1600895929
1600895762
1600896175
1600896197
1600896307
1600897013
1600897397
1600897486
1600899195
1600899287
1600900370
1600900810
1600901030
1600901111
1600904243
1600904166
1600905693
1600906137
1600906306
1600906576
1600906818
1600909270
1600909854
1600910182
1600910738
1600912441
1600912591
1600914211
1600915131
1600915573
1600915931
1600918321
1600918737
1600918925
1600918878
1600919416
1600919549
1600920050
1600920635
1600921408
1600923141
1600924243
1600924963
1600924878
1600926040
1600926236
1600926934
1600927126
1600927617
1600927660
1600928048
1600928111
1600929748
1600930194
1600931078
1600931402
1600932286
1600934001
1600934824
1600938192
1600939255
1600939539
1600939594
1600939802
1600940511
1600940511
1600941044
1600941897
1600943000
1600944244
1600946310
1600947501
1600947556
1600950974
1600951152
1600951430
1600951464
1600951728
1600953599
1600953917
1600955716
1600955948
1600957632
1600958029
1600960003
1600962453
1600963432
1600964094
1600964341
1600964725
1600966208
1600966883
1600966922
1600967150
1600967652
1600970144
1600970785
1600971498
1600971833
1600977047
1600977126
1600977985
1600978672
1600979009
1600979386
1600979597
1600980086
1600981482
1600981770
1600982537
1600982688
1600983425
1600984442
1600985138
1600985197
1600987005
1600988536
1600988595
1600989906
1600989695
1600990231
1600990244
1600991260
1600992286
1600993890
1600993996
1600995720
1600996301
1600997110
1600997248
1600998577
1600999444
1601000192
1601000330
1601001922
1601002028
1601003502
1601003877
1601004744
1601004811
1601005139
1601007317
1601007517
1601007971
1601008776
1601008855
1601011992
1601012704
1601013955
1601017482
1601018036
1601020767
1601024060
1601026019
1601026815
1601027350
1601029890
1601030218
1601030568
1601031327
1601031898
1601032553
1601032621
1601033021
1601034167
1601034844
1601036736
1601037612
1601037655
1601038768
1601039465
1601039680
1601040968
1601043020
1601043141
1601043326
1601044186
1601044241
1601044850
1601044927
1601044955
1601045026
1601045044
1601045375
1601046443
1601047054
1601047214
1601047644
1601048899
1601050217
1601050396
1601050517
1601050790
1601051847
1601052293
1601052506
1601055021
1601058985
1601061226
1601061455
1601062972
1601063071
1601063358
1601063722
1601064235
1601064603
1601065385
1601066189
1601066139
1601066227
1601067624
1601067679
1601067779
1601067815
1601068231
1601069208
1601069770
1601070931
1601072532
1601073496
1601075679
1601076589
1601076900
1601077027
1601079020
1601079125
1601080177
1601081197
1601084760
1601084994
1601085016
1601088082
1601089539
1601090506
1601090770
1601091394
1601091904
1601091921
1601092515
1601092931
1601093166
1601095108
1601095252
1601095294
1601096503
1601096858
1601097371
1601098075
1601098507
1601099866
1601100556
1601100574
1601101231
1601102162
1601107279
1601108158
1601109004
1601110551
1601111199
1601114458
1601114606
1601116943
1601117322
1601118815
1601118937
1601119953
1601123009
1601123138
1601123581
1601123955
1601124217
1601126156
1601126565
1601126849
1601126948
1601127421
1601127713
1601127858
1601128700
1601128674
1601129506
1601130126
1601130447
1601130520
1601130797
1601131379
1601131729
1601132141
1601132908
1601133569
1601133568
1601133710
1601135274
1601136256
1601137749
1601138717
1601140121
1601140519
1601141355
1601141996
1601143001
1601143241
1601144941
1601147081
1601147359
1601147893
1601148063
1601148107
1601148701
1601151573
1601151885
1601152132
1601152191
1601152549
1601153569
1601155224
1601155289
1601155543
1601155632
1601156729
1601156670
1601157438
1601157998
1601158237
1601158315
1601158827
1601159197
1601161073
1601161088
1601161134
1601163156
1601165836
1601165894
1601166088
1601166114
1601167303
1601167702
1601167829
1601167820
1601168066
1601168612
1601168805
1601170680
1601170957
1601172679
1601174224
1601174551
1601174697
1601176785
1601177111
1601178023
1601178192
1601179438
1601179662
1601181138
1601184404
1601184988
1601186250
1601188397
1601188569
1601190267
1601190590
1601190728
1601190881
1601191279
1601193481
1601193698
1601194369
1601195146
1601195298
1601195289
1601196012
1601196188
1601196446
1601196637
1601197443
1601197578
1601198029
1601198523
1601199864
1601202266
1601203425
1601203761
1601203820
1601204838
1601205433
1601205688
1601207284
1601208567
1601208927
1601209559
1601210538
1601211053
1601212129
1601212747
1601212790
1601213107
1601214356
1601216881
1601220090
1601220145
1601220569
1601221417
1601221558
1601221615
1601222786
1601223375
1601225033
1601225208
1601229089
1601229545
1601229761
1601230304
1601233772
1601234401
1601235128
1601242234
1601243950
1601244315
1601248017
1601248342
1601248924
1601254698
1601254771
1601254857
1601254940
1601255384
1601255992
1601257564
1601260811
1601262098
1601262820
1601262851
1601267207
1601267876
1601271347
1601272775
1601273761
1601274400
1601275127
1601276304
1601276715
1601280000
1601283200
1601285885
1601287866
1601292600
1601292780
1601295805
1601296979
1601300032
1601300931
1601301310
1601301632
1601303223
1601304010
1601304496
1601306093
1601306571
1601308065
1601308418
1601308553
1601309076
1601309088
1601309493
1601310386
1601310600
1601311334
1601311634
1601312765
1601312830
1601313168
1601313163
1601313485
1601318497
1601319660
1601322144
1601322506
1601323142
1601324166
1601324964
1601325064
1601327747
1601329478
1601330282
1601332270
1601332934
1601333970
1601334618
1601335682
1601337810
1601338028
1601338078
1601340170
1601341462
1601341706
1601342803
1601344225
1601345456
1601345556
1601345930
1601346434
1601346794
1601346984
1601347437
1601347497
1601347815
1601348618
1601349760
1601350307
1601350654
1601352019
1601352666
1601352845
1601353384
1601353621
1601353758
1601354381
1601355433
1601356058
1601356761
1601356955
1601357455
1601359924
1601360260
1601360284
1601360629
1601361519
1601361906
1601361763
1601364093
1601364764
1601365232
1601365668
1601366532
1601366941
1601367389
1601368482
1601369050
1601369732
1601371405
1601372490
1601374218
1601375179
1601377373
1601377422
1601377864
1601379634
1601382991
1601383448
1601384566
1601384925
1601385069
1601385190
1601385339
1601386470
1601388271
1601390630
1601391703
1601391865
1601394345
1601395454
1601397415
1601397668
1601398119
1601398177
1601402041
1601405049
1601408429
1601408981
1601410240
1601410933
1601411554
1601412069
1601412529
1601412579
1601413390
1601413366
1601413872
1601415858
1601416035
1601416836
1601417160
1601417976
1601418820
1601421175
1601421127
1601422870
1601423905
1601424042
1601424046
1601424583
1601425065
1601425901
1601430254
1601431660
1601432709
1601432898
1601433373
1601433501
1601435210
1601435920
1601436930
1601439303
1601441048
1601441035
1601441831
1601442182
1601443046
1601443865
1601444000
1601444093
1601444373
1601444839
1601445231
1601445279
1601445438
1601447074
1601447450
1601447955
1601449191
1601449293
1601449326
1601449371
1601449422
1601449665
1601450897
1601451360
1601451409
1601451455
1601451787
1601454581
1601455468
1601456547
1601456809
1601457775
1601459115
1601459780
1601459963
1601460238
1601460740
1601460830
1601461145
1601461431
1601462278
1601462378
1601462528
1601462738
1601464454
1601464617
1601464779
1601465463
1601466324
1601469168
1601472066
1601472364
1601475254
1601478384
1601478404
1601478930
1601479128
1601481716
1601481996
1601484131
1601485310
1601487106
1601487410
1601487926
1601488311
1601488647
1601488900
1601489503
1601489542
1601491213
1601493134
1601493533
1601494289
1601494611
1601494722
1601495371
1601496379
1601497842
1601498015
1601498210
1601498598
1601498652
1601500148
1601499961
1601501597
1601501312
1601502201
1601502202
1601502699
1601503713
1601505156
1601505963
1601506218
1601509538
1601509894
1601510004
1601511068
1601511591
1601511667
1601515344
1601515668
1601515786
1601521167
1601522317
1601523650
1601525116
1601526562
1601527302
1601527756
1601528495
1601529316
1601529357
1601529727
1601530111
1601531245
1601532149
1601532916
1601533348
1601533561
1601533633
1601533963
1601534181
1601536552
1601536735
1601537011
1601538825
1601539171
1601539102
1601540581
1601542635
1601543133
1601543501
1601544268
1601545205
1601546013
1601546294
1601546887
1601548494
1601548705
1601548993
1601549865
1601550771
1601551642
1601551930
1601552423
1601552491
1601552770
1601556822
1601558157
1601558754
1601559663
1601561772
1601562011
1601563312
1601564741
1601565290
1601565834
1601566804
1601568439
1601568695
1601569080
1601569780
1601570096
1601571715
1601571962
1601573153
1601573178
1601573326
1601573390
1601574266
1601574669
1601574558
1601574955
1601575085
1601575239
1601575605
1601578107
1601580068
1601580006
1601580675
1601580915
1601581536
1601582308
1601582541
1601582853
1601583850
1601585307
1601585962
1601587616
1601587859
1601589257
1601589630
1601592379
1601592423
1601592409
1601592736
1601596338
1601596952
1601600474
1601600970
1601600994
1601601202
1601602816
1601603225
1601603792
1601605014
1601606757
1601608297
1601609066
1601609533
1601610123
1601610914
1601611478
1601611754
1601611870
1601613993
1601615768
1601618183
1601618486
1601619338
1601622333
1601624948
1601625170
1601625496
1601626407
1601628397
1601628812
1601630281
1601630425
1601630498
1601631096
1601631051
1601631462
1601632402
1601632445
1601632429
1601634046
1601634208
1601631211
1601634891
1601635492
1601637202
1601638470
1601639268
1601639867
1601640259
1601641055
1601641880
1601643915
1601644138
1601644726
1601646036
1601646508
1601646565
1601647079
1601647197
1601647715
1601649684
1601650482
1601650758
1601651326
1601651639
1601652063
1601653129
1601654444
1601655074
1601655050
1601655965
1601656340
1601656596
1601656798
1601658945
1601659405
1601659864
1601660054
1601661647
1601662813
1601665605
1601666721
1601667254
1601667462
1601668328
1601668563
1601668821
1601669447
1601669694
1601670248
1601670739
1601671109
1601675189
1601676331
1601676526
1601677955
1601678183
1601680975
1601681579
1601682129
1601683140
1601683436
1601683550
1601683521
1601683774
1601683945
1601684137
1601685100
1601685955
1601687267
1601687366
1601688297
1601688428
1601688967
1601689063
1601690280
1601690479
1601691952
1601692600
1601692724
1601693014
1601693146
1601693571
1601694275
1601695142
1601696603
1601696768
1601696891
1601698963
1601700818
1601700879
1601700970
1601701621
1601702262
1601702275
1601703056
1601703619
1601703628
1601704012
1601704047
1601704162
1601704175
1601704228
1601706345
1601706901
1601706873
1601707987
1601708399
1601709444
1601712280
1601712310
1601713027
1601715093
1601715841
1601716619
1601716847
1601719139
1601719671
1601720200
1601721694
1601722435
1601723426
1601724768
1601724943
1601733602
1601733745
1601733904
1601734230
1601735318
1600001012
1600001678
1600014838
1600037367
1600065892
1600081561
1600114136
1603064796
1603065604
1603066681
1603067737
1603068232
1603070021
1603073377
1603073376
1603073464
1603074284
1603074512
1603075303
1603075783
1603075930
1603079596
1603079728
1603079838
1603080054
1603081229
1603082033
1603082694
1603083308
1603084938
1603085558
1603085932
1603086612
1603087224
1603089420
1603090245
1603090910
1603093845
1603094451
1603096148
1603096512
1603096566
1603097611
1603100051
1603100368
1603100974
1603100768
1603101382
1603103598
1603104906
1603105426
1603105970
1603107480
1603108840
1603109196
1603110572
1603111092
1603111229
1603112367
1603112323
1603114919
1603115604
1603117361
1603117751
1603118207
1603118247
1603121641
1603123603
1603124340
1603124922
1603125891
1603125928
1603127474
1603129605
1603129393
1603130881
1603131731
1603131807
1603135645
1603135942
1603136898
1603137165
1603139835
1603142290
1603142862
1603143340
1603143437
1603144140
1603144361
1603144479
1603145059
1603145199
1603145933
1603146491
1603146878
1603146990
1603147745
1603147834
1603148042
1603148770
1603149010
1603149590
1603149351
1603150818
1603152607
1603153437
1603154131
1603156525
1603156604
1603157041
1603157084
1603158122
1603158582
1603159673
1603159923
1603160348
1603163579
1603165259
1603165734
1603166042
1603166130
1603166207
1603166480
1603166666
1603167467
1603167399
1603168089
1603168077
1603168237
1603168271
1603170359
1603170522
1603170750
1603173206
1603179755
1603180070
1603181654
1603184062
1603184250
1603182768
1603184804
1603187522
1603188415
1603189598
1603190095
1603190399
1603190847
1603191420
1603191819
1603192230
1603192901
1603193548
1603194272
1603194636
1603194988
1603195649
1603196139
1603196875
1603196608
1603198249
1603200821
1603201426
1603202505
1603202718
1603203890
1603204367
1603206048
1603206597
1603207258
1603209504
1603210712
1603213911
1603216430
1603216665
1603216898
1603220035
1603219988
1603221533
1603221561
1603222706
1603224352
1603225044
1603227399
1603227586
1603229825
1603229503
1603231005
1603231989
1603232841
1603234090
1603234832
1603235267
1603235013
1603235670
1603235851
1603236163
1603236390
1603236158
1603237049
1603238775
1603239375
1603242148
1603242824
1603243284
1603243764
1603244764
1603247215
1603247611
1603247555
1603248709
1603248570
1603251041
1603251273
1603251983
1603251599
1603253645
1603253839
1603253819
1603254508
1603254645
1603254856
1603255679
1603255656
1603254414
1603255910
1603259777
1603261992
1603263625
1603265532
1603265642
1603267665
1603269717
1603269496
1603270085
1603270948
1603271430
1603273760
1603282150
1603282481
1603284073
1603286370
1603286990
1603288726
1603290011
1603291509
1603292170
1603292172
1603293064
1603293313
1603293225
1603293760
1603294300
1603295402
1603295444
1603296504
1603297516
1603298017
1603298178
1603298197
1603298737
1603299435
1603299428
1603299385
1603300039
1603300046
1603300144
1603300452
1603301283
1603301453
1603301567
1603302095
1603302345
1603302582
1603303170
1603303740
1603303899
1603304284
1603304408
1603305823
1603307488
1603307472
1603307765
1603308400
1603309238
1603309801
1603310084
1603313129
1603317461
1603317776
1603318689
1603318930
1603319180
1603320212
1603323823
1603325939
1603325959
1603326565
1603326335
1603327352
1603328281
1603330412
1603330657
1603333586
1603334035
1603334169
1603334828
1603335299
1603336280
1603338729
1603341316
1603341895
1603341670
1603342295
1603342542
1603342553
1603342821
1603344046
1603346437
1603346468
1603346918
1603347920
1603348179
1603348223
1603348853
1603348619
1603349496
1603349150
1603350463
1603350617
1603351093
1603352592
1603353151
1603354239
1603354741
1603355224
1603355622
1603356138
1603356646
1603356975
1603359038
1603359086
1603359326
1603362526
1603362867
1603364824
1603365633
1603365887
1603365432
1603367152
1603367469
1603368225
1603369537
1603369919
1603370740
1603371162
1603372004
1603372557
1603372705
1603373511
1603373643
1603376032
1603377809
1603381068
1603381578
1603382747
1603383828
1603384920
1603385489
1603385924
1603386223
1603387089
1603387380
1603388690
1603389684
1603391419
1603392851
1603392921
1603392935
1603393251
1603393705
1603394402
1603394865
1603395616
1603396754
1603396899
1603397188
1603397985
1603399929
1603400251
1603400283
1603400613
1603400470
1603402468
1603402840
1603403348
1603403518
1603404067
1603404096
1603404664
1603404902
1603405229
1603405640
1603406442
1603406561
1603406664
1603407607
1603407708
1603408240
1603408251
1603410489
1603412788
1603413571
1603414934
1603417070
1603417527
1603418156
1603418404
1603418095
1603418542
1603419228
1603420312
1603420796
1603420898
1603421709
1603423461
1603423928
1603424495
1603424927
1603425377
1603425085
1603428548
1603429092
1603429597
1603429899
1603430632
1603430647
1603431106
1603432505
1603434131
1603435123
1603436019
1603436535
1603437320
1603439552
1603440870
1603442047
1603442326
1603442490
1603442487
1603446857
1603448109
1603449025
1603449413
1603450233
1603450572
1603451218
1603451505
1603455928
1603456626
1603457295
1603458394
1603459012
1603459079
1603459339
1603459585
1603460082
1603460392
1603462668
1603464159
1603464297
1603465885
1603466036
1603466517
1603467468
1603469618
1603469632
1603470704
1603470611
1603470661
1603472414
1603473324
1603474181
1603474532
1603476503
1603477341
1603478621
1603479285
1603479849
1603486415
1603488849
1603489406
1603489421
1603490703
1603492360
1603492621
1603493050
1603494844
1603496093
1603498519
1603499406
1603499838
1603501691
1603502362
1603502841
1603503374
1603503272
1603503395
1603503813
1603505436
1603506724
1603507344
1603510353
1603513101
1603513712
1603513760
1603514143
1603515579
1603516373
1603516781
1603517010
1603518186
1603518489
1603520040
1603523030
1603523386
1603524271
1603525115
1603525375
1603527726
1603527903
1603527957
1603527921
1603528762
1603529335
1603532512
1603535550
1603536759
1603536972
1603537344
1603537645
1603539376
1603541230
1603541929
1603542204
1603543742
1603544454
1603546383
1603546664
1603547262
1603547778
1603549234
1603549386
1603550922
1603551423
1603552503
1603555387
1603556014
1603557142
1603557434
1603557822
1603557922
1603558116
1603559247
1603559343
1603561249
1603562035
1603564285
1603565769
1603565799
1603567383
1603567556
1603567769
1603569543
1603569901
1603569978
1603570146
1603569763
1603571248
1603571442
1603571862
1603574029
1603574690
1603577248
1603577596
1603578542
1603579334
1603579709
1603579786
1603581087
1603581112
1603580889
1603584190
1603584694
1603585235
1603586179
1603586819
1603588173
1603589784
1603591593
1603592747
1603594343
1603596683
1603597695
1603597824
1603600185
1603601327
1603603626
1603603687
1603603226
1603604485
1603604538
1603607669
1603607845
1603608350
1603609655
1603609801
1603610319
1603611189
1603612841
1603613293
1603614165
1603615753
1603615875
1603617360
1603618301
1603618544
1603619069
1603618885
1603618587
1603619831
1603621226
1603621426
1603622337
1603622354
1603622175
1603623058
1603623042
1603623834
1603623979
1603625790
1603627614
1603628479
1603628632
1603629525
1603631043
1603632597
1603632695
1603633415
1603633425
1603634124
1603641282
1603642199
1603643423
1603643596
1603643804
1603644583
1603644590
1603644991
1603645068
1603645559
1603645243
1603647049
1603647729
1603647882
1603648265
1603648292
1603648436
1603647526
1603650903
1603652135
1603652348
1603653080
1603654683
1603654821
1603655661
1603657043
1603657908
1603659522
1603659468
1603659217
1603659814
1603660394
1603661772
1603665433
1603665013
1603666287
1603667486
1603667836
1603668046
1603669137
1603670387
1603671856
1603672433
1603673586
1603674210
1603674585
1603674738
1603675460
1603675566
1603676425
1603676865
1603677834
1603678524
1603678711
1603679953
1603680752
1603681171
1603682181
1603682342
1603682399
1603683761
1603684762
1603684158
1603689712
1603693525
1603694238
1603695325
1603696161
1603697107
1603696869
1603698612
1603700159
1603702389
1603703604
1603704348
1603704409
1603704439
1603704804
1603705535
1603705691
1603705986
1603707863
1603708103
1603708161
1603707568
1603709550
1603709480
1603710552
1603710548
1603711243
1603712039
1603712276
1603712438
1603715794
1603716862
1603717125
1603721943
1603722910
1603726240
1603726844
1603730674
1603730852
1603731472
1603732878
1603733748
1603736104
1603736339
1603737013
1603737060
1603738017
1603738056
1603738563
1603738793
1603739133
1603739128
1603741066
1603742366
1603742095
1603742821
1603742992
1603742944
1603743552
1603743599
1603743883
1603743826
1603744692
1603744895
1603745358
1603746171
1603746710
1603747473
1603750268
1603753463
1603753589
1603754894
1603755119
1603755807
1603757299
1603757516
1603759294
1603760638
1603761117
1603761394
1603761690
1603762237
1603765265
1603765990
1603767332
1603767583
1603767614
1603768467
1603771572
1603772175
1603772692
1603772996
1603773689
1603773800
1603776342
1603777352
1603779306
1603779745
1603780401
1603782855
1603782963
1603783105
1603783384
1603784658
1603786298
1603786432
1603786800
1603787386
1603788783
1603789305
1603789987
1603791251
1603792400
1603793374
1603794157
1603841270
1603883239
1603888774
1603890037
1603896879
1603900549
1603902095
1603903775
1603904284
1603905275
1603906507
1603907368
1603910233
1603910250
1603912510
1603912691
1603917344
1603918050
1603918528
1603918891
1603922240
1603922189
1603924728
1603925775
1603929290
1603930662
1603932072
1603932658
1603937326
1603937935
1603937936
1603938047
1603938341
1603939115
1603941639
1603942035
1603942753
1603942869
1603944301
1603945175
1603945202
1603945651
1603946064
1603946738
1603947212
1603946173
1603949635
1603951490
1603951470
1603952694
1603954455
1603955082
1603955338
1603956571
1603957643
1603959914
1603960815
1603960809
1603961220
1603964077
1603966367
1603967984
1603968468
1603968689
1603969142
1603969220
1603970106
1603971654
1603971657
1603971708
1603971969
1603973955
1603973911
1603974431
1603975293
1603978138
1603978161
1603978384
1603978459
1603978947
1603979430
1603982860
1603983490
1603986801
1603986970
1603987052
1603986766
1603987966
1603987985
1603988542
1603989294
1603989595
1603991147
1603990770
1603991382
1603992791
1603993294
1603993888
1603994549
1603994936
1603997407
1603997675
1603999594
1604000496
1604003379
1604004958
1604005622
1604006000
1604006609
1604007608
1604008939
1604009388
1604014057
1604017153
1604017828
1604017705
1604020141
1604022174
1604022171
1604023076
1604023519
1604023719
1604023754
1604024071
1604024891
1604027618
1604028864
1604030391
1604030394
1604030836
1604031244
1604031987
1604032423
1604032546
1604032819
1604033154
1604033380
1604035145
1604035415
1604035468
1604037637
1604038188
1604039887
1604042060
1604042029
1604043128
1604043651
1604044702
1604047373
1604047754
1604048497
1604048947
1604050095
1604050425
1604051142
1604051379
1604052280
1604054612
1604055433
1604055393
1604056915
1604057426
1604058465
1604060623
1604062559
1604064151
1604063779
1604065602
1604065648
1604066741
1604067003
1604067234
1604067373
1604067821
1604068272
1604069467
1604070016
1604070226
1604070904
1604071184
1604071624
1604071638
1604071305
1604073362
1604074243
1604076501
1604076396
1604077116
1604077111
1604078296
1604079241
1604082043
1604083430
1604084074
1604085948
1604086644
1604086966
1604089058
1604090041
1604089207
1604090204
1604089956
1604090816
1604091208
1604092070
1604092235
1604092655
1604094555
1604094947
1604095529
1604095955
1604096569
1604096568
1604096695
1604097657
1604097997
1604099934
1604100172
1604103487
1604103686
1604104803
1604106234
1604107232
1604108037
1604108273
1604111469
1604111982
1604112487
1604112700
1604113296
1604115850
1604117263
1604117459
1604118233
1604118317
1604118800
1604119363
1604119827
1604119829
1604120204
1604120622
1604123161
1604124109
1604124174
1604126006
1604126574
1604127020
1604127555
1604127758
1604128980
1604130300
1604132449
1604136802
1604136871
1604137561
1604137779
1604138837
1604139239
1604141958
1604142883
1604143158
1604142744
1604143925
1604146942
1604147142
1604147419
1604147064
1604150833
1604151041
1604151837
1604152060
1604152554
1604156029
1604155992
1604156848
1604157598
1604157998
1604158262
1604159440
1604160527
1604160684
1604160772
1604161758
1604145584
1604162082
1604163768
1604164974
1604167798
1604168009
1604171289
1604172098
1604175011
1604175352
1604174785
1604175978
1604176164
1604176468
1604176766
1604177883
1604179416
1604180708
1604183720
1604183850
1604184705
1604184803
1604185553
1604187257
1604187649
1604190267
1604192514
1604196921
1604197974
1604198117
1604198710
1604199328
1604199803
1604199875
1604199060
1604202417
1604203044
1604203265
1604203665
1604204273
1604204593
1604205476
1604206721
1604206847
1604207888
1604208968
1604209169
1604210208
1604210175
1604211146
1604212551
1604213644
1604214045
1604214293
1604214408
1604214740
1604215048
1604217227
1604217598
1604217963
1604218136
1604218528
1604218690
1604220233
1604221849
1604222018
1604223299
1604223295
1604223618
1604225800
1604226382
1604227864
1604229865
1604230033
1604230385
1604230544
1604231532
1604232046
1604233236
1604234313
1604238193
1604239293
1604240069
1604241054
1604241560
1604242771
1604242947
1604243631
1604243601
1604243850
1604244014
1604244551
1604245431
1604246388
1604246826
1604247089
1604248209
1604248340
1604249543
1604250906
1604251144
1604251553
1604251565
1604251661
1604251944
1604252798
1604253353
1604254662
1604254860
1604256474
1604256761
1604256832
1604257018
1604258538
1604258701
1604258720
1604258820
1604259246
1604259469
1604256889
1604260215
1604260633
1604260968
1604262509
1604263013
1604264110
1604264247
1604265070
1604265469
1604265953
1604266809
1604266876
1604266847
1604268211
1604268771
1604269683
1604269801
1604269872
1604271002
1604272544
1604273223
1604273557
1604273996
1604276925
1604276959
1604278357
1604279386
1604280412
1604280598
1604280588
1604280633
1604281589
1604281753
1604282250
1604284999
1604285597
1604285845
1604286810
1604287737
1604288128
1604288403
1604288451
1604288840
1604290241
1604292170
1604295045
1604295704
1604296868
1604297212
1604299267
1604299754
1604301539
1604302692
1604304347
1604306238
1604306439
1604306854
1604307914
1604308162
1604308141
1604308837
1604308980
1604309588
1604311474
1604312193
1604316251
1604317224
1604318953
1604320665
1604322814
1604323509
1604325008
1604328575
1604328661
1604329839
1604330978
1604331630
1604333203
1604335089
1604335214
1604335812
1604335819
1604335948
1604336065
1604337236
1604337269
1604337531
1604342737
1604343083
1604343371
1604343388
1604344340
1604344875
1604345511
1604345948
1604346011
1604347167
1604347892
1604348163
1604350721
1604354126
1604357041
1604356677
1604357805
1604358790
1604359399
1604360104
1604360670
1604360881
1604361882
1604362191
1604362910
1604364359
1604366666
1604366792
1604366856
1604368406
1604369783
1604370709
1604372275
1604372368
1604372557
1604372694
1604372919
1604373920
1604376052
1604376094
1604377061
1604378108
1604378233
1604378591
1604380037
1604380575
1604381002
1604381342
1604381938
1604398084
1604441626
1604445018
1604453783
1604455904
1604457418
1604457562
1604460738
1604462678
1604463411
1604466013
1604467111
1604467198
1604466978
1604471716
1604473873
1604474162
1604474657
1604475462
1604476304
1604477291
1604479508
1604484673
1604486612
1604486902
1604491137
1604492926
1604493177
1604494775
1604494930
1604497006
1604498592
1604499462
1604499459
1604501651
1604502059
1604502128
1604502382
1604502873
1604503566
1604503910
1604504405
1604505629
1604505812
1604506505
1604507220
1604507645
1604508134
1604509836
1604510468
1604511840
1604512200
1604511983
1604514492
1604516163
1604515813
1604516972
1604517027
1604517878
1604518021
1604518566
1604518667
1604520749
1604521737
1604522518
1604522661
1604523580
1604525969
1604527431
1604529141
1604530484
1604534329
1604535726
1604535830
1604538650
1604539407
1604540627
1604542161
1604543062
1604543466
1604545495
1604545298
1604549601
1604549964
1604550461
1604550643
1604551846
1604553663
1604554334
1604555672
1604556278
1604556970
1604557101
1604557945
1604557808
1604558606
1604559624
1604561536
1604561683
1604562120
1604563165
1604563321
1604564159
1604564800
1604567332
1604569064
1604571853
1604571888
1604572276
1604572797
1604573331
1604573310
1604574194
1604574263
1604574503
1604579868
1604579356
1604581373
1604581684
1604582778
1604583543
1604585714
1604585957
1604586811
1604587364
1604589176
1604588709
1604589865
1604589929
1604590333
1604590643
1604590991
1604591161
1604591197
1604591743
1604592138
1604593033
1604593190
1604594031
1604594668
1604594829
1604595506
1604597388
1604598894
1604600036
1604601767
1604604785
1604607443
1604607950
1604609455
1604611149
1604611620
1604611841
1604612764
1604613509
1604613775
1604616063
1604615882
1604616975
1604617966
1604618658
1604618818
1604619259
1604619274
1604620025
1604620909
1604621785
1604622396
1604622389
1604622725
1604623733
1604624595
1604624686
1604625609
1604626214
1604626331
1604628198
1604629117
1604629995
1604630378
1604631747
1604631928
1604634106
1604634247
1604635310
1604635627
1604636195
1604637440
1604638014
1604639311
1604638954
1604639657
1604641011
1604641703
1604642145
1604642303
1604642422
1604642754
1604643550
1604643766
1604644212
1604644247
1604644635
1604645518
1604646271
1604646690
1604648009
1604648937
1604649355
1604649892
1604650198
1604650821
1604652667
1604652874
1604653512
1604653647
1604655463
1604657138
1604657772
1604658074
1604659096
1604659870
1604660853
1604660802
1604662972
1604664177
1604664546
1604665196
1604667176
1604668126
1604668163
1604668242
1604668327
1604668389
1604668554
1604669574
1604671789
1604672316
1604672694
1604672937
1604673864
1604673943
1604674126
1604674817
1604675842
1604678075
1604678083
1604680130
1604680882
1604682145
1604682554
1604684566
1604684722
1604685500
1604685543
1604687488
1604688705
1604690719
1604691876
1604692182
1604692443
1604695875
1604697525
1604697876
1604697911
1604700966
1604701542
1604699955
1604702626
1604702785
1604702003
1604704095
1604707381
1604708004
1604708569
1604709058
1604710089
1604710243
1604710731
1604711408
1604711761
1604711816
1604711649
1604713292
1604713029
1604715300
1604715362
1604717713
1604718784
1604721785
1604722620
1604723400
1604723594
1604726244
1604727209
1604727315
1604727667
1604728023
1604728355
1604730019
1604730070
1604730531
1604730652
1604732171
1604733449
1604733413
1604734017
1604734305
1604736734
1604737189
1604738168
1604739416
1604740817
1604741060
1604743664
1604743680
1604743717
1604746772
1604747015
1604748653
1604748887
1604749316
1604750539
1604751815
1604751952
1604752364
1604753774
1604754012
1604754935
1604756202
1604756422
1604757022
1604757056
1604758254
1604758851
1604759103
1604760506
1604762133
1604762622
1604764141
1604764323
1604764704
1604765369
1604765790
1604767036
1604767147
1604770825
1604770990
1604771112
1604779878
1604780644
1604781496
1604781954
1604783306
1604783843
1604783326
1604785420
1604785594
1604786149
1604787009
1604788255
1604789201
1604790734
1604791778
1604791716
1604792068
1604792734
1604795020
1604795539
1604795644
1604797319
1604797527
1604796866
1604798834
1604798572
1604799328
1604799523
1604800117
1604803179
1604803223
1604805216
1604805520
1604805334
1604805829
1604808102
1604808634
1604808754
1604808772
1604808698
1604809656
1604811571
1604812379
1604812849
1604814028
1604814922
1604815097
1604818285
1604818447
1604819151
1604819215
1604819595
1604820194
1604820563
1604820634
1604821286
1604821743
1604822236
1604822774
1604823454
1604823663
1604825199
1604825372
1604826157
1604826176
1604825966
1604826581
1604827906
1604828870
1604829908
1604830201
1604831778
1604832554
1604833416
1604834054
1604835515
1604836308
1604836442
1604837073
1604837939
1604838660
1604838668
1604839378
1604839329
1604839604
1604841756
1604842326
1604842677
1604842801
1604845394
1604847606
1604850185
1604851519
1604851500
1604851739
1604852049
1604853265
1604854045
1604854405
1604855846
1604856247
1604856690
1604857647
1604858271
1604859082
1604860103
1604861076
1604862124
1604862219
1604865593
1604866067
1604866376
1604866663
1604867713
1604867968
1604868471
1604871091
1604871139
1604872247
1604874095
1604874384
1604878340
1604878601
1604878800
1604879479
1604880522
1604881029
1604881206
1604881935
1604882084
1604881981
1604884498
1604885642
1604885995
1604886117
1604887693
1604888044
1604888071
1604887287
1604889078
1604890021
1604891647
1604892030
1604892819
1604896911
1604897633
1604897813
1604900348
1604900407
1604900491
1604902770
1604903665
1604904604
1604906313
1604906331
1604906416
1604907150
1604907740
1604907699
1604909048
1604909733
1604909717
1604910381
1604910685
1604912287
1604913952
1604914357
1604914672
1604916019
1604916760
1604916916
1604917606
1604919170
1604921544
1604922546
1604922719
1604923532
1604924075
1604927158
1604929376
1604932184
1604932650
1604935103
1604935178
1604935397
1604935906
1604936543
1604936551
1604937626
1604937998
1604940272
1604941088
1604941208
1604941434
1604943948
1604945314
1604947845
1604948085
1604949335
1604949386
1604949761
1604949822
1604951412
1604953801
1604954560
1604955511
1604956023
1604956285
1604956880
1604957911
1604957961
1604960960
1604961579
1604965057
1604965011
1604965305
1604967254
1604969136
1604971205
1604971811
1604973475
1604973458
1604976190
1604976297
1604977905
1604978028
1604978292
1604978352
1604978877
1604980829
1604981222
1604981456
1604982843
1604983280
1604985170
1604985888
1604985912
1604991444
1604992135
1604992413
1604992545
1604992755
1604993151
1604994672
1604995096
1604995604
1604996301
1604997053
1604997142
1604998309
1604994047
1604999904
1605000163
1605002049
1605003299
1605003423
1605003548
1605003598
1605006768
1605007003
1605007092
1605008364
1605010834
1605011082
1605011231
1605011512
1605011603
1605012947
1605015054
1605015898
1605016410
1605017189
1605018221
1605018333
1605019387
1605020153
1605020255
1605020497
1605021312
1605021706
1605022792
1605023105
1605023992
1605024714
1605025375
1605026154
1605026405
1605026599
1605026909
1605027673
1605028434
1605029201
1605029377
1605029568
1605030265
1605031189
1605031774
1605033024
1605033512
1605035195
1605035584
1605035591
1605036292
1605036857
1605036322
1605040385
1605040811
1605041867
1605041952
1605042433
1605042442
1605045474
1605045875
1605047026
1605047928
1605047987
1605049350
1605049717
1605051252
1605051351
1605051413
1605055398
1605055706
1605056712
1605056557
1605057329
1605058198
1605060267
1605061362
1605063375
1605064442
1605065218
1605065689
1605066175
1605066912
1605067014
1605068094
1605068354
1605068721
1605068960
1605069576
1605070423
1605070611
1605071365
1605071913
1605072394
1605072358
1605072799
1605074841
1605076086
1605079234
1605082778
1605083090
1605083053
1605084510
1605085334
1605085443
1605085511
1605085277
1605086074
1605088975
1605089295
1605089345
1605090928
1605091367
1605091568
1605092088
1605092521
1605096576
1605098632
1605098647
1605099555
1605102535
1605102887
1605103271
1605103217
1605104201
1605104507
1605104570
1605104895
1605105343
1605105420
1605105674
1605106346
1605107583
1605108425
1605108594
1605108632
1605108963
1605109057
1605110936
1605111324
1605111774
1605112052
1605113018
1605113105
1605113769
1605113859
1605114081
1605114908
1605115702
1605118048
1605118715
1605118414
1605120295
1605120640
1605121863
1605122360
1605122924
1605123880
1605126045
1605126592
1605126822
1605126856
1605128777
1605130148
1605131398
1605131748
1605132323
1605133274
1605133944
1605134396
1605134574
1605134710
1605135069
1605135081
1605135496
1605137026
1605137092
1605138056
1605138879
1605139404
1605140120
1605140184
1605141282
1605142692
1605146919
1605148118
1605148420
1605150195
1605150513
1605149836
1605150195
1605150513
1605151581
1605151973
1605154058
1605155723
1605156516
1605157064
1605158277
1605158313
1605158588
1605158878
1605158909
1605161159
1605162818
1605165158
1605165951
1605166471
1605166959
1605168582
1605169006
1605170579
1605170784
1605171043
1605171254
1605173982
1605174961
1605175407
1605176254
1605177986
1605178923
1605179561
1605180259
1605184093
1605185379
1605185454
1605186966
1605187054
1605187358
1605190022
1605192362
1605194054
1605197744
1605200992
1605202476
1605202712
1605204026
1605204220
1605204830
1605205576
1605205969
1605206590
1605207241
1605207489
1605208710
1605210321
1605211237
1605211580
1605218321
1605220565
1605220903
1605221334
1605249534
1605261615
1605266325
1605267130
1605284987
1605304819
1605306251
1605306897
1605308013
1605309598
1605309770
1605310448
1605311054
1605312372
1605312343
1605316875
1605318281
1605318924
1605321459
1605322227
1605324676
1605326646
1605328545
1605332628
1605333279
1605333167
1605334705
1605335426
1605335600
1605335845
1605337947
1605342472
1605349011
1605350990
1605358934
1605363556
1605367513
1605368945
1605369333
1605369890
1605379142
1605381643
1605382776
1605409621
1605420601
1605482865
1605522261
1605539080
1605549291
1605571005
1605624638
1605629190
1605629931
1605645968
1605656891
1605663277
1605671713
1605684606
1605686344
1605705458
1605725363
1605739629
1605774416
1605778295
1605793219
1605846960
1605857846
1605864157
1605886868
1605904266
1605912064
1605918369
1605926512
1605936375
1605960113
1605965577
1605975902
1605990246
1605993595
1606005183
1606026290
1606034659
1606035645
1606043702
1606063738
1606073232
1606079262
1606085800
1606118049
1606138932
1606141297
1606143024
1606150528
1606153691
1606179854
1606218655
1606222196
1606231163
1606242109
1606251848
1606260724
1606288250
1606291483
1606323864
1606330075
1606333645
1606342274
1606389835
1606405745
1606410774
1606480672
1606481427
1606488646
1606503323
1606520704
1606521392
1606552472
1606574937
1606600859
1606602662
1606603170
1606610001
1606639068
1606676638
1606682518
1606721188
1606751899
1606801076
1606804722
1606813617
1606827041
1606832033
1606834792
1606838184
1606863791
1606880484
1606906116
1606924501
1606935099
1606949196
1606958654
1606988465
1606991013
1606991683
1607013649
1607017226
1607045336
1607054530
1607110828
1607114231
1607149400
1607161104
1607176447
1607184548
1607187188
1607189999
1607190939
1607192433
1607244761
1607261037
1607271468
1607283050
1607287586
1607292089
1607306672
1607312027
1607358786
1607375610
1607414743
1607421445
1607422646
1607424866
1607427177
1607455836
1607483420
1607501015
1607509580
1607511737
1607519482
1607524182
1607550119
1607556066
1607596391
1607625114
1607627646
1607628246
1607654871
1607661545
1607686191
1607712834
1607713080
1607725253
1607739530
1607747574
1607762367
1607788548
1607808860
1607829838
1607835055
1607835035
1607843271
1607867138
1607869147
1607899618
1607902111
1607911969
1607916730
1607961889
1607971544
1607976315
1607979873
1607991829
1607992556
1608012466
1608053304
1608070338
1608076940
1608080043
1608097256
1608101206
1608159912
1608166860
1608170782
1608208778
1608221544
1608227796
1608240347
1608248127
1608357883
1608366103
1608391379
1608423146
1608426282
1608480477
1608492141
1608494165
1608495077
1608505370
1608514503
1608543132
1608544799
1608559730
1608591540
1608600079
1608606606
1608621583
1608622246
1608625106
1608651465
1608672750
1608696638
1608700489
1608706945
1608708007
1608710595
1608728028
1608734894
1608791718
1608812500
1608867967
1608885448
1608896542
1608899808
1608904254
1608915471
1608948174
1608958675
1608973580
1609014126
1609037408
1609051169
1609060996
1609065828
1609072285
1609077737
1609096478
1609133291
1609152955
1609154862
1609184217
1609201243
1609208589
1609260292
1609261639
1609288657
1609288949
1609294925
1609303769
1609377593
1609393431
1609417539
1609462952
1609485957
1609494648
1609497225
1609509577
1609525354
1609527413
1609531006
1609533214
1609546246
1609583485
1609602850
1609604006
1609635017
1609653924
1609657519
1609658560
1609675060
1609677436
1609701498
1609718996
1609739598
1609745776
1609755176
1609776260
1609784750
1609801377
1609877460
1609933749
1609961043
1609965806
1609972076
1609974146
1609981304
