1600001399
730082755
730140323
731117925
731118264
731187852
731214970
731230058
730325595
731537248
731562011
730475667
731665856
730535740
731744235
731752641
730561151
731757233
730589065
730648340
731964367
732010589
730771642
1600001399
1600013381
1600021072
1600025103
1600028227
1600045454
1600048618
1600053694
1600067156
1600072981
1600095886
1600100993
1600101630
1600102786
1600106127
1600108914
1600109893
1600115750
1600119472
1600120703
1600125636
1600126900
1600132255
1600132751
1600143471
1600148124
1600149814
1600158050
1600161317
1600174487
1600175410
1600175983
1600184165
1600187269
1600189097
1600191886
1600194744
1600200308
1600202558
1600208051
1600210994
1600211167
1600219494
1600219980
1600220867
1600221285
1600224086
1600225452
1600233374
1600242794
1600260843
1600261890
1600266403
1600274134
1600281603
1600283827
1600285856
1600295762
1600302294
1600309338
1600317929
1600318099
1600338315
1600341146
1600344699
1600376965
1600385207
1600388976
1600391298
1600391673
1600393447
1600406574
1600414658
1600416851
1600422208
1600427978
1600430627
1600436421
1600455167
1600461224
1600476627
1600479195
1600487414
1600494186
1600498107
1600518764
1600524380
1600527179
1600538895
1600539479
1600545476
1600556146
1600560173
1600561352
1600561896
1600571684
1600579037
1600593112
1600598093
1600619693
1600621828
1600629533
1600639043
1600653603
1600654339
1600657651
1600663486
1600664554
1600666245
1600682504
1600686556
1600697401
1600715894
1600721665
1600727389
1600730523
1600734144
1600756162
1600759733
1600767345
1600769845
1600770357
1600779965
1600781340
1600791982
1600794605
1600796581
1600798155
1600811497
1600823549
1600836946
1600839975
1600851839
1600874125
1600895370
1600895704
1600897030
1600912986
1600925807
1600934314
1600941251
1600954493
1600955455
1600960744
1600961154
1600961244
1600961815
1600970791
1600974479
1600989204
1600993228
1600994262
1600995997
1601001843
1601005847
1601008944
1601030421
1601030702
1601037243
1601037240
1601037403
1601042641
1601045095
1601065296
1601080178
1601082971
1601084140
1601091422
1601093192
1601104125
1601111259
1601126229
1601129163
1601132129
1601145509
1601156146
1601167724
1601169650
1601181601
1601195206
1601203752
1601237860
1601245451
1601246243
1601251701
1601270431
1601312728
1601313625
1601325201
1601326974
1601335764
1601336171
1601335764
1601337738
1601341116
1601351460
1601352315
1601353154
1601364769
1601365662
1601374036
1601374122
1601379741
1601390374
1601391416
1601394057
1601395485
1601397177
1601409876
1601414958
1601422362
1601426586
1601435021
1601443575
1601447536
1601450785
1601456473
1601457715
1601463349
1601473822
1601474728
1601475232
1601492626
1601503143
1601503316
1601512303
1601515516
1601518209
1601521169
1601522619
1601524570
1601525678
1601528059
1601529574
1601531797
1601535475
1601535945
1601536878
1601542781
1601546033
1601548461
1601549874
1601563172
1601572506
1601572688
1601578866
1601579348
1601586125
1601592319
1601602641
1601603393
1601610969
1601615670
1601625479
1601635225
1601641734
1601642850
1601644423
1601665614
1601673327
1601674702
1601684093
1601686258
1601697141
1601706728
1601714108
1601720659
1603069435
1603079130
1603080155
1603080851
1603081218
1603086648
1603093130
1603094954
1603095485
1603095769
1603104522
1603107166
1603110716
1603120408
1603135918
1603136165
1603146679
1603148453
1603155339
1603155890
1603158067
1603163958
1603168522
1603181206
1603190409
1603205341
1603208115
1603208823
1603211699
1603218481
1603247722
1603252554
1603255646
1603264740
1603264778
1603264932
1603267086
1603269951
1603278929
1603281884
1603295177
1603298274
1603320821
1603333390
1603340632
1603344227
1603349145
1603354835
1603355384
1603360983
1603362546
1603364275
1603368549
1603371865
1603372587
1603386368
1603408329
1603411569
1603417767
1603422828
1603424194
1603436884
1603448787
1603465343
1603473769
1603476421
1603497498
1603500540
1603502224
1603504738
1603505161
1603522133
1603523319
1603536056
1603538210
1603545581
1603546432
1603550986
1603553428
1603557343
1603560877
1603562999
1603564258
1603565395
1603567461
1603570531
1603587890
1603591156
1603593994
1603595266
1603596262
1603598358
1603602132
1603606999
1603609949
1603617635
1603622402
1603649976
1603651694
1603662801
1603677155
1603681048
1603681887
1603689080
1603694641
1603706876
1603709396
1603715305
1603731283
1603732610
1603736327
1603740356
1603741903
1603745806
1603746510
1603758893
1603770484
1603771213
1603777424
1603779162
1603783543
1603789848
1603791446
1603918501
1603920513
1603921170
1603922633
1603928887
1603936550
1603936878
1603961664
1603964314
1603965025
1603968656
1603969185
1603969270
1603969663
1603984618
1603985094
1603989421
1603992503
1603994361
1604000633
1604002835
1604012978
1604016722
1604017961
1604019897
1604022084
1604022197
1604022427
1604030917
1604037479
1604038655
1604044794
1604056781
1604057244
1604079949
1604081964
1604081547
1604090876
1604092353
1604093909
1604094750
1604098328
1604101563
1604109171
1604111772
1604115489
1604121629
1604129659
1604133340
1604134674
1604134435
1604153303
1604163602
1604171942
1604174024
1604177158
1604178697
1604186168
1604194726
1604198040
1604206706
1604207034
1604213899
1604219152
1604230767
1604238723
1604247672
1604254758
1604287822
1604290615
1604291887
1604297891
1604301600
1604308518
1604308942
1604322524
1604326447
1604337308
1604339457
1604343527
1604349274
1604353260
1604357550
1604363306
1604364450
1604372215
1604376661
1604452128
1604453062
1604459927
1604469270
1604478087
1604481849
1604492429
1604499851
1604502601
1604523412
1604538590
1604551291
1604556829
1604568547
1604568601
1604572682
1604585930
1604589003
1604589266
1604592564
1604594279
1604595819
1604597166
1604597385
1604605631
1604607661
1604613091
1604613098
1604615945
1604616207
1604619116
1604622021
1604622832
1604634407
1604642346
1604642366
1604643327
1604647449
1604665111
1604670032
1604673105
1604678519
1604679551
1604684403
1604685568
1604688906
1604690375
1604691287
1604694423
1604694675
1604700189
1604702545
1604705694
1604709934
1604713215
1604714879
1604718771
1604724987
1604729929
1604737085
1604738006
1604747360
1604751074
1604761805
1604766381
1604775748
1604777870
1604783132
1604791206
1604795005
1604816059
1604825591
1604827687
1604827916
1604832056
1604832848
1604836591
1604838780
1604839677
1604841787
1604848526
1604853210
1604856217
1604856518
1604856696
1604858019
1604865065
1604872245
1604898470
1604902886
1604903323
1604910905
1604913948
1604918580
1604939247
1604946937
1604957946
1604959139
1604971566
1604988117
1604992672
1604994778
1604997672
1605000865
1605007182
1605007453
1605014355
1605026760
1605026035
1605034316
1605035856
1605038581
1605047417
1605055757
1605065826
1605069393
1605073428
1605075184
1605075749
1605076153
1605089157
1605093660
1605107916
1605117462
1605120746
1605129911
1605133050
1605145651
1605145874
1605159497
1605165328
1605181466
1605189609
1605192870
1605204541
1605210834
1605218457
1605254828
1605309304
1605319451
1605336537
1605339464
1605342028
1605349126
1605355399
1606038195
1606350831
1606471369
1606564881
1606866735
1606890282
1607081357
1607318367
1607430339
1607748233
1608318959
1608545553
1608710908
1609028834
1609829005
