840010517
840012603
840018520
840019356
840027779
840053227
840070697
840086542
840093789
840107207
840138568
840144517
840159287
840172075
840172032
840177124
840183077
840183160
840185582
840213277
840218111
840234011
840242912
840247081
840248854
840253798
840274861
840278114
840288825
840311652
840316482
840317873
840321047
840326240
840338448
840345009
840351575
840362467
840371848
840375327
840376132
840411887
840422868
840425642
840425761
840448979
840459348
840460897
840478865
840481992
840482014
