960047490
960155552
960258126
960495915
960526547
960616234
960616397
960665110
960686620
960700129
960721943
960743500
960817699
960854062
960857385
960864187
960872918
960888619
960910092
960952953
960996478
961148257
961151357
961175546
961240381
961303492
961358496
961365040
961368697
961374827
961481786
961695984
961745556
961795680
961939748
962054223
962159913
962194554
962260520
962387417
962397195
962464640
962532410
962632430
962638632
962726378
962749381
962767068
