922000696
922001554
922003628
922003866
922010158
922011031
922011928
922014018
922014136
922016356
922017518
922018038
922023274
922023417
922023989
922025034
922000696
922028530
922028549
920000299
921000153
921001674
920003851
920005268
921005849
921006942
921010413
921010308
921011485
921011561
921013718
921014226
920000299
920003851
920005268
920008498
920008576
920009281
920009592
920009853
920010460
920010686
920010771
920011096
920014627
920015707
920018283
920024367
920025330
920027529
920032355
920032707
920033277
920035226
920040966
920041706
920043526
920046641
920047829
920050664
920051697
920052551
920052773
920053988
920054722
920056381
920058099
920059076
920059439
920059559
920062057
920063159
920063408
920066240
920068272
920068385
920068706
920070581
920071384
920074415
920074698
920074933
920076101
920076428
920077986
920078004
920079111
920082859
920082931
920083711
920084008
920085183
920086042
920090923
920092065
920092541
920098435
920100028
920100762
920101627
920101894
920103231
920106848
920108253
920109822
920110765
920112857
920114750
920117100
920117172
920119188
920120443
920123085
920125907
920126803
920130110
920130172
920130898
920130706
