731031648
730104092
730108886
731070207
730186714
731139545
730218762
731151745
730243219
730249542
730288455
731220974
731223734
730302444
730307210
730336974
731589490
731597097
730485387
731646755
731649095
730515250
731711427
731729944
730544401
730550857
730573503
730579712
730579913
730583028
731785714
731786012
731786029
731883248
730699507
731900919
731903418
731930658
731959834
731984671
731986218
732053001
732056638
730786836
730819148
732122616
730832556
1600038868
1600071534
1600141187
1600330633
1600358830
1600360572
1600534215
1600610631
1600621286
1600720574
1600815849
1600842789
1600952712
1601094596
1601364518
1601567960
1600071534
1603161304
1603165164
1603250724
1603281982
1603289277
1603322927
1603395499
1603396028
1603398181
1604016118
1604144641
1604146822
1604248924
1604475746
1604486066
1604565030
1604704221
1604933872
1605021867
1605180249
1605863652
1606683296
1607768317
1607848837
1607909621
1607992114
1608000890
1608333399
1608496977
1608643278
1608765886
1609098801
