730012819
730024615
730050434
1600006577
1600006577
730050434
731110616
730178187
731138682
730228564
730247544
731261632
731263654
731274274
730417902
730420711
731699024
731717445
730616836
731855742
731873380
730701732
731900863
732010437
732073255
730822621
1600006577
1600008786
1600010208
1600027299
1600028075
1600044476
1600061772
1600075828
1600113317
1600116417
1600116992
1600121975
1600130074
1600141591
1600214720
1600216154
1600237419
1600288326
1600394924
1600399009
1600417669
1600425375
1600433327
1600454263
1600491241
1600580383
1600619825
1600621675
1600632020
1600633555
1600643618
1600671529
1600711847
1600735292
1600745977
1600759114
1600785257
1600792039
1600797235
1600847233
1600850232
1600866697
1600892832
1600918419
1600938233
1600942034
1600949511
1600964205
1600964984
1601000448
1601021706
1601047014
1601055557
1601061495
1601090874
1601112914
1601167092
1601197387
1601275351
1601294799
1601310913
1601331108
1601344198
1601358825
1601429157
1601444867
1601459129
1601478267
1601491963
1601520081
1601521222
1601530288
1601596566
1601630257
1601632621
1601722702
1600008786
1603156120
1603157351
1603179573
1603202674
1603228044
1603320303
1603353046
1603354997
1603360878
1603385710
1603387035
1603402083
1603431100
1603435533
1603437293
1603448377
1603478107
1603480089
1603514047
1603567748
1603573093
1603593207
1603631569
1603652817
1603655998
1603666378
1603712162
1603740353
1603781789
1603905004
1604000360
1604005894
1604042826
1604046556
1604048111
1604096796
1604110115
1604113721
1604199633
1604241443
1604300296
1604489511
1604493306
1604540343
1604558207
1604609885
1604632921
1604667323
1604700681
1604728504
1604741248
1604758505
1604761580
1604764438
1604811992
1604824824
1604885556
1604893466
1604895607
1604920659
1604985486
1605014869
1605023042
1605028188
1605037237
1605046573
1605063244
1605116631
1605185623
1605220779
1605307475
1605342711
1605343334
1605353651
1605617682
1606524255
1606876652
1607102853
1607191388
1608135862
1608495373
1608597575
1609353971
1609376172
1609623932
