800000279
800007938
800011893
800015113
801006529
800030019
801008936
800034133
800034051
800037304
800053652
800066756
800067124
800070554
800070867
801016320
800078594
800080326
801023721
800081530
800083195
800085385
800087835
800099014
800099590
801040889
801042042
801042214
801045221
801047007
801047492
801049162
800108552
801050315
801052301
801052656
800112167
800113373
801055227
801058579
801059688
801062364
800122022
801067944
800123996
800125312
801069770
801072070
800132186
800133870
801080911
800140026
801085346
801087113
800144261
800151725
800159932
800160664
800160624
802000898
802003547
800000279
800007938
800011893
800015113
800030019
800034051
800034133
800037304
800053652
800066756
800067124
800070867
800070554
800078594
800080326
800081530
800083195
800085385
800087835
800099590
800108552
800112167
800113373
800116670
800122022
800123996
800125312
800133870
800132186
800140026
800144261
800151725
800159932
800160624
800160664
800172039
800177392
800178211
800179416
800180544
800183857
800185632
800187240
800189787
800197052
800200399
800202217
800219128
800226510
800226947
800234353
800240169
800242543
800244479
800247313
800248388
800260401
800260605
800262666
800268337
800269921
800275722
800281250
800282324
800286186
800289317
800291489
800295989
800296712
800297441
800299782
800302389
800303168
800307352
800309360
800310800
800310894
800311087
800312975
800314684
800319567
800320441
800320466
800325397
800326208
800326381
800332426
800336953
800339336
800347482
800349535
800353135
800358501
800361063
800363738
800366709
800367569
800373002
800381288
800384318
800388929
800394340
800395216
800398383
800400355
800401863
800414562
800425758
800428432
800434455
800436427
800437734
800437873
800445100
800446879
800450019
800454313
800464450
800465238
800465733
800466056
800474103
800474639
800476695
800480620
800485234
800490394
800493853
800497212
800497526
800499599
800506122
800506271
800508575
800509680
800509961
800523252
800529006
800529002
800531177
800531360
800531554
800532246
800534750
800541819
800545808
800550503
800562796
800563787
800569563
800574124
800575493
800575588
800576668
800580581
800582729
800583934
800588963
800590717
800594788
800597667
800601325
800604575
800605810
800621691
800624022
800630208
800642363
800643594
800644600
800649084
800656813
800659732
800661553
800664932
800672900
800674819
800681806
800688182
800688281
800688471
800689194
800705296
800708327
800709354
800713293
800718182
800719162
800729608
800734743
800748609
800750657
800752470
800755773
800762807
800775242
800789824
800790296
800806342
800813126
800814558
800815107
800816890
800821791
800835147
800836663
800839994
800839944
800847821
800855402
800857715
800886113
800887317
800889564
800896389
800899871
800904497
800906743
800912163
800912187
800914379
800916573
800921513
800923884
800925438
800925659
800929848
800931764
800931796
800935576
800942057
800951397
800959310
800962563
800970493
800971680
800979298
800980361
800987581
800989285
800999579
801006529
801008936
801016320
801023721
801040889
801042042
801042214
801045221
801047007
801047492
801049162
801050315
801052301
801052656
801058579
801059688
801062364
801067944
801069770
801072070
801080911
801085346
801087113
801104856
801106748
801109414
801115307
801116568
801117374
801117439
801117662
801116847
801127729
801130221
801139046
801144313
801146286
801150357
801151140
801157925
801159485
801159612
801160043
801162376
801171300
801173543
801188442
801190583
801194924
801195366
801198955
801200247
801204789
801210970
801211038
801211658
801211792
801211988
801226425
801244352
801244634
801245428
801245390
801245699
801252424
801255907
801264677
801264485
801268000
801272511
801274008
801275073
801283342
801287350
801288204
801294417
801296807
801298148
801299655
801301339
801305815
801312525
801313912
801316805
801324552
801335412
801344288
801347987
801358933
801359759
801360833
801361299
801363282
801363241
801367326
801368996
801369901
801371236
801374769
801376006
801376797
801379105
801388253
801388495
801389806
801403450
801408324
801419671
801420117
801426745
801431188
801432281
801437630
801437605
801440916
801443361
801453439
801464991
801466552
801473055
801476818
801481306
801485725
801488080
801497681
801499761
801500679
801503934
801506169
801507871
801509619
801509955
801510035
801512308
801515347
801516172
801518316
801521641
801535960
801536480
801541914
801542962
801554127
801561856
801571207
801576584
801585905
801586305
801589996
801591468
801595804
801603883
801609395
801610091
801612744
801615948
801625258
801627340
801633982
801635347
801636160
801639168
801640503
801647201
801647682
801653654
801657175
801660125
801667843
801668222
801678355
801683807
801686930
801690964
801691013
801692400
801693894
801695664
801697735
801698140
801699108
801708339
801710000
801710920
801719072
801722766
801727290
801729042
801729438
801734286
801734625
801735147
801736192
801739678
801740562
801742127
801749593
801758491
801768088
801772118
801775538
801799341
801804761
801811796
