800028052
800029285
800028903
800031208
800040000
800049885
800056526
801013130
800067879
800070345
801018516
800075589
801026791
801031597
801035280
801042084
800104634
800106449
800107754
801048956
800115657
801057325
801073095
801075194
801076465
801080132
801082106
801082727
801084598
801087665
801088595
800150601
800152417
800152633
801097885
801102217
800160492
801102437
800161127
800161663
802006169
800028052
800028903
800029285
800040000
800049885
800056640
800067879
800070345
800075589
800104634
800106449
800107754
800115657
800150601
800152417
800152633
800160492
800161127
800161663
800162484
800162802
800166456
800180603
800179839
800193951
800195393
800211630
800227029
800227950
800233982
800236689
800242109
800242562
800247786
800251042
800256907
800257445
800273588
800273995
800277300
800282523
800288020
800290195
800309175
800313526
800311760
800315033
800316377
800322895
800337262
800343139
800343167
800356518
800361722
800375812
800380173
800380744
800388359
800388477
800403096
800414415
800419174
800428856
800435561
800441663
800444487
800446694
800448487
800449768
800454903
800456840
800463131
800468848
800474183
800477987
800479281
800484761
800486583
800490765
800502339
800504877
800511124
800518983
800528602
800540419
800556397
800561759
800562836
800566424
800567903
800572573
800574165
800583405
800584995
800587312
800591210
800596136
800608733
800610161
800616645
800619221
800621734
800629294
800631083
800644832
800645060
800645598
800658863
800663839
800668200
800685100
800686706
800690046
800695208
800696284
800715125
800718772
800719893
800721005
800722469
800724229
800726292
800727197
800735541
800740768
800744932
800745328
800751466
800753657
800756359
800764783
800766018
800769355
800772986
800773631
800775290
800795125
800824048
800831658
800833804
800836176
800841819
800847324
800851529
800855500
800862183
800866551
800868478
800870596
800873962
800874317
800877906
800880082
800887373
800881695
800899314
800901468
800903241
800907251
800910147
800914867
800915205
800915895
800925084
800928135
800930411
800954295
800955791
800956278
800968148
800972063
800986823
800987010
800995973
800996481
801000775
801010947
801013130
801018516
801026791
801031597
801035280
801042084
801048956
801057325
801073095
801075194
801076465
801080132
801082106
801082727
801084598
801087665
801088595
801102217
801102437
801097885
801104263
801104211
801110824
801113009
801116727
801116982
801118512
801119518
801130574
801147415
801149935
801150937
801158525
801176940
801208692
801218150
801220563
801221057
801222946
801229177
801238159
801238924
801252938
801257966
801270911
801273868
801284389
801288482
801291470
801294087
801299122
801299965
801313733
801317678
801320540
801323453
801323558
801337252
801338739
801344338
801360792
801366762
801368457
801373317
801378729
801390835
801393083
801403150
801405240
801421903
801426390
801432650
801433192
801449977
801451046
801454370
801457925
801468005
801485027
801494118
801502351
801515983
801518228
801528438
801533211
801533674
801535646
801541950
801546465
801550542
801555563
801557152
801562547
801575803
801581928
801593176
801603140
801605846
801606641
801610140
801610497
801629347
801636549
801636079
801642920
801644121
801654773
801663080
801668137
801678198
801688908
801694809
801699526
801701107
801702619
801704206
801710741
801717521
801719993
801721089
801721387
801721622
801724817
801726771
801732190
801742412
801745687
801751357
801753031
801760574
801764283
801769679
801771529
801786236
801791910
801795376
801797824
801798073
801803634
801805346
801810471
801811511
