960068336
960125630
960169787
960173219
960220314
960268128
960296525
960326653
960336562
960353178
960393425
960435829
960526483
960609083
960615149
960740757
960827113
960861202
960874700
960877462
960887222
960989452
961130295
961148816
961216714
961256860
961341385
961408427
961409220
961436171
961627433
961650562
961671020
961709023
961770032
961988915
962254601
962276349
962297397
962330676
962375662
962396189
962426223
962581690
962586169
962608416
962688181
962694831
962753063
