800003254
800008473
800013414
800041310
800056501
801014146
800070956
800079970
801041873
800106358
800106947
800107780
800110393
800115783
801057972
801068287
801078769
800136480
801080749
801085105
801086306
800149192
800153144
800159306
800003254
800008473
800013414
800041310
800070956
800079970
800106358
800106947
800107780
800110393
800115783
800136480
800149192
800153144
800159306
800162674
800188524
800190226
800202229
800204389
800219451
800234350
800242068
800270888
800280312
800290780
800335365
800338425
800349898
800357023
800361054
800380491
800392504
800413146
800413589
800445338
800453057
800456887
800460741
800477958
800508424
800527192
800543654
800569133
800601338
800609981
800622668
800626664
800626932
800636149
800636941
800653695
800664287
800702899
800713687
800732942
800738727
800754007
800754986
800768291
800815303
800833227
800834218
800854107
800858241
800860985
800869947
800874690
800893584
800896015
800898434
800899601
800900639
800904383
800924047
800935148
800954127
800963938
800976830
800982970
801006275
801014146
801041873
801057972
801068287
801078769
801080749
801085105
801086306
801123171
801126295
801129281
801141307
801165552
801174905
801181635
801188580
801224944
801231805
801253636
801262734
801281919
801287166
801292855
801298039
801302358
801305644
801306485
801307458
801315240
801331067
801371306
801389811
801395173
801411449
801420436
801421732
801477408
801485550
801490743
801493274
801493302
801496554
801527702
801531743
801538732
801540130
801556960
801568219
801578924
801621571
801625276
801638483
801640788
801659605
801660363
801674037
801678586
801678939
801685000
801695198
801721282
801726243
801727804
801731037
801731573
801732874
801738712
801738833
801748225
801755206
801782732
801795239
801800270
801800551
801805023
801809439
