710017425
710105954
710116782
710177633
710318785
710347211
710404925
710452090
710460134
710482087
710483546
710520807
710525201
710580452
710587633
710621178
710622269
710646456
710688537
710778359
710801748
710832315
710834365
710840841
710876490
711059884
711114783
711123777
711130016
711139313
711154813
711219893
711264074
711266059
711384297
711399828
711434339
711445958
711469007
711469838
711505954
711587165
711587921
711600748
711620700
711647355
711672452
711721834
711747041
711790872
711807655
711821224
711836498
711836726
711937549
711946259
711963670
711966416
712019146
712026572
712042305
712084197
712090372
712137872
712249272
712258758
712294429
712425703
712449007
712481644
712519416
712558671
712641741
712705233
712710622
712714862
712725298
712734916
712753513
712796055
712798118
712873325
712937142
712940894
713001942
713004822
713073041
713130683
713135821
713235470
713256681
713360312
713457829
713496369
713521504
