590000154
590000195
590000003
590000428
590000425
590000188
590000529
590000531
590000677
590001057
590001346
590001257
590001302
592000115
592000018
592000172
592000012
592001395
592001250
592001530
592001598
592001900
592001986
592001901
592002177
592002212
592002606
592002945
592002346
592003037
592002455
592003253
592003391
592003266
592003643
592004000
592004703
592004608
592004755
592004964
592005008
592005106
592005089
592005386
592005661
592005715
592005651
592005635
592005965
592005882
592005938
592005578
