730068968
731030092
730155429
730201793
731228151
731264118
731581533
730451594
730482418
731757072
730608445
730610123
731883545
730699484
731928418
730834153
1600593242
1600761829
1600824834
1601399573
1601582593
1603215523
1603395258
1603944789
1604403926
1605183945
1605214111
1607625706
1608240767
1608917196
1609259335
1609360258
1609941006
