710441296
710648411
710878731
710907804
710965511
711131732
711247689
711312948
711494268
711515022
711792624
711879110
711937614
712188983
712349412
712373004
712378327
712468313
712628519
712742512
712758320
712862489
713178853
713297978
713420301
713459566
713495701
