800122569
800122569
800190351
800254813
800301281
800349655
800350341
800352512
800423193
800533523
800542347
800550395
800575186
800672839
800690017
800704106
800843441
800918599
800971243
801130489
801135991
801156173
801157493
801173363
801201676
801317000
801319723
801325775
801452166
801517207
801563383
801611019
801678417
801754663
