730019269
730022163
730029851
730037568
1600001295
1600001295
1600001295
1600001725
1600002433
1600003263
1600003784
1600003784
1600004316
1600004316
1600004942
1600006111
1600006111
1600006111
1600007132
1600007132
1600007132
730029851
730037568
730075385
731019623
731022058
731031587
730096982
730111492
730117801
730117979
730120121
731058937
730127521
730128024
730150374
731100221
730165871
730167915
731106052
730173103
731114330
731118847
730192158
731126768
731127293
731137121
731139374
731145809
730218920
731153307
731153191
730233391
731166324
731168520
731175325
731178503
731178820
731183084
730257555
730258222
730269320
731200387
731200426
731204973
731207934
731218252
730292082
730293162
731220525
730306377
730308076
730310292
731237689
731241249
731255570
731256071
731256334
730337618
731266420
731268475
731269322
730346432
731538403
731539556
730403757
731542692
730406562
730407279
731550068
731551053
730412269
731553918
730420724
730421850
731561089
731565552
730427730
731566958
731568192
731570108
731572035
730445377
730446219
731598949
731611067
731620865
730481839
730484413
731626374
731627447
730493756
730495918
730497857
731639451
731643960
731645304
731646022
731646909
730506436
730508743
731650529
731650750
731654078
731659619
731673219
731686308
731716348
730526223
730530109
731728474
731729969
730546664
730568262
730568664
731763549
730575148
731772514
730579798
731773257
730590542
730590454
730594695
731789570
730595354
730596184
730601944
730609102
731806331
730613626
730617264
731822675
731831440
730647068
731859259
730673970
730673831
731871233
731871940
731873214
730678992
731875324
731878401
731891317
731900353
731909284
731924122
731927367
731935187
731945572
731952028
731956354
731961488
731969681
731977890
731978382
730706584
730707300
732005754
732012313
730719191
730722156
730724973
732025180
732025134
732025389
732025602
730737487
730743372
732052513
732055423
732059406
730767450
730787601
730806410
732104652
732104806
730822823
730832099
732128121
732132691
1600001295
1600001725
1600002433
1600003263
1600003784
1600004942
1600007132
1600009161
1600010894
1600011018
1600011255
1600012118
1600012414
1600012631
1600013038
1600013211
1600013532
1600014093
1600015637
1600016327
1600016567
1600017673
1600018039
1600018091
1600020650
1600020999
1600020557
1600022220
1600022499
1600023257
1600025365
1600025987
1600026369
1600026589
1600027642
1600027744
1600028802
1600029437
1600031300
1600031326
1600033110
1600033239
1600033474
1600034611
1600035819
1600036382
1600036932
1600037694
1600037761
1600037950
1600038359
1600039469
1600039469
1600039635
1600039855
1600039921
1600040148
1600040504
1600042362
1600044193
1600045826
1600045883
1600048895
1600049002
1600049908
1600050143
1600050740
1600050927
1600051297
1600052635
1600052985
1600053811
1600055716
1600055801
1600056010
1600057358
1600057651
1600057660
1600057984
1600059096
1600059647
1600060938
1600061906
1600063664
1600063727
1600064368
1600065716
1600066131
1600066294
1600066711
1600066901
1600067278
1600067796
1600068095
1600068450
1600068591
1600068627
1600069116
1600069275
1600069837
1600070322
1600070349
1600070494
1600071039
1600071975
1600072321
1600072601
1600075319
1600075184
1600075892
1600076003
1600078072
1600079651
1600080148
1600080885
1600080977
1600081695
1600081787
1600081888
1600081389
1600083060
1600083444
1600083560
1600083787
1600084459
1600084867
1600085110
1600089035
1600089175
1600089426
1600091362
1600091358
1600091595
1600092341
1600092398
1600092796
1600093155
1600093174
1600093837
1600093942
1600094045
1600094182
1600095101
1600095117
1600096041
1600096220
1600096393
1600096629
1600098133
1600099652
1600100546
1600100889
1600101773
1600102436
1600102776
1600103501
1600103967
1600104929
1600105526
1600105874
1600106093
1600106524
1600106675
1600106961
1600107241
1600108227
1600108280
1600108227
1600108384
1600108338
1600108825
1600109161
1600111825
1600112659
1600112804
1600112919
1600114133
1600114427
1600114720
1600115334
1600115686
1600115718
1600118039
1600118746
1600118920
1600119717
1600120328
1600120431
1600120529
1600121797
1600121857
1600122305
1600122449
1600122781
1600124259
1600124972
1600125408
1600125638
1600125362
1600125869
1600126410
1600126630
1600127754
1600128969
1600129306
1600131756
1600131954
1600132687
1600135230
1600135485
1600135666
1600136513
1600138152
1600138586
1600138667
1600139292
1600139741
1600140177
1600140710
1600141075
1600141648
1600141686
1600142164
1600141998
1600142533
1600143842
1600144056
1600144245
1600144545
1600144721
1600145175
1600146310
1600146366
1600147197
1600147010
1600148153
1600148176
1600148358
1600149055
1600150309
1600150692
1600150723
1600150820
1600150872
1600151274
1600151440
1600151569
1600151896
1600151918
1600152719
1600153385
1600153967
1600155091
1600155931
1600156259
1600156633
1600157064
1600158771
1600158838
1600158866
1600159221
1600159467
1600160251
1600162294
1600162395
1600162594
1600163112
1600164360
1600164607
1600165108
1600165669
1600165824
1600166002
1600168680
1600168946
1600169173
1600169592
1600170571
1600171173
1600171574
1600172266
1600173297
1600173474
1600174786
1600175235
1600175448
1600176000
1600178952
1600179070
1600179575
1600179974
1600180417
1600180580
1600182710
1600184261
1600186292
1600187100
1600187211
1600187637
1600187793
1600187911
1600187993
1600189098
1600189178
1600189539
1600190544
1600190919
1600190911
1600191518
1600191545
1600193329
1600193436
1600195040
1600195181
1600196291
1600196394
1600197063
1600197381
1600197680
1600199245
1600199627
1600200500
1600205769
1600206220
1600208462
1600208797
1600210036
1600209994
1600210688
1600210693
1600211219
1600211543
1600212376
1600212838
1600214013
1600215195
1600215597
1600216085
1600216983
1600217078
1600217818
1600218202
1600218315
1600218798
1600218850
1600218964
1600219603
1600220976
1600220985
1600221121
1600221442
1600222095
1600223070
1600223200
1600224325
1600224711
1600224911
1600225135
1600225809
1600225815
1600226354
1600228219
1600229184
1600229243
1600229976
1600230395
1600231288
1600231385
1600231463
1600232776
1600232910
1600233618
1600233755
1600234507
1600234603
1600235425
1600236365
1600236493
1600237422
1600237577
1600239478
1600240294
1600240627
1600240969
1600241999
1600242341
1600242455
1600244504
1600244826
1600245242
1600245315
1600245770
1600246656
1600247427
1600249177
1600249426
1600250047
1600252440
1600253685
1600254443
1600254428
1600254633
1600255179
1600255727
1600255932
1600255951
1600256100
1600256160
1600256611
1600257050
1600257673
1600258394
1600258521
1600258631
1600258719
1600258824
1600259116
1600259975
1600260644
1600261257
1600262772
1600263020
1600263288
1600263603
1600263645
1600264568
1600264582
1600265027
1600265714
1600265949
1600266567
1600266679
1600267362
1600267360
1600267690
1600267920
1600267884
1600268245
1600268449
1600268754
1600269636
1600270217
1600271310
1600271649
1600273839
1600274459
1600274682
1600275409
1600275829
1600276265
1600276460
1600276865
1600277095
1600277080
1600277415
1600277932
1600278226
1600279479
1600280555
1600281166
1600282251
1600282437
1600283035
1600283476
1600283682
1600283626
1600283740
1600285542
1600285649
1600286241
1600286266
1600286612
1600288225
1600288813
1600290357
1600291405
1600291472
1600291185
1600292284
1600293246
1600293921
1600293168
1600295598
1600295701
1600296492
1600297971
1600298223
1600298798
1600298880
1600299792
1600300556
1600300849
1600300927
1600302725
1600302752
1600302904
1600304170
1600304374
1600304827
1600304694
1600305248
1600305766
1600306024
1600306228
1600307845
1600309576
1600309934
1600310033
1600310984
1600310755
1600311594
1600311770
1600313143
1600313756
1600315375
1600315861
1600316208
1600316880
1600317039
1600318466
1600318584
1600318805
1600318925
1600320063
1600321783
1600322235
1600322278
1600323063
1600324075
1600324242
1600324248
1600325699
1600326056
1600327062
1600327616
1600327528
1600327769
1600327669
1600328309
1600328727
1600328029
1600330143
1600330500
1600331238
1600332108
1600332289
1600333007
1600333224
1600334294
1600334889
1600335094
1600335157
1600336484
1600337115
1600337399
1600340147
1600341014
1600341431
1600341392
1600341675
1600342089
1600343490
1600344592
1600344898
1600345306
1600345708
1600346250
1600346604
1600347434
1600347947
1600348608
1600348559
1600349303
1600349447
1600349666
1600350608
1600351397
1600353489
1600353583
1600354500
1600354911
1600354944
1600355057
1600355877
1600357800
1600358392
1600358747
1600358903
1600359039
1600359110
1600359759
1600360153
1600360891
1600361970
1600362139
1600362788
1600363401
1600363988
1600364180
1600364226
1600364181
1600364378
1600364623
1600365235
1600365906
1600365935
1600366684
1600367119
1600367393
1600367575
1600369103
1600369617
1600369585
1600369848
1600370280
1600370664
1600372167
1600372283
1600373047
1600372936
1600373150
1600373805
1600373838
1600374560
1600375699
1600376197
1600376620
1600377432
1600377959
1600378045
1600379081
1600381293
1600382880
1600383714
1600384070
1600386391
1600386513
1600386701
1600387382
1600387515
1600388873
1600388995
1600389178
1600391140
1600391534
1600391663
1600392733
1600393118
1600393968
1600394004
1600394598
1600395286
1600395299
1600395828
1600395994
1600396852
1600397741
1600398391
1600398625
1600399897
1600400135
1600400757
1600401554
1600401632
1600401719
1600402104
1600402076
1600402180
1600403242
1600403514
1600403573
1600403601
1600404258
1600404449
1600405164
1600407429
1600407556
1600407764
1600407831
1600408519
1600409151
1600409123
1600409795
1600409841
1600411246
1600411754
1600412466
1600413757
1600414951
1600415129
1600415426
1600415626
1600416326
1600416374
1600416416
1600417324
1600417644
1600417656
1600418469
1600418963
1600419040
1600420291
1600421010
1600421527
1600422446
1600422634
1600424145
1600424323
1600426785
1600426823
1600427051
1600427399
1600427622
1600428461
1600428495
1600428874
1600429204
1600429169
1600429766
1600429885
1600430251
1600430855
1600431451
1600431784
1600431801
1600432507
1600432786
1600434267
1600435332
1600435655
1600436189
1600436313
1600436622
1600437341
1600437622
1600437719
1600437928
1600438172
1600440431
1600440912
1600441525
1600443983
1600444230
1600445051
1600445102
1600445611
1600446464
1600447326
1600447733
1600448015
1600448127
1600448976
1600451212
1600451923
1600452086
1600452095
1600452627
1600452467
1600453434
1600454213
1600455244
1600455402
1600455691
1600456341
1600456564
1600456720
1600457856
1600458377
1600459593
1600459665
1600459831
1600460622
1600462714
1600464180
1600464727
1600465721
1600465666
1600465805
1600466664
1600467204
1600468202
1600470056
1600471689
1600472022
1600472579
1600476412
1600476466
1600477566
1600478120
1600478125
1600479919
1600481352
1600482006
1600482450
1600482710
1600482709
1600483466
1600484851
1600485568
1600486447
1600487492
1600487877
1600488308
1600488381
1600488677
1600489323
1600489368
1600489492
1600489754
1600490517
1600491766
1600492651
1600493239
1600493806
1600495107
1600495078
1600495311
1600495319
1600495412
1600496082
1600496240
1600496868
1600496880
1600497025
1600497347
1600497484
1600498546
1600499298
1600499740
1600500267
1600500468
1600500754
1600502241
1600503552
1600503967
1600504041
1600505716
1600506117
1600507126
1600507917
1600508378
1600508842
1600509523
1600509790
1600510015
1600510100
1600510117
1600510523
1600512191
1600512553
1600514988
1600515937
1600516636
1600517116
1600517250
1600521489
1600521790
1600521864
1600522082
1600522322
1600523165
1600523747
1600523907
1600525894
1600526044
1600526721
1600527038
1600527090
1600527412
1600527774
1600528939
1600530417
1600531108
1600531843
1600532549
1600532836
1600533450
1600534143
1600535308
1600536118
1600536658
1600536793
1600537099
1600537497
1600538438
1600538775
1600539044
1600539641
1600540297
1600541517
1600543215
1600544186
1600545505
1600545592
1600545887
1600546556
1600547367
1600548617
1600549132
1600549478
1600550050
1600550152
1600551104
1600551246
1600551400
1600551514
1600552358
1600553189
1600553310
1600553709
1600554097
1600554048
1600554162
1600554240
1600554453
1600554514
1600554882
1600555534
1600556011
1600557986
1600558823
1600560227
1600560766
1600560924
1600561219
1600561612
1600561867
1600564021
1600564571
1600564585
1600565185
1600565257
1600565425
1600566362
1600568152
1600568782
1600568833
1600569005
1600569893
1600571368
1600573136
1600574606
1600575276
1600576075
1600576729
1600577240
1600578889
1600578993
1600580154
1600580291
1600581618
1600581812
1600581876
1600583568
1600585377
1600585998
1600586165
1600586270
1600586410
1600586692
1600586940
1600587048
1600587679
1600588729
1600588633
1600588850
1600588875
1600589275
1600590216
1600590520
1600590572
1600591567
1600591806
1600592251
1600592385
1600592593
1600592729
1600593037
1600593183
1600593303
1600593291
1600593638
1600594016
1600594238
1600594431
1600594748
1600594933
1600595133
1600595948
1600596032
1600597266
1600597475
1600598245
1600598656
1600598696
1600599255
1600599347
1600600641
1600601100
1600601696
1600601711
1600601749
1600603162
1600603814
1600605087
1600605328
1600605989
1600606802
1600607501
1600609459
1600609568
1600609796
1600609936
1600610067
1600610108
1600610075
1600610686
1600612378
1600612746
1600613579
1600613763
1600615056
1600615081
1600615939
1600616469
1600616448
1600616519
1600616607
1600616819
1600617374
1600617356
1600618259
1600618430
1600620686
1600620736
1600622349
1600623168
1600625568
1600626029
1600627374
1600629007
1600629282
1600629440
1600629591
1600630192
1600630733
1600631124
1600631204
1600631272
1600631608
1600632184
1600632586
1600632760
1600633180
1600633275
1600633638
1600633710
1600633912
1600634883
1600636372
1600636516
1600636823
1600637626
1600637932
1600638397
1600638696
1600639511
1600640196
1600640718
1600642333
1600644738
1600645027
1600645244
1600645700
1600646133
1600648096
1600649236
1600649975
1600649977
1600650069
1600650133
1600650369
1600650601
1600650649
1600650926
1600651277
1600651659
1600652658
1600653864
1600654506
1600655366
1600655634
1600656070
1600656881
1600657610
1600657691
1600657931
1600658508
1600658517
1600659831
1600660756
1600661275
1600662382
1600662754
1600663421
1600663479
1600663519
1600663594
1600663920
1600664466
1600667052
1600667454
1600667343
1600670016
1600670093
1600670146
1600670585
1600670672
1600671127
1600671204
1600672213
1600672944
1600674873
1600675747
1600676692
1600676941
1600677985
1600678130
1600678352
1600678325
1600678481
1600679749
1600679939
1600680245
1600680344
1600680546
1600681288
1600681890
1600682201
1600683010
1600683305
1600683466
1600683522
1600683523
1600683996
1600684790
1600685593
1600686070
1600686579
1600686813
1600687844
1600688036
1600688511
1600688574
1600688862
1600689213
1600689219
1600689688
1600689977
1600690282
1600690740
1600692083
1600692850
1600693152
1600693863
1600695619
1600695731
1600697210
1600697797
1600697980
1600699653
1600701811
1600702102
1600703322
1600703652
1600703691
1600704242
1600704464
1600705389
1600706091
1600706648
1600707115
1600707828
1600707848
1600709360
1600709433
1600710302
1600711271
1600711926
1600712089
1600712171
1600712667
1600714061
1600715413
1600715905
1600717352
1600717546
1600717823
1600717559
1600718672
1600719742
1600721569
1600721697
1600722044
1600722630
1600722703
1600723648
1600724100
1600724198
1600724304
1600724726
1600725097
1600725615
1600726900
1600727230
1600727531
1600727580
1600727992
1600728748
1600729279
1600729386
1600730201
1600731589
1600732820
1600733159
1600733142
1600733429
1600733754
1600736141
1600737374
1600738262
1600738284
1600738581
1600738905
1600738902
1600739107
1600740816
1600741659
1600743274
1600744148
1600746483
1600746446
1600747296
1600747430
1600747554
1600747611
1600747901
1600747964
1600748237
1600751371
1600752984
1600753976
1600754592
1600755029
1600755143
1600755127
1600755272
1600755127
1600755537
1600756240
1600756624
1600757388
1600758268
1600758722
1600758742
1600759348
1600760097
1600760958
1600761290
1600761715
1600762363
1600762442
1600763358
1600763711
1600764359
1600764427
1600764906
1600765490
1600765537
1600767374
1600768148
1600768331
1600768580
1600768888
1600769694
1600770651
1600770771
1600770799
1600770879
1600773504
1600774989
1600775039
1600776533
1600777205
1600779654
1600779268
1600780332
1600780386
1600780418
1600780664
1600781638
1600782455
1600782590
1600783017
1600783398
1600784082
1600785459
1600786359
1600786898
1600788078
1600788246
1600788355
1600788963
1600788990
1600789155
1600789229
1600790282
1600790873
1600791528
1600792589
1600792910
1600794206
1600794526
1600796062
1600795991
1600796198
1600796671
1600797018
1600797749
1600797854
1600798993
1600799392
1600800805
1600802459
1600803068
1600803332
1600803321
1600804276
1600807257
1600807950
1600808024
1600809762
1600809995
1600810141
1600810351
1600810556
1600810827
1600810997
1600811041
1600811395
1600812093
1600812464
1600812834
1600812954
1600813275
1600813295
1600813475
1600814808
1600815479
1600815543
1600815812
1600817007
1600817092
1600818348
1600818386
1600819471
1600820851
1600821321
1600822069
1600822108
1600822701
1600826297
1600826800
1600827192
1600827175
1600827329
1600827854
1600827982
1600829505
1600830925
1600831373
1600831634
1600831303
1600833076
1600833499
1600834035
1600835896
1600838177
1600838251
1600839047
1600839249
1600839228
1600839652
1600839752
1600839933
1600841616
1600842404
1600842797
1600842781
1600843085
1600844212
1600848878
1600849549
1600849878
1600851332
1600851846
1600851986
1600853448
1600853798
1600854976
1600855084
1600855393
1600855834
1600856663
1600856674
1600856869
1600858599
1600860014
1600860116
1600860162
1600860329
1600861460
1600861455
1600862167
1600862399
1600863108
1600863338
1600864645
1600865235
1600865928
1600866161
1600867010
1600867074
1600867749
1600867884
1600868367
1600869364
1600870417
1600873274
1600874812
1600874862
1600875430
1600875836
1600875868
1600876174
1600876633
1600877210
1600877394
1600879282
1600880346
1600880827
1600881565
1600882645
1600883455
1600883758
1600883840
1600883796
1600884249
1600884385
1600885175
1600885568
1600886194
1600886999
1600887266
1600887462
1600887504
1600887555
1600888667
1600890811
1600891044
1600891114
1600892059
1600892399
1600894309
1600894388
1600894415
1600894593
1600894821
1600895123
1600895577
1600896436
1600896530
1600898090
1600898572
1600890028
1600899561
1600900410
1600900348
1600900749
1600901930
1600901968
1600902300
1600903486
1600903420
1600903612
1600903839
1600904364
1600905391
1600906803
1600906910
1600907611
1600907614
1600908365
1600908520
1600910152
1600911965
1600911853
1600912588
1600912586
1600912849
1600912981
1600913024
1600915016
1600915293
1600916733
1600917689
1600917911
1600918166
1600919246
1600919346
1600919877
1600919908
1600920394
1600920599
1600921381
1600921916
1600923151
1600923189
1600924907
1600925582
1600926763
1600927527
1600928013
1600927986
1600928455
1600928615
1600928977
1600929107
1600929133
1600929867
1600929967
1600930066
1600930989
1600931012
1600932124
1600932525
1600933327
1600934350
1600935518
1600936149
1600937847
1600941907
1600942595
1600942710
1600943495
1600943590
1600943754
1600945096
1600945443
1600945529
1600945620
1600946385
1600946539
1600947378
1600947865
1600948246
1600949047
1600950250
1600951647
1600952688
1600952793
1600953043
1600954903
1600957430
1600957838
1600958137
1600958211
1600958397
1600958734
1600958880
1600959225
1600959340
1600959537
1600959537
1600959622
1600959753
1600959727
1600961553
1600961856
1600962562
1600963589
1600963703
1600963540
1600964383
1600964487
1600965007
1600965147
1600965504
1600965702
1600965852
1600966352
1600966646
1600967659
1600967924
1600968730
1600969010
1600969183
1600968950
1600969994
1600972780
1600972929
1600974052
1600974030
1600975791
1600976049
1600976410
1600976972
1600977069
1600977548
1600977620
1600978012
1600978194
1600978327
1600978347
1600979255
1600980312
1600980899
1600981140
1600981160
1600981682
1600982423
1600987044
1600987148
1600987129
1600987560
1600988163
1600988146
1600988429
1600989811
1600990855
1600990933
1600991695
1600991861
1600992111
1600992149
1600993197
1600993305
1600993330
1600994750
1600995537
1600996109
1600997178
1600997286
1600998597
1600998667
1600999146
1600999433
1601000319
1601000565
1601000837
1601001071
1601001820
1601002618
1601003040
1601004281
1601004441
1601005062
1601005556
1601005757
1601005907
1601006086
1601006217
1601007226
1601007993
1601008873
1601010222
1601010685
1601012300
1601012413
1601012768
1601013659
1601014874
1601015073
1601015226
1601015098
1601016876
1601017207
1601017527
1601018442
1601018905
1601019089
1601019122
1601019679
1601019876
1601019993
1601019949
1601020267
1601020782
1601021112
1601021113
1601021790
1601022368
1601022776
1601023132
1601023623
1601023734
1601023946
1601024379
1601024613
1601024738
1601025059
1601025155
1601026211
1601026225
1601027321
1601027923
1601028516
1601029473
1601030262
1601030712
1601030970
1601031403
1601031693
1601031789
1601032144
1601032694
1601033819
1601034617
1601034597
1601034870
1601036480
1601039587
1601039958
1601040240
1601040293
1601040501
1601042368
1601043263
1601044127
1601046307
1601046837
1601047331
1601047835
1601048957
1601049198
1601050269
1601050419
1601050469
1601050724
1601051618
1601051735
1601052420
1601052596
1601053967
1601055639
1601055977
1601056493
1601057713
1601058474
1601059682
1601059775
1601060566
1601060643
1601061019
1601061484
1601061555
1601061531
1601061855
1601061986
1601062327
1601062348
1601062482
1601062567
1601062729
1601063035
1601063725
1601064436
1601065486
1601065706
1601065787
1601066069
1601066838
1601066952
1601067182
1601069206
1601070760
1601071681
1601073495
1601073859
1601073970
1601074832
1601075546
1601075716
1601076405
1601076989
1601077943
1601079951
1601080446
1601081789
1601082237
1601082292
1601082778
1601082905
1601083377
1601084453
1601085949
1601087280
1601087493
1601088135
1601089396
1601090028
1601090794
1601091618
1601092224
1601092612
1601093249
1601093384
1601093578
1601094231
1601094458
1601094775
1601094820
1601095429
1601096153
1601096488
1601096916
1601097110
1601097263
1601098333
1601100805
1601100848
1601103119
1601103260
1601105392
1601105732
1601105796
1601106018
1601105617
1601106271
1601107006
1601107574
1601107657
1601109850
1601110116
1601111702
1601112221
1601112654
1601113219
1601113783
1601115537
1601116367
1601116354
1601116652
1601117061
1601118492
1601118108
1601119190
1601119869
1601120345
1601120377
1601120455
1601120620
1601121430
1601121633
1601122027
1601123662
1601124485
1601125259
1601125919
1601126075
1601127565
1601128598
1601129589
1601129952
1601130029
1601131480
1601131967
1601132854
1601133551
1601133988
1601134671
1601134991
1601135614
1601137985
1601138522
1601138964
1601139107
1601139332
1601139789
1601139868
1601140953
1601141051
1601141329
1601141494
1601141831
1601142587
1601142990
1601143053
1601143843
1601144752
1601145207
1601146088
1601146192
1601146264
1601146583
1601146704
1601146803
1601149966
1601150132
1601150242
1601151562
1601152606
1601153229
1601153376
1601153826
1601154917
1601155426
1601155938
1601156548
1601156576
1601157130
1601157921
1601158616
1601159091
1601159599
1601160367
1601160971
1601161261
1601162624
1601162624
1601163260
1601164205
1601164580
1601165110
1601167537
1601167633
1601168258
1601169197
1601169604
1601170271
1601170249
1601171033
1601171256
1601172628
1601172725
1601173090
1601173211
1601173481
1601174542
1601174935
1601175961
1601176543
1601176969
1601177034
1601177802
1601178189
1601178595
1601178602
1601179442
1601179469
1601179572
1601180223
1601180723
1601182568
1601183974
1601184036
1601184502
1601184474
1601184738
1601185208
1601185552
1601188482
1601188877
1601189252
1601189575
1601190226
1601190521
1601190673
1601191140
1601192086
1601192419
1601193020
1601193664
1601194384
1601194891
1601195884
1601196341
1601197233
1601197971
1601198616
1601199589
1601199810
1601199902
1601200550
1601201416
1601203082
1601203255
1601204114
1601204126
1601204301
1601204748
1601204950
1601205337
1601205308
1601207102
1601208350
1601208799
1601209066
1601210119
1601210580
1601211049
1601211086
1601211882
1601212266
1601212409
1601212594
1601212645
1601214166
1601214891
1601214918
1601215923
1601216804
1601216854
1601217932
1601217887
1601218454
1601218659
1601219837
1601220476
1601220560
1601222300
1601222453
1601223289
1601223441
1601223921
1601224254
1601224577
1601225724
1601225842
1601227149
1601227254
1601227789
1601228512
1601228658
1601228719
1601228754
1601228822
1601230835
1601231219
1601232532
1601233957
1601234002
1601234264
1601234406
1601235082
1601235159
1601235724
1601235802
1601236266
1601237160
1601237353
1601237748
1601238597
1601239103
1601239795
1601239807
1601240124
1601240833
1601241642
1601242410
1601242473
1601245489
1601245759
1601245879
1601247309
1601247546
1601247553
1601247650
1601249469
1601249619
1601250172
1601250910
1601251187
1601251896
1601252230
1601252379
1601254880
1601255841
1601256278
1601256436
1601257020
1601257361
1601257421
1601257970
1601257941
1601258951
1601259676
1601266048
1601266299
1601268042
1601269352
1601270058
1601270523
1601272169
1601272509
1601272563
1601272824
1601273422
1601273909
1601274013
1601276411
1601277749
1601278135
1601278499
1601278769
1601279059
1601279097
1601279345
1601279347
1601279943
1601280038
1601280649
1601282184
1601283096
1601283360
1601284308
1601284486
1601285779
1601286140
1601286444
1601287031
1601287059
1601290035
1601290024
1601290426
1601291584
1601292168
1601292642
1601293415
1601293465
1601293638
1601293865
1601294274
1601294279
1601294820
1601295036
1601295271
1601295683
1601295912
1601295903
1601296048
1601296378
1601296675
1601297023
1601297386
1601298837
1601299722
1601299853
1601299924
1601300448
1601302749
1601303395
1601303644
1601303669
1601305004
1601306240
1601308192
1601308280
1601308518
1601308922
1601309242
1601309370
1601309571
1601312787
1601314097
1601316734
1601317188
1601317434
1601318704
1601319021
1601318946
1601319064
1601319173
1601319567
1601320454
1601320703
1601322042
1601322112
1601322201
1601322848
1601322955
1601323644
1601324610
1601324659
1601324849
1601325066
1601326438
1601326626
1601328462
1601329220
1601330860
1601331332
1601331636
1601331859
1601332137
1601333644
1601333657
1601334047
1601334681
1601335129
1601335710
1601336952
1601337264
1601338390
1601338488
1601339200
1601339605
1601340454
1601340693
1601341553
1601341923
1601342329
1601343091
1601343085
1601343849
1601344204
1601345018
1601345188
1601346394
1601346509
1601346467
1601347275
1601347709
1601348532
1601348566
1601350121
1601351125
1601354276
1601354350
1601355450
1601356313
1601356828
1601357068
1601358160
1601358366
1601359039
1601359279
1601360535
1601361889
1601362820
1601363353
1601363428
1601363429
1601363598
1601364719
1601365052
1601365380
1601365916
1601366315
1601366699
1601367240
1601367172
1601367670
1601368126
1601368064
1601369438
1601369582
1601369572
1601370352
1601370504
1601370475
1601371276
1601371644
1601372086
1601372247
1601372733
1601372765
1601372989
1601374081
1601376007
1601377349
1601378343
1601378826
1601380228
1601380296
1601380668
1601381403
1601381721
1601382508
1601382570
1601382578
1601382601
1601382664
1601382698
1601382876
1601383155
1601384581
1601384410
1601384716
1601384817
1601385621
1601386975
1601387675
1601388510
1601388790
1601392267
1601392352
1601393304
1601393538
1601394443
1601394972
1601395604
1601395675
1601396241
1601396617
1601397075
1601397356
1601397808
1601398433
1601398724
1601399840
1601400379
1601400837
1601402237
1601403100
1601403227
1601403423
1601403584
1601404062
1601404432
1601405193
1601405372
1601405416
1601407697
1601407731
1601407732
1601409959
1601410750
1601412053
1601412811
1601413324
1601413538
1601413875
1601413920
1601414922
1601415864
1601416307
1601416646
1601416832
1601417788
1601418232
1601419095
1601419082
1601419382
1601419839
1601422180
1601422345
1601423583
1601423715
1601423912
1601425520
1601426083
1601426461
1601426737
1601426804
1601427250
1601427766
1601428193
1601428356
1601429139
1601429614
1601431318
1601431478
1601431855
1601432400
1601432387
1601433695
1601434172
1601434301
1601434295
1601434484
1601434665
1601435195
1601435218
1601435626
1601436404
1601436879
1601437841
1601437920
1601437904
1601438701
1601438867
1601439417
1601440248
1601440329
1601440768
1601441068
1601441447
1601443433
1601443856
1601443967
1601443982
1601444648
1601444692
1601445172
1601445893
1601446044
1601446509
1601446945
1601447007
1601446998
1601447336
1601448299
1601448375
1601448891
1601449281
1601449258
1601449414
1601449572
1601451530
1601451976
1601452183
1601452296
1601452714
1601453968
1601454178
1601454915
1601455200
1601456096
1601456493
1601457174
1601457331
1601457597
1601457825
1601458183
1601458827
1601458853
1601459335
1601460777
1601460835
1601461737
1601461869
1601462516
1601463144
1601463830
1601463874
1601464173
1601464465
1601464471
1601465668
1601467308
1601469083
1601469528
1601470325
1601470443
1601470993
1601471409
1601473505
1601474790
1601476148
1601476588
1601476967
1601477078
1601478044
1601478701
1601479832
1601481654
1601482236
1601482569
1601483025
1601483081
1601483392
1601485338
1601485545
1601486026
1601486970
1601487036
1601488677
1601488718
1601488806
1601489859
1601490575
1601490898
1601490691
1601492202
1601492324
1601492320
1601494762
1601495283
1601495661
1601496087
1601497242
1601497623
1601497410
1601497995
1601498753
1601498971
1601499141
1601499621
1601499717
1601499820
1601500366
1601500377
1601501649
1601501711
1601502137
1601502415
1601502908
1601503380
1601504467
1601504693
1601504884
1601505654
1601506373
1601506756
1601506997
1601507262
1601507834
1601507875
1601507930
1601508180
1601508731
1601508822
1601508878
1601509092
1601509120
1601509260
1601509233
1601510529
1601510865
1601512690
1601512791
1601513791
1601513921
1601514850
1601514898
1601515707
1601516759
1601516910
1601518542
1601519712
1601519849
1601520511
1601520792
1601521507
1601524017
1601524119
1601524598
1601525481
1601525244
1601525927
1601526347
1601529133
1601530780
1601530892
1601531692
1601533034
1601533204
1601533555
1601533687
1601533967
1601534745
1601535232
1601536177
1601536472
1601537661
1601537771
1601538338
1601541215
1601541367
1601541449
1601541612
1601541750
1601541773
1601542455
1601542471
1601544377
1601545988
1601546529
1601546653
1601547079
1601547500
1601547616
1601547663
1601548062
1601548279
1601548325
1601548876
1601548923
1601549605
1601550590
1601551032
1601551038
1601551937
1601552621
1601552554
1601554149
1601554788
1601555534
1601555903
1601556629
1601557640
1601558078
1601557976
1601558472
1601558588
1601559176
1601560138
1601560662
1601560655
1601562761
1601563556
1601564584
1601564624
1601564954
1601565934
1601566202
1601566676
1601567329
1601568606
1601569664
1601569545
1601570250
1601570434
1601570483
1601570635
1601571144
1601570818
1601571351
1601572712
1601572934
1601573674
1601573854
1601574503
1601577217
1601578051
1601580256
1601581585
1601581771
1601582104
1601582415
1601583721
1601584384
1601584997
1601585203
1601585690
1601586598
1601586932
1601587332
1601588127
1601588316
1601589422
1601589529
1601589975
1601590721
1601591939
1601592421
1601592896
1601592824
1601593405
1601594132
1601595341
1601596182
1601596351
1601596843
1601597935
1601598047
1601598339
1601598896
1601599207
1601600437
1601600496
1601601765
1601601783
1601602000
1601602430
1601603037
1601603247
1601603848
1601604260
1601604329
1601604316
1601605267
1601605415
1601605506
1601605767
1601606916
1601607261
1601607584
1601608577
1601609025
1601609433
1601609799
1601610313
1601610783
1601611590
1601612724
1601613822
1601614072
1601614083
1601614362
1601614549
1601614666
1601615344
1601615612
1601617418
1601617678
1601617651
1601618360
1601618736
1601619727
1601621666
1601622039
1601622262
1601623459
1601624088
1601624932
1601626159
1601626662
1601626601
1601627201
1601627715
1601627802
1601628157
1601628330
1601628733
1601628689
1601629894
1601629944
1601630182
1601631936
1601632724
1601633263
1601633524
1601634123
1601634444
1601635005
1601635836
1601636184
1601636459
1601637052
1601639759
1601641593
1601642237
1601642318
1601642491
1601642914
1601643370
1601643920
1601644261
1601644758
1601645118
1601645198
1601645342
1601645654
1601646973
1601647391
1601647961
1601647942
1601648163
1601648288
1601649194
1601649379
1601649505
1601650806
1601651660
1601651822
1601651997
1601652200
1601653473
1601653814
1601654048
1601654139
1601654157
1601655775
1601656070
1601656276
1601658301
1601661290
1601661740
1601662024
1601662259
1601662848
1601662908
1601664080
1601664330
1601665414
1601665380
1601666966
1601666885
1601668201
1601668680
1601669043
1601669592
1601669856
1601670000
1601670075
1601671152
1601671315
1601671604
1601671681
1601672496
1601672785
1601673094
1601673645
1601674084
1601674206
1601674557
1601675010
1601675015
1601675268
1601675320
1601675385
1601675363
1601675495
1601675700
1601675871
1601676681
1601676742
1601677445
1601677500
1601677849
1601678344
1601679451
1601679924
1601681459
1601682322
1601683908
1601684542
1601686260
1601686511
1601687261
1601688264
1601688590
1601688592
1601689118
1601689728
1601690002
1601690919
1601691666
1601691705
1601693133
1601693750
1601694093
1601694107
1601694877
1601695467
1601695520
1601695512
1601695941
1601696200
1601697211
1601697312
1601699661
1601700211
1601700429
1601701228
1601701989
1601702270
1601702392
1601702736
1601703011
1601703152
1601703396
1601703694
1601705556
1601705610
1601705724
1601706859
1601707324
1601708273
1601708437
1601710481
1601711233
1601711828
1601712865
1601713026
1601714645
1601714932
1601715077
1601716384
1601716470
1601716995
1601717212
1601717601
1601719080
1601719335
1601719423
1601720053
1601720365
1601720674
1601721665
1601721815
1601722550
1601723119
1601723530
1601723479
1601725135
1601725610
1601726642
1601726780
1601726863
1601727180
1601727139
1601727587
1601727938
1601728120
1601728648
1601730341
1601730377
1601730397
1601731484
1601732538
1601733129
1601733223
1601734518
1601744637
1601744721
1600016327
1600020650
1600022499
1600026369
1600033239
1600036932
1600051297
1600089426
1600103501
1600108384
1600114133
1600118920
1600121857
1603064709
1603065966
1603066424
1603067342
1603067439
1603068916
1603069397
1603069839
1603070032
1603070293
1603070665
1603071269
1603071524
1603071738
1603072173
1603072366
1603072126
1603072693
1603073421
1603073358
1603073743
1603074481
1603074611
1603074700
1603074823
1603076472
1603076977
1603077119
1603077440
1603077652
1603078099
1603079573
1603081275
1603082109
1603082586
1603082812
1603082906
1603084453
1603086758
1603088343
1603088937
1603089231
1603089222
1603090006
1603092201
1603092474
1603092908
1603093589
1603093990
1603096198
1603096128
1603097379
1603097760
1603098698
1603098932
1603099225
1603099379
1603100863
1603101037
1603101364
1603101418
1603102413
1603102639
1603102685
1603103460
1603103074
1603106376
1603106681
1603107154
1603107385
1603107993
1603108896
1603109710
1603111223
1603112449
1603112690
1603112837
1603113844
1603113928
1603114583
1603114800
1603114895
1603114975
1603115119
1603115134
1603114653
1603115515
1603115648
1603116353
1603117279
1603117811
1603118266
1603118494
1603120663
1603120822
1603120552
1603121351
1603121626
1603121895
1603122241
1603122912
1603123019
1603124312
1603126483
1603126436
1603129422
1603129474
1603131170
1603131732
1603131926
1603132126
1603132507
1603132466
1603133373
1603133515
1603133907
1603134165
1603134936
1603135013
1603134634
1603135605
1603135571
1603136032
1603136288
1603137181
1603138004
1603139348
1603139855
1603140250
1603140602
1603141371
1603142020
1603142217
1603142496
1603143603
1603143744
1603143895
1603143230
1603144714
1603144846
1603145723
1603145941
1603146039
1603147027
1603147060
1603148012
1603148304
1603149821
1603149882
1603150766
1603150912
1603151596
1603152031
1603151718
1603152421
1603153416
1603153765
1603154440
1603155378
1603155689
1603155596
1603156163
1603156730
1603157210
1603158257
1603158461
1603158955
1603159038
1603159880
1603159832
1603160223
1603160962
1603161598
1603161813
1603162072
1603162366
1603163289
1603163445
1603166195
1603166873
1603166947
1603167281
1603168224
1603169759
1603169820
1603170542
1603170819
1603171174
1603170994
1603170743
1603171555
1603172208
1603171696
1603172513
1603172710
1603174003
1603174004
1603174571
1603175402
1603175912
1603176318
1603176965
1603177525
1603177763
1603177539
1603177852
1603178125
1603179217
1603179460
1603179647
1603180237
1603180909
1603181601
1603183526
1603184174
1603184466
1603184624
1603186608
1603187249
1603188254
1603188561
1603188646
1603189027
1603188457
1603189297
1603189895
1603189951
1603190061
1603190727
1603191009
1603191565
1603192536
1603192700
1603192847
1603193576
1603193589
1603194048
1603195101
1603195114
1603196612
1603197177
1603198478
1603198644
1603198839
1603198966
1603199397
1603199589
1603199653
1603200909
1603201751
1603203245
1603203492
1603204391
1603204794
1603205484
1603205477
1603206937
1603208122
1603208733
1603208851
1603208895
1603209842
1603209974
1603209967
1603210251
1603210745
1603212501
1603212716
1603213584
1603214005
1603214428
1603214958
1603214969
1603215396
1603214945
1603215698
1603215925
1603216309
1603216359
1603216696
1603219652
1603220092
1603220336
1603220584
1603221064
1603221388
1603221527
1603223610
1603224120
1603224656
1603225567
1603225485
1603225643
1603226799
1603227215
1603227236
1603227580
1603228322
1603229559
1603230615
1603230397
1603230681
1603230871
1603231102
1603232642
1603232786
1603232900
1603234825
1603235718
1603237031
1603237503
1603237796
1603238596
1603240795
1603240832
1603241314
1603241507
1603242679
1603243837
1603244026
1603244732
1603245045
1603246352
1603246346
1603246686
1603247324
1603247352
1603247943
1603248139
1603249119
1603250867
1603252623
1603252960
1603253215
1603253275
1603253344
1603253403
1603253848
1603254981
1603255058
1603256453
1603258146
1603258397
1603260597
1603261049
1603261137
1603263193
1603263200
1603264218
1603265190
1603265163
1603265406
1603264643
1603266373
1603266755
1603267551
1603268587
1603271124
1603271457
1603271553
1603271748
1603271814
1603272488
1603273648
1603273607
1603275496
1603275751
1603276436
1603276661
1603277281
1603277840
1603278646
1603280210
1603280259
1603280446
1603280679
1603280934
1603281032
1603281244
1603281329
1603281294
1603282026
1603282174
1603282341
1603282917
1603283237
1603283541
1603285643
1603285773
1603287139
1603287416
1603287945
1603290630
1603290891
1603291825
1603292058
1603291966
1603292022
1603292351
1603292247
1603294956
1603295389
1603296029
1603298765
1603299359
1603299451
1603299571
1603300207
1603300875
1603300912
1603301083
1603301476
1603301552
1603301964
1603303991
1603304577
1603305117
1603305255
1603307455
1603308194
1603309941
1603310263
1603310854
1603311539
1603311632
1603311657
1603311952
1603312347
1603312634
1603313912
1603314323
1603314421
1603315393
1603315434
1603315599
1603316723
1603317003
1603317108
1603317433
1603317708
1603318891
1603318947
1603319482
1603320665
1603320973
1603321422
1603321386
1603322273
1603322687
1603323505
1603323853
1603324102
1603325363
1603326164
1603326198
1603326281
1603326487
1603327625
1603327950
1603328361
1603329171
1603329498
1603329865
1603331172
1603331932
1603331924
1603332192
1603332237
1603333031
1603333517
1603333651
1603333688
1603334255
1603334817
1603337241
1603337440
1603337694
1603337994
1603342876
1603343166
1603344778
1603344777
1603344446
1603345354
1603345455
1603345995
1603348381
1603349495
1603349763
1603351644
1603352505
1603352948
1603353630
1603353689
1603354659
1603357108
1603357555
1603357653
1603358504
1603358730
1603358512
1603360231
1603362043
1603362797
1603363617
1603363650
1603364050
1603364745
1603367633
1603368339
1603369155
1603369422
1603369686
1603370022
1603370745
1603372233
1603372514
1603373316
1603373339
1603373927
1603373963
1603374131
1603374279
1603374294
1603375386
1603376133
1603376201
1603376654
1603376740
1603378490
1603379510
1603380358
1603380898
1603382885
1603383831
1603384057
1603384312
1603384600
1603384688
1603385113
1603386210
1603386254
1603386425
1603386647
1603388177
1603388819
1603388987
1603389242
1603389274
1603389277
1603390212
1603390472
1603390566
1603390581
1603390782
1603392135
1603392479
1603392541
1603393941
1603394173
1603394439
1603395567
1603395590
1603395598
1603396072
1603396349
1603396786
1603397606
1603397772
1603397719
1603398055
1603398025
1603398087
1603398472
1603398925
1603401838
1603402203
1603401495
1603403647
1603403851
1603404455
1603405223
1603405863
1603407160
1603407128
1603407714
1603409099
1603411452
1603411553
1603412908
1603413252
1603413253
1603413587
1603413815
1603414527
1603415256
1603414748
1603415768
1603416190
1603416327
1603418064
1603418139
1603420423
1603420279
1603421110
1603421560
1603421902
1603406586
1603423187
1603423459
1603423870
1603424545
1603425411
1603426001
1603426210
1603426698
1603427285
1603427736
1603427977
1603426475
1603428067
1603428155
1603428265
1603429282
1603431564
1603431588
1603431965
1603433047
1603433507
1603434128
1603434145
1603435187
1603435650
1603435948
1603438443
1603438608
1603438891
1603439807
1603439901
1603440465
1603439949
1603440528
1603442309
1603442717
1603443109
1603443117
1603444345
1603446391
1603447142
1603447654
1603448223
1603448336
1603450371
1603450502
1603450530
1603450884
1603450836
1603452539
1603452700
1603453086
1603453580
1603454495
1603454498
1603455648
1603455755
1603456705
1603457698
1603457925
1603457896
1603457431
1603459782
1603460911
1603461208
1603462525
1603463272
1603463421
1603463510
1603463743
1603464837
1603464447
1603465315
1603465390
1603465434
1603465564
1603465666
1603467011
1603467484
1603467765
1603467864
1603469095
1603471789
1603471860
1603472406
1603472472
1603474217
1603475289
1603475019
1603475446
1603477487
1603477618
1603477871
1603480434
1603480751
1603481174
1603481763
1603482094
1603482250
1603482280
1603483021
1603482998
1603483109
1603483359
1603483661
1603484112
1603484677
1603485400
1603485776
1603486081
1603486129
1603487587
1603488639
1603489021
1603489527
1603490557
1603491849
1603493672
1603493808
1603493505
1603494504
1603496517
1603499532
1603500133
1603500771
1603501242
1603501490
1603502560
1603503435
1603505641
1603506872
1603507214
1603507301
1603507839
1603508358
1603508294
1603508526
1603509329
1603509495
1603511524
1603512437
1603512313
1603512576
1603514323
1603515019
1603516620
1603518193
1603518611
1603519059
1603518364
1603519480
1603519662
1603519859
1603520055
1603520579
1603521083
1603521818
1603522897
1603523070
1603523525
1603523967
1603524316
1603525150
1603525078
1603526072
1603526567
1603526640
1603528037
1603528876
1603530597
1603530719
1603531572
1603530717
1603532375
1603533266
1603533905
1603533936
1603534187
1603534983
1603535239
1603535645
1603535918
1603536516
1603536747
1603536810
1603536869
1603537367
1603538633
1603539721
1603539772
1603540681
1603540980
1603541173
1603541441
1603542986
1603544016
1603544036
1603544364
1603545884
1603547008
1603548250
1603548924
1603550957
1603551106
1603551812
1603551947
1603551910
1603554948
1603555446
1603555654
1603556461
1603556557
1603556520
1603557114
1603557397
1603558760
1603559057
1603560901
1603561324
1603562649
1603562757
1603563256
1603566095
1603567194
1603567384
1603569193
1603569258
1603571615
1603572512
1603573150
1603573486
1603574511
1603575370
1603577269
1603577634
1603578129
1603579076
1603580349
1603581012
1603581433
1603581947
1603582258
1603582676
1603582219
1603583170
1603583359
1603583889
1603584485
1603584527
1603584657
1603585059
1603585562
1603585777
1603586845
1603587949
1603590316
1603590662
1603591454
1603591931
1603592123
1603592748
1603593096
1603594274
1603594353
1603594778
1603595553
1603595884
1603595948
1603596321
1603597103
1603598517
1603599006
1603599411
1603599974
1603600518
1603600505
1603601582
1603603483
1603603631
1603604577
1603605208
1603607151
1603607311
1603608178
1603608409
1603608489
1603608612
1603608980
1603609021
1603609508
1603610116
1603611153
1603613519
1603613595
1603613532
1603615492
1603616460
1603618880
1603618842
1603619261
1603619297
1603620014
1603620120
1603620850
1603621248
1603624225
1603624493
1603624896
1603625001
1603625214
1603626002
1603626562
1603626877
1603629021
1603629610
1603630862
1603631425
1603631602
1603631730
1603632582
1603632601
1603632712
1603633185
1603633227
1603633461
1603633716
1603634672
1603634556
1603635024
1603635543
1603635944
1603636099
1603636489
1603636959
1603639224
1603639720
1603639994
1603641221
1603641781
1603641636
1603643046
1603643327
1603645782
1603646107
1603647762
1603648309
1603648756
1603650064
1603651764
1603652104
1603652559
1603653000
1603653224
1603654070
1603655853
1603656020
1603656512
1603656693
1603656223
1603657440
1603657931
1603658234
1603658893
1603660736
1603660921
1603661260
1603661351
1603661734
1603661787
1603661864
1603662707
1603663038
1603663032
1603663297
1603663275
1603663676
1603664545
1603665643
1603665464
1603666216
1603666987
1603667829
1603668635
1603669946
1603671010
1603672216
1603672176
1603672236
1603672242
1603673024
1603675485
1603676108
1603676222
1603676764
1603678692
1603679269
1603682175
1603683900
1603684282
1603684618
1603685851
1603686555
1603687321
1603688708
1603688957
1603690583
1603690892
1603691331
1603691449
1603692704
1603694574
1603694814
1603695296
1603695357
1603695981
1603696163
1603696910
1603697523
1603698153
1603699670
1603700640
1603701226
1603701715
1603702174
1603703087
1603703086
1603703387
1603704377
1603705170
1603705728
1603707813
1603708303
1603708380
1603709084
1603709106
1603709721
1603709758
1603709767
1603710064
1603710514
1603710602
1603711672
1603712467
1603712930
1603713627
1603714321
1603715329
1603716326
1603718320
1603718376
1603720779
1603721052
1603721215
1603721301
1603721596
1603721755
1603720881
1603722196
1603724043
1603726953
1603728604
1603730422
1603731629
1603731755
1603732114
1603732060
1603732701
1603732781
1603733192
1603733144
1603734124
1603734364
1603734392
1603734438
1603734566
1603734743
1603734981
1603735870
1603736024
1603736681
1603737087
1603737329
1603738203
1603739060
1603739754
1603740023
1603739828
1603740382
1603740372
1603741017
1603741406
1603742275
1603742745
1603743361
1603743927
1603744919
1603745385
1603745384
1603745392
1603746325
1603746928
1603747786
1603748582
1603749002
1603749440
1603750366
1603750573
1603750938
1603751514
1603751400
1603752026
1603752845
1603752928
1603753728
1603753405
1603754775
1603757079
1603760238
1603760569
1603762030
1603763243
1603763131
1603764093
1603764338
1603764393
1603764684
1603764949
1603766328
1603766832
1603767601
1603767566
1603769149
1603769646
1603769775
1603769881
1603770241
1603772374
1603773175
1603773407
1603774090
1603774259
1603774960
1603775293
1603775719
1603775847
1603776826
1603777421
1603779422
1603779634
1603780392
1603780586
1603780662
1603780667
1603782131
1603782581
1603783419
1603783961
1603784238
1603784506
1603785068
1603785800
1603786091
1603786450
1603786570
1603786841
1603787341
1603787951
1603791584
1603791872
1603792709
1603792374
1603793395
1603793572
1603793655
1603793952
1603795426
1603796971
1603809444
1603857241
1603862018
1603881515
1603883477
1603887381
1603897028
1603897624
1603899156
1603899452
1603901243
1603903877
1603904558
1603905682
1603908029
1603908250
1603909441
1603910997
1603911276
1603911510
1603912108
1603912104
1603915888
1603916028
1603917110
1603919127
1603919700
1603920102
1603920204
1603920591
1603920803
1603921925
1603923538
1603924587
1603926729
1603928967
1603928954
1603929230
1603929973
1603930167
1603930196
1603932272
1603932649
1603934678
1603935443
1603937714
1603937806
1603939061
1603940378
1603940479
1603942940
1603943041
1603943268
1603944942
1603947579
1603947592
1603948671
1603948929
1603948852
1603949651
1603950063
1603952105
1603952161
1603952391
1603953306
1603953227
1603953689
1603953965
1603954554
1603955332
1603956247
1603956640
1603957894
1603958421
1603958489
1603959323
1603960646
1603962163
1603963042
1603963220
1603963284
1603964228
1603963704
1603964586
1603965558
1603965839
1603970279
1603971733
1603971916
1603973311
1603973811
1603974050
1603974151
1603974499
1603977260
1603977387
1603977476
1603979013
1603979560
1603979885
1603979892
1603980823
1603980710
1603980851
1603981015
1603980774
1603982084
1603982741
1603986339
1603987754
1603988252
1603988534
1603988711
1603990364
1603990456
1603990957
1603990805
1603991689
1603991909
1603992121
1603992529
1603993159
1603992259
1603993470
1603993838
1603994096
1603994246
1603994911
1603994482
1603995803
1603996084
1603997001
1603997370
1603998513
1603998583
1603998827
1603998994
1604000474
1604001992
1604001999
1604002238
1604003516
1604003895
1604004959
1604005715
1604006225
1604006264
1604007442
1604007918
1604008211
1604009636
1604009661
1604010126
1604011465
1604012424
1604014123
1604014690
1604016277
1604016309
1604017790
1604019781
1604020109
1604021153
1604021515
1604022772
1604023967
1604024539
1604024947
1604025560
1604025833
1604026059
1604026937
1604028088
1604028487
1604028782
1604031075
1604031418
1604031370
1604031522
1604031658
1604032251
1604033310
1604033705
1604034745
1604034952
1604036486
1604036786
1604036311
1604037337
1604038323
1604039598
1604039814
1604040170
1604040605
1604041423
1604041981
1604042079
1604042279
1604044821
1604045550
1604045624
1604045976
1604046584
1604047252
1604047577
1604049094
1604049631
1604050043
1604050823
1604051868
1604053971
1604055182
1604055706
1604055668
1604060612
1604060953
1604061173
1604061774
1604061982
1604062793
1604063186
1604063837
1604063326
1604064735
1604066370
1604067412
1604067858
1604067964
1604069887
1604071688
1604073033
1604073246
1604073422
1604073492
1604074137
1604073729
1604074294
1604074672
1604075307
1604075256
1604075072
1604075627
1604076871
1604079004
1604080958
1604080034
1604081312
1604081328
1604081731
1604082162
1604082815
1604082850
1604082780
1604083345
1604083410
1604084645
1604085010
1604084683
1604086293
1604086430
1604086263
1604086168
1604087924
1604090070
1604091365
1604092160
1604092178
1604092588
1604092984
1604093681
1604093839
1604094609
1604096080
1604096987
1604097208
1604097596
1604097757
1604097947
1604099895
1604099672
1604101763
1604103071
1604103531
1604104173
1604106262
1604106580
1604106603
1604108683
1604108746
1604109138
1604110445
1604110729
1604111462
1604111931
1604111884
1604112050
1604112182
1604112394
1604112807
1604113073
1604113560
1604114212
1604115846
1604116055
1604116046
1604117438
1604118392
1604118706
1604119514
1604119736
1604119943
1604120091
1604120383
1604120530
1604120841
1604121433
1604121780
1604122042
1604122932
1604123442
1604123649
1604123847
1604125442
1604126023
1604126074
1604126142
1604126078
1604129515
1604129631
1604131080
1604132026
1604132862
1604132637
1604134156
1604134256
1604135143
1604135229
1604136435
1604136507
1604137382
1604137410
1604137600
1604137688
1604138008
1604141701
1604142061
1604142750
1604142906
1604143294
1604143375
1604145037
1604145018
1604145058
1604145785
1604145843
1604146215
1604146471
1604146769
1604146945
1604147717
1604149388
1604150407
1604151449
1604151632
1604151672
1604152090
1604152784
1604153290
1604153399
1604154458
1604154638
1604154596
1604155069
1604157885
1604158551
1604159573
1604160944
1604161283
1604163592
1604163591
1604163906
1604165530
1604166030
1604166044
1604169601
1604170244
1604172883
1604173428
1604174904
1604175822
1604176032
1604177003
1604177398
1604178215
1604178406
1604178332
1604178756
1604180481
1604180717
1604182383
1604182396
1604183115
1604183237
1604183579
1604183891
1604185286
1604186009
1604186385
1604188291
1604188696
1604189008
1604191881
1604192032
1604192442
1604192751
1604194517
1604195026
1604195836
1604196511
1604197165
1604198098
1604198663
1604198901
1604200619
1604201172
1604202172
1604202287
1604204208
1604205697
1604206621
1604207732
1604207983
1604208081
1604208891
1604210788
1604213450
1604214673
1604215769
1604216647
1604217075
1604217988
1604218087
1604218302
1604219087
1604219178
1604219467
1604219791
1604219739
1604220110
1604221450
1604222242
1604222613
1604222954
1604224055
1604224133
1604224865
1604225067
1604225591
1604226759
1604227085
1604227805
1604228295
1604228603
1604228789
1604229079
1604229871
1604229986
1604230624
1604234074
1604236417
1604237428
1604237530
1604239236
1604239398
1604240883
1604241974
1604242535
1604245733
1604246091
1604246094
1604245849
1604248671
1604248874
1604249102
1604249156
1604249221
1604249262
1604249354
1604250908
1604251055
1604253479
1604249978
1604254679
1604255411
1604255597
1604255979
1604256085
1604256422
1604257864
1604258185
1604258698
1604259169
1604259686
1604260971
1604261183
1604261158
1604261489
1604261644
1604262565
1604262621
1604262769
1604263028
1604263568
1604265506
1604267172
1604268021
1604269245
1604269382
1604269675
1604270852
1604270942
1604270958
1604271560
1604271873
1604272298
1604272301
1604272452
1604272761
1604274358
1604275209
1604278532
1604279312
1604279389
1604282826
1604282936
1604283881
1604284970
1604282073
1604284733
1604286876
1604287314
1604287940
1604289011
1604289198
1604289976
1604290171
1604291154
1604291330
1604291463
1604291457
1604291465
1604291590
1604292805
1604293325
1604294376
1604295039
1604295517
1604295599
1604295943
1604296881
1604296969
1604297089
1604297137
1604297377
1604297422
1604297941
1604297974
1604299166
1604301582
1604302058
1604302439
1604302481
1604302585
1604303325
1604303599
1604303858
1604303857
1604304444
1604305286
1604306270
1604306903
1604307088
1604308944
1604310061
1604310432
1604313166
1604315220
1604315632
1604315943
1604316448
1604316597
1604316717
1604319015
1604319042
1604320200
1604320981
1604321787
1604323239
1604322733
1604323640
1604324263
1604325277
1604325439
1604325616
1604325685
1604326476
1604327914
1604329567
1604329686
1604329999
1604330291
1604331411
1604331480
1604331859
1604332438
1604332429
1604333020
1604333726
1604333841
1604335561
1604335769
1604337049
1604339958
1604340446
1604342793
1604343042
1604343461
1604343368
1604344888
1604345463
1604346013
1604346458
1604346826
1604346895
1604348341
1604352605
1604353461
1604354524
1604354978
1604355434
1604356613
1604356687
1604356627
1604356828
1604356808
1604356947
1604356766
1604357570
1604357800
1604358028
1604361469
1604362167
1604362496
1604362816
1604362927
1604363180
1604363480
1604363498
1604364037
1604364737
1604365929
1604366569
1604366875
1604367231
1604367292
1604367589
1604368234
1604368523
1604368722
1604368727
1604369998
1604371038
1604371433
1604371880
1604372377
1604372931
1604374203
1604375015
1604375001
1604376752
1604376811
1604377363
1604377564
1604377648
1604378592
1604379129
1604379215
1604380002
1604379681
1604381423
1604381728
1604382337
1604382672
1604397838
1604442463
1604444437
1604444693
1604445024
1604445420
1604447301
1604448771
1604450356
1604451252
1604451380
1604451964
1604452640
1604454585
1604456559
1604457038
1604458563
1604459787
1604462110
1604463910
1604465417
1604465746
1604466149
1604467615
1604468725
1604468828
1604468900
1604469099
1604470136
1604471833
1604472641
1604473165
1604475887
1604476730
1604476927
1604477200
1604478628
1604478891
1604479934
1604480550
1604480902
1604481561
1604483015
1604483374
1604483390
1604484441
1604484738
1604486105
1604486149
1604486273
1604487051
1604487727
1604488692
1604489624
1604490202
1604493652
1604494667
1604496020
1604497463
1604497720
1604497899
1604498897
1604499497
1604501971
1604502282
1604502793
1604502879
1604503752
1604504297
1604504325
1604504545
1604505487
1604505484
1604506577
1604506987
1604507370
1604507933
1604508957
1604509032
1604511100
1604513228
1604513502
1604513475
1604514156
1604514093
1604516088
1604516341
1604517228
1604517680
1604517345
1604518983
1604519100
1604519108
1604519807
1604520991
1604521352
1604522343
1604523525
1604524046
1604524281
1604524376
1604527866
1604528161
1604528364
1604528519
1604530038
1604530425
1604532719
1604533539
1604534020
1604534566
1604534669
1604535180
1604535557
1604536841
1604536521
1604537526
1604537728
1604538387
1604539200
1604539272
1604540303
1604541124
1604541301
1604542288
1604541956
1604543081
1604544699
1604545078
1604546879
1604547596
1604548226
1604547908
1604548512
1604549006
1604549270
1604550060
1604550352
1604550920
1604551091
1604551177
1604551701
1604551778
1604552040
1604552428
1604553335
1604554173
1604556081
1604556526
1604557279
1604558653
1604558702
1604559043
1604559618
1604559743
1604559950
1604560423
1604560682
1604561383
1604561681
1604561655
1604562591
1604563360
1604564553
1604566044
1604566743
1604567407
1604567760
1604568223
1604568274
1604568954
1604570326
1604570433
1604571843
1604572412
1604572563
1604572719
1604572435
1604574055
1604575231
1604576659
1604579125
1604579898
1604580624
1604580994
1604581837
1604581960
1604582587
1604582936
1604583280
1604583281
1604583862
1604583847
1604583990
1604586327
1604587954
1604587990
1604588271
1604588351
1604590372
1604590600
1604591557
1604591689
1604592881
1604593560
1604594136
1604594516
1604594992
1604595454
1604596375
1604597162
1604598118
1604598273
1604597767
1604598744
1604599193
1604599430
1604599412
1604599467
1604599824
1604601200
1604601216
1604601960
1604602829
1604603055
1604603228
1604604373
1604604286
1604605627
1604605647
1604606805
1604607643
1604608678
1604608834
1604609246
1604609373
1604611608
1604612055
1604612528
1604612848
1604613524
1604613559
1604613576
1604614078
1604614286
1604615590
1604616007
1604617552
1604617963
1604617680
1604617881
1604619356
1604619676
1604619654
1604619636
1604620414
1604620611
1604621021
1604621559
1604622187
1604624551
1604624864
1604624663
1604623866
1604625329
1604626081
1604626352
1604626703
1604627113
1604627497
1604628484
1604628808
1604629094
1604629567
1604629601
1604629807
1604630570
1604630413
1604634755
1604635117
1604635721
1604635959
1604636132
1604636705
1604636677
1604637038
1604637332
1604638142
1604637654
1604638792
1604639483
1604639755
1604641357
1604641975
1604642782
1604643086
1604643141
1604643324
1604643831
1604644011
1604645134
1604645792
1604646607
1604648046
1604648866
1604649415
1604650449
1604651002
1604651548
1604651888
1604652490
1604653129
1604653518
1604654074
1604655008
1604655783
1604657185
1604658036
1604658095
1604658531
1604659564
1604659688
1604662053
1604661559
1604662780
1604662866
1604663704
1604662840
1604664800
1604664874
1604665577
1604665936
1604666165
1604666552
1604667679
1604668245
1604668340
1604670033
1604670525
1604670665
1604670854
1604671026
1604672178
1604673035
1604673810
1604674641
1604675488
1604675730
1604676006
1604677788
1604678836
1604679126
1604681065
1604681769
1604681823
1604681910
1604681976
1604683278
1604684112
1604684281
1604684820
1604685070
1604685150
1604685221
1604685857
1604686053
1604687007
1604687566
1604687855
1604688746
1604689092
1604689961
1604690430
1604690416
1604691518
1604691780
1604691987
1604692278
1604692751
1604692968
1604693300
1604693600
1604693985
1604694550
1604694688
1604694885
1604695325
1604695710
1604695832
1604696567
1604698205
1604698268
1604698973
1604699033
1604699871
1604699959
1604701519
1604702080
1604704901
1604705008
1604705390
1604705498
1604705698
1604707053
1604707449
1604707977
1604708072
1604709004
1604708951
1604708975
1604709709
1604709925
1604712493
1604712765
1604713383
1604714289
1604715808
1604715744
1604716560
1604716682
1604718050
1604719162
1604719367
1604719501
1604720262
1604720508
1604721079
1604723311
1604723866
1604724343
1604726264
1604727518
1604727904
1604728553
1604729250
1604729608
1604730169
1604731823
1604732047
1604732364
1604732719
1604734020
1604735503
1604735538
1604736226
1604736756
1604737382
1604739185
1604739740
1604739872
1604740554
1604742767
1604744359
1604744449
1604744587
1604745046
1604746463
1604747739
1604749488
1604751128
1604752965
1604753351
1604753415
1604753662
1604754747
1604754246
1604756858
1604757066
1604757238
1604757246
1604757586
1604758953
1604759757
1604760071
1604760934
1604761325
1604761238
1604761550
1604762693
1604763618
1604763521
1604765266
1604765955
1604766030
1604766222
1604766868
1604767955
1604768776
1604768836
1604770323
1604770710
1604771645
1604771976
1604772403
1604773342
1604773836
1604774358
1604774778
1604774839
1604775605
1604777836
1604777949
1604778322
1604778292
1604779596
1604779569
1604780383
1604780743
1604781120
1604781159
1604782451
1604782507
1604783078
1604783342
1604783323
1604784373
1604784963
1604785083
1604785794
1604786743
1604786728
1604787956
1604787985
1604788096
1604788478
1604789007
1604789924
1604790032
1604791048
1604791986
1604793270
1604793639
1604791596
1604794180
1604794248
1604795493
1604796488
1604798235
1604798794
1604799069
1604800582
1604800771
1604802360
1604803679
1604804013
1604804097
1604804341
1604805178
1604806542
1604807999
1604808635
1604808749
1604809012
1604809249
1604809252
1604810815
1604810842
1604811380
1604811689
1604811433
1604814489
1604813813
1604815122
1604819592
1604819667
1604819827
1604820454
1604821447
1604821561
1604822176
1604823267
1604823514
1604824282
1604825126
1604825267
1604826410
1604826432
1604827574
1604829294
1604829781
1604830497
1604830610
1604831555
1604832686
1604833002
1604833316
1604833565
1604835183
1604835620
1604836087
1604837239
1604837341
1604838185
1604839935
1604839833
1604840938
1604841450
1604842918
1604843713
1604844220
1604845702
1604845877
1604847143
1604847458
1604847534
1604849087
1604849227
1604849309
1604849510
1604850046
1604850167
1604850473
1604851957
1604852097
1604852498
1604852801
1604853383
1604856274
1604856684
1604858779
1604858820
1604858951
1604859658
1604859552
1604859829
1604859987
1604860350
1604861146
1604861311
1604861389
1604861801
1604861955
1604863014
1604864026
1604864153
1604865137
1604865284
1604865857
1604865742
1604866783
1604867674
1604867788
1604867852
1604868037
1604868421
1604868287
1604870573
1604870365
1604870913
1604871054
1604871340
1604871972
1604872268
1604872988
1604873074
1604873367
1604873631
1604873713
1604874297
1604874959
1604875135
1604876275
1604876802
1604877082
1604877810
1604878007
1604878924
1604879013
1604879048
1604879335
1604879670
1604880366
1604881520
1604882941
1604883201
1604883610
1604884018
1604884470
1604884681
1604885415
1604887126
1604887919
1604888180
1604888560
1604889813
1604891130
1604892697
1604893989
1604893996
1604894072
1604894259
1604894692
1604895637
1604895919
1604896433
1604897120
1604897635
1604897787
1604897931
1604898710
1604898948
1604899489
1604899570
1604900363
1604901940
1604902958
1604903079
1604902999
1604903378
1604903409
1604905199
1604905647
1604905787
1604907016
1604907272
1604907602
1604908265
1604908571
1604908554
1604910046
1604911688
1604913051
1604914699
1604914742
1604914303
1604914818
1604915312
1604916893
1604917965
1604918142
1604918289
1604918552
1604919091
1604919277
1604920295
1604920779
1604921995
1604922875
1604924047
1604924522
1604924404
1604927032
1604927129
1604927241
1604927444
1604927480
1604928873
1604929903
1604930027
1604930235
1604930790
1604930947
1604931209
1604931939
1604934032
1604935018
1604934994
1604935464
1604936647
1604936626
1604936342
1604937753
1604938188
1604938757
1604938879
1604938996
1604938951
1604939244
1604939445
1604939719
1604941062
1604941623
1604942330
1604942382
1604943335
1604944574
1604945246
1604944920
1604945697
1604946316
1604945773
1604946404
1604946951
1604948590
1604949050
1604949044
1604950239
1604951417
1604951674
1604953083
1604953125
1604953639
1604956299
1604956966
1604957503
1604958160
1604959129
1604959162
1604959762
1604959888
1604960473
1604961033
1604961663
1604962279
1604963628
1604963624
1604964196
1604964613
1604964790
1604965476
1604965848
1604967008
1604967523
1604968201
1604968404
1604968789
1604969408
1604969271
1604970393
1604972026
1604973006
1604973024
1604973516
1604974452
1604975720
1604975036
1604976962
1604978602
1604978976
1604980133
1604980388
1604980398
1604984383
1604985075
1604985314
1604986525
1604986848
1604987590
1604987707
1604989207
1604989449
1604990088
1604990122
1604990983
1604993423
1604993899
1604994304
1604994843
1604994857
1604997797
1604998418
1605000752
1605002891
1605002976
1605003075
1605003221
1605003331
1605004222
1605004591
1605004836
1605005819
1605006051
1605006478
1605007047
1605007284
1605007401
1605007573
1605007679
1605008734
1605009097
1605009249
1605009646
1605009812
1605010070
1605011098
1605011762
1605011828
1605012502
1605012876
1605012678
1605012878
1605013905
1605013897
1605014632
1605016530
1605016560
1605016671
1605017195
1605017260
1605017665
1605017420
1605021103
1605021280
1605022506
1605022953
1605023738
1605024167
1605024554
1605025151
1605025755
1605026459
1605026471
1605027183
1605027527
1605027442
1605027982
1605028540
1605028606
1605028596
1605028786
1605029311
1605030553
1605031030
1605031337
1605032361
1605032609
1605032981
1605033845
1605033976
1605034123
1605035376
1605035526
1605035575
1605035897
1605038453
1605039657
1605042716
1605042996
1605043440
1605045873
1605046854
1605048081
1605048204
1605048857
1605049270
1605052681
1605053347
1605054034
1605054724
1605054917
1605055786
1605056153
1605056146
1605056461
1605057013
1605057064
1605057532
1605057699
1605058179
1605058356
1605059019
1605059288
1605059896
1605060680
1605060702
1605061377
1605061487
1605062523
1605062633
1605063343
1605063593
1605063616
1605065196
1605065919
1605066734
1605067416
1605067884
1605068872
1605069610
1605070545
1605070802
1605071062
1605072327
1605072631
1605073033
1605073937
1605074874
1605075499
1605075595
1605075987
1605076587
1605076698
1605077375
1605078160
1605078513
1605078673
1605079721
1605079835
1605080287
1605079898
1605080809
1605081245
1605081313
1605082700
1605085147
1605086019
1605086135
1605087908
1605088028
1605089060
1605089553
1605089647
1605090438
1605090483
1605091504
1605091644
1605092014
1605092215
1605092325
1605092979
1605093799
1605094004
1605094228
1605094798
1605095134
1605095729
1605096100
1605096391
1605098078
1605098493
1605101210
1605101471
1605101764
1605102289
1605102790
1605104511
1605106198
1605106216
1605106107
1605106642
1605106702
1605107094
1605107536
1605107510
1605108181
1605108676
1605109983
1605110612
1605112321
1605112764
1605113208
1605113290
1605113406
1605114400
1605114323
1605114552
1605114553
1605115382
1605115431
1605115632
1605116964
1605117027
1605117250
1605117493
1605117784
1605118123
1605118910
1605119073
1605119238
1605119632
1605119751
1605121349
1605121543
1605121136
1605122352
1605122630
1605123763
1605125382
1605125343
1605126096
1605126767
1605127138
1605127637
1605128474
1605130059
1605130139
1605130321
1605130899
1605131978
1605133008
1605133071
1605133479
1605133947
1605134472
1605135030
1605135946
1605136150
1605136366
1605136858
1605136944
1605137394
1605137617
1605138155
1605138562
1605139432
1605139551
1605139617
1605141396
1605143454
1605144192
1605144568
1605145169
1605145327
1605146495
1605147385
1605147895
1605148663
1605148989
1605149790
1605149711
1605151032
1605151032
1605151482
1605151801
1605153529
1605153795
1605154352
1605154633
1605154929
1605155029
1605155068
1605156139
1605156704
1605157037
1605157311
1605157406
1605158143
1605158165
1605158493
1605158855
1605159919
1605161112
1605164110
1605165026
1605165611
1605165835
1605165926
1605166915
1605167172
1605167226
1605168479
1605168684
1605168721
1605168742
1605169015
1605169276
1605169695
1605169854
1605172950
1605173642
1605173621
1605175189
1605176736
1605176242
1605177548
1605177923
1605178232
1605178733
1605178853
1605179205
1605180312
1605180660
1605181091
1605182600
1605183406
1605183644
1605184591
1605185711
1605185941
1605187917
1605188368
1605190212
1605190473
1605192160
1605193054
1605194429
1605194449
1605195906
1605195353
1605197538
1605198520
1605200558
1605201109
1605201267
1605201686
1605201729
1605202514
1605202456
1605203203
1605203734
1605204880
1605206006
1605207465
1605209119
1605209616
1605209704
1605210407
1605212037
1605213026
1605213281
1605213710
1605215903
1605216063
1605216325
1605218591
1605219295
1605222231
1605228267
1605228510
1605245957
1605250683
1605257219
1605258721
1605261682
1605267244
1605279548
1605299733
1605300905
1605303566
1605306302
1605307730
1605310657
1605310721
1605310803
1605313615
1605313988
1605314119
1605314405
1605314562
1605316335
1605316538
1605316614
1605316833
1605317861
1605319749
1605320382
1605321266
1605321287
1605321360
1605322154
1605322784
1605323465
1605324136
1605324150
1605326532
1605326566
1605327413
1605327603
1605328099
1605328120
1605329076
1605329026
1605329467
1605330034
1605331722
1605332469
1605332830
1605333127
1605333033
1605333685
1605333903
1605336674
1605337097
1605337235
1605339534
1605340995
1605341251
1605342075
1605342239
1605346402
1605348689
1605349703
1605351202
1605351546
1605351787
1605353112
1605353987
1605355618
1605356667
1605358253
1605363919
1605364016
1605364726
1605365512
1605369380
1605383206
1605388947
1605398793
1605416137
1605444396
1605446793
1605449690
1605459943
1605464362
1605483200
1605485568
1605487426
1605487788
1605518186
1605519204
1605520527
1605529428
1605537026
1605537833
1605539127
1605547243
1605548641
1605552730
1605555684
1605558255
1605578669
1605611696
1605619443
1605630072
1605633883
1605639140
1605646629
1605679362
1605680307
1605681844
1605687074
1605720966
1605726453
1605735980
1605736798
1605747491
1605771119
1605788511
1605788934
1605797929
1605813278
1605815711
1605847371
1605873513
1605874393
1605880072
1605914727
1605921541
1605928922
1605929864
1605943429
1605946395
1605950215
1605989020
1606006191
1606008127
1606017483
1606022053
1606038858
1606044749
1606049992
1606051836
1606054231
1606054702
1606070250
1606093784
1606098909
1606104098
1606115769
1606124546
1606124901
1606135256
1606136959
1606143187
1606150992
1606160878
1606184788
1606195576
1606200006
1606204346
1606221984
1606225129
1606228597
1606233845
1606251477
1606253932
1606254454
1606263799
1606270943
1606274001
1606284332
1606293969
1606308183
1606320122
1606323833
1606331456
1606366630
1606366910
1606376472
1606378698
1606379068
1606382961
1606394184
1606401240
1606402056
1606402387
1606410038
1606419228
1606420779
1606447430
1606447722
1606450146
1606498618
1606502867
1606508032
1606514709
1606519161
1606525505
1606537121
1606537500
1606550138
1606558540
1606576991
1606577748
1606597297
1606598999
1606614036
1606624523
1606643404
1606658379
1606660914
1606697985
1606723220
1606730621
1606745033
1606785921
1606787786
1606792199
1606794236
1606831269
1606849990
1606856810
1606876512
1606879430
1606901633
1606904627
1606912138
1606944418
1606944544
1606949069
1606973666
1606998815
1607000270
1607010818
1607015884
1607021525
1607050327
1607054508
1607063922
1607073959
1607076545
1607076892
1607085304
1607089419
1607109094
1607119724
1607127590
1607134171
1607135375
1607137708
1607153130
1607153181
1607169381
1607174353
1607188355
1607194130
1607202441
1607210736
1607211164
1607226199
1607230297
1607233977
1607240682
1607241184
1607291778
1607318034
1607319380
1607323643
1607331891
1607339327
1607341152
1607378534
1607391267
1607436680
1607443666
1607453570
1607459131
1607463852
1607471249
1607474610
1607494266
1607509380
1607509468
1607516135
1607531831
1607538780
1607539242
1607550017
1607553855
1607556937
1607558177
1607571716
1607571552
1607573490
1607591066
1607607749
1607609148
1607610999
1607616849
1607624428
1607643500
1607664094
1607680867
1607682980
1607687444
1607691242
1607699815
1607714144
1607715632
1607722330
1607723136
1607753171
1607758502
1607761376
1607771115
1607798791
1607799889
1607808727
1607811588
1607812208
1607816668
1607828470
1607833171
1607838699
1607848377
1607848711
1607862559
1607866898
1607871639
1607872814
1607877085
1607884091
1607927658
1607937704
1607955595
1607957780
1607961357
1607967698
1607981324
1607982971
1607987691
1607989104
1607993189
1608020945
1608039410
1608053913
1608057523
1608064220
1608066225
1608070377
1608085167
1608089766
1608109319
1608111247
1608142247
1608160379
1608171690
1608182556
1608190934
1608206425
1608206758
1608240839
1608245733
1608246920
1608252558
1608255227
1608260471
1608278919
1608290287
1608295728
1608306664
1608319513
1608320150
1608329836
1608341593
1608344574
1608372905
1608375019
1608379587
1608393395
1608404008
1608416453
1608417423
1608424348
1608427107
1608437901
1608448661
1608460987
1608469582
1608484456
1608486832
1608487083
1608507140
1608508871
1608511441
1608522195
1608526054
1608526799
1608528578
1608533610
1608539476
1608544270
1608554046
1608559303
1608568934
1608576004
1608576734
1608576794
1608597438
1608602443
1608618812
1608622635
1608638080
1608643706
1608662175
1608669625
1608685491
1608686435
1608688440
1608690602
1608698452
1608713954
1608720560
1608725030
1608734445
1608739368
1608743335
1608761873
1608769512
1608776860
1608828936
1608859844
1608902325
1608908969
1608917860
1608920231
1608920855
1608926760
1608940010
1608952708
1608971231
1608972528
1608975946
1608997084
1609021188
1609037915
1609044469
1609056359
1609056890
1609058976
1609065262
1609090808
1609092538
1609108895
1609112399
1609112723
1609122376
1609127096
1609129415
1609140033
1609146469
1609146705
1609177827
1609194210
1609198688
1609198830
1609210875
1609220649
1609226563
1609227064
1609227758
1609237189
1609242738
1609268184
1609271988
1609290017
1609290247
1609302147
1609303084
1609303773
1609307435
1609308823
1609310333
1609314436
1609331088
1609334199
1609352424
1609369799
1609370353
1609372192
1609381779
1609396061
1609410229
1609420528
1609423510
1609428362
1609429462
1609432809
1609435273
1609444819
1609446800
1609452953
1609454361
1609456549
1609462446
1609470144
1609484029
1609489794
1609495047
1609499006
1609506980
1609508472
1609509772
1609518353
1609523490
1609525091
1609526919
1609527567
1609542649
1609548623
1609557194
1609613204
1609619932
1609644328
1609645650
1609652021
1609670603
1609677633
1609692200
1609703082
1609703448
1609733761
1609737527
1609746139
1609752578
1609755277
1609795297
1609795431
1609809196
1609815516
1609817410
1609832696
1609833139
1609838090
1609842427
1609843526
1609859947
1609885866
1609893575
1609910575
1609915540
1609918562
1609931372
1609944069
1609947303
