960035075
960075970
960094511
960337241
960342830
960345720
960477978
960521870
960522157
960528186
960536813
960579462
960596973
960623898
960733263
960766526
960807676
960812602
960838832
961022207
961052763
961158579
961169651
961201780
961235162
961272768
961336890
961342158
961399957
961454031
961534762
961550100
961568804
961606655
961625961
961657737
961670448
961763470
961798508
961898895
961918255
961969056
961975926
962022124
962129220
962215046
962305911
962421488
962496647
962702434
962720137
962779188
