1600350895
1600362295
1600366428
1600537611
1600621475
1600753571
1600820916
1600933335
1601085302
1601090298
1601126304
1601128182
1601191102
1601694472
1601699152
1601708853
1603372968
1603472334
1603496545
1603673091
1603676879
1603677407
1603940859
1604463445
1604703826
1604939628
1607401058
