710000854
710001084
710001205
710001749
710001894
710004894
710007273
710008999
710009194
710009968
710011190
710011384
710011540
710011853
710011809
710013284
710014283
710015214
710015111
710015551
710015972
710016437
710017742
710017833
710019272
710019384
710019506
710020134
710020935
710020999
710022338
710023084
710023128
710027499
710027164
710027812
710028652
710030832
710030939
710031336
710032038
710031872
710033825
710036888
710038164
710042144
710042569
710043260
710043367
710043564
710043969
710044790
710045295
710044871
710047053
710047446
710047442
710048079
710049029
710049084
710049323
710049497
710050093
710051003
710052819
710052971
710054300
710054607
710057266
710057585
710058917
710059917
710060279
710061190
710062560
710063665
710064341
710065178
710068309
710069548
710069888
710073198
710075531
710077295
710077994
710081309
710081626
710084012
710084986
710085983
710086155
710086733
710087909
710089100
710089129
710093409
710093992
710094104
710097591
710099024
710099161
710099805
710100178
710103488
710104114
710104233
710105874
710106523
710106922
710108899
710110070
710110364
710111428
710111572
710111792
710111946
710113805
710116585
710117006
710117189
710118177
710118331
710118225
710118600
710119122
710119034
710119627
710119603
710119745
710121459
710122297
710122703
710123064
710124182
710124475
710124946
710126004
710126188
710126905
710130881
710131646
710132107
710132850
710133219
710133410
710133541
710135424
710137376
710137707
710138494
710138842
710139089
710140521
710140626
710142613
710143255
710144119
710143068
710145191
710145842
710146166
710146582
710148413
710148469
710148264
710150034
710150578
710152575
710153172
710153310
710153667
710153547
710154516
710154714
710155431
710155559
710157208
710157558
710158304
710158401
710158422
710158802
710158951
710159433
710159506
710161275
710161641
710162013
710164091
710164434
710167564
710167818
710168159
710168786
710169031
710168596
710169959
710170400
710171111
710171847
710172220
710173333
710174543
710175711
710175875
710176157
710177222
710178293
710179170
710180172
710181310
710181724
710183068
710183333
710183615
710183841
710186018
710188274
710188825
710190496
710192630
710192831
710193100
710193363
710193772
710194261
710195086
710197534
710198191
710198234
710200132
710201444
710202121
710202436
710205632
710206213
710206636
710209606
710210212
710211177
710212796
710213076
710213259
710213597
710214191
710215030
710216229
710216328
710217578
710217844
710217896
710218310
710218484
710219549
710219861
710220978
710222025
710222646
710222966
710225261
710226725
710232229
710233393
710233918
710234478
710235060
710239784
710241092
710241987
710243162
710243374
710245271
710246369
710247205
710249148
710249264
710250327
710252413
710252992
710253249
710253619
710253967
710254685
710254790
710254971
710255359
710257563
710259773
710260028
710260499
710260565
710260985
710261304
710261612
710262012
710264720
710266731
710267337
710271113
710273679
710273990
710274730
710274883
710274673
710276307
710277527
710278567
710278617
710278915
710280070
710280384
710281485
710281633
710283925
710284419
710284666
710284948
710286544
710287467
710287172
710289799
710289788
710290153
710290226
710291074
710291373
710292321
710293628
710296610
710298613
710300585
710300623
710302697
710302706
710303454
710304607
710304944
710305385
710305944
710307400
710307571
710308335
710310608
710311122
710312054
710313795
710314148
710314092
710315473
710315683
710315713
710315787
710316926
710319476
710320292
710320389
710320859
710321766
710325495
710327467
710327786
710327754
710329329
710330101
710330782
710330645
710332097
710332211
710332456
710332606
710334635
710335424
710336670
710336766
710338196
710338950
710339483
710341405
710342347
710342461
710342604
710343325
710344390
710344754
710345158
710346496
710350557
710351160
710352604
710352285
710353792
710356868
710357377
710357929
710360227
710361108
710361485
710362102
710362184
710362180
710364471
710366390
710366848
710367807
710368076
710369189
710369669
710375487
710376073
710376235
710377936
710379036
710379472
710380530
710381089
710383670
710383930
710384131
710385341
710386275
710386464
710387215
710388204
710387606
710390236
710390194
710390789
710391764
710392085
710393122
710394384
710394555
710394852
710398017
710398907
710399538
710400026
710401404
710401792
710404629
710408226
710409252
710409689
710410164
710410637
710411274
710411742
710413278
710413252
710413272
710414205
710415099
710416461
710418105
710419013
710419740
710421353
710425780
710425390
710427237
710427730
710427928
710427732
710428199
710430595
710430863
710430863
710431034
710431119
710431564
710433886
710434395
710434801
710435538
710437791
710438816
710438948
710443776
710444923
710444947
710448337
710448451
710449040
710449679
710449789
710450952
710451153
710451650
710452647
710452841
710454230
710454661
710455361
710456316
710456640
710456971
710457337
710459457
710460782
710461272
710461170
710461998
710462007
710462526
710463378
710464079
710463982
710464588
710466289
710466441
710466805
710467335
710469153
710471460
710472505
710472907
710472986
710475061
710476879
710477556
710477687
710477993
710480580
710481065
710481111
710482776
710482968
710483759
710484585
710486193
710486992
710487671
710488276
710488399
710488892
710489212
710490179
710490217
710493832
710494658
710495132
710495824
710495944
710496044
710495726
710500070
710501088
710501633
710501415
710504366
710504425
710504502
710506380
710507333
710508164
710508994
710509647
710510043
710511152
710511534
710514312
710514390
710515508
710515658
710516239
710516271
710517106
710518614
710519172
710521149
710522377
710522665
710524856
710524111
710525618
710525874
710526144
710527178
710527950
710528398
710529246
710530913
710531046
710532838
710532915
710532545
710534770
710534938
710535802
710536147
710536762
710537292
710537682
710538057
710538379
710539077
710539347
710539559
710541631
710541323
710543865
710545720
710545708
710545922
710545856
710546930
710548382
710548739
710551214
710551308
710552020
710552707
710554403
710557528
710557780
710558059
710558709
710559473
710559590
710563426
710565016
710566025
710566226
710566372
710569424
710570563
710570751
710571071
710572224
710572366
710573851
710574243
710574447
710574592
710574716
710574531
710575299
710576291
710576217
710578156
710578714
710581786
710582030
710583907
710584065
710585087
710585159
710586835
710589731
710589973
710590440
710592083
710594049
710594282
710594490
710594807
710595081
710597841
710597965
710598011
710599273
710601172
710602597
710604162
710605330
710607106
710607179
710607511
710608254
710609037
710609444
710609420
710610198
710610627
710611258
710611425
710611489
710614331
710614302
710614555
710614533
710615537
710616421
710617865
710618279
710619508
710619642
710620140
710620263
710624188
710624276
710624073
710624455
710626096
710627379
710628008
710631611
710632192
710633199
710634858
710638755
710639371
710645513
710646564
710646729
710647113
710649761
710650059
710650275
710650614
710651819
710653963
710654144
710654631
710656009
710656958
710658036
710657965
710658051
710658269
710661166
710661149
710661837
710663166
710663586
710663407
710663692
710665110
710665582
710667161
710667194
710667914
710668160
710667953
710668631
710669091
710669473
710670550
710670608
710671201
710671686
710671816
710671979
710672070
710674372
710674995
710675605
710676245
710676508
710676242
710676799
710677241
710678949
710678999
710683237
710685449
710686661
710687654
710689343
710690305
710690305
710691847
710695665
710695822
710696007
710698141
710698532
710699480
710701184
710701786
710701885
710702159
710704083
710704932
710706317
710706345
710706785
710707950
710709032
710709496
710710612
710710720
710710777
710712149
710713476
710715211
710718241
710718374
710719356
710720090
710720511
710721644
710723056
710722369
710723561
710723684
710723974
710724313
710724523
710724724
710725189
710725793
710725403
710727556
710728293
710728564
710729160
710730239
710734739
710735529
710735741
710737736
710738233
710740424
710740778
710741113
710742653
710742834
710742607
710743632
710746564
710746758
710746872
710747868
710748244
710748385
710749552
710749896
710750559
710750974
710751828
710751552
710751829
710752419
710752649
710754612
710755175
710756868
710756871
710757644
710758228
710758404
710758676
710758949
710759126
710759310
710759738
710761275
710762648
710762900
710764529
710764503
710765517
710767368
710768007
710767873
710769267
710769056
710771157
710772409
710773164
710774503
710775185
710776789
710777365
710779572
710779582
710781842
710784133
710784461
710784797
710786839
710787520
710788070
710789405
710789555
710790830
710794134
710794616
710794554
710795215
710795530
710795959
710796655
710798058
710798510
710798640
710798763
710798853
710798758
710798901
710799094
710799584
710799920
710800203
710800270
710800664
710802168
710802528
710802880
710803468
710804790
710806523
710806806
710806920
710807806
710808031
710808368
710809226
710809657
710810668
710810274
710811250
710813783
710813831
710815016
710815236
710815543
710815540
710815704
710818796
710818972
710819714
710819347
710820271
710822005
710823885
710824537
710827004
710827472
710829050
710829778
710830109
710830738
710830953
710831113
710831107
710831948
710834395
710834635
710834397
710837391
710838228
710838513
710842942
710843984
710844655
710847604
710849670
710849926
710851320
710853079
710855881
710856882
710857989
710858209
710862217
710864951
710865330
710866167
710867323
710867982
710869754
710869808
710871645
710873279
710874397
710875882
710875981
710877161
710877451
710877390
710879480
710879872
710880064
710880882
710880995
710881127
710881828
710882126
710882478
710884639
710884704
710885913
710886615
710887298
710888811
710890380
710890312
710890748
710891024
710892803
710892844
710893233
710894710
710895132
710897588
710897738
710897922
710898217
710899891
710901063
710901161
710903102
710903327
710903104
710904563
710905410
710907470
710908199
710908041
710908597
710908340
710908901
710909401
710909436
710909518
710909920
710910118
710910348
710910526
710910776
710912079
710912935
710916257
710916212
710917613
710918212
710918420
710918721
710919308
710919897
710920835
710921870
710922810
710922887
710926059
710928304
710931666
710931587
710932467
710933853
710933828
710934602
710936172
710936937
710938587
710939155
710939679
710942048
710942109
710943560
710944979
710945970
710947823
710948340
710948621
710949028
710950085
710953500
710953837
710954905
710955406
710955614
710957221
710957305
710957594
710958644
710959535
710960084
710959964
710959992
710961670
710962766
710962437
710962835
710964927
710967353
710967926
710967926
710969251
710972117
710972618
710972842
710974489
710975228
710975793
710976308
710977587
710978501
710981945
710982695
710982553
710983189
710983453
710983171
710984841
710986990
710987544
710991731
710990846
710993490
710994261
710994978
710995834
710996428
710996817
711000077
711000417
711000593
711001241
711002548
711002566
711003394
711005966
711006325
711006663
711006935
711008384
711008636
711008855
711009292
711009662
711009691
711010366
711010701
711012433
711014986
711014877
711018361
711018727
711020818
711020931
711021070
711021233
711023684
711023793
711023626
711024608
711025084
711027638
711027900
711028138
711028043
711028635
711030819
711030885
711030734
711031473
711031735
711033412
711033892
711033670
711034305
711034735
711035943
711036366
711036899
711036856
711037190
711037978
711038935
711040358
711040788
711041457
711042574
711042272
711042973
711042904
711045307
711045176
711047592
711046997
711047764
711048873
711049384
711049663
711053720
711055086
711055526
711057903
711058305
711058820
711058666
711060754
711061429
711061915
711062808
711062812
711064601
711065152
711065504
711065804
711066482
711067191
711067448
711067919
711069564
711071141
711071516
711072082
711072616
711074412
711075764
711076102
711075850
711076071
711077115
711077941
711078507
711080048
711080217
711080844
711083293
711083321
711083510
711084769
711084966
711085777
711086433
711086482
711087404
711088488
711088955
711089434
711090124
711090798
711091720
711093474
711093804
711094303
711097338
711098097
711099341
711100786
711105545
711107129
711107658
711108293
711108748
711109894
711110223
711110382
711110940
711114873
711115255
711119901
711120128
711121025
711122051
711122580
711122878
711123308
711127128
711127938
711128220
711130702
711130802
711130933
711131250
711131924
711132392
711133168
711133430
711133916
711134995
711134949
711137548
711139305
711142429
711142570
711142866
711143228
711144747
711145087
711145349
711145405
711146440
711146431
711146361
711148249
711149678
711150242
711150078
711150437
711151707
711153360
711158506
711159185
711160601
711161581
711165709
711166226
711165884
711167723
711168233
711168866
711169542
711169712
711171023
711173609
711174121
711176166
711176691
711176846
711176842
711176718
711177236
711177520
711177990
711178139
711178090
711178542
711178642
711179677
711180166
711180782
711180805
711180804
711181386
711181766
711183674
711184087
711186226
711185847
711187330
711189246
711189702
711190056
711190904
711191224
711192279
711197121
711197654
711198752
711198237
711202741
711202880
711202888
711204825
711206802
711207400
711207725
711207601
711207969
711209186
711211624
711211447
711212130
711213197
711213857
711215901
711216418
711216935
711217150
711217338
711217095
711218448
711219191
711220243
711221465
711214175
711221737
711222005
711222482
711223805
711223732
711224597
711225470
711226763
711226537
711227500
711228385
711229189
711231665
711235644
711237195
711238202
711238560
711238815
711240797
711242603
711242537
711243050
711243766
711244090
711244172
711244146
711244757
711245968
711247245
711247330
711248838
711249872
711249943
711250135
711250363
711251439
711252012
711254405
711256054
711259857
711260682
711260734
711261269
711261300
711264003
711264561
711264950
711265504
711267104
711269174
711269580
711269951
711270136
711270434
711270743
711271362
711284635
711284607
711285506
711286473
711289767
711289968
711290146
711290470
711290820
711291176
711291905
711292393
711292472
711293088
711294222
711295554
711295639
711295553
711297959
711299024
711300001
711300685
711300878
711301160
711301098
711302457
711302489
711302256
711303221
711303386
711306199
711307531
711308003
711309699
711313215
711313237
711313509
711314580
711315077
711315387
711315493
711316807
711317593
711319684
711320713
711322952
711323330
711324205
711324352
711330272
711331942
711332404
711332782
711333870
711335017
711335471
711336518
711336699
711337982
711338952
711339740
711341961
711342792
711343082
711344020
711344695
711345223
711347678
711348825
711350190
711350126
711351811
711353039
711353525
711355627
711356268
711356477
711357903
711358491
711359286
711360646
711361153
711364176
711364870
711365701
711365238
711368225
711369009
711369579
711370186
711370613
711371097
711371426
711372005
711372196
711375862
711375983
711378405
711378592
711379175
711380765
711382535
711382816
711383483
711385870
711386320
711386680
711386795
711387093
711389511
711390463
711391181
711391614
711394268
711394803
711395129
711396063
711396190
711398416
711399024
711399445
711401013
711402107
711403810
711404484
711404554
711405837
711406667
711407634
711407587
711409276
711409514
711410232
711412164
711412906
711413088
711414093
711414363
711415963
711417117
711417481
711418827
711420022
711420221
711420419
711420981
711421049
711421809
711421645
711423307
711423941
711426152
711426612
711427121
711428309
711428932
711430542
711430895
711430987
711431551
711432241
711433096
711433452
711433627
711434417
711434541
711435993
711439197
711440286
711442564
711442685
711442742
711443102
711443429
711443748
711444588
711445392
711445900
711446903
711448343
711448467
711449047
711449120
711448678
711449642
711449687
711451785
711452536
711453635
711454094
711454679
711454927
711455753
711457137
711457274
711458831
711459331
711459763
711460941
711462993
711464026
711466207
711468102
711468212
711469034
711469261
711471230
711473948
711474701
711475890
711475556
711476223
711476662
711476914
711477273
711477313
711478466
711478960
711478978
711480894
711482076
711482308
711484705
711487324
711489042
711489757
711490014
711491991
711492232
711491431
711492854
711496298
711497878
711498207
711498686
711498879
711500128
711501086
711501707
711503003
711503485
711503938
711503938
711504699
711507869
711507934
711508255
711508642
711509618
711510686
711511853
711512805
711512500
711513217
711513463
711515253
711517714
711518318
711519904
711520031
711521026
711523271
711524509
711525269
711526225
711527744
711528375
711530798
711534572
711534796
711535175
711537521
711540951
711541075
711541816
711545857
711547153
711548747
711548864
711548869
711549424
711550233
711551530
711552449
711552612
711554123
711556055
711556535
711557607
711558963
711560039
711561748
711561974
711562357
711563585
711564304
711564687
711566091
711566511
711566982
711567850
711567854
711568064
711568481
711568586
711569080
711569954
711571606
711573572
711575320
711576335
711576442
711578006
711578270
711578125
711579257
711579619
711581171
711581759
711582016
711582795
711584066
711584559
711584437
711585566
711587946
711589901
711590872
711592110
711593103
711593793
711594316
711594812
711595529
711595465
711596284
711596810
711597195
711598135
711598262
711598885
711599625
711601709
711602150
711603014
711603968
711604280
711605011
711607521
711608935
711609603
711609694
711609640
711610776
711611160
711612065
711612453
711612471
711612458
711615056
711615572
711615655
711615780
711615968
711616098
711615613
711616529
711617221
711617443
711619402
711620579
711621217
711623268
711623544
711624712
711624897
711626598
711627387
711627408
711629136
711629065
711630338
711632173
711632749
711633306
711634327
711638173
711638467
711638469
711638940
711640618
711640722
711641499
711641831
711644630
711644790
711646256
711646340
711647216
711647507
711651127
711653295
711654983
711656027
711656887
711657959
711659410
711660120
711661580
711663111
711666753
711666773
711668780
711668799
711671060
711671569
711671335
711672776
711674150
711676923
711677116
711679599
711680481
711681049
711681191
711682582
711683683
711684554
711687082
711687152
711687533
711690882
711692345
711692600
711692808
711694247
711694455
711695570
711695691
711695950
711696503
711698342
711698543
711699307
711700285
711700369
711700286
711700194
711701983
711702724
711702699
711702914
711709338
711709929
711709979
711710629
711710891
711711386
711712155
711712381
711712644
711713760
711714607
711715261
711715721
711717550
711718287
711720671
711722659
711723695
711725646
711726999
711727571
711727944
711728244
711729318
711729643
711728980
711731888
711731841
711732170
711733873
711734678
711736381
711737431
711737877
711738249
711740069
711740726
711744970
711745571
711748005
711748746
711748537
711749669
711749616
711749837
711750109
711750313
711752175
711752449
711754494
711755057
711756930
711756996
711758024
711759224
711759449
711759932
711760564
711761508
711763299
711763928
711766839
711767442
711767981
711770455
711770084
711771334
711772081
711775110
711777917
711778483
711778113
711778869
711778662
711779589
711779831
711781401
711781525
711781413
711782523
711782583
711785796
711787219
711790441
711792291
711792292
711794843
711794909
711795825
711798337
711798903
711799162
711800223
711800325
711801062
711803106
711803216
711802641
711803811
711804169
711807026
711807192
711808972
711809339
711809635
711810824
711812571
711812710
711813368
711815237
711815501
711817697
711817949
711819800
711819865
711820883
711823360
711823483
711824739
711824965
711825162
711824972
711827113
711827094
711827728
711827840
711828533
711829458
711829498
711829700
711830459
711830829
711831213
711832282
711832603
711833290
711835569
711836984
711837429
711837855
711838151
711838546
711839262
711839573
711839443
711841317
711841387
711842313
711846023
711847976
711849102
711849914
711850014
711850342
711852894
711853029
711853100
711853477
711853513
711853915
711854006
711854645
711855811
711857214
711860529
711860406
711861020
711861993
711862807
711864403
711864793
711864979
711865792
711867803
711868136
711868578
711869339
711869874
711871456
711871873
711873124
711873126
711873343
711875340
711876447
711877016
711877396
711878509
711879662
711879829
711880703
711881923
711882045
711882264
711883289
711884746
711885999
711887478
711887841
711889646
711890299
711890946
711892214
711894607
711895401
711897455
711898677
711899143
711901928
711903437
711904253
711904518
711904243
711904876
711907090
711907445
711907770
711912066
711912991
711913175
711912828
711913158
711913648
711913945
711915049
711916572
711917629
711918393
711918647
711918735
711921353
711921599
711923335
711923959
711924076
711924643
711925561
711926969
711927331
711927796
711927960
711929245
711929427
711930259
711932742
711932980
711932972
711933000
711933615
711933298
711934003
711934637
711936224
711936608
711937466
711937135
711940122
711940468
711943975
711945742
711945825
711947564
711950856
711951801
711951852
711951999
711953517
711953884
711954280
711954219
711955437
711955895
711955714
711957111
711960248
711960450
711963765
711964851
711965486
711966190
711968477
711969968
711971266
711971493
711973137
711974323
711974757
711974786
711975773
711976118
711976255
711978197
711981485
711983597
711983331
711983886
711984300
711984232
711985212
711985555
711986282
711986955
711986496
711986954
711987120
711987442
711987764
711988246
711989713
711990109
711990333
711990486
711990738
711990922
711991718
711993361
711993807
711999482
712000732
712001190
712001711
712002394
712002686
712003120
712003468
712004715
712005402
712007502
712007852
712008176
712008284
712008184
712007931
712009058
712010181
712010513
712011526
712011945
712012888
712014744
712015126
712016311
712016378
712018562
712021389
712022000
712022430
712023321
712024915
712025404
712026262
712026407
712026645
712027006
712026862
712027387
712028132
712028276
712029466
712030680
712030756
712030656
712031676
712033506
712034275
712034644
712035097
712036362
712037033
712037137
712037200
712037904
712038177
712038637
712038667
712038959
712042153
712044634
712045104
712046179
712049065
712051227
712051588
712051699
712052055
712053638
712054552
712056511
712056608
712056611
712056802
712056925
712057010
712058718
712060158
712060689
712062043
712064304
712064663
712064834
712066872
712067609
712068521
712069124
712069475
712070488
712070461
712071248
712071799
712072432
712072855
712073629
712074031
712074389
712074746
712075293
712078458
712078577
712078748
712079568
712080132
712080687
712081117
712082070
712084907
712086113
712086686
712087062
712087474
712088373
712088583
712089258
712089229
712090926
712092055
712094911
712095267
712095585
712098137
712099385
712100316
712102710
712103258
712103153
712103691
712103551
712105097
712106148
712106124
712106757
712106896
712107088
712107736
712108646
712108936
712110591
712111071
712111710
712112877
712113464
712115837
712115965
712116149
712116439
712116659
712117338
712118347
712118614
712119285
712119445
712119667
712120162
712122219
712122523
712123939
712124282
712127244
712127557
712128666
712132369
712131953
712132463
712132923
712132820
712133802
712134062
712134247
712136519
712136753
712138945
712139752
712139969
712140005
712142562
712143551
712145450
712146538
712146918
712149944
712151259
712152100
712153780
712153862
712155010
712155307
712155419
712156246
712157407
712159454
712160153
712160429
712160483
712160485
712160999
712162336
712162544
712163653
712166670
712168094
712169755
712170210
712171280
712171887
712173175
712174233
712174406
712174774
712176056
712178909
712179925
712180996
712180790
712182749
712182988
712182670
712183297
712184318
712184639
712186962
712190399
712190476
712194080
712193927
712195663
712195817
712196242
712196619
712197887
712198782
712199002
712199857
712201151
712203340
712205290
712205526
712206872
712207262
712207362
712209833
712210282
712210299
712211330
712211397
712211439
712211784
712213952
712214708
712214182
712217357
712220057
712220599
712220989
712221840
712222671
712222652
712222573
712223455
712223681
712224211
712225605
712226587
712226824
712229106
712230102
712230188
712230922
712231197
712232482
712233620
712233424
712233953
712234527
712234975
712237197
712237809
712238708
712239562
712239812
712240693
712242221
712242613
712243543
712243829
712244338
712244461
712246125
712246495
712248786
712249712
712250464
712250567
712251807
712253020
712253044
712257070
712261942
712262173
712262698
712263478
712264985
712265514
712267546
712268504
712268719
712269572
712269945
712269862
712270302
712270638
712270818
712271596
712273770
712274178
712274231
712275071
712275699
712277036
712279044
712279624
712279699
712280853
712281438
712288347
712289361
712289623
712289847
712290796
712291204
712291931
712292297
712292592
712293405
712293755
712296432
712296584
712299171
712299471
712300535
712302025
712305236
712309398
712309978
712310758
712311924
712312932
712314779
712315511
712316496
712318703
712318903
712323172
712323327
712323779
712325841
712326269
712327791
712329084
712330228
712330550
712330691
712332055
712332974
712334817
712334841
712335209
712336633
712337864
712337330
712338620
712339853
712341239
712341239
712342035
712342515
712343593
712344290
712348055
712348688
712349135
712348956
712351123
712351088
712352004
712352582
712353202
712353593
712353961
712355038
712355509
712355998
712356245
712357292
712358019
712361061
712361565
712362593
712363126
712363095
712363855
712366110
712366503
712366594
712366748
712368334
712369805
712370377
712371037
712373397
712373384
712374218
712374634
712374774
712375670
712375981
712378541
712378497
712379736
712380219
712381601
712382568
712382890
712382968
712383158
712383039
712383241
712384758
712386215
712386601
712387819
712387890
712388031
712388037
712388549
712388345
712391728
712391794
712391816
712392087
712393977
712395635
712396368
712396772
712397840
712400463
712401644
712401943
712403510
712404073
712404186
712405864
712405881
712406816
712407540
712407810
712409008
712409760
712410408
712412102
712412228
712411809
712412940
712413072
712413883
712414770
712415664
712417653
712418689
712418793
712419418
712420669
712420543
712422120
712423733
712424542
712424614
712428776
712428908
712429716
712429753
712430023
712430087
712430109
712433626
712434488
712434368
712436287
712436793
712438135
712438212
712438769
712438774
712440346
712441039
712441305
712441059
712443295
712444245
712445967
712446437
712449629
712452687
712452676
712452719
712452362
712453519
712453754
712454845
712455318
712455002
712454976
712457692
712457784
712457963
712458422
712459497
712462229
712463092
712463360
712463725
712463653
712464565
712464722
712466687
712466977
712467022
712467538
712467788
712468002
712468142
712469163
712471079
712471980
712472594
712473155
712473797
712473384
712474878
712475281
712475838
712475681
712480223
712480374
712480581
712481635
712482315
712483013
712483492
712485289
712486359
712486828
712486583
712487157
712489092
712492945
712493154
712493572
712494950
712495698
712495509
712496845
712496898
712498155
712498037
712499066
712500320
712502398
712502759
712502901
712503394
712504680
712504952
712507075
712506971
712507496
712507057
712507963
712508651
712509222
712509407
712509978
712511799
712512639
712513772
712515058
712516318
712518186
712517588
712519050
712519386
712520003
712520386
712520217
712525495
712525519
712525561
712526173
712527550
712527163
712527798
712529002
712529792
712529873
712530601
712531204
712534206
712534796
712534927
712535872
712536755
712538940
712540607
712540634
712541968
712543007
712544484
712545052
712544698
712548164
712549386
712552154
712553564
712552865
712554740
712556249
712556891
712557044
712557356
712557668
712557377
712557770
712560249
712560990
712561188
712562425
712563586
712564997
712565061
712565901
712565944
712567237
712569453
712569476
712570329
712571913
712574344
712576818
712577670
712577080
712578334
712579530
712580395
712580657
712581064
712581600
712582331
712583301
712584676
712585070
712585126
712586353
712586384
712586879
712587161
712587421
712587584
712587725
712588738
712589897
712589852
712590549
712590440
712592123
712592424
712594776
712595037
712596318
712597431
712597996
712598013
712598885
712601055
712600644
712601250
712601392
712602288
712602801
712602663
712603442
712604512
712604861
712610149
712609892
712611267
712611884
712613964
712615697
712616111
712616187
712616287
712616527
712616752
712617273
712618035
712618075
712618478
712619749
712623447
712624627
712626151
712627559
712628867
712628799
712631070
712632046
712632347
712636037
712634794
712637112
712636997
712639081
712639467
712639831
712640251
712640951
712643383
712643569
712644842
712646633
712647683
712648681
712649335
712650976
712650902
712651877
712653241
712653384
712655179
712655167
712655343
712656367
712657036
712657004
712657579
712657973
712658346
712658928
712659250
712659440
712660204
712661361
712662687
712664110
712667322
712667421
712668391
712669194
712670135
712671685
712672111
712672720
712672901
712678683
712679185
712679783
712680304
712680447
712681691
712683218
712684768
712684930
712685665
712685819
712687609
712687748
712687842
712688063
712689807
712691337
712691431
712692527
712692853
712693702
712693581
712694091
712695354
712695615
712696499
712695948
712696839
712698742
712699100
712703570
712703984
712705398
712706787
712707636
712708517
712709027
712710841
712711265
712711494
712712282
712714326
712714357
712716704
712716482
712717711
712719087
712719374
712720132
712722148
712722317
712722745
712722519
712722993
712723483
712724432
712724982
712725074
712728109
712728172
712730021
712730215
712731921
712732577
712733081
712733239
712734909
712735721
712735410
712736080
712736132
712740370
712740585
712740836
712741595
712742040
712744829
712746110
712746264
712746949
712748833
712749065
712750696
712752019
712751588
712753966
712755521
712755962
712757244
712758261
712759196
712759462
712759956
712760324
712760392
712762388
712763942
712764302
712764538
712765155
712765637
712765632
712766862
712767672
712769996
712770996
712771809
712775091
712776247
712776921
712778309
712778897
712780351
712780866
712781728
712782417
712782700
712782792
712783316
712783347
712786303
712788193
712789862
712790646
712791820
712791836
712791913
712792947
712793072
712793194
712795697
712795948
712797574
712799188
712803384
712803463
712803332
712805481
712807630
712808772
712810511
712810975
712812153
712812503
712812612
712813236
712813159
712813499
712814769
712814763
712815139
712815175
712815337
712815407
712817599
712817210
712817783
712817959
712818299
712818956
712819955
712820382
712820656
712821567
712821882
712823421
712826427
712826419
712826732
712826024
712827553
712827540
712829394
712832260
712832428
712833316
712834936
712835221
712836039
712836597
712837107
712838837
712839608
712839383
712840334
712840624
712842378
712842433
712842742
712843503
712843591
712845103
712845349
712847054
712849753
712850577
712851351
712854766
712855387
712858431
712858954
712858667
712860176
712861090
712861266
712863454
712864663
712864895
712864767
712865254
712866022
712866900
712870151
712870034
712870410
712870084
712871703
712872112
712872572
712872532
712873222
712875068
712876546
712879895
712880791
712884210
712885139
712885581
712886495
712886933
712887395
712892360
712893370
712893713
712894512
712895965
712896925
712897278
712897417
712899441
712898676
712900099
712901733
712903181
712903358
712903350
712903681
712903702
712904876
712905747
712906675
712908121
712908254
712909958
712910801
712913333
712913220
712913598
712914827
712916691
712916718
712916896
712917777
712919605
712919727
712920533
712920594
712921595
712922068
712923328
712924168
712924279
712924222
712924908
712925501
712925836
712928182
712928599
712927119
712927956
712929374
712929351
712930065
712932310
712933208
712933669
712933908
712934497
712935341
712936030
712936738
712937354
712939254
712939895
712941587
712942904
712943578
712945392
712945372
712945776
712945816
712946648
712948077
712948771
712949925
712949631
712951916
712952816
712953844
712954668
712955741
712956649
712958995
712959452
712960370
712961077
712961011
712963579
712964021
712964044
712966163
712966588
712967434
712967861
712968955
712969565
712970093
712971563
712970993
712972337
712973079
712975172
712976329
712976394
712977435
712977495
712980698
712981051
712981940
712981873
712982409
712983331
712983937
712984523
712984711
712985230
712986542
712989165
712990677
712991238
712991384
712991797
712992364
712994555
712995586
712996298
712997938
712998985
712999640
713000181
713000597
713002059
713004474
713005874
713005824
713006858
713007151
713007305
713007742
713008428
713009138
713009829
713011082
713012004
713011872
713013915
713013713
713014034
713016601
713017179
713017519
713017781
713018088
713018132
713018777
713022861
713023043
713024586
713026300
713026871
713026989
713027950
713029816
713031122
713031193
713031764
713031773
713033580
713035271
713035510
713038645
713039074
713044809
713045860
713046220
713046371
713049667
713050383
713051640
713051625
713052231
713055107
713055556
713056998
713056729
713057844
713058209
713058921
713058930
713059404
713059208
713059560
713060007
713060491
713060674
713061158
713061298
713062438
713062780
713062813
713065111
713066427
713067480
713067877
713068099
713068868
713069980
713070451
713071808
713071913
713072131
713073104
713073507
713074489
713075384
713076858
713077020
713078349
713080511
713080646
713084965
713085200
713087127
713090731
713091082
713092637
713094015
713094401
713094124
713096310
713096573
713097324
713097802
713098343
713098786
713099540
713100112
713100779
713102525
713102992
713103460
713104431
713106881
713107188
713107242
713107673
713108097
713109040
713110089
713110558
713110607
713111082
713111612
713113169
713113843
713113770
713115666
713115792
713117698
713121312
713122250
713123612
713126115
713129154
713128787
713130019
713131678
713134801
713135000
713135697
713135999
713137191
713136921
713141343
713143283
713143887
713144162
713144432
713145759
713146141
713147786
713148277
713148676
713149691
713149344
713149837
713150087
713150698
713150862
713154628
713154853
713156668
713156369
713157203
713160643
713161221
713163197
713164359
713166186
713167784
713168415
713168607
713168812
713168867
713169368
713169925
713170991
713173826
713175953
713176579
713178661
713178948
713179537
713182991
713183321
713183857
713184951
713186681
713188486
713189989
713190088
713193041
713194493
713197877
713200056
713200108
713200593
713201581
713202172
713203701
713207977
713207588
713207927
713208310
713208992
713208933
713209428
713210642
713212279
713212414
713212375
713214238
713215147
713215152
713215614
713216320
713216417
713216577
713214624
713216938
713218076
713218211
713218597
713220753
713222303
713224639
713225354
713225416
713226019
713226239
713227181
713227488
713228010
713228295
713228191
713229901
713230484
713231115
713230967
713232623
713233754
713234600
713236719
713238011
713238278
713239399
713240403
713242520
713245175
713245501
713245834
713246648
713246036
713246769
713247776
713248273
713248354
713250420
713250610
713250656
713250330
713252158
713252793
713252724
713253616
713253784
713255084
713255393
713257005
713257762
713258435
713259414
713259571
713260642
713261773
713263341
713264059
713264085
713266450
713267383
713268014
713268805
713269004
713270101
713270814
713272805
713273149
713278202
713280413
713281169
713281463
713282363
713283931
713283510
713284803
713285550
713285712
713287641
713288073
713291307
713290439
713291505
713292271
713291530
713292140
713292863
713294999
713295033
713298554
713298730
713298780
713300298
713300711
713300850
713303036
713303391
713303386
713303622
713305892
713306273
713309826
713310052
713311475
713314387
713314954
713315550
713316484
713315896
713317293
713319644
713319584
713319892
713320597
713321205
713321194
713321539
713322306
713324159
713324541
713324556
713324947
713326340
713326602
713326396
713326915
713327204
713328772
713329260
713329973
713330970
713331282
713331840
713332503
713333318
713334893
713335064
713336343
713336404
713336905
713337043
713337803
713339306
713340482
713340301
713343777
713343989
713344337
713344907
713344923
713345217
713348058
713348472
713350077
713350119
713350226
713352049
713352659
713353145
713354219
713355409
713356367
713356362
713357243
713358488
713361640
713361734
713363257
713363360
713363410
713364906
713364954
713366002
713367608
713368056
713368365
713369301
713370400
713372825
713374858
713375309
713375647
713375741
713376330
713376791
713376738
713377318
713379985
713380377
713380565
713383316
713383432
713384891
713384929
713387313
713387749
713388231
713390666
713390855
713391760
713392602
713393205
713393776
713394927
713397601
713397632
713397858
713398959
713402599
713402735
713403314
713404803
713404301
713407386
713407659
713407683
713407324
713408408
713409456
713410207
713410552
713411366
713412446
713412897
713413817
713414032
713417662
713417981
713420824
713420681
713423125
713423863
713424336
713424376
713425087
713425337
713425935
713426795
713427583
713428040
713428745
713428649
713430815
713431747
713431841
713432599
713433416
713433453
713435545
713436904
713438588
713439021
713439994
713440273
713440512
713440572
713440639
713440957
713441089
713444539
713444272
713445699
713445949
713447032
713447639
713449514
713451044
713451075
713452008
713452512
713453382
713453715
713454096
713454750
713456798
713456852
713457575
713458179
713460323
713461147
713461167
713461882
713462274
713465234
713465669
713466184
713466570
713467974
713469013
713471672
713473819
713476931
713477525
713481306
713481775
713482898
713483297
713484029
713484016
713485029
713485406
713485544
713486170
713487799
713487778
713490290
713491098
713491131
713493970
713495277
713495704
713496399
713498159
713498235
713498335
713499259
713499607
713500649
713502670
713503408
713503881
713504399
713504531
713504936
713505846
713506982
713509111
713509331
713510302
713510667
713511150
713511426
713513436
713513448
713513495
713514099
713515029
713514632
713515948
713516286
713516366
713516695
713517413
713518006
713518422
713519784
713520442
713521309
713521885
713522841
713524920
713527461
713527919
713528688
713528288
713529457
713531189
713532085
713531920
713532313
713532372
713534081
713534489
713535178
713535197
713536068
713536522
713537529
713537810
713538746
713540203
713540250
713540168
713540934
