730045034
1600000872
730084049
731795458
1600016231
1600018934
1600023105
1600036546
1600048325
1600056921
1600059790
1600062909
1600063689
1600086935
1600094161
1600100841
1600102340
1600113798
1600117598
1600121423
1600122223
1600126183
1600146215
1600148823
1600150613
1600164227
1600178184
1600189141
1600204140
1600207087
1600209162
1600232599
1600238507
1600238781
1600242744
1600257347
1600258071
1600261349
1600274167
1600277036
1600279911
1600284463
1600285666
1600286511
1600292130
1600299969
1600307860
1600311057
1600314452
1600323202
1600327382
1600329318
1600345003
1600350834
1600351988
1600354833
1600356942
1600360416
1600370435
1600374059
1600377891
1600391008
1600396369
1600396537
1600400650
1600416093
1600416598
1600424232
1600424657
1600424744
1600425533
1600430886
1600436677
1600455107
1600471322
1600472260
1600498879
1600502453
1600506245
1600507583
1600509240
1600519737
1600521668
1600529318
1600533159
1600538034
1600545040
1600554713
1600559820
1600591195
1600593129
1600593563
1600595792
1600598755
1600605063
1600605320
1600605894
1600618130
1600623623
1600629999
1600632726
1600639866
1600670735
1600684430
1600687633
1600708873
1600735957
1600741527
1600747111
1600755499
1600769130
1600770144
1600772317
1600774297
1600775446
1600783592
1600791996
1600794057
1600799550
1600800236
1600809208
1600813448
1600816500
1600817074
1600822951
1600836742
1600840128
1600844790
1600845364
1600847139
1600847808
1600850386
1600865845
1600882700
1600887294
1600891312
1600891565
1600903685
1600904222
1600906271
1600907486
1600907609
1600907977
1600912750
1600913645
1600918791
1600935542
1600941665
1600945988
1600951969
1600959898
1600962404
1600962939
1600970134
1600976763
1600977921
1600979486
1600979845
1600984583
1600992679
1600999102
1601009447
1601015423
1601018280
1601019832
1601023365
1601025699
1601028255
1601033635
1601040406
1601055051
1601055612
1601069972
1601078448
1601082314
1601095250
1601096874
1601110472
1601124352
1601160223
1601162578
1601171583
1601173186
1601179757
1601181184
1601181244
1601187779
1601196622
1601203387
1601207403
1601214613
1601223608
1601229706
1601235025
1601237207
1601239096
1601243247
1601259896
1601271888
1601275070
1601276833
1601296964
1601307018
1601318707
1601320315
1601326838
1601349839
1601350873
1601360577
1601362435
1601381372
1601391141
1601420035
1601433413
1601437817
1601444550
1601463632
1601478520
1601490332
1601491558
1601491893
1601498722
1601505852
1601515487
1601529303
1601531402
1601533996
1601536522
1601537084
1601537169
1601542220
1601544216
1601546027
1601565391
1601570030
1601577180
1601581807
1601582635
1601583357
1601591168
1601608965
1601612939
1601630153
1601636933
1601639157
1601655197
1601667411
1601686647
1601686971
1601699556
1601704610
1601719793
1601722806
1601731528
1601736196
1601742559
1601747886
1600018934
1600036546
1600048325
1600056921
1600059790
1600063689
1600086935
1600100841
1600113798
1600117598
1600121423
1600122223
1603071249
1603074497
1603086986
1603095999
1603110903
1603113864
1603115830
1603123056
1603136599
1603150557
1603150667
1603153150
1603156452
1603163433
1603170472
1603179933
1603183568
1603186400
1603190913
1603191324
1603192512
1603201490
1603206639
1603219222
1603220964
1603221952
1603243167
1603244735
1603253522
1603261530
1603263299
1603263045
1603266663
1603272117
1603287097
1603289998
1603293542
1603309032
1603316984
1603325600
1603326516
1603390390
1603390751
1603398274
1603428479
1603433121
1603443008
1603445745
1603468186
1603469470
1603475902
1603477570
1603490584
1603500637
1603500961
1603503588
1603508772
1603519359
1603523178
1603552397
1603553685
1603554702
1603561562
1603574887
1603580115
1603585995
1603599153
1603603421
1603604212
1603608889
1603614481
1603627227
1603643123
1603651653
1603659380
1603663250
1603706157
1603715266
1603720157
1603723588
1603729443
1603766608
1603779910
1603780197
1603795030
1603799090
1603818045
1603823441
1603867114
1603876312
1603898496
1603907001
1603914754
1603915309
1603919027
1603922662
1603950594
1603966991
1603983437
1603987129
1603987720
1603989917
1603998144
1604001411
1604002851
1604015112
1604016799
1604018957
1604025347
1604027782
1604041123
1604043270
1604044171
1604044287
1604052916
1604059072
1604065114
1604079447
1604086155
1604086452
1604088228
1604090844
1604111572
1604113598
1604115295
1604141204
1604142613
1604168552
1604174769
1604179395
1604187028
1604192997
1604193543
1604196911
1604199659
1604201469
1604206995
1604208633
1604211268
1604226268
1604232537
1604246668
1604255149
1604260765
1604263613
1604267082
1604270364
1604273161
1604278273
1604281684
1604284654
1604287164
1604290963
1604295543
1604299013
1604311139
1604311529
1604320294
1604322204
1604328772
1604328758
1604329147
1604329461
1604333886
1604342178
1604348972
1604354229
1604354977
1604358466
1604360154
1604362306
1604364667
1604365409
1604366022
1604389899
1604424371
1604460743
1604462028
1604468179
1604503853
1604504798
1604519454
1604521673
1604526095
1604544113
1604547936
1604550181
1604551793
1604570713
1604571568
1604574497
1604584677
1604598236
1604603521
1604605553
1604613996
1604617637
1604624448
1604635637
1604640696
1604644261
1604645905
1604650463
1604654061
1604654366
1604676491
1604683184
1604683945
1604692242
1604695690
1604696322
1604706920
1604713503
1604716796
1604717275
1604719033
1604719297
1604726338
1604733414
1604734711
1604736667
1604736994
1604781020
1604789574
1604802782
1604813240
1604814224
1604820070
1604821036
1604822524
1604821992
1604825476
1604830840
1604840897
1604841504
1604842791
1604855652
1604858303
1604863575
1604868134
1604870676
1604873936
1604898243
1604908677
1604912407
1604913679
1604914734
1604925630
1604931271
1604942582
1604930271
1604945669
1604951306
1604953360
1604955760
1604967595
1604983143
1604984060
1604987507
1604988335
1604998697
1605022925
1605030938
1605039666
1605043816
1605049626
1605051020
1605052237
1605057221
1605060093
1605061244
1605087606
1605092056
1605119995
1605122867
1605136167
1605141400
1605141619
1605144118
1605155100
1605165754
1605167065
1605177835
1605181183
1605190267
1605191617
1605221280
1605223216
1605229693
1605239901
1605263281
1605266816
1605276738
1605283457
1605285530
1605318401
1605319217
1605322547
1605327030
1605330694
1605331899
1605333152
1605335329
1605348266
1605358734
1605369971
1605396675
1605406502
1605406696
1605419098
1605437806
1605450962
1605474706
1605493357
1605504083
1605506882
1605513197
1605516249
1605522765
1605524215
1605533160
1605535971
1605547715
1605552580
1605557884
1605570999
1605575093
1605598786
1605616708
1605622999
1605633102
1605633760
1605641429
1605650268
1605666044
1605680161
1605684754
1605693362
1605745652
1605778249
1605778151
1605780122
1605787797
1605797930
1605798298
1605808090
1605820959
1605822475
1605832967
1605833626
1605848173
1605854283
1605861310
1605872010
1605878024
1605879607
1605885683
1605899535
1605904495
1605911208
1605915192
1605920333
1605935568
1605941300
1605943522
1605952819
1605961011
1605968478
1605970304
1606000478
1606032560
1606044856
1606053292
1606059916
1606059944
1606113858
1606122331
1606123963
1606137163
1606141411
1606169060
1606171156
1606171525
1606176468
1606180540
1606185878
1606201893
1606202194
1606202792
1606216797
1606216946
1606220969
1606239240
1606242581
1606261451
1606301651
1606304189
1606314828
1606325508
1606347838
1606354235
1606355147
1606360105
1606364651
1606427974
1606436430
1606452054
1606455640
1606459195
1606462636
1606468596
1606469349
1606470547
1606476783
1606486654
1606506060
1606514053
1606515479
1606523654
1606535748
1606588047
1606609928
1606634500
1606653474
1606654848
1606657573
1606678599
1606707588
1606722203
1606730307
1606768493
1606773328
1606775252
1606792776
1606793305
1606798957
1606799903
1606825224
1606835173
1606843787
1606887873
1606910792
1606910818
1606912784
1606922866
1606928662
1606930811
1606949813
1606976955
1606985586
1607019075
1607030389
1607034751
1607066697
1607076470
1607084498
1607102686
1607117953
1607130321
1607143907
1607152914
1607157449
1607159696
1607168079
1607169007
1607175910
1607187480
1607190305
1607191675
1607198888
1607222336
1607223875
1607247434
1607253063
1607270391
1607277832
1607285868
1607289065
1607313149
1607341155
1607344468
1607363173
1607370280
1607375040
1607389055
1607393752
1607439194
1607452194
1607451803
1607465450
1607467940
1607476571
1607499308
1607519815
1607526903
1607528519
1607530771
1607538463
1607540880
1607567853
1607599478
1607635181
1607638652
1607640418
1607658959
1607662182
1607676485
1607678113
1607696802
1607700085
1607709960
1607733162
1607732409
1607734458
1607740297
1607745318
1607746345
1607753645
1607786330
1607795546
1607820135
1607820879
1607823993
1607826536
1607829909
1607858592
1607862903
1607866917
1607871788
1607963542
1607965795
1607977991
1607995393
1608009815
1608026137
1608042731
1608053049
1608054548
1608075692
1608127258
1608172829
1608177326
1608193574
1608201669
1608203626
1608226059
1608228945
1608242497
1608246521
1608253966
1608260592
1608264469
1608274393
1608288579
1608295339
1608314702
1608340273
1608341969
1608344412
1608349641
1608377680
1608379195
1608394870
1608400271
1608408958
1608412833
1608423928
1608438193
1608446483
1608463572
1608490172
1608504128
1608505360
1608544993
1608545879
1608546852
1608558476
1608585929
1608609813
1608622129
1608624638
1608657897
1608661786
1608676591
1608677420
1608682084
1608687101
1608721588
1608752302
1608773208
1608798416
1608805401
1608818732
1608819925
1608825147
1608834896
1608840439
1608854787
1608873192
1608875145
1608877012
1608888596
1608896143
1608961540
1608965771
1608967479
1608985150
1608993214
1609000353
1609010563
1609011983
1609034251
1609034483
1609035731
1609045015
1609045908
1609049120
1609064693
1609083312
1609085886
1609089083
1609090102
1609114059
1609117823
1609120694
1609122592
1609123727
1609127292
1609150377
1609218202
1609231119
1609248235
1609251793
1609269061
1609273496
1609274897
1609275987
1609305992
1609312642
1609315752
1609321924
1609342869
1609342922
1609347404
1609349458
1609355059
1609355510
1609358048
1609359513
1609362035
1609362135
1609382591
1609397727
1609410936
1609411460
1609413456
1609447789
1609450619
1609454571
1609468331
1609480349
1609488221
1609491654
1609493557
1609521888
1609555533
1609558436
1609568007
1609582918
1609603986
1609618040
1609631304
1609634231
1609638788
1609667541
1609705482
1609709254
1609716912
1609735569
1609741270
1609752124
1609755470
1609758466
1609762847
1609765837
1609766433
1609775417
1609780924
1609784311
1609794151
1609811020
1609828957
1609856213
1609878964
1609882048
1609890781
1609902904
1609907513
1609972421
1609982637
1609990304
