1600005374
1600005374
1600005374
730163023
731168752
731238484
731733186
731835329
1600005374
1600009794
1600020016
1600028704
1600039969
1600045076
1600049581
1600060106
1600062251
1600064507
1600065952
1600082009
1600099682
1600100691
1600108303
1600113757
1600115335
1600116050
1600117456
1600122124
1600147478
1600148253
1600154126
1600158994
1600164823
1600171339
1600173618
1600188106
1600197942
1600198898
1600199561
1600202093
1600225868
1600228520
1600234182
1600247152
1600250718
1600255643
1600274846
1600282359
1600289530
1600294169
1600294687
1600304252
1600311566
1600329600
1600331254
1600335390
1600339908
1600342899
1600343637
1600359470
1600365336
1600369224
1600369661
1600373394
1600382822
1600389487
1600391530
1600399132
1600400302
1600405771
1600414784
1600419354
1600422011
1600423860
1600431866
1600434458
1600441917
1600446849
1600455296
1600456519
1600460808
1600463427
1600468830
1600484061
1600487130
1600490667
1600504993
1600510779
1600516430
1600522066
1600532239
1600532362
1600544754
1600548241
1600553269
1600562449
1600566902
1600567129
1600569466
1600592347
1600598169
1600600146
1600606001
1600611110
1600614564
1600614612
1600622362
1600622838
1600624301
1600626479
1600631825
1600635013
1600635463
1600636200
1600643635
1600656969
1600661928
1600670382
1600674310
1600677632
1600681466
1600684666
1600685720
1600688172
1600718640
1600721080
1600723839
1600727869
1600732374
1600733107
1600737487
1600741759
1600771359
1600777174
1600778515
1600781047
1600781915
1600786426
1600789048
1600794442
1600798345
1600798656
1600801908
1600811081
1600811762
1600821535
1600847938
1600848112
1600850951
1600859708
1600863556
1600880954
1600881578
1600887249
1600890954
1600895685
1600898072
1600901915
1600903691
1600910791
1600913989
1600922765
1600924720
1600924968
1600938723
1600939712
1600941316
1600947348
1600947605
1600948785
1600956643
1600962568
1600966826
1600967452
1600975496
1600987042
1600990039
1601002419
1601024704
1601031039
1601031427
1601036013
1601047434
1601052018
1601058161
1601061032
1601063629
1601082891
1601101270
1601103849
1601118956
1601122518
1601128517
1601134564
1601140826
1601142448
1601151077
1601155697
1601159149
1601160365
1601162369
1601166373
1601169933
1601171213
1601172888
1601177038
1601177043
1601180945
1601194071
1601201597
1601211105
1601230028
1601256289
1601257347
1601266424
1601271085
1601276870
1601278458
1601278864
1601282306
1601283015
1601288457
1601301520
1601307037
1601309901
1601318964
1601322180
1601323249
1601332931
1601353178
1601359937
1601363940
1601366603
1601371778
1601372163
1601377910
1601380589
1601398130
1601398609
1601407938
1601415513
1601415632
1601415730
1601417419
1601425131
1601431622
1601438775
1601440893
1601447956
1601449134
1601450059
1601450760
1601456748
1601460253
1601461234
1601473431
1601475856
1601476719
1601483963
1601485391
1601498411
1601499687
1601511973
1601513455
1601514322
1601523090
1601529313
1601538108
1601538320
1601542821
1601550565
1601551178
1601551572
1601559157
1601568678
1601568818
1601570201
1601587132
1601590216
1601603816
1601607838
1601619616
1601628613
1601631596
1601631829
1601632163
1601635446
1601641385
1601643473
1601647210
1601670818
1601673213
1601677824
1601678700
1601692218
1601721336
1601725415
1601734446
1600082009
1600116050
1603065535
1603074957
1603075012
1603080244
1603084738
1603089468
1603090709
1603099580
1603123907
1603130795
1603139369
1603140524
1603148455
1603152827
1603153902
1603155419
1603161526
1603184145
1603184857
1603191531
1603193161
1603195390
1603199687
1603207406
1603209856
1603210454
1603214329
1603217470
1603218985
1603235659
1603242548
1603244319
1603245196
1603248275
1603250444
1603251637
1603252911
1603255848
1603256557
1603257149
1603263984
1603264574
1603273237
1603283202
1603285188
1603285423
1603291317
1603295062
1603296784
1603299791
1603300694
1603310003
1603328765
1603329403
1603333961
1603336421
1603345194
1603360122
1603363844
1603364808
1603367673
1603371355
1603373951
1603375956
1603378665
1603381200
1603390543
1603390763
1603393802
1603397839
1603398010
1603398600
1603406982
1603436656
1603441339
1603443144
1603448547
1603457400
1603461202
1603467432
1603467679
1603470587
1603477668
1603478037
1603478545
1603487969
1603489355
1603509635
1603515276
1603519109
1603520870
1603525664
1603526827
1603533284
1603542781
1603545287
1603546220
1603547049
1603547855
1603549475
1603558229
1603563228
1603564383
1603571584
1603576042
1603580449
1603580888
1603582062
1603617408
1603630020
1603631166
1603632688
1603632696
1603640499
1603641547
1603643472
1603643828
1603644374
1603645369
1603648461
1603648779
1603659543
1603662519
1603665721
1603666299
1603675855
1603676411
1603679487
1603684296
1603694118
1603695224
1603699745
1603703114
1603707403
1603708581
1603708950
1603719059
1603723273
1603743120
1603744935
1603752627
1603771116
1603772962
1603781696
1603781679
1603788929
1603789233
1603844229
1603853323
1603863912
1603865982
1603876510
1603911262
1603926148
1603926809
1603929454
1603944869
1603945601
1603946628
1603953766
1603960726
1603976627
1604000581
1604001497
1604008953
1604010143
1604013566
1604015893
1604017267
1604019439
1604027300
1604028206
1604036271
1604042530
1604046971
1604048095
1604050174
1604052668
1604055825
1604076318
1604087237
1604091549
1604092442
1604104089
1604105830
1604109988
1604113597
1604115920
1604117365
1604124654
1604132747
1604146298
1604147083
1604155374
1604155930
1604160023
1604162067
1604165473
1604171400
1604175197
1604189732
1604190474
1604191680
1604201594
1604203962
1604210435
1604227438
1604240827
1604272445
1604275213
1604275401
1604282875
1604284959
1604286083
1604286926
1604296652
1604300504
1604319286
1604328034
1604344263
1604345465
1604345919
1604352964
1604360413
1604381128
1604392939
1604446442
1604481058
1604511485
1604516791
1604527507
1604533656
1604534116
1604538181
1604549063
1604552007
1604552960
1604553866
1604557056
1604558439
1604565823
1604569275
1604574218
1604574322
1604583349
1604586586
1604593934
1604600644
1604615162
1604619990
1604620248
1604623633
1604632211
1604633547
1604646032
1604647393
1604654383
1604657429
1604671722
1604674294
1604682280
1604684441
1604699862
1604699864
1604708670
1604709619
1604718612
1604721419
1604739420
1604742870
1604743858
1604744902
1604745053
1604751245
1604760729
1604763416
1604763674
1604768919
1604804853
1604804952
1604809588
1604812201
1604834639
1604841197
1604842500
1604855277
1604861157
1604861691
1604862182
1604862969
1604868306
1604879911
1604916560
1604924750
1604930220
1604932071
1604941816
1604953263
1604953308
1604956914
1604958652
1604961061
1604965824
1604972781
1604976438
1604983105
1604983152
1604995079
1605002683
1605009380
1605015726
1605021156
1605030990
1605032673
1605035876
1605039100
1605054564
1605059989
1605061107
1605063707
1605066488
1605067402
1605069745
1605078246
1605098737
1605099042
1605099646
1605105192
1605106745
1605109695
1605116075
1605117909
1605118818
1605126841
1605134339
1605147018
1605149009
1605163865
1605166755
1605167189
1605167627
1605170342
1605183692
1605188705
1605190774
1605209243
1605210545
1605213320
1605305912
1605310040
1605317055
1605317326
1605327481
1605329820
1605332854
1605351624
1605352531
1605389003
1605434252
1605449979
1605450444
1605482855
1605516342
1605576722
1605579080
1605583875
1605595064
1605596221
1605617801
1605619006
1605630338
1605645225
1605649825
1605734652
1605863852
1605879628
1605920962
1605921955
1605986593
1606003552
1606030183
1606089596
1606131155
1606143647
1606184240
1606184641
1606196889
1606230532
1606266959
1606281281
1606284171
1606316874
1606349236
1606387077
1606414530
1606427454
1606437331
1606608353
1606618024
1606635436
1606657123
1606708933
1606711386
1606797815
1606814404
1606827398
1606869244
1606940143
1606955993
1606991744
1607047328
1607062179
1607066815
1607140356
1607205203
1607230013
1607243116
1607303074
1607333479
1607346137
1607359790
1607380250
1607387702
1607421090
1607495872
1607566767
1607570248
1607572864
1607577437
1607651068
1607660285
1607694660
1607696211
1607718260
1607811836
1607852988
1607864805
1607888553
1607940608
1608009518
1608022205
1608043091
1608039716
1608171378
1608282512
1608310915
1608321180
1608473967
1608520998
1608525316
1608541480
1608547373
1608560345
1608588653
1608597138
1608609627
1608644300
1608671978
1608682162
1608725805
1608732037
1608744276
1608747502
1608769833
1608840827
1608905596
1608933169
1608961728
1608998644
1609005034
1609030837
1609102223
1609144345
1609157594
1609165496
1609208691
1609224709
1609228885
1609303607
1609317149
1609423014
1609443620
1609457748
1609500740
1609540145
1609579848
1609611698
1609660322
1609660794
1609661480
1609661600
1609668021
1609668805
1609688307
1609691551
1609694741
1609698204
1609797899
1609843712
1609866129
1609884251
1609952245
1609985707
