800001293
800001796
800002871
800003472
800006600
800008062
800009381
800009892
801000762
800016646
800018956
800020082
800021958
800025784
800031628
800041016
800041840
800046431
800048257
800050247
800055138
800055950
800056914
800058105
801010950
801013276
800065094
801017037
801017868
801018589
800080056
800080610
800080913
801024215
800087247
801029504
801030273
800090733
800091487
800091746
800093726
801036413
801039073
801040241
801039526
801041363
801041562
801041140
801043471
800104667
801050492
800111080
800112544
800113513
801054619
801055018
801056242
801057212
801057797
801059049
801059555
801059555
800118672
801068331
800124878
801074494
800132097
800138760
800139780
800141485
800142948
801089192
800146620
801091745
800150808
800152068
800153342
800154879
801098888
800155688
800156751
802002674
802005443
802005400
802007146
800001293
800001796
800002871
800003472
800006600
800008062
800009381
800009892
800013602
800016646
800018956
800020082
800021958
800025784
800031628
800041016
800041840
800046431
800048257
800050247
800055138
800055950
800056914
800058105
800065094
800080056
800080610
800080913
800087247
800090733
800091487
800091746
800093726
800104667
800111080
800112544
800113513
800118672
800124878
800132097
800138760
800139780
800141485
800142948
800146620
800150808
800152068
800153342
800154879
800155688
800156751
800167263
800167719
800172309
800176670
800184365
800191827
800196597
800197957
800198984
800199758
800200782
800206020
800206084
800207560
800211435
800212265
800213702
800222298
800224717
800233201
800235817
800240208
800241947
800248387
800254278
800254828
800254888
800259417
800264602
800270374
800271414
800276510
800281889
800283201
800294954
800298026
800304554
800304992
800305974
800307446
800309739
800313104
800313669
800319768
800320376
800320508
800321824
800321605
800324896
800329750
800330242
800337522
800339869
800341420
800343624
800345861
800346062
800350304
800350845
800356499
800361293
800364416
800364917
800368057
800376951
800380892
800386262
800386648
800391570
800392573
800397992
800408359
800412372
800417069
800419388
800424508
800424782
800426111
800427025
800428965
800430848
800441450
800444615
800447696
800449511
800457527
800461049
800465257
800477352
800478198
800485923
800487215
800491851
800502543
800502825
800508847
800514423
800515461
800520849
800523890
800535458
800535543
800536961
800538333
800543913
800543777
800547182
800552778
800557616
800562010
800565238
800567735
800570117
800575099
800579763
800583842
800584996
800589812
800590966
800602903
800607841
800610112
800610378
800615551
800621229
800621735
800622926
800627836
800635113
800643797
800644097
800645516
800653250
800653091
800655804
800657294
800658080
800661052
800662006
800663728
800664438
800665681
800669825
800673011
800676645
800679993
800686132
800688899
800703672
800706746
800706905
800715175
800716386
800716558
800719960
800720878
800721630
800724374
800728463
800733267
800733007
800734464
800737869
800743296
800759254
800761516
800761824
800765912
800768397
800772951
800782012
800786790
800795268
800797199
800803882
800805374
800809558
800810975
800815479
800816821
800823453
800830862
800835408
800835665
800844291
800850731
800850872
800859892
800863090
800864735
800867473
800871510
800873213
800875518
800879011
800880257
800883302
800887640
800898063
800899753
800901207
800904636
800904624
800920045
800924693
800935652
800939487
800941697
800946288
800947244
800951644
800951676
800954181
800957266
800966059
800971348
800976063
800978413
800978842
800979214
800981765
800983085
800986884
800988209
800991091
801000762
801002546
801010950
801013276
801017037
801017868
801018589
801024215
801029504
801030273
801036413
801039073
801039526
801040241
801041140
801041363
801041562
801043471
801050492
801054619
801055018
801056242
801057212
801057797
801059005
801059049
801059555
801068331
801074494
801089192
801091745
801098888
801106267
801112621
801136599
801136672
801143110
801144327
801144930
801145039
801147889
801158036
801161029
801162338
801162831
801164442
801165033
801168021
801174492
801177026
801177794
801179142
801193293
801200667
801201998
801203715
801209867
801210202
801216479
801217340
801225768
801227005
801229242
801229781
801230731
801234735
801238077
801242501
801246549
801250199
801250632
801255885
801258933
801260835
801261323
801261988
801264752
801268018
801271456
801273313
801276326
801282966
801283598
801285065
801287696
801293406
801295392
801306680
801313757
801317571
801320387
801322518
801323717
801333372
801333430
801334423
801346523
801349838
801352644
801353017
801353684
801355139
801357074
801372403
801377332
801384492
801390762
801392202
801392327
801392737
801399803
801401249
801401774
801407554
801408236
801416954
801417527
801423050
801424766
801425540
801429238
801430272
801432543
801440688
801446674
801449138
801449515
801451915
801452453
801453398
801456132
801460262
801465621
801469059
801475559
801475769
801479219
801479771
801486100
801487913
801493164
801494343
801498216
801511794
801513812
801514801
801517351
801522736
801533326
801536316
801537895
801538657
801548017
801549287
801553873
801555285
801555849
801557869
801559195
801561291
801576032
801577153
801579101
801586343
801587403
801588605
801592321
801592537
801593239
801594733
801600114
801610161
801614383
801615092
801619551
801620149
801623397
801623815
801624411
801625364
801626208
801631315
801632909
801637819
801639104
801646144
801649728
801650551
801651947
801655642
801660633
801675347
801676837
801689028
801689190
801690024
801692276
801693538
801694827
801697241
801699388
801702892
801705625
801705988
801711861
801719478
801720063
801729204
801735185
801737572
801739157
801745922
801749744
801751784
801753975
801753990
801757962
801761233
801762413
801769397
801772101
801776543
801777684
801783808
801787707
801789033
801789374
801804732
801809516
801811484
801812302
