710066604
710128965
710168570
710246094
710370244
710400628
710419920
710706425
710817545
711149772
711231803
711325043
711329624
711455671
711457424
711527559
711589189
711623429
711647964
711699935
711843599
711894948
711969966
712069460
712071182
712170197
712192440
712391440
712453416
712489983
712502538
712545899
712575872
712600093
712600820
712643364
712663399
712730414
712759053
713073004
713190773
713360481
713373026
713461256
