1600001146
1600001146
1600001146
1600001146
1600002704
1600002704
1600005056
1600005773
1600006349
1600006439
730000305
730031423
730034642
730036860
730038343
730053731
730060674
730062505
730068176
730071715
730073289
730082930
730083016
731020157
731020242
730088425
730090158
730090082
730090925
730094248
731029007
731033523
731034713
730098505
731036675
731041830
731042080
731042544
730103594
730106292
731045690
730112116
730112353
731052031
730113750
731061614
731064635
731066939
731067789
731075301
731075057
731076044
730139594
730141644
730142263
731080001
730147653
731084998
731085866
730149374
730150977
730152318
731095332
730161635
731097637
730165722
730168492
730169491
731110705
730178212
730179926
730181090
731120380
730189015
730191632
730194082
730199978
730200471
730201908
731139622
731142459
731143171
731143500
730211309
731144842
730212181
730214179
730214407
730221797
731157878
731159546
730230954
731163640
731165029
730236114
730240120
730241287
730241504
730243531
731175953
730250034
730257949
731190014
731195054
730270080
731200529
730272272
730277517
731207425
730279974
730284344
731216172
730293214
731223111
731223167
730297886
730299908
730300688
731228161
730301967
731230572
731234716
731237437
731237588
731237752
730311542
730312823
731239637
730318294
731244728
731246532
730320876
730325174
730326432
731254225
731258667
731261546
731262437
731262774
731263826
731264190
731270265
730345537
730348575
731275568
731276468
731539785
731544869
731545648
731551933
731553480
731553514
730414583
731554988
731556477
730417951
731561432
731564821
731575563
731576098
731576704
731579837
730441326
731583545
730443182
731584552
731585512
731589188
730455071
731600708
731600846
730461596
731604616
731604646
730465694
731607882
731607895
731610024
731612565
730473207
731615354
731624585
730486352
730487795
731632399
731632720
730496143
730496894
731641215
731641334
731647568
731653679
731655711
730514260
730514849
730516862
731660729
730519353
730518456
731662759
731671692
731677530
731677898
731681753
731684424
731684480
731686462
731688067
731691256
731696824
731702127
731709467
731714766
731717947
731717948
731719641
731719948
731721503
731727795
730536162
730539477
730544091
730549466
731742757
730551835
730553780
731746755
731752253
731752400
730560658
731753332
731754688
730563629
730564251
731758730
730566250
730568066
730569479
730579717
731775852
731775760
731779461
731781917
730591252
731785030
730595817
731791899
730598437
730601720
730602481
730604314
730607606
731803073
731803640
730609781
730613475
730615316
730615390
731811562
730618579
730618532
730619213
730622592
731818813
731819055
730625248
730631154
730633008
730634016
730635611
731833914
731834515
730639719
730641007
730641303
731838265
730644592
730645148
731841391
731845833
730653117
730653891
730654307
730657486
730657663
731853337
731856375
731859052
731862235
731863199
731864334
731865149
730673646
731869314
731872152
730676898
730679942
731877655
730683261
730683407
730683826
731880387
731892241
730697112
731894772
731895345
730700138
731897769
731899486
731900469
730705034
731908504
731912069
731917132
731920626
731928441
731933002
731940006
731948554
731958469
731961945
731963506
731964496
731965824
731969682
731977340
731978665
731979197
731979326
731980776
731980902
731984865
731988101
731988697
731989674
731992797
730706722
732006461
730711136
730712116
730712663
732010544
732015729
730720893
730721505
730723871
732019599
730724588
732020829
732021078
732021234
730726208
730726170
730728169
730730576
732026493
732028123
732031128
730739812
730740305
732037085
730741867
730742723
730748292
732050166
732052398
730759150
730765040
730766942
732065122
732066438
732076226
732077196
732078616
730786220
732082114
730793545
730796644
730803290
732097733
730803417
730805171
730807560
730808025
730809696
732106705
732106705
732107446
732107878
730817892
730818965
732116055
730820191
730826181
732122333
730827081
732126318
730830270
732129234
732131841
730835869
1600000049
1600001146
1600005056
1600005773
1600006439
1600009061
1600011670
1600011717
1600012857
1600012846
1600015709
1600016733
1600019827
1600020613
1600024625
1600026582
1600031019
1600031298
1600035297
1600035922
1600036812
1600038227
1600039474
1600040150
1600040362
1600042360
1600042809
1600043638
1600045127
1600045320
1600050390
1600054751
1600055120
1600056106
1600056265
1600057236
1600058364
1600060129
1600061430
1600063471
1600063813
1600063902
1600066015
1600070284
1600071439
1600072039
1600073213
1600076631
1600077813
1600078761
1600079459
1600080881
1600084337
1600085062
1600087207
1600087717
1600088141
1600088843
1600097804
1600098263
1600098651
1600099205
1600101209
1600101826
1600107955
1600108693
1600110446
1600110883
1600111241
1600111154
1600111699
1600112429
1600112666
1600116664
1600118228
1600119419
1600120150
1600120352
1600120274
1600121449
1600123258
1600123808
1600125321
1600125547
1600127487
1600129192
1600129274
1600129844
1600131401
1600132427
1600133672
1600134370
1600134983
1600135799
1600138422
1600138411
1600138456
1600139244
1600142350
1600143053
1600144677
1600145440
1600145711
1600146754
1600148299
1600152832
1600152981
1600153725
1600154906
1600156645
1600156803
1600158528
1600159925
1600160303
1600162840
1600164559
1600167318
1600167536
1600168533
1600171923
1600172296
1600173809
1600176593
1600176867
1600177635
1600178751
1600180018
1600180091
1600181294
1600182282
1600182416
1600183284
1600184542
1600184962
1600185441
1600187699
1600188151
1600188165
1600188263
1600189280
1600190435
1600190508
1600194308
1600194385
1600198964
1600198747
1600199705
1600201081
1600201437
1600204476
1600205126
1600205260
1600206007
1600207312
1600207988
1600208746
1600209213
1600209323
1600209389
1600210166
1600210887
1600215197
1600215738
1600216203
1600219196
1600219761
1600221166
1600221169
1600221373
1600222591
1600224262
1600225113
1600224835
1600229532
1600230049
1600230425
1600231758
1600231928
1600232155
1600233429
1600236879
1600237251
1600237990
1600238913
1600239432
1600240103
1600240397
1600240700
1600241199
1600241579
1600241542
1600242065
1600242717
1600243587
1600243732
1600244711
1600249830
1600252122
1600254845
1600254868
1600254871
1600254839
1600255226
1600256241
1600258004
1600262209
1600262533
1600265274
1600267623
1600267736
1600268883
1600269233
1600269828
1600270398
1600271392
1600272202
1600273384
1600275166
1600275576
1600278209
1600279582
1600280872
1600281870
1600283429
1600285970
1600287530
1600287832
1600288215
1600288814
1600288983
1600290264
1600291204
1600292735
1600293031
1600298563
1600299426
1600301933
1600304154
1600304054
1600304670
1600306100
1600306322
1600307179
1600307793
1600308046
1600308808
1600308873
1600310741
1600310612
1600312301
1600315456
1600315835
1600318369
1600320015
1600320457
1600321257
1600322226
1600324141
1600324527
1600324654
1600327745
1600329234
1600329322
1600329916
1600332521
1600333222
1600333239
1600333360
1600334498
1600334609
1600336457
1600336908
1600337044
1600337840
1600339839
1600342163
1600343033
1600343827
1600344048
1600344899
1600345223
1600345488
1600348099
1600349083
1600349757
1600350529
1600351536
1600353427
1600355795
1600360987
1600361783
1600362650
1600363145
1600363194
1600363263
1600365879
1600366662
1600368581
1600371072
1600371719
1600373612
1600374063
1600374045
1600378044
1600378797
1600383219
1600384634
1600386906
1600387518
1600387666
1600389014
1600389720
1600389898
1600394612
1600395757
1600396048
1600397496
1600398400
1600400153
1600401396
1600402194
1600403130
1600403277
1600406353
1600408577
1600408622
1600410271
1600412480
1600416385
1600418052
1600421090
1600421301
1600422536
1600423036
1600423875
1600423915
1600428416
1600432745
1600432883
1600438402
1600440462
1600440514
1600442071
1600442375
1600443689
1600447208
1600447413
1600447361
1600447990
1600448022
1600447913
1600448013
1600448581
1600448770
1600449375
1600450316
1600451166
1600451537
1600451521
1600451751
1600454637
1600459070
1600460463
1600460446
1600462746
1600463392
1600463547
1600464081
1600464150
1600465780
1600466716
1600466841
1600467303
1600468681
1600468917
1600471509
1600471683
1600473736
1600473822
1600473969
1600474394
1600474404
1600476977
1600479838
1600480367
1600480545
1600482118
1600482169
1600482627
1600483739
1600483780
1600484046
1600484703
1600485158
1600485632
1600485678
1600486261
1600490074
1600492376
1600492429
1600494647
1600496356
1600496408
1600496980
1600497371
1600498634
1600499176
1600499750
1600499940
1600501431
1600501777
1600508028
1600509198
1600511845
1600512705
1600512595
1600514645
1600514966
1600518023
1600518381
1600518410
1600518965
1600519217
1600520095
1600520506
1600520761
1600521011
1600523082
1600523081
1600524130
1600525402
1600525423
1600526178
1600529410
1600529884
1600530360
1600531639
1600532297
1600532751
1600533691
1600536943
1600540173
1600541404
1600544711
1600544837
1600545474
1600548218
1600548304
1600548517
1600548603
1600549198
1600549303
1600553119
1600556505
1600557129
1600557631
1600560294
1600561560
1600563125
1600565020
1600565605
1600566464
1600567049
1600567580
1600567768
1600567738
1600570363
1600571007
1600571032
1600573394
1600574853
1600576322
1600576583
1600578073
1600578072
1600578297
1600578396
1600579010
1600579638
1600581066
1600583059
1600585919
1600586106
1600586492
1600588035
1600590219
1600590981
1600591381
1600591754
1600592243
1600600013
1600600114
1600602176
1600604118
1600605844
1600606007
1600605998
1600606422
1600606765
1600606826
1600609897
1600611331
1600611593
1600612442
1600612578
1600612727
1600617172
1600617745
1600619748
1600620080
1600620987
1600623464
1600623514
1600624976
1600625861
1600628684
1600629604
1600629955
1600630767
1600633559
1600635903
1600637144
1600637166
1600638242
1600638315
1600644253
1600644530
1600644656
1600645362
1600645420
1600648472
1600648686
1600651981
1600652162
1600652744
1600653853
1600654910
1600656958
1600657141
1600657154
1600657444
1600657466
1600657823
1600657831
1600659189
1600659305
1600660899
1600661341
1600662979
1600665144
1600665874
1600667235
1600667726
1600671252
1600672703
1600673673
1600674249
1600676299
1600677099
1600677193
1600677776
1600678592
1600679436
1600679839
1600680577
1600682097
1600684317
1600685104
1600685244
1600685309
1600687693
1600688132
1600691150
1600691527
1600692267
1600693256
1600693370
1600694427
1600695147
1600697113
1600699243
1600699225
1600701510
1600701870
1600703360
1600703534
1600710877
1600710970
1600712226
1600712444
1600716548
1600719622
1600720964
1600724410
1600725265
1600727364
1600729755
1600732167
1600732395
1600744273
1600745171
1600745704
1600746255
1600748326
1600748663
1600749905
1600750716
1600751989
1600752946
1600753562
1600753676
1600755955
1600757751
1600758316
1600760919
1600762940
1600764144
1600765266
1600764942
1600770076
1600770585
1600776043
1600776111
1600777473
1600778223
1600780870
1600781471
1600782884
1600783001
1600787600
1600790560
1600791298
1600794926
1600796568
1600796851
1600797906
1600798003
1600799105
1600799633
1600801959
1600802498
1600803313
1600805524
1600807771
1600811338
1600813763
1600815970
1600816309
1600817215
1600817347
1600818610
1600818799
1600825484
1600825669
1600827206
1600832234
1600833658
1600834114
1600836622
1600837050
1600837503
1600837514
1600838584
1600840225
1600842052
1600843650
1600845093
1600845352
1600845542
1600845887
1600846111
1600846472
1600846741
1600847357
1600849315
1600849954
1600850060
1600850748
1600850866
1600853904
1600856173
1600857858
1600858019
1600858598
1600862879
1600865566
1600866486
1600866553
1600866544
1600866546
1600867825
1600869795
1600870958
1600871007
1600871371
1600875168
1600875256
1600876212
1600879023
1600879247
1600881301
1600882517
1600883563
1600883967
1600885257
1600887731
1600889195
1600890086
1600891309
1600891677
1600891735
1600892170
1600892487
1600894067
1600897018
1600897218
1600899745
1600901622
1600903754
1600905501
1600907925
1600908184
1600909240
1600912388
1600915056
1600916913
1600917005
1600918473
1600918808
1600921725
1600925035
1600925828
1600925856
1600928645
1600928926
1600928989
1600929112
1600930016
1600930157
1600930788
1600930858
1600931350
1600932601
1600934477
1600934508
1600935829
1600936007
1600936959
1600937872
1600938166
1600938565
1600938713
1600940509
1600940602
1600942479
1600943959
1600945054
1600945462
1600946190
1600946390
1600947336
1600949643
1600949968
1600949926
1600952015
1600952602
1600953091
1600953717
1600954870
1600956280
1600959841
1600961666
1600962938
1600965130
1600965623
1600965877
1600966526
1600967876
1600970638
1600972630
1600974061
1600974171
1600975802
1600976032
1600976555
1600978158
1600978547
1600981573
1600981759
1600983582
1600983677
1600986656
1600987346
1600990157
1600992371
1600992732
1600994091
1600994146
1600997274
1600997826
1600999639
1600998932
1601001971
1601006772
1601007358
1601009290
1601010087
1601010716
1601010750
1601011509
1601011943
1601012718
1601012836
1601014544
1601015149
1601015739
1601015913
1601019782
1601021255
1601022713
1601025793
1601027260
1601028032
1601030966
1601031254
1601031638
1601031845
1601031997
1601032455
1601032978
1601033170
1601033754
1601035231
1601036801
1601037111
1601038117
1601038955
1601040607
1601041195
1601042054
1601042507
1601043790
1601043848
1601045795
1601046004
1601046005
1601046960
1601046967
1601047844
1601049152
1601049410
1601049671
1601052741
1601057957
1601058550
1601058855
1601064055
1601064283
1601065625
1601065847
1601066025
1601066929
1601067296
1601069030
1601070271
1601071150
1601072300
1601073040
1601073887
1601074433
1601075574
1601077072
1601079817
1601079858
1601080199
1601080378
1601080408
1601080473
1601081405
1601085295
1601091205
1601091310
1601092000
1601093409
1601093349
1601093769
1601094162
1601097617
1601098442
1601099790
1601099842
1601100747
1601100937
1601107784
1601108708
1601108770
1601112223
1601115168
1601115891
1601116766
1601118406
1601119798
1601125887
1601126254
1601127106
1601129625
1601130648
1601130627
1601133107
1601134772
1601136572
1601138455
1601138491
1601138533
1601138993
1601139669
1601140531
1601140967
1601141907
1601144586
1601144919
1601145350
1601147500
1601149013
1601149935
1601152303
1601152836
1601152865
1601154848
1601155206
1601155348
1601156468
1601156609
1601156936
1601157068
1601157612
1601157871
1601158672
1601158948
1601159019
1601159097
1601161072
1601162358
1601162674
1601162997
1601163479
1601164637
1601166007
1601166563
1601169198
1601171600
1601172111
1601172623
1601172761
1601173744
1601175629
1601176547
1601177735
1601178951
1601185102
1601185761
1601187359
1601189190
1601189234
1601189630
1601191873
1601195086
1601195905
1601196772
1601197074
1601197579
1601197609
1601199501
1601202247
1601203672
1601204768
1601205333
1601206325
1601206883
1601208841
1601210233
1601210400
1601211606
1601212308
1601212552
1601213680
1601219325
1601220622
1601221170
1601221665
1601222349
1601222888
1601223272
1601225312
1601225608
1601226572
1601229086
1601229260
1601230714
1601231337
1601232142
1601232776
1601233673
1601233869
1601234376
1601241705
1601241789
1601244001
1601244882
1601245729
1601248441
1601249042
1601249058
1601249683
1601250493
1601250554
1601250936
1601253851
1601254225
1601254443
1601255394
1601263186
1601264356
1601266429
1601266831
1601270936
1601275664
1601277043
1601278129
1601283989
1601285510
1601285661
1601289109
1601289700
1601289762
1601290001
1601291204
1601291576
1601293060
1601294776
1601295295
1601296090
1601297488
1601299301
1601299916
1601299984
1601302770
1601303706
1601305235
1601308414
1601309183
1601310603
1601310902
1601316035
1601317547
1601318303
1601319183
1601320692
1601321637
1601322073
1601322160
1601324161
1601325543
1601326851
1601331496
1601333582
1601334428
1601337790
1601337736
1601339858
1601339807
1601340440
1601343342
1601343425
1601343377
1601343494
1601343664
1601343935
1601344340
1601346078
1601347658
1601347895
1601349477
1601351348
1601352018
1601353153
1601353893
1601355547
1601356061
1601356694
1601358655
1601359623
1601360752
1601362136
1601362528
1601364089
1601366212
1601371261
1601371452
1601372323
1601372408
1601373411
1601373872
1601375197
1601376951
1601378725
1601383068
1601385153
1601385144
1601385430
1601388094
1601389754
1601394476
1601395971
1601397143
1601397637
1601398124
1601399017
1601401449
1601402376
1601402357
1601408175
1601409790
1601410436
1601411677
1601411656
1601414588
1601415412
1601417370
1601418536
1601418959
1601419319
1601422672
1601423150
1601423234
1601423513
1601423767
1601424173
1601424287
1601424678
1601424942
1601425095
1601427538
1601427907
1601430241
1601430207
1601434627
1601435357
1601435690
1601437600
1601438698
1601440710
1601440863
1601441368
1601442355
1601443025
1601443076
1601443115
1601443560
1601445579
1601445851
1601446525
1601447506
1601448069
1601450081
1601450282
1601453358
1601453513
1601458202
1601460094
1601460896
1601461025
1601462307
1601464675
1601465001
1601465262
1601465281
1601466628
1601467363
1601469956
1601470450
1601472791
1601475336
1601477960
1601481415
1601481703
1601481893
1601481959
1601482978
1601484383
1601485511
1601486450
1601488637
1601490996
1601493534
1601494492
1601498494
1601498925
1601499948
1601500856
1601502061
1601502657
1601502668
1601504904
1601505831
1601507443
1601508216
1601509660
1601511930
1601514125
1601515794
1601517312
1601518262
1601519188
1601520288
1601521119
1601521055
1601521366
1601522732
1601524608
1601525682
1601525801
1601526680
1601528592
1601530052
1601530788
1601531156
1601531177
1601531879
1601532733
1601533458
1601534823
1601538761
1601541177
1601542170
1601542183
1601543145
1601543713
1601545588
1601547667
1601547748
1601550572
1601552664
1601555929
1601556503
1601557614
1601560100
1601561145
1601561851
1601563446
1601565866
1601566580
1601566963
1601568662
1601571375
1601571461
1601572296
1601573629
1601576793
1601577001
1601579384
1601579844
1601581511
1601581940
1601582326
1601584778
1601588162
1601590423
1601590794
1601590912
1601591786
1601593173
1601596734
1601597480
1601599878
1601601053
1601605129
1601606171
1601608001
1601608579
1601610358
1601611799
1601614656
1601618479
1601619545
1601622788
1601623664
1601624582
1601625444
1601625864
1601628404
1601629174
1601629321
1601630116
1601631049
1601631711
1601632427
1601632482
1601634487
1601636677
1601636885
1601640169
1601640408
1601640792
1601641125
1601641166
1601641213
1601641320
1601645391
1601647528
1601649614
1601650389
1601652138
1601652667
1601652826
1601654108
1601654616
1601654637
1601657848
1601659312
1601660714
1601663599
1601665988
1601667575
1601671181
1601671295
1601674212
1601675670
1601677523
1601678134
1601680138
1601680644
1601681290
1601681522
1601681245
1601681639
1601681759
1601681854
1601682367
1601682859
1601683558
1601683992
1601684220
1601684642
1601685965
1601687454
1601690362
1601690949
1601691152
1601692035
1601694262
1601695137
1601695621
1601696079
1601696598
1601697019
1601698422
1601700614
1601701844
1601707050
1601707319
1601707387
1601707821
1601709901
1601710635
1601710767
1601713747
1601716644
1601716674
1601717146
1601717234
1601718511
1601720195
1601720541
1601721380
1601724054
1601724802
1601726403
1601727151
1601727417
1601729238
1601729269
1601729270
1601732516
1601734559
1601735639
1601745549
1601747325
1600011717
1600019827
1600020613
1600040362
1600054751
1600056265
1600061480
1600072039
1600080881
1600099205
1600107955
1600108693
1600120150
1603069358
1603072483
1603075130
1603075719
1603075878
1603076221
1603077349
1603081033
1603081863
1603082006
1603085119
1603085917
1603086199
1603087076
1603086982
1603087504
1603089616
1603092047
1603092968
1603094704
1603095288
1603098947
1603105689
1603107193
1603107591
1603110045
1603111947
1603112736
1603113415
1603113636
1603113692
1603114413
1603114731
1603115136
1603119077
1603119886
1603120316
1603121444
1603122466
1603124211
1603124458
1603125903
1603127254
1603131247
1603131297
1603131443
1603134844
1603135574
1603136056
1603136240
1603137243
1603137977
1603138014
1603138564
1603138604
1603138701
1603140684
1603141116
1603142339
1603148450
1603148627
1603149521
1603149627
1603150724
1603151659
1603154122
1603154214
1603154335
1603155790
1603155960
1603157705
1603161783
1603162123
1603162491
1603166062
1603167938
1603168450
1603169437
1603170926
1603172183
1603172984
1603173883
1603176202
1603176392
1603177829
1603179116
1603183395
1603183460
1603185665
1603185869
1603187967
1603188635
1603188946
1603189645
1603189863
1603191916
1603192089
1603192419
1603193493
1603196936
1603198079
1603198221
1603200770
1603202524
1603205845
1603206427
1603206816
1603208342
1603208922
1603209588
1603210165
1603211614
1603213451
1603213700
1603215085
1603216076
1603216413
1603217759
1603217887
1603219131
1603221046
1603222059
1603222099
1603222192
1603224749
1603227622
1603227854
1603230750
1603233516
1603235331
1603235540
1603232024
1603237450
1603237949
1603240033
1603240624
1603242171
1603242497
1603243612
1603243833
1603244128
1603244335
1603246265
1603247874
1603249232
1603249327
1603250946
1603251233
1603252005
1603254120
1603254788
1603255188
1603255444
1603255768
1603256160
1603256804
1603256984
1603257222
1603257202
1603257556
1603257750
1603260135
1603264263
1603267437
1603268184
1603269696
1603270074
1603270361
1603270542
1603270679
1603272748
1603274570
1603274580
1603275000
1603277888
1603278575
1603280818
1603280865
1603282055
1603282982
1603283738
1603284413
1603285296
1603285684
1603285724
1603286306
1603288926
1603291358
1603293541
1603294421
1603295097
1603296429
1603296897
1603298266
1603299126
1603299133
1603299329
1603299384
1603304564
1603304508
1603306826
1603307725
1603308586
1603309772
1603310272
1603311194
1603313580
1603313874
1603314001
1603316027
1603316652
1603316744
1603316760
1603317443
1603318536
1603321360
1603324531
1603326234
1603326775
1603327175
1603328248
1603328873
1603328511
1603329485
1603329893
1603330067
1603330157
1603330814
1603332503
1603333037
1603334645
1603335515
1603337883
1603338477
1603340959
1603342570
1603342585
1603343126
1603345013
1603346989
1603349258
1603349228
1603350791
1603351578
1603360135
1603362258
1603362432
1603362845
1603363335
1603363918
1603365370
1603365970
1603367296
1603369943
1603370656
1603369277
1603371346
1603371960
1603372801
1603373902
1603374540
1603374830
1603376692
1603377746
1603377945
1603380812
1603381052
1603382090
1603382038
1603383280
1603383304
1603383687
1603383977
1603385103
1603385526
1603385695
1603385907
1603386000
1603386845
1603387000
1603389733
1603391355
1603392138
1603392169
1603392277
1603392596
1603392480
1603398950
1603399836
1603403538
1603403812
1603403720
1603403843
1603406601
1603407087
1603408563
1603408879
1603409325
1603409913
1603411250
1603412318
1603412683
1603413134
1603413357
1603413792
1603416026
1603416823
1603420732
1603423471
1603424192
1603424458
1603426842
1603427661
1603427811
1603428779
1603430524
1603430736
1603431642
1603434584
1603436012
1603436075
1603437426
1603438554
1603438692
1603439861
1603440223
1603441885
1603444100
1603444122
1603445071
1603445093
1603446427
1603447089
1603448122
1603451050
1603452233
1603453048
1603453577
1603454779
1603454822
1603455843
1603458431
1603460040
1603466267
1603466484
1603469786
1603471947
1603472622
1603474649
1603474920
1603481935
1603483513
1603484067
1603484360
1603487782
1603488398
1603491445
1603492968
1603496872
1603497331
1603497547
1603499099
1603500604
1603501188
1603501426
1603501920
1603502538
1603503160
1603506068
1603506889
1603508695
1603510113
1603510732
1603512072
1603514691
1603515530
1603516813
1603517014
1603517777
1603517498
1603519837
1603520566
1603521761
1603522227
1603522457
1603523349
1603523644
1603524283
1603525729
1603530156
1603531743
1603532102
1603532430
1603536876
1603537381
1603539119
1603539223
1603539339
1603542216
1603542484
1603543331
1603542550
1603544656
1603544953
1603545871
1603546265
1603548626
1603549857
1603552368
1603553265
1603553742
1603557702
1603558342
1603558512
1603558807
1603559430
1603562750
1603564185
1603565016
1603566639
1603567231
1603569558
1603573304
1603573392
1603574817
1603575772
1603575633
1603577791
1603578617
1603579728
1603584518
1603585788
1603586805
1603587168
1603587497
1603587850
1603590171
1603590211
1603590122
1603591055
1603592865
1603595950
1603596489
1603596802
1603596807
1603596822
1603596895
1603596014
1603600435
1603600618
1603602321
1603602602
1603604396
1603604854
1603605495
1603607208
1603607600
1603609027
1603611496
1603612189
1603614083
1603614857
1603615232
1603616137
1603616325
1603617026
1603618200
1603618643
1603619399
1603619526
1603619873
1603620196
1603620842
1603621063
1603625940
1603627041
1603627085
1603629747
1603629897
1603633077
1603634077
1603634447
1603636861
1603637511
1603639060
1603639409
1603640569
1603643240
1603646018
1603647228
1603647822
1603649363
1603649406
1603651003
1603651626
1603653620
1603654326
1603655548
1603656264
1603657073
1603658960
1603660798
1603664551
1603665401
1603666000
1603667371
1603668597
1603671714
1603672221
1603673738
1603674772
1603679661
1603680654
1603682362
1603683759
1603684093
1603684378
1603684691
1603686594
1603687960
1603689189
1603691323
1603691600
1603693167
1603694775
1603698954
1603700600
1603700669
1603701694
1603705710
1603706666
1603707735
1603709999
1603710696
1603712222
1603712279
1603712925
1603714313
1603714455
1603717080
1603717278
1603717374
1603720068
1603720422
1603721963
1603722891
1603725033
1603725512
1603729221
1603730226
1603730906
1603732538
1603733038
1603733217
1603733003
1603738026
1603739629
1603739993
1603740675
1603742159
1603743074
1603745049
1603744999
1603745417
1603746000
1603746264
1603750263
1603750107
1603753071
1603754634
1603755328
1603756030
1603756667
1603757061
1603758038
1603758205
1603760210
1603761889
1603763660
1603767159
1603767936
1603768589
1603770045
1603770610
1603775484
1603777411
1603777802
1603778253
1603779338
1603779541
1603782644
1603783914
1603788464
1603789873
1603792305
1603792828
1603793584
1603793626
1603793831
1603810073
1603815627
1603823739
1603840659
1603848255
1603892486
1603893240
1603896333
1603897636
1603898405
1603902940
1603909263
1603909042
1603910388
1603910389
1603912750
1603915463
1603914633
1603918016
1603922026
1603922635
1603925846
1603928983
1603930539
1603931067
1603933113
1603933704
1603936212
1603937349
1603938039
1603941641
1603941827
1603941821
1603942053
1603943520
1603945398
1603953160
1603954287
1603955248
1603955711
1603956114
1603956703
1603956758
1603957656
1603959641
1603959658
1603961544
1603961768
1603962743
1603961903
1603963659
1603965158
1603968756
1603969507
1603972450
1603972285
1603975113
1603975258
1603975769
1603976962
1603983059
1603984375
1603984413
1603988315
1603989691
1603990417
1603991505
1603995632
1603995995
1603996867
1603998338
1604001225
1604001243
1604004882
1604004994
1604005786
1604006636
1604006807
1604009303
1604010319
1604011901
1604013986
1604015380
1604016176
1604017526
1604017913
1604019951
1604020759
1604021708
1604023028
1604024945
1604028514
1604028650
1604029082
1604031686
1604032349
1604035358
1604035496
1604035658
1604040609
1604040582
1604041713
1604041849
1604046331
1604047594
1604048174
1604049075
1604050446
1604051036
1604051612
1604057925
1604057838
1604060233
1604060356
1604061069
1604060958
1604061115
1604061797
1604062801
1604067768
1604069144
1604071414
1604070793
1604072266
1604072769
1604074618
1604076002
1604076289
1604076384
1604076640
1604077393
1604079763
1604080826
1604081283
1604085972
1604086569
1604086687
1604086753
1604087900
1604087948
1604088276
1604088613
1604094019
1604094470
1604094808
1604095604
1604096293
1604097247
1604098040
1604099726
1604102506
1604103233
1604104007
1604104597
1604106739
1604109991
1604109916
1604112031
1604113027
1604113637
1604113689
1604119691
1604119743
1604119823
1604119873
1604120222
1604120487
1604120758
1604121880
1604123888
1604124882
1604125490
1604126338
1604127737
1604128461
1604129765
1604131427
1604133024
1604133846
1604136635
1604139730
1604139952
1604140663
1604141880
1604147383
1604149870
1604150472
1604152172
1604152697
1604152933
1604156632
1604156757
1604157275
1604161531
1604162928
1604163853
1604166119
1604167424
1604169497
1604171204
1604172964
1604173079
1604174752
1604175218
1604175902
1604177564
1604178949
1604179190
1604176504
1604183518
1604185015
1604186664
1604187558
1604191069
1604192854
1604193397
1604199887
1604200048
1604200713
1604201684
1604202239
1604202382
1604203330
1604203430
1604203572
1604204059
1604204242
1604206788
1604208186
1604208017
1604209076
1604210625
1604214230
1604214502
1604215519
1604217302
1604218431
1604219058
1604220369
1604220904
1604222063
1604224445
1604225210
1604227030
1604228708
1604229785
1604234349
1604235980
1604236208
1604238796
1604240328
1604244553
1604248395
1604254675
1604255296
1604257560
1604258186
1604258268
1604259767
1604261803
1604263895
1604264332
1604268215
1604268961
1604270994
1604273062
1604273308
1604274201
1604274937
1604275082
1604275760
1604276328
1604278814
1604283963
1604285842
1604286267
1604286869
1604287342
1604288381
1604290668
1604291111
1604291223
1604291474
1604291641
1604291835
1604294031
1604295116
1604297584
1604298130
1604301965
1604304932
1604305023
1604305586
1604306574
1604306277
1604306811
1604310496
1604310908
1604313727
1604314337
1604316022
1604318900
1604319774
1604320256
1604320914
1604321507
1604324280
1604324533
1604324739
1604324708
1604328625
1604328773
1604329231
1604329547
1604329698
1604330198
1604330417
1604333075
1604333149
1604334563
1604337667
1604338294
1604339261
1604340982
1604342132
1604342446
1604344920
1604345671
1604347049
1604347417
1604353021
1604354825
1604355605
1604355899
1604356309
1604358243
1604358224
1604363517
1604364036
1604364649
1604364954
1604365141
1604366076
1604367063
1604373416
1604374281
1604377482
1604378287
1604380389
1604381502
1604382111
1604391659
1604406177
1604411701
1604412376
1604424317
1604431875
1604435138
1604445706
1604446357
1604448297
1604448122
1604450504
1604451373
1604459425
1604462072
1604464686
1604467499
1604467303
1604480058
1604482489
1604484196
1604485519
1604488924
1604489195
1604493679
1604494708
1604499607
1604499984
1604500443
1604503504
1604504691
1604505389
1604510037
1604510186
1604513770
1604514099
1604515131
1604520200
1604520426
1604520251
1604523694
1604524302
1604524941
1604524999
1604526716
1604528446
1604530875
1604533982
1604534853
1604535751
1604536662
1604537455
1604542165
1604543906
1604544857
1604547552
1604548337
1604550121
1604551240
1604551851
1604553096
1604553372
1604553823
1604554029
1604554710
1604559900
1604560752
1604561973
1604564041
1604564704
1604565677
1604569870
1604569906
1604576541
1604576814
1604577027
1604578646
1604582932
1604584311
1604584755
1604586134
1604586191
1604586724
1604588352
1604589696
1604590274
1604592023
1604593443
1604594653
1604596823
1604600353
1604602214
1604604860
1604606121
1604606080
1604608958
1604608902
1604609952
1604610204
1604610922
1604611388
1604612199
1604614703
1604615824
1604615892
1604616086
1604616065
1604617656
1604617569
1604619774
1604622263
1604623080
1604624580
1604626525
1604627614
1604627716
1604628261
1604628668
1604632664
1604633173
1604634510
1604635006
1604636354
1604637108
1604637125
1604637384
1604637430
1604637406
1604638167
1604640333
1604643206
1604645221
1604645457
1604647303
1604647487
1604649343
1604652656
1604652856
1604653144
1604654258
1604654948
1604658910
1604660552
1604659858
1604662055
1604662199
1604663031
1604663290
1604664392
1604663934
1604664488
1604666789
1604667235
1604667957
1604668227
1604669000
1604670270
1604673465
1604676250
1604677410
1604678468
1604679181
1604680332
1604680946
1604683575
1604684899
1604685493
1604687543
1604689067
1604689678
1604689733
1604691187
1604691771
1604692422
1604692838
1604693420
1604693501
1604695960
1604696412
1604698367
1604699994
1604701835
1604702040
1604707091
1604709828
1604709861
1604709966
1604714852
1604715587
1604715846
1604720574
1604721045
1604721618
1604721841
1604722578
1604723090
1604723472
1604723681
1604724819
1604727290
1604727431
1604729467
1604729623
1604731874
1604737624
1604738044
1604740233
1604743542
1604743674
1604744266
1604744670
1604744662
1604745004
1604746663
1604747038
1604751034
1604752390
1604754252
1604755700
1604756895
1604758006
1604758347
1604759057
1604760486
1604762595
1604763785
1604763745
1604763929
1604765063
1604768247
1604770155
1604771054
1604773133
1604774164
1604775494
1604776810
1604777241
1604777587
1604778062
1604778133
1604778489
1604781420
1604784966
1604784989
1604785864
1604785927
1604786626
1604786934
1604786922
1604787407
1604789434
1604792653
1604795763
1604800970
1604802882
1604810915
1604812266
1604812858
1604813492
1604813570
1604817745
1604819983
1604821448
1604821794
1604822592
1604824706
1604824899
1604828688
1604830119
1604830170
1604832006
1604832321
1604833589
1604833579
1604833630
1604834081
1604834347
1604834750
1604837244
1604838329
1604838440
1604840933
1604841817
1604841910
1604842301
1604842486
1604842880
1604843353
1604843649
1604844727
1604846719
1604847774
1604848802
1604848990
1604849952
1604852292
1604852782
1604854076
1604855497
1604856470
1604859019
1604858909
1604859525
1604862613
1604863282
1604863556
1604863879
1604864435
1604865158
1604867165
1604868484
1604869070
1604873402
1604873895
1604873905
1604876015
1604876422
1604876967
1604878804
1604879419
1604879755
1604879850
1604881093
1604881424
1604884200
1604885851
1604887763
1604888290
1604889993
1604892242
1604892898
1604896082
1604896451
1604897659
1604897851
1604899065
1604900177
1604900453
1604900593
1604902028
1604904405
1604906122
1604907454
1604907900
1604911694
1604914244
1604914694
1604916369
1604917018
1604917565
1604922173
1604923084
1604923092
1604923464
1604925701
1604927042
1604927843
1604928489
1604932623
1604932658
1604932763
1604933201
1604933797
1604935015
1604935983
1604936494
1604936850
1604938008
1604940185
1604941751
1604947317
1604949274
1604949355
1604949466
1604950297
1604951032
1604951850
1604953458
1604956271
1604956546
1604957985
1604958013
1604959393
1604959574
1604962047
1604964102
1604964523
1604969987
1604970642
1604971561
1604972367
1604972858
1604976801
1604977325
1604978591
1604978840
1604979371
1604978521
1604981521
1604981872
1604983874
1604983903
1604984137
1604984869
1604986331
1604986421
1604987735
1604989044
1604990210
1604991550
1604991715
1604993368
1604995324
1604997318
1604997768
1604997855
1604998524
1604999762
1605000734
1605000715
1605004324
1605004461
1605005702
1605008325
1605012501
1605012525
1605013217
1605014210
1605014966
1605015617
1605016577
1605020954
1605021425
1605022102
1605022463
1605023977
1605024341
1605025531
1605025470
1605027174
1605028640
1605031173
1605031939
1605032498
1605033925
1605035795
1605037027
1605038631
1605039673
1605041851
1605043790
1605044079
1605045261
1605045789
1605048819
1605048732
1605050682
1605051753
1605053297
1605054087
1605054838
1605058249
1605059466
1605059653
1605060062
1605060568
1605060775
1605062432
1605062687
1605062894
1605063167
1605066928
1605066990
1605067701
1605068507
1605069825
1605071070
1605072006
1605072647
1605075073
1605078325
1605078458
1605081503
1605082827
1605084223
1605085784
1605086453
1605086516
1605086869
1605094326
1605094850
1605095571
1605096594
1605097511
1605098606
1605099033
1605099052
1605099641
1605102245
1605106054
1605106654
1605106914
1605107475
1605109721
1605110131
1605111377
1605111980
1605112847
1605113898
1605116297
1605118351
1605118534
1605118813
1605118784
1605122186
1605124957
1605125782
1605126776
1605128821
1605131129
1605131871
1605133130
1605136919
1605137752
1605144572
1605144363
1605146498
1605147586
1605147804
1605148150
1605149565
1605149506
1605150056
1605150926
1605150926
1605151070
1605151804
1605152012
1605153100
1605155532
1605156959
1605161874
1605162023
1605161950
1605162323
1605163861
1605166389
1605166952
1605168585
1605171459
1605172228
1605175278
1605176107
1605178707
1605179166
1605179451
1605179696
1605180460
1605183722
1605187618
1605189792
1605190407
1605191166
1605192422
1605193200
1605199816
1605200141
1605208165
1605210217
1605211426
1605214851
1605215235
1605215621
1605217480
1605218385
1605220206
1605221552
1605238706
1605241123
1605251616
1605275850
1605280820
1605282669
1605290482
1605291413
1605293989
1605299857
1605308611
1605308492
1605308530
1605312174
1605312457
1605313095
1605314705
1605315919
1605315936
1605318448
1605318840
1605324073
1605324954
1605325609
1605332010
1605332165
1605341921
1605347386
1605349555
1605351692
1605355096
1605355517
1605358300
1605369040
1605369248
1605370390
1605370446
1605371683
1605376622
1605378969
1605379167
1605386786
1605393135
1605394348
1605415111
1605415792
1605419642
1605421103
1605426115
1605431197
1605440845
1605447039
1605449512
1605466722
1605472243
1605472447
1605480473
1605488128
1605499171
1605511339
1605519699
1605532045
1605540806
1605548880
1605553122
1605554911
1605557560
1605563757
1605572177
1605585533
1605597080
1605599114
1605599603
1605619979
1605623179
1605623205
1605650910
1605664073
1605664554
1605673652
1605674671
1605682611
1605689604
1605689920
1605695761
1605719680
1605732188
1605739989
1605748389
1605760027
1605761466
1605768162
1605773906
1605784117
1605784656
1605802941
1605803716
1605811545
1605815904
1605821365
1605825215
1605829614
1605833547
1605856610
1605857531
1605906868
1605908571
1605911810
1605916492
1605919304
1605923403
1605924712
1605931339
1605944288
1605951253
1605956334
1605968869
1605970525
1605973891
1605985857
1605985903
1605991488
1606045008
1606066028
1606094679
1606100453
1606105781
1606116160
1606133184
1606138152
1606141110
1606148241
1606150388
1606151347
1606164230
1606176930
1606189561
1606190021
1606197378
1606201430
1606209623
1606212023
1606213860
1606241986
1606244380
1606247099
1606258802
1606294255
1606297649
1606310813
1606311592
1606333945
1606340969
1606341997
1606343008
1606344810
1606352639
1606362809
1606373731
1606375232
1606396231
1606400177
1606419453
1606433334
1606438685
1606448304
1606449952
1606456853
1606465678
1606480142
1606486016
1606486008
1606493403
1606506801
1606517336
1606531339
1606544984
1606551117
1606582893
1606590568
1606593000
1606605697
1606608692
1606619171
1606621716
1606626596
1606633915
1606666283
1606666714
1606677259
1606686426
1606693967
1606694845
1606697815
1606710731
1606716622
1606733055
1606735214
1606744092
1606748696
1606758777
1606774947
1606778277
1606788731
1606794119
1606798483
1606801886
1606804123
1606810023
1606835113
1606845562
1606846698
1606851785
1606856014
1606860958
1606861986
1606868154
1606875461
1606880231
1606881062
1606904560
1606920558
1606920883
1606921459
1606939095
1606940070
1606944693
1606949728
1606954861
1606959902
1606978336
1606983017
1607000649
1607002856
1607030569
1607034416
1607036875
1607041630
1607046709
1607049095
1607052078
1607083186
1607085161
1607101444
1607138048
1607165893
1607196446
1607196708
1607204882
1607206623
1607209627
1607210388
1607220906
1607222129
1607229026
1607229809
1607234804
1607245667
1607245900
1607251415
1607263017
1607268370
1607292022
1607297894
1607306719
1607307509
1607308670
1607320664
1607322231
1607336723
1607355093
1607356059
1607361744
1607363415
1607376357
1607377689
1607387844
1607389136
1607397801
1607400809
1607423155
1607444000
1607445196
1607449204
1607471372
1607486015
1607494540
1607503492
1607509366
1607512412
1607528664
1607553662
1607570838
1607578856
1607579084
1607580235
1607609691
1607612409
1607614714
1607652199
1607660942
1607670231
1607673607
1607677572
1607684774
1607686213
1607691863
1607697855
1607705320
1607707595
1607708891
1607710470
1607715802
1607737755
1607739896
1607740384
1607746878
1607746998
1607752745
1607755588
1607766273
1607782828
1607811290
1607819746
1607822955
1607830987
1607854725
1607862813
1607866671
1607867904
1607888472
1607890497
1607892956
1607901926
1607916321
1607951988
1607956837
1607979540
1607985377
1607990664
1607999358
1608010651
1608012018
1608013920
1608019118
1608026431
1608044564
1608051044
1608053677
1608059750
1608068181
1608071142
1608077741
1608084022
1608085189
1608095692
1608120623
1608131487
1608150182
1608156560
1608161964
1608183507
1608193253
1608220502
1608227194
1608228566
1608233882
1608234065
1608234399
1608236131
1608243067
1608248456
1608251475
1608259986
1608270447
1608278679
1608283283
1608302572
1608305620
1608311523
1608318730
1608323682
1608338655
1608350697
1608361704
1608361555
1608361785
1608380883
1608441324
1608457351
1608463405
1608468865
1608474096
1608475747
1608479175
1608479203
1608483599
1608521073
1608541331
1608554045
1608567975
1608568038
1608576392
1608578156
1608580052
1608589050
1608605293
1608606382
1608609358
1608620787
1608632037
1608652312
1608652953
1608666120
1608669727
1608672149
1608682428
1608696961
1608705199
1608710181
1608711766
1608715299
1608722330
1608735321
1608745726
1608746262
1608767236
1608768078
1608772582
1608775264
1608789299
1608808635
1608809813
1608815530
1608820164
1608823663
1608824483
1608838671
1608853061
1608874500
1608878149
1608884124
1608895284
1608926166
1608928878
1608932424
1608933476
1608939975
1608944390
1608953462
1608956847
1608961939
1608972152
1609004314
1609016547
1609018428
1609042293
1609051462
1609079987
1609092672
1609102944
1609106086
1609109104
1609116590
1609119734
1609119993
1609146266
1609155428
1609167464
1609175827
1609187391
1609191420
1609194947
1609196589
1609199636
1609201176
1609216800
1609219324
1609222403
1609230997
1609233153
1609247509
1609283929
1609285516
1609286289
1609291562
1609313283
1609322920
1609324656
1609325713
1609328345
1609333722
1609337803
1609348345
1609350591
1609368094
1609369308
1609389231
1609418661
1609452150
1609476305
1609481383
1609501425
1609510213
1609514151
1609519864
1609534618
1609545610
1609546125
1609555244
1609563921
1609580736
1609581368
1609586436
1609587579
1609589376
1609592956
1609593098
1609596110
1609601556
1609602635
1609602724
1609617422
1609625708
1609636519
1609666527
1609672560
1609695694
1609701424
1609708417
1609712869
1609713307
1609729803
1609759324
1609762913
1609814838
1609830602
1609843494
1609853776
1609854165
1609858070
1609858584
1609870134
1609882348
1609891056
1609914550
1609925797
1609931515
1609939996
1609943842
1609973788
1609980264
1609983228
1609990425
