1600017190
1600031850
1600033967
1600064299
1600070686
1600071612
1600075480
1600092329
1600092727
1600092798
1600103963
1600107994
1600119167
1600119748
1600126612
1600127799
1600144529
1600144647
1600164560
1600166934
1600168018
1600186280
1600189620
1600198973
1600218114
1600221609
1600222556
1600248247
1600259026
1600265958
1600277610
1600279813
1600287479
1600290766
1600297879
1600299229
1600314681
1600315786
1600317044
1600322806
1600324870
1600330349
1600331341
1600338627
1600340651
1600353133
1600358890
1600376198
1600395255
1600409555
1600451251
1600484350
1600494015
1600495231
1600496265
1600500767
1600503842
1600504965
1600552139
1600570897
1600571806
1600588021
1600609270
1600611225
1600611352
1600619213
1600623954
1600625307
1600627262
1600635713
1600660303
1600675468
1600705030
1600708633
1600711797
1600711964
1600717638
1600718815
1600720839
1600725551
1600729666
1600731456
1600745352
1600751788
1600754226
1600755925
1600758869
1600770291
1600771151
1600796311
1600816978
1600829950
1600834263
1600849664
1600869138
1600902409
1600910034
1600919031
1600928781
1600930642
1600939889
1600941016
1600943469
1600961273
1600964888
1600994503
1600995738
1601017573
1601037776
1601039050
1601048435
1601062709
1601073168
1601075604
1601077313
1601101854
1601115341
1601126534
1601148971
1601158632
1601168407
1601197026
1601220072
1601220736
1601239577
1601241708
1601255856
1601271442
1601275488
1601290048
1601301305
1601304118
1601316912
1601352266
1601386606
1601392191
1601410336
1601411859
1601420835
1601468608
1601476009
1601479998
1601506155
1601516105
1601531077
1601536294
1601536781
1601545374
1601556393
1601564349
1601577704
1601578253
1601587620
1601588280
1601600599
1601632791
1601648965
1601651610
1601652627
1601661706
1601662085
1601674026
1601677600
1601679149
1601685326
1601685612
1601691329
1601716310
1601719321
1601723370
1601726112
1601732117
1601733373
1603088756
1603123816
1603125154
1603163278
1603181017
1603189745
1603198305
1603226382
1603228981
1603251169
1603250960
1603271028
1603273065
1603285243
1603289488
1603295942
1603299012
1603303321
1603308825
1603317874
1603353344
1603359459
1603374641
1603383940
1603383913
1603386414
1603397414
1603403780
1603420408
1603422985
1603437030
1603453407
1603456782
1603463749
1603463884
1603488322
1603512406
1603514046
1603521105
1603543565
1603544816
1603547130
1603576862
1603580090
1603591239
1603591395
1603595942
1603619161
1603639453
1603651396
1603657905
1603688020
1603692997
1603705499
1603707511
1603745679
1603746088
1603774816
1603786206
1603786370
1603788117
1603884709
1603902816
1603915295
1603920368
1603922897
1603923433
1603931071
1603947058
1603956339
1603961382
1603967410
1603975426
1603976613
1603983162
1604018039
1604035121
1604038237
1604076183
1604082715
1604081399
1604091847
1604093031
1604096682
1604097046
1604113088
1604117757
1604125654
1604127961
1604133703
1604138628
1604165810
1604173391
1604195946
1604200493
1604209504
1604209881
1604214475
1604247444
1604255972
1604259392
1604261065
1604279949
1604282002
1604287447
1604293956
1604295056
1604297851
1604301749
1604318197
1604320417
1604334807
1604340568
1604372888
1604374014
1604379624
1604380084
1604380763
1604467106
1604481438
1604489441
1604520335
1604536120
1604551561
1604553064
1604553658
1604565027
1604566906
1604592547
1604596781
1604608533
1604616897
1604625739
1604634158
1604636794
1604640408
1604647072
1604656798
1604690122
1604690475
1604696624
1604727261
1604735639
1604737932
1604746428
1604759725
1604760241
1604765317
1604772405
1604795798
1604797766
1604798857
1604798983
1604811289
1604811638
1604820938
1604835354
1604837246
1604837573
1604840868
1604850753
1604857167
1604859238
1604874680
1604908407
1604912961
1604919472
1604923634
1604928294
1604930601
1604933467
1604935030
1604939161
1604956619
1604960432
1604971448
1604979267
1604983678
1604991244
1605003490
1605026485
1605043233
1605050505
1605056578
1605057003
1605059643
1605100192
1605103326
1605103898
1605113233
1605115908
1605118317
1605134784
1605141456
1605174575
1605178076
1605184560
1605196679
1605228339
1605307527
1605333080
1605342130
1605555027
1605703780
1605731555
1606058352
1606304851
1606314835
1606773922
1607000705
1607021769
1607043987
1607302560
1607398890
1607547287
1607601272
1607966412
1608095538
1608193791
1608251246
1608435182
1608487995
1608624207
1608684225
1608840919
1608937585
1608939705
1609092900
1609193400
1609228312
1609296793
1609688767
1609998962
