960000009
960000077
960004868
960007405
960017356
960018557
960022418
960029629
960046452
960046974
960052497
960059397
960060553
960064231
960078715
960081322
960098496
960103193
960109819
960111147
960115666
960121641
960122626
960124390
960130023
960132569
960135632
960136925
960138294
960141960
960141926
960145907
960147202
960147639
960152108
960155941
960164640
960166887
960169386
960174362
960177880
960182518
960185029
960189980
960191674
960202459
960210811
960211497
960215987
960218478
960224798
960238824
960240441
960242533
960244758
960245647
960249594
960248688
960262826
960264152
960271207
960271371
960282397
960284060
960288548
960288531
960293792
960300133
960301822
960302146
960302754
960305463
960305594
960312784
960314499
960315317
960320443
960327668
960339253
960347054
960352212
960358546
960358531
960358998
960363934
960364591
960365609
960373658
960374496
960377128
960377737
960382332
960383554
960390947
960393611
960396978
960406401
960411759
960417049
960424908
960426317
960429366
960432075
960441842
960447871
960456480
960463918
960464987
960465151
960467375
960470433
960472244
960475082
960475211
960481671
960497963
960500400
960502212
960503860
960504743
960507780
960509026
960511387
960511231
960512918
960513676
960515625
960527241
960530147
960530961
960531911
960535210
960541354
960543017
960548446
960550834
960558159
960560290
960569837
960571204
960574708
960583993
960585745
960587692
960592493
960600793
960607809
960608074
960615054
960629581
960632424
960633245
960644742
960655900
960663092
960664363
960666875
960666901
960683556
960683776
960684876
960688595
960691371
960693594
960695455
960723927
960725863
960727007
960731943
960740363
960744941
960747263
960756543
960777608
960781953
960784005
960786939
960790149
960791718
960793030
960797237
960799517
960816349
960820495
960821672
960826790
960827271
960828515
960830006
960832076
960834233
960839095
960840312
960845755
960845804
960858406
960859807
960867835
960869760
960870582
960876483
960881327
960895761
960896757
960899087
960901326
960902495
960912276
960928453
960929756
960931107
960936632
960948467
960948871
960956589
960957522
960958577
960958548
960967456
960971778
960972458
960974482
960975955
960976003
960986369
960990198
960997224
960997351
960998890
961009875
961013346
961014561
961019438
961020384
961032972
961034083
961037955
961040922
961041371
961046683
961047033
961058863
961065293
961065994
961070132
961072099
961078717
961081890
961084852
961087498
961092271
961099767
961102462
961107295
961108173
961108683
961109948
961111702
961122074
961122574
961122637
961130687
961133050
961133332
961138603
961140831
961145274
961154609
961157857
961158778
961161334
961162865
961156434
961167325
961169550
961173895
961180939
961192594
961198851
961198965
961200996
961202237
961205301
961206560
961209286
961219616
961222642
961226812
961226937
961228674
961235314
961245560
961245477
961246964
961250252
961251850
961253487
961258574
961260457
961260565
961263473
961281063
961304355
961304682
961315629
961328431
961329803
961331295
961333157
961334588
961335874
961337053
961338714
961339265
961339511
961342690
961345439
961345275
961351329
961352001
961354893
961364532
961373635
961375242
961381302
961386323
961387762
961389388
961391649
961391665
961393599
961393671
961393410
961397613
961402154
961404448
961407228
961408571
961420056
961434115
961456527
961465382
961496030
961496243
961497366
961498908
961503574
961504448
961508076
961527088
961528576
961531667
961532451
961536967
961537356
961539389
961548162
961550234
961554738
961567268
961576968
961592629
961594858
961595923
961606459
961616622
961622409
961625889
961634779
961637179
961641306
961648354
961655071
961656132
961657467
961658275
961661611
961664750
961673172
961681553
961681983
961682000
961682805
961684462
961688551
961689383
961690558
961693690
961708911
961712038
961716704
961718408
961719048
961719804
961720041
961722493
961726973
961727161
961740149
961744037
961745657
961754773
961758583
961763173
961765408
961767535
961767297
961784077
961787738
961789433
961791089
961802190
961807703
961808439
961810573
961821635
961826123
961829214
961829567
961831888
961841264
961843856
961849863
961859261
961862196
961888574
961889537
961896876
961899526
961901076
961902087
961902725
961908890
961911429
961914936
961917336
961918305
961943152
961947095
961948486
961953051
961963790
961967475
961968913
961970298
961972406
961976520
961979862
961984300
961984831
961984737
961988229
961990383
961992215
961993091
961993800
961995140
961995533
961996034
961996460
961997234
962001936
962005010
962007220
962008079
962009488
962017992
962018136
962023269
962031625
962046383
962046497
962052576
962054453
962060071
962062369
962063006
962065311
962068244
962068368
962070967
962072854
962081371
962082508
962087041
962092718
962093402
962096634
962112157
962112786
962121521
962124558
962130156
962130338
962130753
962131304
962140334
962141905
962146079
962146531
962147398
962148887
962150662
962151059
962151570
962151517
962159160
962159402
962163808
962164170
962168025
962171652
962174034
962175023
962182868
962182861
962184094
962185732
962186371
962189120
962189219
962190880
962193893
962196646
962199946
962201449
962201889
962209454
962211289
962215883
962230728
962231966
962237841
962240465
962242087
962242628
962246041
962246701
962251874
962255147
962257041
962266761
962274027
962275746
962296423
962301740
962301154
962303227
962304035
962303995
962304643
962306830
962306918
962307529
962311081
962325081
962333349
962338378
962340067
962341402
962343436
962346041
962351380
962359380
962361075
962361799
962364373
962379924
962392518
962399836
962399973
962400115
962403398
962404521
962417149
962417360
962419240
962424613
962429087
962431181
962436809
962445164
962451711
962455358
962456678
962461740
962470346
962473260
962477165
962482778
962495662
962510240
962520467
962524332
962527742
962542849
962545274
962575804
962578004
962583106
962595165
962596300
962598975
962602094
962610057
962616161
962616722
962623383
962629361
962632915
962634163
962634604
962634993
962641058
962645673
962647314
962649987
962651019
962656798
962659415
962674248
962676421
962678491
962682449
962686948
962689751
962703803
962718202
962718903
962720908
962724656
962725966
962728939
962734430
962744104
962744424
962750493
962758166
962766319
962767919
962769485
962773665
962781205
962782312
962784326
962784710
962784310
962786824
962787288
962788272
962791990
962793058
