920000945
921003575
920005024
921005897
920005024
920013263
920015548
920024901
920025815
920040872
920046736
920049342
920053384
920054614
920055539
920062270
920074210
920080727
920085114
920087324
920087804
920104744
920120599
920130422
