730059897
730059897
730097547
731055508
730158417
731106760
731121863
730212779
731155860
730227812
730244364
730248191
731194831
731200194
731233734
731233779
730309056
731250297
731253333
731257840
730339912
730346889
731275470
731543572
730427084
731573364
731581257
730486988
731670227
731675406
731688720
731691214
731691406
730532272
730534180
731727611
730546155
730546656
731747859
731756317
731769177
731803196
731823603
730629466
730634606
731831362
731836309
731857841
731863434
730692177
731926715
731964798
731967431
731998422
732011931
732030266
730734769
730742836
730745486
730747204
730776917
730785388
730797143
732098998
730816640
732115932
732117995
730822947
732124688
1600009500
1600011882
1600039637
1600057389
1600079537
1600083751
1600139559
1600163241
1600173750
1600190850
1600204172
1600222776
1600298564
1600323771
1600351339
1600384821
1600409234
1600410820
1600415067
1600423689
1600427698
1600461016
1600466088
1600484995
1600512582
1600514891
1600555518
1600557992
1600581881
1600624274
1600709157
1600718575
1600724948
1600744640
1600784934
1600842414
1600856242
1600955784
1601007483
1601019744
1601030787
1601035997
1601044467
1601107302
1601109186
1601130512
1601136817
1601141190
1601158820
1601169251
1601193169
1601226747
1601229400
1601296674
1601309429
1601331023
1601353478
1601362076
1601365499
1601373947
1601376978
1601416482
1601430804
1601455278
1601456717
1601485780
1601486825
1601502171
1601507451
1601561674
1601571670
1601592267
1601597850
1601651512
1601672774
1601730269
1600057389
1600079537
1603070154
1603151172
1603175810
1603185293
1603208105
1603219564
1603219968
1603226686
1603241489
1603244124
1603245995
1603268776
1603269890
1603273003
1603319262
1603333851
1603367309
1603383953
1603389689
1603395701
1603408749
1603420804
1603426635
1603428441
1603476244
1603540616
1603568775
1603689012
1603702162
1603730930
1603894396
1603909828
1603926519
1603957676
1603972010
1603973682
1603979337
1604028374
1604045507
1604079429
1604088504
1604090624
1604095063
1604111072
1604118195
1604145632
1604173039
1604187166
1604271957
1604304214
1604308614
1604310260
1604333046
1604336496
1604382019
1604459045
1604472027
1604474077
1604518717
1604561317
1604561539
1604605052
1604635402
1604640004
1604659599
1604694708
1604695191
1604719071
1604776732
1604805186
1604814914
1604829382
1604896545
1604903673
1604934077
1604983853
1605010553
1605031524
1605051891
1605077521
1605086300
1605182242
1605473137
1605535834
1605542354
1605555901
1606418452
1606488023
1606606141
1606620947
1607312020
1607628803
1607790307
1607937430
1607939901
1608674746
1608920309
1609022492
1609045080
1609160027
1609942360
