1600006494
1600006494
1600006494
730063213
730181277
731141339
731227434
730415354
730437022
731650504
730735876
730759869
1600006494
1600008867
1600022066
1600026824
1600099777
1600107648
1600109382
1600118115
1600119618
1600122371
1600188241
1600204340
1600241016
1600324158
1600343575
1600353257
1600402822
1600425255
1600467940
1600476643
1600493585
1600518817
1600570565
1600688589
1600727911
1600729630
1600731466
1600812250
1600829684
1600831160
1600835576
1600927953
1600958435
1601038755
1601057817
1601098025
1601099018
1601219316
1601292712
1601313606
1601364160
1601371220
1601452579
1601459645
1601483486
1601501601
1601521608
1601539307
1601542959
1601583401
1601593339
1601610094
1601642816
1601716624
1600099777
1600122371
1603222995
1603233952
1603242430
1603295939
1603399613
1603442429
1603450262
1603457816
1603460840
1603473290
1603484999
1603503768
1603596260
1603599517
1603625230
1603635848
1603684576
1603745323
1603768773
1603951945
1603963278
1603986096
1604005109
1604012020
1604053691
1604054282
1604073313
1604114838
1604148808
1604201123
1604229592
1604249897
1604279845
1604365825
1604491405
1604495792
1604500910
1604543977
1604587134
1604608852
1604630101
1604642848
1604650635
1604661643
1604678698
1604713461
1604722178
1604723649
1604752960
1604772628
1604814111
1604828307
1604850241
1604892063
1604909032
1604922463
1604951866
1604994650
1605002764
1605003862
1605029058
1605038482
1605051487
1605065985
1605074216
1605075392
1605096477
1605168720
1605185360
1605206396
1605320778
1605417460
1605448304
1605635669
1605878943
1606632852
1607269742
1608055766
1608057808
1609586915
1609714293
