640000042
640000260
640004488
640000042
640000260
640004488
640007201
640007537
1850000157
1850000489
1850000706
1850000875
1850001956
1850002152
1850002590
1850003009
1850002943
1850003154
1850003877
1850004686
1850004784
1850005244
1850005660
1850006154
1850006082
1850006369
1850006363
1850006772
1850007124
1850006872
1850007365
1850007716
1850008323
1850008371
1850008755
1850008947
1850009219
1850009575
1850009834
1850010405
1850010420
1850010761
1850011429
1850012395
1850012807
1850012868
1850013538
1850013725
1850014155
1850014922
1850015061
1850016117
1850017115
1850017597
1850018014
1850018699
1850018809
1850020099
1850020725
1850021573
1850021742
1850022683
1850023016
1850023598
1850024008
1850024512
1850024833
1850025055
1850026570
1850026678
1850026723
1850026722
1850027326
1850027152
1850027591
1850028038
1850028189
1850028201
1850028861
1850028974
1850029687
1850030352
1850030885
1850031819
1850033134
1850032895
1850034442
1850034782
1850034808
1850037289
1850037828
1850038838
1850039264
1850039547
1850039632
1850040039
1850040515
1850040654
1850040663
1850040884
1850040713
1850041610
1850042369
1850042721
1850042395
1850044967
1850045014
1850045575
1850045620
1850045749
1850046052
1850046366
1850046309
1850047844
1850049351
1850049539
1850050065
1850051152
1850051077
1850051815
1850052998
1850053269
1850053343
1850053642
1850054754
1850054451
1850055104
1850055028
1850055262
1850055530
1850056842
1850057042
1850057364
1850057277
1850057844
1850058271
1850059373
1850060488
1850061900
1850061680
1850061965
1850062345
1850063007
1850063517
1850063504
1850065263
1850065505
1850065872
1850066481
1850066792
1850066811
1850066885
1850066884
1850067389
1850067738
1850067752
1850067682
1850068209
1850068180
1850068443
1850069241
1850069292
1850069680
1850069846
1850069619
1850070713
1850070972
1850071370
1850071500
1850071615
1850072304
1850074022
1850074844
1850075020
1850075155
1850075222
1850075247
1850075885
1850075863
1850076214
1850076231
1850076226
1850076433
1850076680
1850076986
1850078116
1850078385
1850078545
1850079331
1850079920
1850080040
1850080416
1850080551
1850080554
1850081011
1850082023
1850083235
1850084042
1850084802
1850084967
1850084879
1850086080
1850086517
1850086896
1850088258
1850088678
1850088973
1850089145
1850089691
1850089997
1850090171
1850090215
1850091350
1850091257
1850091651
1850092288
1850093115
1850092955
1850093520
1850093584
1850093687
1850094493
1850094769
1850094329
1850095747
1850096178
1850096064
1850096402
1850096807
1850096868
1850097301
1850097621
1850098702
1850099754
1850100538
1850100580
1850101271
1850102351
1850102705
1850103156
1850103544
1850103731
1850103865
1850103943
1850103726
1850103994
1850104014
1850104232
1850104571
1850105586
1850106302
1850106419
1850106108
1850107513
1850109272
1850109912
1850110344
1850110689
1850110919
1850111685
1850112216
1850113216
1850113396
1850113518
1850113607
1850114373
1850114562
1850115985
1850116941
1850117249
1850117332
1850117816
1850118610
1850118610
1850119306
1850119398
1850119850
1850120552
1850120667
1850120656
1850121348
1850122582
1850123721
1850123716
1850124741
1850125818
1850126100
1850126410
1850126593
1850127205
1850127665
1850127794
1850128319
1850129153
1850129193
1850129649
1850130516
1850130732
1850131019
1850131625
1850132165
1850132450
1850132853
1850133703
1850133492
1850134120
1850134641
1850134700
1850134873
1850135124
1850135857
1850135857
610014709
610021553
610028189
610028460
610030359
610033255
610035155
610057489
610057569
610061651
610063794
610082192
610096067
610101759
610108142
610111840
610117570
610121299
610126220
610135152
610137153
610143182
610152718
610156125
610169422
610187828
610190727
610201703
610202200
610203580
610207608
610212400
610215054
610215593
610215745
610217495
610221459
610247431
610256304
610281681
610294204
610304178
610319439
610328797
610329991
610336914
610343254
610350328
610352008
610368074
610377326
610382489
610394111
610415649
610415746
610426062
610449209
610451760
610452987
610453144
610455638
610459783
610468429
610472156
610472678
610477949
610488156
610489332
610502692
610504911
610506241
610506702
610514200
610518279
610521740
610526482
610528065
610529523
610530117
610531168
610536373
610553119
610567524
610569653
610571072
610574950
610577475
610586980
610597224
610602529
610630217
610630562
610644027
610645497
610648218
610653989
610680236
610691150
610692786
610706742
610709765
610718753
610719619
610750027
