960002557
960008578
960008708
960011006
960012409
960014248
960015946
960017156
960024724
960035199
960035918
960039478
960042801
960043191
960050035
960051166
960053424
960058962
960062088
960067756
960070511
960071822
960080168
960082108
960083652
960083495
960094884
960095788
960097338
960098220
960104102
960105653
960111283
960113500
960114287
960114518
960115367
960118153
960124066
960137977
960146421
960149936
960149761
960150547
960156426
960157801
960158455
960162713
960168012
960167951
960168130
960168227
960174826
960175214
960177854
960186816
960189022
960194519
960199769
960201216
960204498
960205820
960213229
960215915
960219051
960219488
960219581
960226318
960226383
960231752
960237040
960247443
960248840
960250729
960253571
960254719
960260413
960264517
960267428
960268396
960269266
960273878
960275960
960282377
960284814
960287646
960289966
960291943
960297946
960298397
960299984
960300638
960301025
960305265
960308699
960317398
960319275
960322150
960329216
960334823
960338002
960349100
960352845
960352890
960357749
960359754
960360429
960361833
960364544
960368469
960371770
960372807
960373852
960374565
960367364
960375502
960378413
960381500
960383237
960386041
960387266
960387682
960390991
960391039
960394915
960396450
960398543
960402068
960402730
960404046
960407363
960407336
960410905
960417132
960421974
960441318
960442215
960442513
960441948
960447354
960447383
960448791
960454904
960457572
960463675
960468422
960473912
960474678
960484433
960486421
960487499
960488907
960495916
960498890
960499419
960501531
960502981
960509540
960512764
960512987
960524433
960525278
960526152
960526302
960527000
960536563
960540424
960541050
960543166
960549653
960550079
960554120
960555321
960562430
960572313
960572991
960573860
960573935
960575269
960577761
960579272
960581551
960583201
960586736
960588879
960598130
960601717
960614427
960618762
960619795
960620017
960620271
960624269
960627619
960628953
960631588
960632191
960634098
960634826
960635256
960638765
960640230
960644460
960648773
960653907
960659461
960671114
960671208
960671228
960672287
960672883
960691619
960692189
960692624
960697163
960701906
960711636
960714754
960713993
960722363
960722478
960724472
960727419
960742044
960744145
960744534
960749858
960752092
960758827
960762977
960763365
960765376
960767994
960770620
960773480
960774363
960776240
960779675
960781790
960783167
960787804
960790245
960790305
960794779
960798669
960803040
960804509
960806544
960808325
960815477
960818951
960825434
960827623
960828577
960831064
960835317
960836695
960837357
960838104
960838918
960838970
960845138
960846649
960846858
960849330
960853303
960853467
960859255
960860441
960863349
960867662
960868505
960868816
960876274
960885937
960887773
960893146
960894815
960895162
960898480
960903651
960914709
960914882
960921292
960933370
960936311
960940815
960943675
960944506
960947204
960951062
960953221
960955159
960955291
960955667
960960133
960961232
960962164
960962384
960963882
960970547
960970943
960977001
960980480
960984550
960986702
960993512
960997730
961007671
961010197
961010342
961029056
961033758
961034701
961050462
961050895
961051183
961053036
961053353
961055851
961063466
961064077
961072798
961075355
961089606
961092891
961094521
961095717
961099935
961102807
961103035
961103469
961105179
961107711
961111883
961112922
961114306
961115543
961119816
961123493
961125073
961129601
961132278
961134914
961138891
961142769
961148587
961149835
961151570
961156222
961159202
961158367
961163129
961165614
961168343
961173213
961175583
961175824
961178319
961180429
961181396
961182270
961182864
961187968
961192476
961194132
961202821
961204528
961204715
961205821
961206374
961208048
961212840
961217642
961220839
961221151
961221241
961222153
961226713
961228862
961231466
961234097
961234373
961235298
961240259
961242119
961242637
961243153
961244158
961246330
961248323
961249787
961259226
961264031
961266121
961267995
961268256
961268342
961268385
961272778
961275336
961289541
961298331
961304247
961305404
961309719
961313780
961316227
961318857
961323825
961326908
961324991
961333772
961338433
961341588
961343024
961349694
961351963
961352141
961354085
961358746
961367262
961370292
961371410
961372260
961375392
961376103
961380627
961381234
961383855
961386242
961390451
961394384
961407009
961416364
961418450
961420009
961424543
961436531
961439044
961439944
961444592
961444899
961446394
961458377
961458822
961462762
961467820
961470518
961473492
961476924
961482521
961493347
961495600
961504273
961505042
961506020
961509238
961510455
961516158
961519804
961523540
961535924
961541647
961542071
961545915
961546713
961554042
961559674
961560294
961570990
961571342
961571520
961580670
961583834
961584777
961588125
961600207
961608175
961610579
961616045
961623521
961626616
961635608
961637469
961638092
961647040
961647781
961651745
961651730
961652389
961655841
961657578
961659868
961661561
961670804
961677133
961678499
961679036
961679682
961682604
961682872
961687572
961693534
961695327
961695907
961696402
961696622
961703280
961707278
961708814
961710668
961712984
961713644
961720057
961726194
961727155
961727327
961729258
961730184
961731452
961732408
961743761
961750229
961753966
961755278
961759101
961761893
961769936
961771149
961771329
961772586
961773976
961778241
961782042
961782191
961783426
961788241
961795828
961795935
961799566
961801740
961805166
961805021
961807836
961808781
961808807
961812318
961815984
961816696
961818552
961828039
961834402
961836374
961838629
961840005
961844143
961847726
961858372
961861858
961862858
961866093
961869195
961870712
961873508
961875061
961881645
961888588
961890809
961891089
961895552
961895823
961896083
961908536
961909846
961911803
961912970
961916622
961932003
961932256
961935535
961936884
961937204
961939187
961942713
961944405
961950616
961952980
961953834
961962462
961969826
961971001
961972077
961972479
961972714
961975863
961977044
961982213
961984078
961983055
961986044
961987628
961997883
961998775
962000640
962008241
962013312
962018756
962019346
962025311
962025796
962032307
962032812
962037526
962040460
962041353
962046130
962058448
962061367
962062903
962064642
962071396
962072917
962077004
962077373
962078939
962081430
962086819
962087930
962089802
962090317
962091575
962093319
962093430
962094802
962099216
962101465
962110172
962111057
962112809
962115754
962117148
962117869
962120303
962122757
962123481
962123787
962134394
962140395
962146904
962156343
962159990
962161579
962162562
962165820
962174257
962179531
962179875
962181063
962186309
962186659
962189476
962191785
962194232
962200028
962201521
962203696
962204937
962207473
962212875
962219048
962221882
962222268
962223243
962226836
962227915
962228519
962229940
962238539
962241864
962242431
962244735
962247194
962249102
962249981
962250889
962251966
962253139
962253666
962263015
962268681
962269167
962271050
962272643
962278301
962279236
962282221
962296543
962297290
962298481
962303927
962305054
962313695
962316119
962317931
962324316
962330713
962332532
962336272
962340981
962345666
962352685
962351329
962358437
962362948
962365717
962368917
962370273
962372083
962373594
962377832
962378451
962379622
962383828
962385013
962385611
962387640
962389016
962393326
962393119
962394552
962395946
962400094
962400214
962403706
962411954
962414698
962414977
962415210
962419818
962419674
962422273
962428624
962429129
962429893
962432765
962435914
962440124
962444451
962445402
962447554
962454789
962466628
962470040
962478618
962488328
962489193
962492347
962494427
962497611
962497608
962500199
962497307
962502131
962507702
962508161
962514491
962514690
962527969
962529107
962541612
962541779
962547231
962565467
962565339
962569934
962579070
962583510
962585475
962592061
962598148
962604884
962605181
962611529
962614894
962615331
962617347
962627655
962628027
962630964
962635942
962636324
962641545
962643232
962647113
962647099
962648300
962655591
962660252
962672480
962673901
962683923
962682029
962685779
962686116
962688867
962696605
962697608
962701209
962709749
962710197
962711087
962718029
962719324
962720495
962728845
962736600
962740803
962744016
962758875
962760196
962768232
962769946
962772723
962774502
962781403
962787173
962789159
962791849
