730015994
730017740
730033958
730046247
730047149
730058489
730033958
730046247
730047149
730058489
731024222
731044316
731047081
731072232
731082446
730148844
730156645
730167854
731106595
730174682
731112145
730179228
730182171
730183601
731119140
731121671
730188837
730192480
731134593
730210645
731143580
731154228
730227535
730237890
730242506
730245022
730250774
731182506
730254549
730265440
730266419
731202155
730275633
730277165
731209651
730288599
731218704
730294296
730301061
731228547
731230277
730306095
731237500
730311672
730312187
730315517
730318479
731250918
731261172
731262305
731267335
731267476
730404619
730405249
730407464
731553574
731558907
730421794
731568048
730433938
731576258
731583170
730444222
731591925
731594499
730455316
730462166
730474505
730476261
731617797
731629717
731630457
731633436
730495344
731637020
730501443
730503901
730505503
731647555
730512770
731659932
731664547
731671836
731673146
731676297
731680784
731721833
730530659
730539874
730543904
731737995
731746862
730556038
731748482
730559862
731753313
731753721
730563454
730564896
731761397
731769817
731774338
731782022
731791397
730605443
731808310
730613902
730617544
731817277
731821165
730627521
730636158
731832316
731832888
730638224
730639353
731846088
730652880
730653148
730654808
730661585
730667567
731869442
730675402
731874062
731874832
731896893
730703326
731948924
731957964
731957564
731977011
731988823
732004561
732006642
730712361
730723590
730729488
732029727
730734489
730736988
730736867
730738419
730754606
730756717
732053952
732067253
732067655
730794731
730801419
732117117
732132782
1600010480
1600030247
1600082246
1600095599
1600123809
1600212437
1600217528
1600321441
1600335322
1600347339
1600415322
1600418836
1600439268
1600453482
1600488936
1600550323
1600566081
1600576802
1600588858
1600605755
1600625117
1600626199
1600637890
1600694976
1600712870
1600731232
1600741365
1600749471
1600780704
1600788826
1600819688
1600823770
1600826247
1600837436
1600887073
1600894952
1600976552
1601002423
1601022540
1601028091
1601031319
1601049668
1601125301
1601151010
1601178354
1601191138
1601272109
1601272580
1601273125
1601352419
1601374678
1601376258
1601389310
1601400629
1601402516
1601406519
1601420805
1601433341
1601434719
1601444035
1601521354
1601574357
1601610960
1601690463
1601709510
1601730685
1600082246
1600095599
1600123809
1603068709
1603071159
1603082329
1603086330
1603094404
1603133993
1603138055
1603152095
1603165828
1603180213
1603257516
1603331407
1603340822
1603342912
1603351630
1603368659
1603499120
1603538713
1603599633
1603645143
1603721047
1603728872
1603826998
1603885173
1603910624
1603992727
1604006770
1604037779
1604083390
1604113792
1604175507
1604182860
1604210736
1604211897
1604237126
1604260068
1604302531
1604303751
1604323525
1604333393
1604397083
1604485492
1604532871
1604574493
1604638650
1604679073
1604759506
1604765851
1604772996
1604810918
1604869067
1604877274
1604894343
1604923661
1604929843
1604931374
1604977040
1605028692
1605031996
1605041271
1605050802
1605081105
1605237467
1605323087
1605361593
1605391723
1605432344
1605535870
1605582441
1605682586
1605777757
1605856493
1605924065
1605987392
1606008565
1606076140
1606301399
1606394673
1606401067
1606434037
1606549978
1606611148
1606724718
1606739739
1606754298
1606776317
1606909480
1606983056
1607026576
1607044444
1607100201
1607159475
1607300875
1607310553
1607507031
1607509341
1607591392
1607709358
1607985532
1608031969
1608057104
1608193232
1608222667
1608406952
1608515193
1608519510
1608822805
1608918210
1609097969
1609097867
1609101017
1609209997
1609342219
1609448492
1609539960
1609547973
1609712252
1609732708
1609734102
1609855575
1609977549
