710023930
710034459
710087956
710095531
710114402
710130259
710150756
710172013
710202699
710222302
710228126
710231194
710233704
710233735
710235344
710238824
710243030
710245787
710253307
710254948
710283718
710311516
710321989
710339860
710353800
710411441
710441005
710496572
710508218
710551221
710587066
710590668
710615305
710661768
710679134
710684873
710705053
710709682
710745868
710832570
710843710
710868281
710868784
710931096
711018358
711021054
711029477
711036041
711084139
711090785
711102655
711120360
711128615
711151232
711170963
711176807
711194562
711205438
711227990
711231819
711236350
711265566
711279951
711290030
711305637
711314028
711314672
711317688
711323782
711330311
711338629
711364397
711367614
711371401
711397374
711406461
711437804
711446062
711476181
711487809
711561493
711617946
711658679
711659716
711663588
711681089
711682671
711698814
711758721
711763033
711767542
711772935
711774415
711775750
711805509
711811986
711838343
711855015
711863307
711907404
711959164
711976528
711981714
712078823
712085596
712099929
712108793
712121145
712136573
712137559
712144333
712149932
712173699
712198794
712204683
712220244
712261045
712279533
712295194
712311717
712406332
712413255
712414232
712417856
712432599
712437949
712465562
712480647
712483529
712486399
712533325
712546436
712562892
712582550
712588874
712624685
712644334
712659446
712661924
712684476
712692265
712697108
712706600
712713048
712716275
712750613
712755667
712775298
712778242
712794154
712813030
712822768
712841113
712841512
712848242
712871136
712875899
712876049
712876107
712883839
712904082
712908185
712922532
712954494
712978313
712989189
712989181
713003403
713007237
713031444
713086074
713098459
713114634
713158319
713178229
713183571
713193668
713219599
713244812
713269704
713270912
713276345
713280357
713285238
713291765
713352523
713353718
713392904
713403601
713405046
713431040
713437338
713453849
713460942
713489812
713512257
713515161
