801019777
800103386
801052905
801070512
800127907
801074566
801076540
801079261
801087305
800144562
800149754
801093905
800150389
800153905
800061828
800103386
800127907
800144562
800149754
800150389
800153905
800176432
800180614
800215683
800250953
800252492
800267507
800315203
800327725
800344777
800421964
800445849
800477302
800535135
800537344
800553856
800557400
800576385
800590350
800632347
800657441
800681570
800685519
800698795
800729649
800737642
800799610
800851834
800907699
800912258
800940542
800999811
801019777
801052905
801070512
801074566
801076540
801079261
801087305
801093905
801104984
801127760
801164277
801173849
801179336
801182477
801197949
801201307
801201708
801206714
801218352
801244740
801256601
801259023
801264165
801290118
801300619
801304955
801326382
801332179
801335408
801336127
801343253
801346681
801426637
801460170
801468283
801473345
801483257
801484073
801491650
801509259
801520104
801543230
801553391
801569599
801590390
801605230
801615559
801632681
801683583
801684234
801704250
801713529
801718684
