840001175
840016798
840018888
840027303
840058724
840088035
840091666
840121545
840134904
840140799
840149484
840173842
840190724
840193008
840204067
840209043
840213734
840271164
840274952
840295386
840303880
840304135
840308153
840308954
840311883
840329708
840346439
840349687
840373545
840440724
840452246
840454940
840458960
840468351
840468084
840478834
