801013846
801016457
801017274
800075742
801020829
801021707
800086739
801073510
801075823
800143884
800157219
800075742
800086739
800143884
800157219
800175206
800175328
800177093
800180616
800198525
800205263
800208008
800209117
800218884
800223740
800225066
800227480
800239040
800241457
800249404
800255084
800261768
800275254
800276277
800278640
800280455
800281582
800281863
800285975
800287068
800289877
800295302
800311690
800315601
800336548
800354330
800355446
800357349
800360284
800365088
800366380
800366221
800367971
800378764
800380420
800385667
800401823
800403577
800416328
800431050
800443154
800464182
800479674
800483447
800486918
800487514
800503931
800505924
800512527
800518767
800519069
800540796
800549944
800569979
800592196
800594240
800610095
800620261
800630214
800651999
800656638
800663331
800671250
800675345
800676469
800678425
800686933
800687583
800689543
800689739
800698639
800714386
800717522
800728444
800741324
800743463
800747152
800753302
800757460
800768373
800787974
800810552
800816231
800823344
800823386
800829135
800832836
800836506
800844486
800845799
800869708
800872337
800878197
800880392
800886206
800887199
800902113
800907670
800910971
800911882
800914479
800951016
800953336
800960154
800962006
800969002
800993451
800994917
801008486
801013846
801016457
801017274
801020829
801021707
801073510
801075823
801110060
801112908
801126655
801131380
801139610
801167278
801170645
801182080
801193066
801196893
801201096
801204659
801204717
801205444
801207647
801210457
801211829
801215537
801221764
801226378
801250584
801253128
801274448
801281702
801289221
801292100
801298190
801312862
801343659
801343815
801344519
801345262
801351867
801362819
801367293
801368510
801369431
801376318
801405211
801418084
801426214
801464253
801465098
801469845
801476022
801490682
801491198
801494306
801502761
801503620
801512528
801513709
801513899
801515706
801558171
801566407
801566722
801572996
801577270
801578337
801583714
801594512
801595466
801609765
801611279
801611979
801622836
801637174
801637683
801649341
801657279
801665884
801666735
801668049
801677896
801688717
801695320
801709563
801711066
801711590
801723221
801731765
801746023
801746396
801749365
801761545
801763088
801770980
801794487
801797419
801797575
801816005
