950377782
950379430
950380524
950381106
950381139
950384535
950389173
950403756
950405202
950406711
950407755
950411552
950412321
950413352
950415631
950416631
950417980
950423071
950424203
950428191
950432459
950436438
950441811
950445826
950453911
950459497
950463231
950466030
950466419
950473840
950479224
950480545
950488632
950489529
950489923
950491243
950495464
950497209
950501452
950161447
950161940
950163402
