710000428
710001011
710003317
710003548
710004837
710005176
710005896
710008258
710009060
710009288
710009928
710013725
710014756
710014795
710016212
710016837
710018198
710018538
710020923
710021181
710021853
710022068
710022415
710023811
710028595
710029987
710030953
710030424
710031173
710032674
710034238
710033948
710038209
710040725
710040807
710042649
710042750
710043045
710043886
710045479
710046450
710046825
710047001
710047314
710047786
710051275
710051484
710053559
710056151
710057107
710057295
710057923
710060536
710061765
710062647
710063130
710066079
710066891
710068150
710068642
710070093
710071568
710072078
710074930
710074502
710075382
710076173
710076565
710076961
710077688
710078226
710079745
710082250
710082546
710082830
710084563
710084668
710087899
710088353
710089072
710090581
710090910
710091700
710091940
710094689
710094744
710098332
710098409
710098317
710098964
710100052
710103571
710104023
710103955
710106496
710108843
710109296
710109840
710110433
710110815
710111212
710111910
710112406
710112538
710114246
710114648
710115526
710115701
710116841
710117939
710121028
710122041
710122413
710123224
710128236
710128106
710128365
710130312
710131951
710133724
710134911
710136374
710136576
710136695
710136561
710139396
710142269
710142514
710143166
710143706
710144005
710144215
710144265
710146329
710146696
710148049
710148561
710148895
710149013
710149049
710149421
710149585
710151217
710151846
710151246
710154148
710155097
710156256
710156191
710156493
710156313
710158864
710159760
710159818
710160782
710160949
710165006
710165531
710170592
710170937
710171294
710174036
710174744
710176463
710182222
710182648
710182920
710183336
710185721
710186399
710186320
710187964
710193408
710195244
710200377
710201704
710201718
710203381
710204690
710206058
710208523
710208427
710208776
710209893
710209875
710209918
710210908
710211987
710214205
710214908
710215183
710217655
710221301
710221347
710224934
710227276
710228591
710229216
710230575
710233163
710233546
710234552
710235174
710235512
710235564
710237394
710237700
710239584
710241659
710243420
710243764
710245696
710247004
710247287
710247854
710248089
710249097
710249535
710250017
710251439
710253641
710253964
710253929
710257612
710259939
710261069
710262154
710262857
710265209
710266415
710266137
710266545
710267555
710267739
710271334
710272352
710273184
710275246
710281472
710282049
710283033
710286166
710286419
710287728
710289791
710289598
710291260
710291677
710296655
710297643
710302296
710302883
710303074
710304463
710304720
710305493
710306082
710307109
710308647
710308617
710309156
710308964
710310147
710310570
710310492
710312113
710312358
710314329
710314926
710315476
710316367
710317287
710317209
710318070
710318409
710318708
710318848
710319195
710319820
710319992
710320951
710321088
710321939
710322850
710323243
710323858
710323895
710324425
710324752
710324888
710325437
710325694
710325951
710326321
710328110
710328425
710330754
710330819
710340002
710341013
710344110
710346805
710349946
710349770
710350849
710350843
710351400
710355534
710356196
710356594
710358787
710358576
710359016
710359612
710359634
710360396
710361769
710361927
710362879
710362673
710366826
710366806
710369082
710369834
710372520
710374170
710375611
710378575
710378839
710378970
710379813
710383384
710386172
710386469
710387715
710390627
710390951
710390990
710397509
710399082
710402713
710404353
710404926
710405430
710406379
710406942
710407064
710407819
710409173
710409117
710409743
710409891
710410208
710410602
710411223
710411836
710413281
710414409
710415223
710415561
710415846
710415957
710419150
710419564
710419945
710421165
710425439
710425797
710428078
710429402
710430299
710431435
710431544
710432846
710434066
710436482
710436347
710436883
710437136
710437446
710439339
710439425
710440249
710443510
710444531
710450213
710451117
710451122
710453165
710456156
710456890
710456932
710458177
710462476
710462820
710464119
710464510
710467534
710467571
710473485
710474058
710478562
710479744
710480966
710481308
710481875
710484560
710484865
710486291
710486622
710486991
710490035
710490414
710492985
710494101
710494570
710495680
710496001
710496088
710499334
710502971
710504877
710505202
710506118
710506078
710509008
710511233
710513214
710515286
710516316
710517048
710517340
710518180
710519093
710519165
710519933
710520632
710523453
710526036
710527847
710528111
710528189
710529422
710530576
710530446
710531150
710531062
710532386
710532990
710532886
710533460
710535337
710535452
710535889
710538231
710541314
710541290
710542322
710542636
710543181
710543513
710544448
710544936
710547152
710547513
710549115
710550028
710551907
710553326
710553290
710554995
710556913
710558276
710558323
710559656
710559546
710562372
710562861
710563984
710564904
710564896
710564952
710567078
710568558
710570350
710570298
710571135
710571395
710571210
710573491
710575974
710576641
710578335
710580284
710582216
710582340
710582815
710583022
710585288
710585362
710585476
710586045
710586175
710586926
710587240
710587303
710589662
710593159
710593554
710593990
710594985
710595540
710595569
710595960
710596343
710599213
710599781
710602018
710601969
710604180
710605217
710606000
710606664
710607683
710610730
710611551
710614157
710614786
710616815
710618000
710619111
710619862
710620480
710621928
710626812
710627362
710628780
710629811
710632132
710633060
710633939
710635922
710636194
710636985
710637206
710640226
710640316
710639916
710642097
710642717
710642687
710644081
710645847
710648559
710648440
710648603
710649088
710652037
710653809
710654646
710656495
710656463
710659059
710661334
710660579
710664612
710665102
710665919
710666705
710666860
710667304
710669376
710669024
710671427
710671641
710672549
710673158
710673859
710679202
710679093
710679184
710679793
710680896
710682621
710682381
710683676
710686712
710688530
710690668
710691150
710691431
710692459
710693198
710696101
710701233
710701149
710701420
710703675
710703382
710705176
710705360
710706269
710708166
710709540
710710952
710712626
710716228
710716959
710717953
710718259
710718920
710718983
710719144
710719329
710719931
710720700
710721204
710722446
710723258
710723292
710724806
710731868
710734316
710736253
710736264
710736642
710737649
710738080
710740224
710740532
710741201
710741657
710742095
710743545
710746093
710746632
710747365
710747678
710748286
710749514
710749557
710753088
710755317
710757964
710758115
710759057
710762376
710762472
710763204
710764163
710767932
710767617
710770395
710771194
710772811
710772816
710775399
710776122
710777740
710778921
710778629
710779122
710783310
710783441
710784115
710784374
710786852
710787817
710787999
710789408
710791080
710790319
710794593
710797924
710798505
710799222
710800666
710800790
710800696
710801347
710802105
710802202
710804480
710806406
710806678
710807150
710808639
710808470
710810317
710811381
710811865
710812299
710814258
710814411
710815233
710817792
710818430
710818941
710820786
710824407
710824469
710827248
710827650
710827709
710829055
710830143
710833016
710833437
710834478
710834898
710837465
710839093
710840343
710840743
710840272
710841964
710843296
710843316
710843834
710843865
710844167
710844730
710848534
710849546
710849855
710850083
710849843
710850995
710850846
710851783
710852333
710854245
710855049
710857547
710858761
710859204
710859699
710859591
710860619
710861481
710861707
710863502
710863790
710864196
710864493
710864463
710864781
710864415
710865168
710866074
710866693
710867670
710869553
710869655
710870478
710872699
710872845
710873895
710874120
710873483
710880492
710883629
710884357
710886289
710886692
710886910
710887357
710890117
710890880
710891147
710891728
710892388
710893099
710893452
710894076
710894084
710895194
710895190
710895242
710896200
710896127
710897005
710897305
710899019
710899133
710899593
710900911
710901696
710902035
710906838
710907859
710908074
710908960
710911571
710912483
710913492
710913442
710915225
710915533
710916316
710917165
710919071
710919753
710921574
710923406
710923508
710923783
710924488
710925179
710925631
710926902
710928956
710932510
710932970
710933903
710934084
710934478
710937788
710938010
710938460
710939440
710940480
710941350
710941387
710942976
710943721
710951019
710950707
710950640
710951509
710951654
710951471
710956468
710956552
710957002
710957085
710956371
710960180
710960165
710961878
710963207
710964167
710964094
710964911
710965648
710967259
710967942
710967942
710975187
710974951
710977866
710979158
710981372
710983248
710985084
710986549
710987436
710987700
710990025
710993022
710994768
710995176
710995818
710995898
710996032
710996683
710998144
711002825
711003734
711004161
711003603
711004878
711007867
711008190
711009288
711009553
711009841
711011102
711011133
711011284
711010859
711012060
711012372
711013515
711014962
711016213
711016340
711016817
711017617
711019020
711020676
711022754
711024191
711024173
711025248
711025685
711027338
711029141
711029498
711032170
711032920
711033993
711035265
711036064
711037124
711037758
711039980
711042143
711042923
711047442
711048546
711049496
711052560
711056166
711059923
711060034
711060270
711061242
711062237
711062715
711066534
711067226
711067639
711067844
711069006
711069782
711069903
711074256
711075228
711079471
711080484
711081000
711081079
711081054
711082804
711083431
711084099
711084561
711084526
711084786
711085714
711087114
711088365
711089506
711089876
711093469
711093896
711095099
711097459
711099809
711101108
711103373
711103782
711106175
711106621
711107062
711108053
711108057
711109436
711111718
711111603
711115360
711115780
711115932
711116561
711118311
711118802
711119170
711120397
711123204
711123167
711124852
711126054
711126799
711127550
711129261
711130662
711131609
711133221
711133382
711135240
711135107
711135627
711136613
711137877
711141189
711142200
711142696
711142697
711144332
711144489
711144916
711145116
711146833
711146837
711147985
711149758
711150468
711151075
711151337
711152335
711153402
711154708
711158098
711159852
711161910
711163332
711163835
711165602
711166552
711169004
711169478
711170583
711170814
711171319
711172501
711171513
711174874
711175350
711176179
711176203
711179668
711180729
711180926
711185045
711185913
711186829
711189846
711191901
711194066
711194481
711194661
711195775
711196622
711198828
711198933
711199153
711201016
711202115
711203864
711204983
711204522
711206630
711207089
711207482
711206818
711208791
711209938
711210969
711212142
711212963
711213427
711213875
711213937
711214471
711214975
711215288
711215209
711218987
711219019
711218975
711221743
711221962
711222653
711223858
711223200
711223858
711224196
711224526
711225935
711227450
711227699
711228888
711232501
711233406
711235535
711236603
711238445
711240177
711240559
711241519
711242218
711244328
711244740
711245151
711249566
711249696
711250898
711251260
711251208
711252724
711253576
711253604
711253829
711253825
711255744
711256109
711258788
711259335
711261960
711264332
711265713
711268613
711268881
711269130
711270531
711272771
711275004
711275155
711275907
711276942
711277799
711278073
711279069
711280063
711281181
711281470
711283916
711286371
711288972
711291035
711291431
711291706
711291915
711292071
711293969
711293990
711294757
711296205
711296639
711297112
711297787
711301912
711302567
711302721
711302817
711303284
711307416
711311396
711313622
711312999
711315918
711317106
711317423
711318442
711319993
711322678
711323270
711324698
711326599
711330536
711331066
711331086
711331825
711332637
711332760
711334260
711334742
711335681
711336106
711338125
711338018
711340149
711342212
711342947
711343448
711343659
711344529
711345384
711346499
711348089
711350171
711350604
711350594
711351592
711351753
711351905
711352951
711355000
711348994
711362520
711363268
711366938
711367190
711367588
711367673
711368718
711369701
711370105
711371074
711372391
711373688
711374731
711376231
711377413
711378333
711380360
711381349
711381959
711382413
711382750
711384324
711384234
711385456
711385612
711386886
711389040
711389096
711389822
711389940
711389665
711390330
711392757
711393328
711393969
711394255
711394688
711395620
711396697
711398046
711399179
711399370
711399529
711400078
711400614
711400678
711402115
711401854
711402240
711403260
711405282
711405782
711407203
711408536
711408824
711409541
711410669
711412792
711412710
711413954
711414360
711414975
711415812
711419510
711419761
711420048
711419791
711420627
711421364
711421464
711421981
711422086
711425669
711425489
711425727
711430503
711430725
711431138
711431413
711432105
711432176
711433360
711433675
711434659
711435223
711436319
711440160
711440632
711441071
711441737
711441826
711442559
711443160
711444247
711446090
711447499
711451164
711451480
711451506
711454919
711456638
711457027
711458136
711459260
711459865
711465416
711466137
711467616
711467541
711468630
711469142
711470163
711473507
711474512
711478867
711478789
711481565
711482019
711482538
711482696
711485759
711486735
711488683
711488714
711491625
711492297
711494130
711495086
711495619
711495986
711495974
711496514
711497122
711497528
711497242
711497895
711497934
711498129
711499935
711501652
711501872
711502494
711504304
711507849
711510283
711512046
711513008
711513793
711514299
711517012
711519170
711519497
711520652
711522379
711521950
711523262
711524699
711525391
711527005
711527119
711527510
711529708
711531124
711532536
711533349
711533529
711534527
711534853
711536180
711537222
711537028
711537493
711537529
711538182
711545870
711546277
711547190
711547847
711548179
711548266
711548721
711549276
711550874
711551090
711553294
711554357
711555603
711558298
711559086
711559619
711560393
711560555
711560583
711562969
711563995
711564069
711565707
711569409
711569618
711570041
711570688
711571025
711571016
711571682
711573018
711573738
711575640
711575964
711577308
711579403
711579594
711580052
711581256
711583085
711584194
711585995
711586345
711588344
711593476
711593225
711594743
711594736
711596087
711598859
711598707
711600878
711600953
711603872
711603988
711604677
711606609
711609107
711611982
711612775
711613427
711614484
711615974
711617414
711618126
711619945
711620604
711620241
711622573
711625499
711626090
711626247
711626569
711626761
711627168
711627161
711627395
711628903
711629621
711629579
711632591
711633179
711635732
711637195
711637300
711640040
711641507
711642252
711643178
711644755
711645325
711646407
711648735
711648864
711649840
711650946
711651112
711652611
711653622
711653759
711656685
711657478
711659096
711659573
711660430
711660715
711661568
711661752
711662120
711663044
711663087
711663499
711664731
711666036
711665801
711666421
711666606
711667440
711667838
711668426
711669291
711669687
711670034
711671776
711672324
711672848
711672956
711673176
711674644
711675524
711677037
711677062
711678773
711680244
711681397
711681849
711682425
711685189
711685580
711685697
711686349
711686599
711686923
711691883
711692563
711692591
711694160
711694943
711696651
711696885
711697901
711698293
711699205
711701950
711705379
711706645
711708103
711710286
711710692
711714248
711714323
711716322
711718510
711719184
711720621
711722072
711722531
711723040
711723690
711725088
711725862
711726110
711726458
711729170
711731889
711732403
711733081
711733694
711733789
711734998
711738326
711738185
711741953
711743210
711744361
711745372
711745771
711749127
711750503
711751329
711751396
711751256
711752676
711754535
711756701
711756887
711756678
711759503
711760377
711760544
711762463
711763107
711763672
711763999
711765360
711765496
711765561
711765704
711769329
711767088
711775988
711779354
711780315
711780649
711781575
711781664
711782679
711782725
711784010
711785113
711795483
711796200
711799550
711800883
711801611
711802737
711803205
711804008
711804105
711804490
711804588
711811292
711812551
711814463
711814396
711815342
711816082
711816908
711818724
711819334
711819971
711820927
711820832
711821227
711823773
711824374
711825933
711826170
711829553
711829872
711831023
711831107
711831754
711832077
711833266
711833718
711834033
711837686
711838290
711838249
711838577
711840849
711841462
711842309
711844987
711848061
711848527
711848958
711849713
711851409
711853354
711854149
711855416
711855537
711857200
711859013
711859221
711860554
711861054
711863150
711864879
711865483
711865531
711868006
711868471
711870169
711871403
711873614
711875036
711875571
711875601
711875841
711877741
711878578
711879956
711879865
711880722
711881720
711883056
711884254
711884541
711885370
711885945
711886108
711886187
711887439
711887975
711889791
711889831
711890642
711890895
711890994
711891098
711892352
711893275
711893557
711894924
711895805
711898892
711899510
711901374
711901693
711901723
711902997
711904139
711905242
711905257
711905752
711906406
711906203
711909049
711910191
711910860
711910732
711911002
711913323
711916082
711916456
711918053
711918046
711918179
711918687
711918723
711918753
711919455
711914095
711921945
711922535
711922654
711928387
711928999
711928761
711929548
711933175
711933952
711934060
711934031
711936411
711936777
711938769
711938945
711938875
711939784
711940155
711940227
711943996
711945694
711946805
711947254
711947937
711949306
711949841
711950486
711950611
711952236
711954140
711960208
711960239
711960918
711960943
711961560
711964783
711965563
711969536
711969575
711973299
711975902
711976205
711976936
711976981
711977037
711976459
711978516
711979541
711980428
711981295
711982997
711991060
711992241
711992876
711993508
711994982
711994943
711996636
711996751
711997306
711998446
712000440
712000686
712000794
712001431
712001761
712002091
712004414
712005906
712006468
712006639
712007205
712008620
712010109
712010210
712010723
712014296
712014426
712014074
712016072
712017218
712016957
712017696
712019254
712019282
712021636
712024405
712025649
712027320
712029732
712030073
712030940
712034026
712035439
712036507
712036877
712038416
712040802
712041815
712042604
712044785
712045802
712046371
712047985
712048490
712052401
712052361
712054501
712055677
712056210
712057694
712058019
712058487
712059822
712060284
712060985
712061389
712062058
712064859
712065278
712068530
712068903
712069376
712069607
712070821
712071880
712071914
712073019
712074583
712076160
712077787
712079734
712084289
712084654
712084982
712085016
712085089
712089674
712091061
712091999
712092465
712093426
712093831
712094128
712093992
712094513
712094631
712095061
712095506
712095548
712096683
712097519
712097688
712098257
712101474
712103723
712104587
712106211
712108313
712110907
712112320
712112906
712113096
712113801
712115228
712116164
712116673
712117022
712117083
712117518
712119156
712119392
712119019
712121289
712123029
712126596
712127956
712128338
712129027
712130130
712133842
712135860
712136107
712137884
712138379
712139026
712139696
712140348
712141321
712143090
712145372
712145552
712146698
712147882
712149893
712150631
712151688
712153443
712156568
712156929
712158276
712158729
712162446
712162465
712166970
712169323
712175353
712176063
712178227
712180284
712182186
712182777
712183585
712183794
712186384
712187883
712188673
712188663
712190246
712191495
712192068
712192671
712194955
712198145
712198434
712200436
712200973
712201399
712203501
712206631
712206712
712209667
712211068
712211708
712212395
712212735
712215736
712217290
712220003
712222250
712222692
712224587
712225052
712227083
712227610
712228114
712228665
712230486
712233472
712233297
712234879
712235002
712236038
712236398
712238432
712238610
712241257
712242229
712242382
712242878
712244255
712244459
712245094
712246978
712247400
712248137
712247681
712248849
712249050
712252763
712255831
712257730
712258880
712262066
712265741
712267554
712269149
712273653
712274128
712274902
712280377
712285926
712286886
712287021
712288867
712289017
712289128
712291527
712293912
712295463
712297190
712297250
712297450
712299944
712300148
712301620
712302568
712302710
712302898
712304022
712304949
712306509
712307658
712307814
712309333
712309573
712308897
712310371
712313091
712313122
712313279
712313893
712314038
712315703
712317917
712319010
712321225
712315945
712322501
712326938
712327083
712328593
712329866
712331496
712332828
712332893
712333566
712333904
712336015
712336850
712336988
712337048
712337307
712338687
712339067
712339348
712340810
712341758
712343340
712344733
712345110
712345053
712345205
712348941
712350133
712350028
712350981
712351649
712352597
712352880
712353046
712353222
712353241
712354369
712355866
712355887
712356758
712357170
712357642
712359629
712360426
712360828
712363663
712365171
712365875
712366340
712368276
712368699
712369315
712371056
712373332
712378381
712380450
712381775
712381831
712381960
712382244
712383743
712386028
712386385
712386620
712387906
712389706
712392601
712393263
712395470
712396297
712397197
712398282
712398997
712398880
712399298
712399573
712400742
712400445
712401276
712401289
712403159
712404345
712406268
712406964
712407290
712408640
712408961
712413239
712414171
712416489
712418317
712418905
712419176
712419507
712421804
712423905
712423664
712426441
712428381
712429880
712430703
712430692
712430699
712431267
712432316
712433098
712433641
712435665
712436645
712436750
712437414
712437129
712437657
712438697
712441519
712441888
712442564
712442602
712443347
712443363
712443741
712444469
712445569
712447356
712447623
712447912
712449039
712450564
712451819
712452008
712452337
712452842
712454505
712455050
712457217
712458559
712459650
712461421
712463980
712464515
712465706
712466197
712467097
712470019
712473292
712474185
712474842
712476433
712476577
712477589
712477651
712478811
712481315
712481491
712481756
712482250
712484652
712486199
712487939
712492750
712492725
712492861
712496000
712496051
712496206
712496461
712496812
712497734
712497946
712498199
712498069
712498606
712499045
712499559
712499658
712500468
712502270
712502657
712502887
712503142
712503678
712503823
712504593
712504318
712505801
712505994
712506847
712509564
712509538
712510508
712511721
712514922
712516154
712517546
712517291
712518352
712520632
712522369
712523001
712524308
712525325
712525896
712526868
712528680
712529071
712529378
712530119
712532276
712532275
712533223
712532696
712532591
712533680
712536487
712536759
712537778
712538809
712542215
712542705
712542938
712544502
712544774
712546699
712547564
712548460
712553025
712552470
712555612
712556148
712556248
712558040
712558216
712562126
712562424
712563194
712563524
712564194
712564601
712566328
712567477
712567521
712570701
712570742
712572244
712572470
712572891
712573257
712574232
712576558
712576579
712578152
712580175
712581491
712582656
712584154
712584963
712586166
712586292
712587409
712587359
712587964
712587908
712588074
712588415
712590156
712590710
712592184
712592965
712593324
712594259
712595283
712595241
712596170
712596698
712596727
712597719
712598364
712598444
712599673
712600865
712601232
712601755
712601910
712602422
712603638
712603787
712604538
712604762
712606047
712607953
712608243
712610204
712612369
712612938
712614076
712614129
712614457
712615032
712616216
712619497
712621387
712621810
712622369
712622584
712623886
712624257
712624670
712624104
712624985
712626298
712626926
712628420
712629065
712629508
712632802
712633059
712633209
712633372
712633906
712637291
712638170
712639091
712640047
712640307
712640537
712640624
712641521
712641711
712642106
712644106
712644126
712646240
712632873
712648235
712650548
712651118
712652621
712657168
712660173
712662313
712661135
712664000
712664191
712665991
712667793
712669245
712669463
712670223
712670723
712672726
712674266
712676233
712676792
712681926
712684030
712685400
712686137
712687418
712689235
712693330
712693858
712693898
712694206
712694810
712695012
712694944
712695141
712696034
712698049
712698174
712698317
712699140
712702062
712703243
712703895
712706152
712706211
712707380
712707701
712708445
712709402
712713913
712716020
712718757
712718705
712719840
712720306
712722276
712722478
712724336
712724459
712724667
712727146
712734557
712734770
712735312
712737485
712738329
712738450
712739897
712740841
712742250
712742378
712743375
712746880
712747279
712747357
712750223
712750110
712759918
712760504
712766271
712766893
712767169
712767216
712768177
712769830
712770048
712771873
712772163
712772206
712772734
712773756
712774358
712777356
712777783
712778414
712778961
712780333
712780565
712781558
712781721
712783887
712785466
712785656
712786055
712787058
712787623
712788074
712790972
712791115
712792180
712792685
712794427
712794421
712794919
712795051
712797459
712799253
712799774
712807313
712807848
712812650
712813770
712814298
712815491
712815497
712816010
712816832
712817510
712818171
712817803
712820342
712822421
712823075
712823144
712823200
712823697
712824853
712824955
712828493
712830365
712833425
712834284
712835166
712835281
712839572
712840304
712844652
712845688
712845828
712846596
712848731
712849300
712851065
712852138
712853827
712859822
712862748
712864424
712864997
712867695
712868765
712870874
712871340
712871519
712876813
712877304
712877906
712877956
712879002
712879590
712880559
712881550
712881268
712881769
712881710
712882828
712884162
712885528
712887098
712887927
712887730
712888545
712889033
712889212
712892354
712893369
712896130
712897007
712896586
712898049
712898947
712899464
712900829
712904464
712905300
712909670
712911962
712912874
712913678
712914276
712915069
712916553
712917288
712919760
712923598
712924143
712925248
712927862
712930244
712930536
712930947
712933024
712938754
712940105
712941556
712942602
712943243
712943616
712944694
712944290
712945640
712948678
712948936
712950192
712951068
712951383
712952073
712952732
712954217
712954684
712956032
712956368
712961949
712962113
712967623
712967023
712968031
712968758
712969104
712968760
712970451
712970604
712971386
712972208
712973461
712975091
712976130
712979889
712980613
712980839
712982062
712982529
712983759
712984882
712985310
712984894
712985857
712986406
712988247
712988572
712988694
712988154
712989149
712989427
712989772
712992544
712993138
712995851
712995887
712996422
712997218
712998936
712999017
712999958
713001819
713002089
713004238
713004448
713004010
713006240
713007044
713008546
713009821
713010616
713011678
713012145
713012975
713013763
713015061
713016436
713017509
713021299
713021813
713022345
713024366
713024363
713024930
713027077
713028752
713030986
713032291
713034141
713034253
713034483
713036434
713037621
713040045
713040437
713043670
713044666
713045503
713046661
713047837
713049678
713049842
713052516
713053526
713055993
713057371
713058153
713059376
713059387
713066349
713067581
713068294
713068616
713068694
713069064
713071067
713071156
713072012
713072827
713073264
713076835
713077273
713077693
713078830
713079751
713079084
713080248
713080373
713081069
713085035
713086395
713086458
713086900
713090849
713092735
713093849
713094093
713096877
713097150
713097017
713099496
713099490
713100533
713100770
713102149
713102556
713105230
713106674
713107190
713108596
713109985
713111616
713112256
713112473
713112410
713115067
713115791
713116391
713116729
713117077
713117717
713117665
713120109
713120681
713121213
713121933
713123749
713124188
713125314
713125371
713126092
713127676
713131823
713131770
713135652
713135763
713139874
713140784
713141858
713141997
713142355
713146324
713147467
713148275
713152426
713152656
713152541
713153927
713154466
713156391
713156648
713156863
713158940
713159636
713159815
713160970
713162306
713164825
713165545
713166046
713168775
713170668
713170646
713170889
713171088
713171076
713171961
713173417
713173962
713174225
713174974
713175775
713175996
713177125
713178565
713180181
713181711
713181560
713182504
713183794
713184003
713184756
713185922
713187540
713187816
713188416
713189205
713189466
713190221
713190401
713190137
713191123
713191838
713191870
713191907
713195211
713195815
713197596
713197767
713198487
713199347
713199815
713201512
713201805
713204082
713206871
713207908
713208197
713208008
713209762
713216300
713217049
713218060
713219353
713222457
713222840
713225166
713224875
713225495
713225846
713229240
713229541
713232271
713232198
713236001
713236442
713236422
713237892
713238416
713239272
713240334
713242403
713244510
713244716
713245730
713245565
713247212
713248620
713248808
713249107
713249189
713249403
713251186
713251265
713251533
713252226
713253132
713253979
713255739
713257183
713257304
713258072
713258361
713259158
713260384
713261736
713263061
713263278
713263348
713263196
713263613
713264122
713264117
713263783
713265188
713266851
713267897
713269378
713269723
713270949
713270334
713273766
713274179
713275687
713278331
713279035
713279367
713279366
713279632
713279953
713281241
713282348
713284156
713284857
713284886
713284460
713286846
713287344
713288626
713288951
713288812
713290468
713291665
713292552
713294069
713295273
713298666
713299245
713299627
713300672
713303006
713303781
713304881
713306789
713306760
713307698
713309120
713316224
713318933
713320738
713322762
713323853
713324140
713326108
713326388
713326696
713327173
713327653
713329842
713331368
713331719
713332399
713333475
713333948
713334183
713334400
713334214
713335514
713336878
713337939
713339262
713341060
713342698
713344517
713346047
713347221
713350289
713352314
713353534
713354377
713354657
713357406
713357255
713358579
713358928
713359352
713360315
713361683
713362286
713363056
713366047
713366822
713373960
713374153
713376912
713377108
713377686
713378235
713379464
713381638
713381919
713382389
713382015
713383713
713384208
713385364
713385926
713386581
713388122
713393191
713394855
713395435
713395559
713395921
713396365
713397113
713400284
713400562
713402236
713403391
713404575
713404553
713404943
713405285
713406426
713409327
713410290
713411097
713411865
713413639
713416533
713417945
713419985
713422948
713423660
713423444
713424056
713424596
713424945
713427327
713428683
713429693
713430574
713432781
713432972
713434359
713434368
713435213
713435290
713435808
713436072
713436543
713438209
713440050
713440717
713441765
713442761
713444108
713446655
713449036
713449823
713449721
713451656
713452749
713453671
713454709
713455770
713457825
713459622
713459995
713460035
713460755
713463215
713463943
713464808
713464972
713466087
713466496
713467403
713469967
713471103
713471238
713473874
713478745
713479469
713479702
713480234
713480154
713480717
713481799
713482060
713482199
713484039
713484617
713485172
713485483
713486503
713485993
713487619
713495067
713500638
713500897
713501826
713502008
713505773
713505941
713507341
713509567
713510475
713511123
713513151
713514347
713514764
713515352
713515078
713520498
713523027
713522950
713523350
713523622
713524038
713527352
713528737
713530226
713533477
713536903
713537203
713539202
713539671
