710003833
710085487
710183445
710188525
710228180
710240724
710241364
710258523
710356002
710505530
710708952
710894136
710915174
710918527
711055185
711093021
711110997
711137295
711181935
711207111
711243413
711352576
711414466
711585691
711594015
711595905
711609396
711644227
711816855
711926933
711942940
712101816
712190834
712307493
712315810
712326808
712327051
712404553
712428818
712490403
712491520
712529279
712586390
712607823
712711863
712792948
712999434
713131098
713164509
713252933
713393907
713405537
