800001069
800001954
800005775
800006758
800007230
800009310
800010992
800012896
800013474
800014891
800015120
800017548
800017926
800018749
800021993
800022369
800022412
801006847
801007113
800028599
801007481
800031844
801009775
800032994
800034019
800034316
800050898
800051554
800052967
800054618
800056657
800056999
801011116
800066450
801015446
801016518
800073167
801018259
801020482
800078572
801021784
801022555
800081532
800082071
801024901
801025128
800083507
801025193
800083541
800084182
801026074
801027108
800086151
800085853
801030190
801030375
800089893
800091252
800092073
801033964
800093294
801033833
801036801
800095977
801037592
801037647
800097120
801038529
801038855
801039261
801039849
800099153
801041089
800102702
801043308
800103653
800105381
800106204
801047687
801047962
801049164
800108707
801049905
800108858
800109067
800109614
800112658
800113872
800114935
801056262
801060140
800116905
801063304
800125136
801070340
801072926
800129765
800129955
801074896
801076693
801078970
800137984
800139132
800140272
800142285
801086835
801088395
800144782
801092475
800150607
800150945
800153292
800154924
801100528
801101258
802005502
800001069
800001954
800005775
800006758
800007230
800009310
800010992
800012896
800013474
800014891
800015120
800017926
800017548
800018749
800021993
800022369
800022412
800028599
800031844
800032994
800034316
800034019
800050898
800051554
800052967
800054618
800056657
800056999
800066450
800073167
800078572
800081532
800082071
800083507
800083541
800084182
800085853
800086151
800089893
800091252
800092073
800093294
800095977
800097120
800103653
800105381
800106204
800108858
800109067
800108707
800109614
800112658
800113872
800114935
800116905
800125136
800137984
800139132
800140272
800144782
800150607
800150945
800153292
800154924
800163544
800164949
800165562
800170001
800177095
800182795
800189585
800190030
800194217
800194668
800200162
800200013
800204486
800204311
800205244
800208794
800213844
800218525
800218614
800224745
800224881
800225333
800226210
800227413
800227695
800228112
800229326
800232608
800237100
800247237
800250221
800250895
800251229
800254774
800258613
800264897
800266747
800272866
800273214
800274511
800276065
800277414
800294653
800295944
800305361
800306221
800311144
800314086
800322443
800334464
800339961
800343168
800343289
800344387
800347242
800350186
800353342
800357179
800357721
800358168
800359639
800360605
800360948
800362145
800369353
800369815
800372484
800372763
800373895
800376118
800378404
800383371
800386735
800392361
800393962
800395405
800398191
800399727
800400240
800402383
800406420
800406677
800407629
800407982
800408925
800409613
800410976
800411339
800411914
800417135
800419235
800421198
800427705
800431718
800432156
800437583
800439618
800440780
800444669
800445369
800445567
800446060
800448986
800450765
800452619
800452488
800452688
800457827
800458064
800461595
800466984
800467938
800468249
800472209
800473223
800473320
800474613
800477045
800477324
800479715
800482823
800483027
800484305
800485508
800486706
800486157
800492674
800493191
800494550
800496866
800501891
800506220
800507498
800509293
800510084
800512430
800513480
800522739
800526253
800526380
800527014
800528845
800530372
800533286
800538287
800541844
800542457
800545779
800552985
800556551
800558957
800571086
800572711
800573555
800576001
800577459
800582398
800586034
800587850
800589509
800594109
800597999
800598816
800599646
800601096
800601311
800610054
800615213
800622436
800624632
800629434
800636374
800639113
800640201
800643254
800643929
800647600
800648214
800651708
800656556
800658048
800659089
800658968
800672960
800675473
800679568
800679763
800682224
800683057
800687462
800689424
800696152
800701254
800701354
800701276
800703583
800703882
800708357
800709188
800712221
800713981
800714185
800718742
800719185
800720693
800722604
800725448
800726411
800728399
800733678
800739271
800741577
800751790
800756323
800758917
800759630
800763931
800764316
800765738
800768038
800769802
800772510
800778234
800779171
800781573
800789073
800791000
800794969
800796638
800797377
800801987
800803614
800803852
800804283
800804399
800809710
800812797
800816437
800818277
800827730
800828106
800830645
800831000
800831759
800837985
800841600
800842262
800844020
800848216
800850528
800851710
800851954
800857297
800860142
800860274
800863460
800872750
800872604
800873004
800873985
800879558
800879931
800886642
800886733
800889202
800892957
800893759
800895644
800900348
800905048
800907727
800912377
800919101
800923498
800923847
800928823
800929910
800929994
800930032
800931289
800934549
800935111
800938868
800940916
800945070
800947065
800951540
800951797
800952291
800952698
800953223
800954919
800955699
800957684
800965278
800966192
800968682
800970348
800971511
800974271
800974680
800978876
800979284
800980266
800980290
800980238
800980462
800990250
800992502
800996485
800999255
801006847
801007113
801007481
801009775
801011116
801015446
801016518
801020482
801021784
801022555
801024901
801025193
801026074
801030375
801033964
801033833
801036801
801037592
801037647
801038529
801038855
801039261
801039849
801043308
801047687
801047962
801049164
801056262
801060140
801063304
801070340
801074896
801076693
801086835
801088395
801092475
801101258
801104556
801108152
801113569
801114993
801122571
801122943
801125278
801127343
801131540
801131780
801135683
801139346
801139995
801146930
801147795
801149578
801150466
801160806
801162101
801163641
801165191
801167247
801169310
801171156
801176050
801180135
801182047
801183790
801185536
801188078
801197840
801198311
801198632
801201444
801205879
801206256
801208874
801211814
801212056
801213751
801214408
801219003
801219228
801223036
801224673
801227804
801228253
801232384
801234823
801237238
801238239
801242839
801242512
801245934
801247088
801248777
801249168
801250914
801251381
801252423
801258035
801258587
801261280
801266884
801267188
801271122
801273088
801275718
801277512
801280694
801280924
801290593
801291081
801293082
801296143
801302659
801303424
801307184
801308587
801315435
801322257
801332769
801333646
801334370
801334889
801338520
801350725
801353076
801354205
801357167
801358976
801362292
801363447
801369514
801369904
801371971
801372494
801373635
801381544
801383003
801384928
801385077
801389438
801390327
801390960
801391078
801395437
801397225
801398334
801405544
801407290
801409042
801409741
801411269
801411588
801412350
801413185
801413472
801416461
801418034
801418035
801419518
801421670
801422985
801436784
801440676
801443153
801443609
801452602
801452770
801453917
801455072
801455251
801455520
801460019
801461356
801466025
801466390
801468765
801471646
801474111
801478198
801478677
801479433
801480538
801484500
801488428
801495038
801497228
801504315
801505664
801506222
801507935
801511777
801516141
801521014
801521133
801521391
801523601
801529232
801529492
801530452
801536594
801538259
801540486
801543516
801544929
801550940
801550927
801552062
801553936
801554708
801559650
801559860
801559723
801560248
801563748
801565116
801571401
801570554
801576839
801578444
801578836
801579171
801582264
801583271
801589683
801590795
801590857
801591868
801591978
801596421
801597877
801598143
801602906
801603202
801615467
801615591
801617802
801619066
801619670
801624389
801628082
801629382
801630483
801631034
801634684
801636416
801637830
801639801
801642088
801643785
801648825
801649681
801650175
801655808
801658354
801659031
801660423
801669727
801670047
801670502
801670964
801671594
801678197
801678614
801682056
801683201
801684327
801686709
801689411
801696062
801697326
801700732
801702440
801703499
801703756
801707163
801710098
801712694
801713983
801717902
801718975
801725112
801727588
801729122
801729964
801738613
801738847
801741037
801743699
801745169
801752619
801755727
801757566
801763637
801765414
801769619
801779947
801780936
801786804
801787848
801788175
801788566
801789967
801791432
801792147
801795694
801796842
801797367
801799298
801799772
801801227
801811380
