800074219
800101309
800115125
801061588
801073683
800134248
801084080
801098780
800181448
800183924
800193958
800238390
800248063
800252547
800261542
800275478
800302288
800331530
800338720
800365830
800410235
800413500
800416497
800448264
800458756
800461291
800467001
800524504
800550257
800617937
800649146
800661907
800673976
800696626
800697135
800781422
800798949
800827967
800838505
800868999
800959001
800966036
800971294
800984695
800992517
801073683
801134152
801137267
801166241
801194472
801214020
801216832
801239105
801245042
801280272
801303588
801439153
801455004
801485381
801505321
801511771
801553150
801566308
801570560
801651449
801668190
801673598
801673537
801710484
801715064
801719717
801751490
