960002817
960010393
960015515
960022107
960027674
960029857
960030576
960035326
960038093
960050786
960053848
960058856
960059967
960070295
960078056
960084569
960089948
960091117
960093368
960099799
960110946
960116516
960121216
960134406
960135842
960138898
960138912
960152520
960167492
960167714
960177894
960184626
960188025
960188755
960192256
960195150
960209687
960218358
960220303
960223878
960225912
960245654
960249238
960250891
960257529
960260944
960270097
960279521
960281388
960281513
960295276
960296813
960297165
960308415
960310111
960314092
960315676
960318105
960320746
960321469
960322893
960326068
960329660
960338974
960344449
960347671
960348478
960349883
960352063
960356866
960358821
960364012
960364062
960370748
960376016
960379436
960381921
960385717
960390002
960390256
960392015
960397910
960409053
960409625
960411638
960418026
960421128
960448527
960449385
960450141
960456498
960457451
960460784
960462211
960465376
960469566
960488794
960493681
960496794
960498118
960519551
960521905
960533879
960534236
960539120
960539623
960540398
960542342
960553627
960554655
960558862
960566120
960568315
960580261
960590870
960591726
960597054
960600260
960603342
960604033
960610207
960611139
960615176
960621694
960623068
960625717
960626252
960632618
960637513
960640261
960643246
960653992
960656040
960660136
960659984
960664868
960666441
960669741
960674826
960679508
960681575
960682035
960688013
960692747
960694976
960696478
960699980
960700506
960712632
960715867
960725452
960726863
960729926
960733162
960744477
960746827
960752800
960753016
960758005
960759026
960769260
960769821
960776323
960787140
960802084
960805023
960806836
960815928
960820012
960822710
960828823
960837594
960837422
960838679
960839780
960840321
960844932
960848650
960854138
960855301
960855386
960865308
960869445
960870639
960870964
960871926
960883433
960895657
960895746
960898489
960901205
960905171
960920239
960926647
960929262
960931611
960931590
960935275
960944481
960952941
960960340
960965564
960973088
960974413
960982665
960984147
960991882
960992796
960999592
961002708
961007154
961007329
961007482
961008845
961017071
961030600
961031004
961039541
961040728
961045519
961048916
961049634
961050302
961059528
961065735
961078423
961078793
961082587
961088132
961090541
961095204
961101453
961102032
961103358
961107019
961108925
961112000
961113159
961126782
961127866
961139309
961144519
961149716
961150362
961159668
961161495
961163628
961164803
961165303
961174534
961175373
961180281
961186458
961196674
961200023
961200808
961202510
961206012
961208425
961209754
961211640
961213867
961215090
961217327
961217413
961223466
961223679
961226068
961228729
961235304
961235715
961242045
961243708
961245396
961248603
961252531
961259155
961260133
961261925
961266603
961269049
961278364
961281172
961287205
961289537
961298069
961305964
961307622
961313246
961314586
961324039
961328118
961329849
961337496
961337819
961346037
961349118
961349583
961359295
961364414
961369038
961376082
961377799
961377804
961379163
961383237
961385237
961389177
961400253
961401684
961406578
961409519
961420619
961428452
961433488
961433666
961444708
961447373
961452332
961454195
961455713
961455680
961459183
961460431
961463542
961465572
961482878
961482913
961501134
961507344
961525709
961535325
961537433
961542299
961546298
961553007
961581006
961582357
961593806
961603996
961611976
961620663
961625164
961634991
961636985
961639902
961640475
961641997
961662456
961677173
961679162
961683263
961684742
961686332
961697277
961706493
961715341
961716136
961718428
961724603
961728057
961729039
961735109
961743370
961754372
961754956
961756554
961768654
961782192
961783178
961783459
961785474
961791000
961800059
961803229
961804260
961806911
961807889
961812868
961816051
961825825
961830832
961839372
961843156
961847220
961850107
961852450
961855699
961855699
961856873
961858143
961858536
961859314
961865771
961876735
961897215
961898404
961900685
961903329
961912972
961914580
961915282
961915650
961915575
961916037
961921456
961922624
961925818
961943159
961948946
961951997
961957096
961962069
961964417
961967607
961969960
961979922
961982757
961986674
961987431
961988256
962000506
962001013
962005879
962014990
962017935
962018199
962018125
962022116
962027734
962029812
962032118
962036391
962044246
962047431
962057651
962064269
962067929
962068145
962070806
962073345
962073462
962098115
962108250
962111012
962115840
962116979
962123202
962124577
962131158
962137658
962138484
962138522
962149454
962151396
962152217
962152376
962163727
962164479
962166105
962167083
962179142
962182648
962186947
962188248
962201725
962205326
962209467
962210355
962213197
962213589
962222469
962224962
962225483
962234297
962238029
962238224
962241270
962241954
962243818
962253272
962255051
962267052
962267103
962285630
962285554
962286632
962289852
962294674
962296846
962307426
962309333
962311055
962314563
962318989
962321940
962326943
962332830
962337492
962338120
962341762
962347735
962353699
962360126
962362958
962365645
962369002
962371897
962373754
962377540
962387068
962390500
962393977
962396450
962397455
962399091
962421670
962423713
962431080
962432562
962435497
962437536
962441111
962450651
962454917
962468693
962475275
962476698
962477321
962480296
962488746
962490579
962493300
962495490
962501266
962504047
962512455
962518904
962524935
962529169
962529680
962533728
962534687
962544399
962544910
962560523
962565692
962571589
962571707
962572385
962581682
962591495
962598746
962603766
962604188
962610949
962611096
962612242
962612763
962626357
962635574
962640679
962642786
962645338
962655530
962656936
962659583
962660696
962661171
962665339
962665913
962666661
962675377
962681636
962691093
962696868
962698190
962699916
962705971
962706269
962710620
962714137
962718126
962718546
962719214
962723568
962724055
962728591
962736132
962737037
962737622
962738906
962739057
962739214
962742983
962743770
962757019
962757636
962763361
962763369
962764664
962771762
962776865
962785967
962792781
