1600072575
1600162645
1600283127
1600445316
1600455089
1600470442
1600474876
1600478172
1600552438
1600560758
1600805225
1600911455
1601213752
1601247970
1601329811
1601485754
1601664499
1601664856
1600072575
1603155244
1603179489
1603237569
1603401087
1603477140
1603553750
1603777400
1603916053
1603961081
1604027372
1604103105
1604202463
1604243782
1604285038
1604449392
1604465268
1604543555
1604560151
1604671567
1604747694
1604922690
1605004513
1605059685
1605252399
1605353333
1605355228
1605558146
1605584577
1605646195
1605821001
1605843441
1605904905
1606075801
1606178212
1606233360
1606312595
1606531335
1606685407
1606857427
1606885067
1606887504
1607056879
1607231662
1607346341
1607364015
1607526956
1607610333
1607618315
1607622137
1607666195
1607694430
1607695661
1607719071
1607759703
1607814240
1607824013
1607918881
1608089739
1608224619
1608369360
1608482400
1608588351
1608690696
1608757979
1608764454
1608807612
1608932569
1608987940
1609218250
1609227597
1609297360
1609312065
1609354674
1609362960
1609532987
1609705846
1609767408
1609853320
1609865097
