800049498
801034904
800114944
800126832
800143070
802005937
800049498
800143070
800179936
800231399
800245451
800257206
800263602
800264783
800318729
800322460
800324537
800331708
800342507
800390699
800392717
800397073
800416628
800416836
800426094
800430912
800465602
800483046
800490296
800562533
800610757
800624067
800647142
800662454
800675354
800748853
800765900
800774443
800797041
800813562
800821376
800854023
800856946
800866266
800884679
800893993
800921636
800926133
800940142
801034904
801166038
801212007
801249511
801254557
801265293
801279541
801314442
801319284
801352970
801391246
801428266
801500915
801507116
801547167
801547444
801562175
801626381
801650026
801668733
801703322
801759216
801779101
801787792
