730226279
731196899
730416440
730419050
730535149
732038122
1600063693
1600078348
1600085935
1600167666
1600195815
1600231019
1600288981
1600308132
1600319848
1600402924
1600407394
1600478157
1600488567
1600547412
1600585896
1600620158
1600671577
1600710171
1600741339
1600776638
1600789298
1600814809
1600818888
1600829462
1600850501
1600883559
1600952068
1601010956
1601011605
1601050131
1601107028
1601121368
1601124447
1601173441
1601195708
1601205001
1601234403
1601248676
1601291668
1601328211
1601410734
1601503581
1601515145
1601516167
1601673855
1601689299
1601695480
1600078348
1600085935
1603086727
1603091152
1603091781
1603099911
1603136304
1603223443
1603278466
1603369144
1603382927
1603396388
1603434595
1603445585
1603449900
1603451250
1603458344
1603623930
1603635313
1603669785
1603693639
1603737743
1603769482
1603788197
1603821826
1603945229
1604065530
1604090603
1604140051
1604141404
1604149724
1604179587
1604244776
1604276526
1604280558
1604287814
1604289279
1604545654
1604616424
1604661046
1604675328
1604719179
1604722313
1604778094
1604949478
1604997114
1605126698
1605331414
1605415149
1605705419
1605810755
1605833867
1605849515
1605996523
1606050617
1606874257
1607149920
1607475737
1607642865
1608040815
1608545199
1608646745
1608818446
1609042811
1609292776
1609406071
1609408830
1609939244
1609997160
