730008689
730076406
731031945
730097418
731055086
730121547
730132955
730136139
730144130
731107960
730195088
731134609
731169847
731188765
730265992
730266095
731201666
730278644
730299156
730323227
731249813
731255238
731267917
730407996
730410985
731553920
730424238
731566839
730433968
730467665
731646555
730533692
730555405
730559430
730566495
730572781
730611988
730618688
730620253
731817832
731823202
730637771
731844977
730670648
731875791
731878996
731884841
730690650
730699104
732008513
732019345
730731163
732036654
730759047
732119901
1600011692
1600027189
1600029094
1600032745
1600043213
1600049881
1600060257
1600074298
1600090517
1600090777
1600094687
1600119171
1600127281
1600149099
1600153356
1600170841
1600188330
1600191324
1600192133
1600193834
1600195591
1600204141
1600205888
1600205845
1600213076
1600228616
1600228817
1600234465
1600271331
1600280478
1600281760
1600282358
1600286359
1600290872
1600298202
1600301319
1600302523
1600312367
1600314989
1600331445
1600346574
1600352032
1600353184
1600359193
1600368086
1600370595
1600372009
1600389164
1600394227
1600397808
1600400227
1600403477
1600412272
1600413430
1600422198
1600431029
1600431110
1600436479
1600438410
1600446855
1600455026
1600457408
1600459674
1600468095
1600473152
1600478533
1600516638
1600518340
1600528659
1600537293
1600544714
1600545100
1600556349
1600562402
1600566429
1600575953
1600588067
1600588624
1600591878
1600597111
1600605552
1600610341
1600612774
1600616700
1600624117
1600630003
1600639095
1600642549
1600645209
1600650690
1600666427
1600672053
1600675329
1600675989
1600680207
1600682239
1600694569
1600709302
1600709630
1600711225
1600712752
1600724899
1600728510
1600734716
1600735130
1600746164
1600748332
1600753787
1600755750
1600766309
1600773480
1600777052
1600802356
1600816592
1600820176
1600820353
1600824421
1600826900
1600827516
1600837337
1600837753
1600838029
1600838628
1600839985
1600840310
1600851292
1600852920
1600868169
1600870924
1600874626
1600878410
1600897046
1600898700
1600900059
1600904415
1600907321
1600911021
1600935121
1600936351
1600941465
1600955547
1600955754
1600957579
1600957890
1600968262
1600975397
1600978976
1600981670
1601001756
1601006657
1601013816
1601015641
1601016437
1601017666
1601019165
1601024471
1601030567
1601044791
1601046214
1601047414
1601048858
1601064369
1601065918
1601067634
1601071775
1601073928
1601079588
1601086205
1601087459
1601092062
1601103706
1601107535
1601114576
1601116936
1601132069
1601140628
1601154337
1601155766
1601161331
1601161968
1601163695
1601177857
1601196112
1601212348
1601213814
1601221976
1601225479
1601242197
1601246701
1601268976
1601274622
1601277468
1601278166
1601283912
1601302220
1601305668
1601309350
1601310852
1601314160
1601320210
1601332498
1601332847
1601333552
1601337583
1601344960
1601356609
1601360331
1601368596
1601373061
1601373973
1601377615
1601381535
1601381617
1601382713
1601388556
1601390847
1601396449
1601407865
1601409647
1601411273
1601416355
1601428135
1601428458
1601437523
1601438828
1601452543
1601461015
1601461992
1601481695
1601497272
1601501485
1601506749
1601509853
1601520279
1601523781
1601538584
1601539313
1601540720
1601541091
1601545704
1601559547
1601565121
1601571786
1601585118
1601604491
1601614316
1601621490
1601629463
1601636005
1601639263
1601644150
1601648643
1601656291
1601657987
1601658230
1601663540
1601665810
1601672924
1601677236
1601679029
1601679444
1601700587
1601700769
1601709910
1601712416
1601722090
1601725318
1601726133
1601727531
1601728887
1600011692
1600029094
1600043213
1600074298
1600090777
1603066268
1603080023
1603083465
1603092273
1603096705
1603097107
1603115094
1603115790
1603117192
1603141833
1603144599
1603147261
1603150273
1603155493
1603164351
1603168592
1603189330
1603194464
1603196214
1603197180
1603202885
1603204147
1603210931
1603219612
1603224949
1603228342
1603238735
1603243644
1603257761
1603259642
1603267589
1603275302
1603277104
1603278154
1603286139
1603289325
1603300853
1603302163
1603306405
1603316536
1603322589
1603324216
1603325754
1603328717
1603345385
1603352888
1603354603
1603365897
1603366475
1603367117
1603371341
1603382230
1603382421
1603389934
1603394100
1603404947
1603412717
1603417498
1603437818
1603438922
1603444249
1603449775
1603453998
1603459327
1603466082
1603466441
1603481384
1603482529
1603487055
1603490217
1603495237
1603506984
1603507715
1603512073
1603515554
1603523737
1603535712
1603539585
1603558039
1603571200
1603602477
1603612674
1603613314
1603614439
1603616102
1603620366
1603622257
1603630007
1603674598
1603684585
1603697806
1603703887
1603705980
1603710584
1603720195
1603720706
1603722611
1603728308
1603731813
1603735533
1603736031
1603737491
1603737866
1603740209
1603748355
1603749818
1603750109
1603755824
1603757668
1603771716
1603773331
1603781126
1603781077
1603787333
1603788725
1603794098
1603844471
1603870826
1603889488
1603896740
1603898762
1603900451
1603908223
1603916821
1603918662
1603920710
1603921738
1603935545
1603943063
1603951409
1603958008
1603958192
1603978590
1603983030
1603984133
1603997985
1604026148
1604026824
1604028748
1604028746
1604041000
1604046577
1604047984
1604052979
1604056069
1604056986
1604067938
1604077036
1604077908
1604080559
1604085206
1604091704
1604096801
1604108178
1604118322
1604119129
1604129169
1604146755
1604158597
1604176655
1604187391
1604196263
1604197407
1604199300
1604219872
1604224848
1604226609
1604228863
1604229817
1604237793
1604246950
1604247091
1604247916
1604250972
1604278144
1604279604
1604293976
1604300528
1604316625
1604318748
1604320815
1604332281
1604347294
1604352304
1604357696
1604361739
1604362846
1604371111
1604372269
1604452226
1604464849
1604467777
1604469575
1604470061
1604470297
1604474648
1604477062
1604480306
1604484144
1604487858
1604492474
1604494518
1604495315
1604500377
1604508792
1604512796
1604520555
1604527876
1604535869
1604540680
1604543882
1604559667
1604566117
1604569229
1604578940
1604579737
1604585398
1604587875
1604597132
1604600545
1604610064
1604611196
1604614987
1604619748
1604644914
1604646856
1604650427
1604658854
1604675025
1604675792
1604681712
1604687447
1604700598
1604712922
1604713438
1604714431
1604738483
1604744583
1604761125
1604763290
1604766929
1604768917
1604777223
1604777620
1604782529
1604790300
1604827888
1604832057
1604833464
1604836821
1604837194
1604840346
1604848788
1604853870
1604860252
1604875574
1604880939
1604886069
1604886089
1604893554
1604894272
1604896403
1604897439
1604910192
1604913910
1604925743
1604946293
1604952303
1604958946
1604961500
1604970318
1604984918
1604998257
1605003329
1605006414
1605013785
1605018340
1605024401
1605042342
1605056869
1605056892
1605061835
1605069793
1605073753
1605078997
1605080272
1605080679
1605084831
1605104623
1605105248
1605110770
1605114964
1605116571
1605120427
1605122127
1605124948
1605126755
1605127727
1605134931
1605138911
1605151479
1605154840
1605158219
1605159250
1605162615
1605165140
1605176028
1605176815
1605202655
1605220587
1605222093
1605265421
1605274690
1605315908
1605318847
1605322806
1605323636
1605328553
1605329864
1605336315
1605346295
1605362161
1605367275
1605370911
1605384417
1605390573
1605399862
1605401165
1605451648
1605477287
1605497469
1605535666
1605547406
1605566205
1605612774
1605635086
1605651821
1605657031
1605658964
1605687576
1605710137
1605714776
1605733592
1605762152
1605771208
1605775630
1605853871
1605904571
1605911340
1605957584
1605979152
1605991642
1606017870
1606049355
1606079409
1606119985
1606138832
1606156435
1606244633
1606288324
1606328574
1606350820
1606381164
1606425165
1606429543
1606506952
1606519124
1606538013
1606580766
1606583645
1606588799
1606596040
1606617753
1606663987
1606685506
1606747536
1606759484
1606779435
1606797084
1606822848
1606889956
1606902121
1606913140
1606921111
1606988635
1606991414
1607017904
1607028441
1607049003
1607086725
1607110339
1607113797
1607119626
1607130357
1607138116
1607176873
1607179204
1607218497
1607286936
1607332965
1607362052
1607410884
1607419016
1607439858
1607456300
1607461794
1607479427
1607498832
1607519135
1607558588
1607597245
1607698888
1607733010
1607734131
1607758728
1607764453
1607765084
1607797099
1607853637
1607871946
1607895224
1607897654
1607989632
1607990026
1608002231
1608045650
1608052777
1608088377
1608096360
1608097477
1608139496
1608191217
1608284993
1608309145
1608351034
1608359092
1608359213
1608377860
1608421919
1608486448
1608532604
1608576580
1608577288
1608578264
1608623408
1608646693
1608651415
1608657308
1608669038
1608721644
1608721692
1608732758
1608742936
1608750503
1608750689
1608758200
1608796511
1608867881
1608867347
1608878304
1608889128
1608893134
1608948320
1608970780
1609007252
1609022279
1609060344
1609073348
1609074133
1609107508
1609126372
1609134342
1609163686
1609165638
1609298505
1609304836
1609319290
1609338851
1609350341
1609365931
1609372484
1609383171
1609386073
1609393630
1609416028
1609451943
1609486903
1609500576
1609506616
1609551438
1609561856
1609562103
1609650528
1609676687
1609735501
1609752034
1609754123
1609768082
1609776582
1609781340
1609784463
1609816005
1609862301
1609881502
1609951756
1609987459
