730032171
730054603
730032171
730054603
731020445
731040888
730106082
731055722
731085231
730167319
731114022
730183898
731129021
730200058
730229840
730259374
730287532
731241571
730325346
730340805
730414462
730422382
731584298
730453007
730478538
730509767
730518212
731701861
731721864
730553165
731745369
731760014
730593923
731802256
731925318
731929917
731931235
732009649
730726340
730727191
732067219
1600219881
1600239732
1600286357
1600344261
1600390754
1600456504
1600472821
1600543021
1600624015
1600632096
1600678377
1600714326
1600856747
1600924610
1600985623
1600986084
1601052969
1601068989
1601144739
1601282147
1601346133
1601423901
1601476366
1601515892
1601578275
1601582892
1601584847
1601593686
1601611290
1601664439
1601671248
1601691821
1603105474
1603185441
1603243968
1603331458
1603422534
1603513420
1603566345
1603599261
1603701897
1603761817
1603776278
1603782536
1603932869
1603975765
1604007355
1604061157
1604084343
1604126873
1604159547
1604162093
1604175999
1604196986
1604317244
1604421157
1604533758
1604548187
1604574006
1604665116
1604705450
1604962298
1604977955
1605062273
1605329647
1606165153
1606616469
1608472455
