710001080
710028044
710031488
710042648
710053201
710065014
710101481
710123624
710123742
710149311
710154522
710196493
710209665
710217146
710232267
710245868
710251684
710258375
710315978
710326158
710338575
710338664
710383085
710415124
710466506
710468545
710470511
710487017
710495636
710495171
710498272
710521768
710525384
710525536
710525898
710527170
710542848
710569284
710584569
710590118
710629198
710634216
710635859
710643515
710644959
710650667
710675151
710693716
710721043
710744894
710779282
710800055
710815770
710837747
710849362
710870635
710888777
710889731
710924602
710942290
710943995
710986432
711030321
711036025
711040634
711045365
711059829
711067492
711088983
711123918
711126591
711128553
711129202
711130325
711147306
711154676
711165525
711168971
711180377
711186857
711203878
711205520
711235229
711238036
711250713
711254933
711280571
711283973
711284940
711298352
711298350
711318782
711319521
711328439
711349406
711350395
711366303
711383720
711391293
711392913
711404437
711422125
711434613
711440915
711443184
711449461
711458179
711462860
711465005
711467553
711475061
711481227
711492558
711525634
711534177
711541750
711542290
711575781
711581929
711592489
711604135
711608216
711612736
711614299
711653083
711658611
711677382
711709871
711759182
711772328
711785253
711791377
711793580
711842482
711852699
711855993
711871779
711886449
711894079
711911913
711923737
711930674
711959565
711964576
711975470
711984596
711998959
712003575
712024905
712029030
712042033
712061422
712078201
712079055
712083780
712089916
712092664
712110211
712116638
712158971
712166889
712170713
712174247
712177432
712186368
712188086
712201604
712223074
712243715
712258472
712274010
712274475
712278403
712287221
712287902
712329632
712332126
712362303
712369931
712380004
712379912
712386986
712421664
712433194
712445839
712484375
712499546
712522154
712541107
712553517
712567958
712601473
712624608
712625581
712629079
712632933
712639975
712640014
712643672
712648474
712653108
712666591
712671036
712708845
712746901
712755272
712772544
712783694
712803303
712805062
712807203
712860658
712886298
712899107
712899446
712910552
712936208
712951235
712957656
712964951
712986868
713016255
713018050
713021830
713062720
713080377
713108313
713113055
713148143
713177799
713198239
713240076
713247906
713256792
713259386
713265035
713282425
713282537
713297146
713314193
713328002
713375456
713412243
713413979
713425044
713430203
713436099
713462150
713476289
713481673
713482871
713502519
713503290
713514351
713516127
713516391
713519850
713530772
