1600281399
1600356493
1600878465
1601069271
1601419688
1601586244
1603127332
1603449480
1603560553
1603613585
1603801317
1603838651
1603913354
1604245749
1604464330
1604821246
1605018103
1605131031
1605578724
1605896028
1606620424
1606675395
1606871712
1607049402
1607095215
1607247930
1607430429
1607446408
1607622572
1607769466
1607813549
1608371221
1608435967
1608604396
1608675419
1609022961
1609267616
1609630168
1609721019
