790000561
790000970
790001583
790001811
790005630
790006112
790008971
790010116
790012218
790012129
790012807
790013160
790014966
790014924
790015129
790015813
790017663
790019605
790020639
790022650
790023628
790032665
790032684
790040149
790044484
790045818
790045943
790049376
790051079
790052432
790053182
790053377
790058029
790058720
790060102
790062375
790063695
790065538
790067589
790068990
790070773
790070898
1320002030
790070898
790000561
790000970
790001583
790001811
790005630
790006112
790008585
790008971
790010116
790012129
790012218
790012807
790013160
790014924
790014966
790015129
790015813
790017663
790019605
790020639
790022650
790023628
790032684
790032665
790040149
790044484
790045818
790045943
790049376
790051079
790052432
790053182
790053377
790058029
790058720
790060102
790062375
790063695
790065538
790065538
790067589
790068990
790070773
790070898
790072674
790073561
790074320
790074996
790075294
790077074
790079551
790079902
790080943
790084630
790085459
790086409
790086990
790088326
790088326
790090055
790090492
790090546
790091320
790093997
790095572
790096564
790097207
790099466
790100228
790100751
790103646
790104119
790104987
790105314
790106025
790106888
790108058
