960030119
960037972
960129946
960470657
960518464
960580583
960621594
960695019
960767621
960793476
960794667
960853833
960856055
960874558
960940754
960948833
960991833
961032381
961150600
961176416
961436774
961460800
961464567
961514607
961548924
961563502
961618085
961794545
961830372
961944629
962029143
962091885
962133336
962134245
962140535
962143059
962358819
962414377
962414472
962420388
962479841
962549544
962562741
962567986
962575728
962580954
962628476
962708251
962736277
962753210
962761682
962776207
