800075777
800096558
800157992
800075777
800096558
800157992
800193549
800204391
800224187
800227762
800451487
800626878
800731527
800940472
801121161
801144518
801193453
801335493
801429241
801539012
801554823
801575475
801670017
801685529
801792512
