950007987
950023445
950024321
950024959
950033980
950042977
950044183
950046509
950060426
950063417
950063431
950064839
950086219
950107246
950127017
950130657
950132880
950135339
950139247
950181585
950188398
950191987
950192821
950195219
950195767
950205038
950208580
950218724
950219646
950223174
950225591
950227040
950234842
950246136
950250699
950254981
950265703
950266116
950283890
950294893
950300010
950321184
950329361
950331477
950349275
950363059
950385880
950391900
950407319
950433843
950434698
950441381
950451477
950467656
950469095
950471844
950471671
950472076
950472615
950488912
950491296
