1600002495
1600004289
730060971
730060971
730226755
730710112
1600004289
1600012141
1600012210
1600012249
1600016690
1600020191
1600027827
1600031771
1600041685
1600045720
1600048040
1600067175
1600070402
1600071414
1600071916
1600073937
1600087050
1600089295
1600089869
1600096636
1600106231
1600111953
1600114207
1600116495
1600116626
1600125363
1600126012
1600130406
1600131226
1600132342
1600138122
1600145729
1600150556
1600151229
1600153582
1600160333
1600163471
1600164309
1600165930
1600167993
1600171531
1600179833
1600187599
1600188692
1600203287
1600212273
1600216617
1600219247
1600224294
1600224723
1600226419
1600236409
1600240818
1600244920
1600247756
1600249634
1600255500
1600260978
1600266479
1600279602
1600280706
1600281226
1600283971
1600286327
1600290818
1600315380
1600320993
1600321636
1600327950
1600341646
1600343691
1600343887
1600344230
1600345381
1600348148
1600354231
1600356466
1600358968
1600366133
1600378016
1600387366
1600391563
1600395668
1600406688
1600406951
1600407210
1600411036
1600412043
1600417201
1600421265
1600421895
1600424350
1600427485
1600428369
1600429626
1600440042
1600441885
1600455650
1600455853
1600459872
1600467827
1600470096
1600475093
1600475624
1600476746
1600481825
1600489102
1600489966
1600490275
1600494855
1600496840
1600500455
1600507763
1600509769
1600510875
1600516882
1600519150
1600522628
1600523350
1600533363
1600534184
1600537744
1600559989
1600568791
1600571098
1600577617
1600579680
1600589748
1600591164
1600591163
1600595906
1600596208
1600598227
1600606938
1600608349
1600617083
1600617808
1600621616
1600624454
1600630619
1600633476
1600637275
1600639241
1600645616
1600652908
1600655584
1600657423
1600660343
1600664888
1600668419
1600669199
1600671463
1600671843
1600672885
1600676922
1600678163
1600682789
1600683244
1600689541
1600694572
1600705535
1600709149
1600721774
1600723981
1600727519
1600729659
1600736414
1600759564
1600766386
1600767618
1600772694
1600773663
1600776919
1600781902
1600785502
1600786006
1600788063
1600788853
1600800128
1600806622
1600820074
1600824600
1600832124
1600834981
1600838631
1600838694
1600841732
1600844691
1600847117
1600850212
1600860427
1600865991
1600871008
1600872293
1600874093
1600876575
1600877552
1600879935
1600884637
1600892176
1600891694
1600898350
1600904229
1600905175
1600908815
1600914434
1600921497
1600929921
1600931224
1600934867
1600942266
1600944594
1600955181
1600960814
1600964729
1600968916
1600984661
1600985959
1600990483
1600995606
1601000320
1601005333
1601007633
1601009880
1601010156
1601011200
1601015192
1601015840
1601021727
1601022743
1601027578
1601029868
1601034715
1601035618
1601038493
1601038490
1601040367
1601041032
1601046725
1601049929
1601055602
1601056567
1601057497
1601068488
1601070473
1601072859
1601072762
1601074707
1601075145
1601077123
1601088611
1601089252
1601090552
1601091336
1601100100
1601112240
1601112719
1601118610
1601126884
1601132474
1601132738
1601133588
1601134806
1601136753
1601138383
1601144263
1601145191
1601153365
1601159158
1601167512
1601171092
1601172946
1601177253
1601178826
1601179395
1601183497
1601185201
1601190196
1601194463
1601195411
1601195953
1601197284
1601198241
1601199390
1601204335
1601207986
1601211345
1601219581
1601220024
1601228779
1601229322
1601233211
1601236186
1601236476
1601239205
1601241424
1601242152
1601243755
1601243876
1601245767
1601247917
1601251310
1601259531
1601263444
1601265992
1601275975
1601278838
1601280394
1601281558
1601283923
1601286495
1601291485
1601295376
1601305387
1601306968
1601323137
1601328702
1601328686
1601330603
1601334589
1601335389
1601337630
1601338278
1601342671
1601343405
1601345786
1601351515
1601352416
1601353388
1601359598
1601360554
1601364816
1601369381
1601372791
1601376104
1601376105
1601378123
1601380884
1601385310
1601387049
1601388229
1601392061
1601399143
1601400138
1601402572
1601402907
1601414483
1601414855
1601435925
1601449628
1601453962
1601474297
1601475535
1601477897
1601489327
1601495802
1601498697
1601499129
1601505221
1601507292
1601507714
1601508735
1601509624
1601509576
1601515532
1601526836
1601532682
1601533304
1601546894
1601547021
1601559504
1601563742
1601571045
1601575002
1601577363
1601584767
1601584858
1601592774
1601596865
1601599334
1601600732
1601601183
1601610463
1601613428
1601617177
1601619693
1601622527
1601622902
1601631111
1601633591
1601633665
1601634748
1601637584
1601638573
1601638980
1601640559
1601647688
1601648459
1601653937
1601654879
1601655763
1601664320
1601670686
1601671243
1601671536
1601676217
1601681021
1601685527
1601694620
1601708084
1601708336
1601709569
1601716875
1601717900
1601722578
1601725499
1601730958
1601731594
1601733049
1601738062
1601748927
1600067175
1603064576
1603068555
1603073855
1603074479
1603074718
1603078432
1603086704
1603090432
1603093494
1603098490
1603098286
1603100409
1603109154
1603114642
1603120866
1603124250
1603126016
1603129762
1603131855
1603134468
1603140663
1603141764
1603142833
1603146202
1603146478
1603153008
1603156683
1603163099
1603163496
1603163829
1603167589
1603169727
1603172065
1603175352
1603181032
1603186426
1603189414
1603191164
1603193035
1603194169
1603195537
1603200014
1603203864
1603209419
1603221899
1603225651
1603226476
1603230778
1603233753
1603234737
1603235307
1603239883
1603247216
1603251371
1603253932
1603258225
1603260187
1603261209
1603265876
1603268799
1603269970
1603272484
1603277936
1603282110
1603282462
1603285713
1603289814
1603297496
1603303894
1603303923
1603304593
1603309015
1603310344
1603324745
1603354782
1603367644
1603371876
1603381207
1603382914
1603387392
1603389645
1603393759
1603393796
1603399339
1603402278
1603407011
1603408780
1603417593
1603417850
1603426600
1603429277
1603431398
1603433077
1603435457
1603439540
1603442419
1603442591
1603445862
1603447158
1603448755
1603451978
1603454332
1603456517
1603458989
1603459582
1603461167
1603463057
1603463616
1603469973
1603478698
1603480533
1603489308
1603500153
1603502492
1603508489
1603513183
1603513439
1603514621
1603515783
1603518223
1603524918
1603532338
1603532556
1603538275
1603539925
1603543862
1603547261
1603549862
1603553479
1603557599
1603559228
1603568789
1603568791
1603570505
1603575583
1603575850
1603578917
1603582665
1603588261
1603588946
1603590267
1603596458
1603596333
1603597732
1603602601
1603605281
1603607694
1603611330
1603611672
1603611568
1603615716
1603630987
1603632004
1603635968
1603636948
1603642058
1603650476
1603653911
1603656637
1603658795
1603660171
1603660401
1603663014
1603685957
1603692188
1603698653
1603700572
1603701240
1603708650
1603713190
1603715051
1603716201
1603719381
1603719722
1603744429
1603757544
1603766419
1603769977
1603779666
1603782295
1603783966
1603788177
1603791431
1603792932
1603817704
1603889234
1603902630
1603903987
1603914890
1603915795
1603917676
1603925312
1603930442
1603935953
1603941393
1603951288
1603961936
1603963943
1603968863
1603976870
1603990615
1603990464
1604000277
1604006234
1604007771
1604008567
1604009522
1604019219
1604018492
1604024964
1604033599
1604034916
1604043781
1604047942
1604048687
1604049351
1604057274
1604058027
1604058648
1604060629
1604072930
1604075610
1604075976
1604085190
1604088064
1604092224
1604094069
1604094744
1604094801
1604098569
1604111918
1604114182
1604116079
1604117641
1604121067
1604121191
1604125257
1604132497
1604135318
1604137569
1604138061
1604139139
1604145003
1604155998
1604155978
1604162006
1604175543
1604178377
1604189197
1604189451
1604195366
1604198084
1604201377
1604208063
1604218109
1604224611
1604225231
1604234915
1604242219
1604242936
1604246522
1604260241
1604260807
1604261023
1604262883
1604275585
1604275753
1604280616
1604281045
1604284461
1604291937
1604293774
1604295524
1604296235
1604301668
1604311002
1604315040
1604316301
1604321194
1604323120
1604323708
1604326685
1604335890
1604345721
1604346422
1604346941
1604349017
1604350840
1604351135
1604356216
1604358592
1604359394
1604363501
1604364511
1604364829
1604367283
1604375579
1604380176
1604410822
1604458863
1604462382
1604463600
1604465739
1604478384
1604480919
1604482316
1604487645
1604494201
1604496193
1604499162
1604503215
1604520663
1604527316
1604527493
1604535932
1604537935
1604538731
1604539253
1604543465
1604544862
1604545302
1604551417
1604552089
1604556425
1604556732
1604563237
1604571931
1604590552
1604590862
1604593047
1604594861
1604598734
1604599841
1604601023
1604601347
1604601679
1604606075
1604606340
1604608600
1604618167
1604619324
1604620046
1604623782
1604628210
1604629435
1604632904
1604634325
1604634839
1604634942
1604641323
1604643621
1604650559
1604651964
1604656411
1604659336
1604664881
1604670545
1604670645
1604681330
1604684592
1604688469
1604689231
1604689203
1604689902
1604690661
1604695680
1604697396
1604699625
1604705282
1604707022
1604708146
1604718089
1604718798
1604721206
1604723909
1604727262
1604728683
1604729380
1604729388
1604730516
1604732919
1604738215
1604749092
1604753691
1604754706
1604755391
1604758783
1604762764
1604770923
1604773768
1604779022
1604788946
1604796033
1604797839
1604804570
1604810437
1604811663
1604817158
1604820973
1604850475
1604854062
1604855769
1604857852
1604860877
1604862295
1604862332
1604865513
1604865842
1604866565
1604870427
1604872918
1604874899
1604876189
1604882595
1604884206
1604922481
1604925626
1604938012
1604943569
1604944774
1604945029
1604950050
1604953503
1604964167
1604966669
1604969170
1604973356
1604979291
1604986385
1604986820
1604989737
1605001607
1605002425
1605007944
1605008341
1605008699
1605013297
1605014147
1605021221
1605026548
1605026336
1605033516
1605038390
1605039827
1605043058
1605047307
1605049196
1605049771
1605052679
1605054237
1605056238
1605059772
1605060818
1605068555
1605069345
1605070227
1605070716
1605077552
1605080442
1605082470
1605088451
1605089969
1605101570
1605102429
1605104644
1605105260
1605106736
1605114266
1605117281
1605119962
1605122261
1605126150
1605137326
1605144827
1605146633
1605150623
1605150623
1605152910
1605155899
1605156514
1605161844
1605165195
1605165537
1605166967
1605169085
1605172217
1605174268
1605181650
1605183863
1605265136
1605306238
1605309266
1605317611
1605317910
1605329664
1605342892
1605364547
1605408518
1605426519
1605456550
1605534494
1605560031
1605564735
1605570439
1605586242
1605588398
1605673870
1605717664
1605827967
1605832968
1605916920
1605961577
1606013309
1606014430
1606029852
1606086595
1606126985
1606212800
1606240790
1606325944
1606331029
1606358727
1606376644
1606418058
1606418401
1606497900
1606508067
1606565022
1606613719
1606662782
1606693482
1606721170
1606791224
1606813201
1607041476
1607162036
1607249588
1607264382
1607294543
1607310824
1607385473
1607395841
1607424576
1607438589
1607454631
1607457364
1607490447
1607553534
1607619232
1607667326
1607783428
1607891098
1607913845
1607926937
1608063864
1608088023
1608105332
1608155054
1608285002
1608310603
1608313430
1608339121
1608371968
1608396033
1608412577
1608451309
1608488527
1608572388
1608597116
1608624601
1608642931
1608694645
1608809006
1608844199
1608925727
1608933369
1608967621
1609010246
1609136988
1609258359
1609376845
1609385080
1609390102
1609431815
1609463236
1609495034
1609530335
1609654861
1609746100
1609879963
1609927928
1609933572
1609998362
