730000095
730002203
730004474
730009277
730010815
730012430
730021406
730038761
730043958
730047015
730000095
730002203
730004474
730038761
730043958
730047015
730061951
730062124
730062528
730075368
730075412
730078413
730087451
731023540
731031512
730095000
730095575
730099077
731037043
730101490
730104848
731047718
730109029
731057493
731068800
731069589
730138208
730148465
730151017
730163847
731102421
731108828
731113835
731114950
730182555
731117935
731120672
730187873
731123123
731125511
731131742
731139871
730211904
730211144
731152975
731153840
730224631
731160874
730231634
730233934
730236174
731169283
730238018
731175436
731176691
731182009
730252113
730254286
731192874
731193541
730268252
730268724
731201656
730274790
731206998
730279792
730282561
731213827
731214846
730288086
730292399
730301586
731245803
731249382
730330410
731257605
730335728
731265641
731266029
730401258
731539950
730401835
730404507
731545015
731550306
731552493
730415579
730420147
731559451
730421103
730431324
731572612
730436679
731576436
731576494
730442598
730442764
730448876
730449374
730451112
730455687
730461379
731605020
730465116
730466521
730466727
731609229
730469588
730475849
731625481
730485984
731650717
730511360
731657758
730516095
731658890
731659650
730517624
731662642
731676289
731689820
731696526
731696742
731699873
731704642
731707605
731723270
731723653
730534568
731727138
731727265
731727253
731739449
730548166
730548360
730550193
730550401
731748870
730558308
730565520
730566342
731763628
731766696
730581321
731775858
730583943
731779824
731780103
731787562
730595083
730598029
731807697
731807871
730615781
731811820
731812080
730617395
731822055
730628305
730632598
731831649
730639035
730639243
731845334
730652610
731851211
730656464
731852996
730657568
731853973
731855072
730665980
731869122
731869652
730676313
731874177
730680659
730692001
731889904
731889874
730696659
731901742
731904564
731911704
731913282
731921050
731921233
731923845
731939978
731945716
731951787
731968993
731971390
731972081
731975751
731981644
731983578
731989299
731995307
731999783
730707502
732007469
730712843
732011122
730718402
732015942
732017354
730723052
732021762
730727045
732028116
732032632
730737405
730738946
730741562
730748782
730755031
732049657
730756112
730757294
730766721
730767121
732063981
732064533
732066508
732068953
732069667
732070523
732072665
732079070
732079965
732085375
732085320
732087771
730795832
730797793
732092756
732093515
730803131
730814145
730814130
730818004
730820994
732123270
730829573
732128358
730833626
730837435
1600009217
1600009591
1600011673
1600017425
1600020512
1600020709
1600024108
1600027438
1600027893
1600029157
1600030278
1600031528
1600034468
1600038550
1600038550
1600045285
1600046130
1600047974
1600051924
1600051924
1600057559
1600057777
1600058216
1600058253
1600058627
1600060034
1600063016
1600064621
1600064808
1600066154
1600066094
1600075365
1600077786
1600077997
1600080598
1600082203
1600082367
1600082811
1600085811
1600086634
1600089116
1600091210
1600093525
1600096488
1600098151
1600104439
1600111926
1600112863
1600118830
1600120194
1600122943
1600124663
1600125252
1600126131
1600129215
1600130215
1600131249
1600136880
1600137546
1600142868
1600148878
1600150537
1600151508
1600153463
1600156524
1600169271
1600176872
1600177749
1600178918
1600179846
1600183795
1600185556
1600188115
1600197191
1600202846
1600206031
1600210455
1600214589
1600215635
1600220041
1600220157
1600221070
1600222030
1600222640
1600227977
1600229112
1600229112
1600230508
1600231394
1600232422
1600241405
1600244251
1600246797
1600251143
1600253295
1600255217
1600257385
1600259267
1600260470
1600261296
1600264998
1600265782
1600266721
1600268420
1600269296
1600275031
1600277478
1600278668
1600288828
1600289082
1600292321
1600295200
1600295403
1600297782
1600297887
1600297962
1600301038
1600303531
1600305998
1600312470
1600316616
1600317477
1600321158
1600321648
1600324658
1600325593
1600328010
1600335209
1600343832
1600348266
1600348563
1600349262
1600349576
1600359996
1600360140
1600361550
1600363726
1600364426
1600365972
1600368317
1600368616
1600369760
1600376716
1600381136
1600383369
1600391665
1600397968
1600401156
1600407807
1600411627
1600414406
1600417043
1600423400
1600425438
1600427452
1600427812
1600428712
1600430710
1600431402
1600432146
1600434996
1600435749
1600438597
1600439726
1600449617
1600449646
1600451031
1600454203
1600455727
1600457930
1600465510
1600468469
1600469668
1600471896
1600478718
1600478872
1600479684
1600479717
1600482122
1600483701
1600483984
1600484039
1600494680
1600495608
1600496194
1600498656
1600499889
1600500231
1600502033
1600502548
1600503090
1600506403
1600506479
1600507295
1600508068
1600511957
1600513018
1600513093
1600519842
1600521147
1600521312
1600522093
1600526474
1600527057
1600528904
1600529537
1600531465
1600540057
1600542224
1600548189
1600548588
1600550002
1600552033
1600554328
1600557800
1600558972
1600560534
1600563620
1600565514
1600571421
1600572630
1600583039
1600584587
1600586397
1600587308
1600587242
1600589234
1600589852
1600593173
1600594275
1600594729
1600601034
1600601059
1600602422
1600610302
1600611267
1600611934
1600616825
1600622162
1600622266
1600623121
1600632269
1600633089
1600634115
1600639401
1600644550
1600645037
1600645997
1600647824
1600650422
1600652628
1600652831
1600656164
1600657157
1600663234
1600665905
1600667598
1600671241
1600673162
1600673285
1600673288
1600674342
1600679669
1600682115
1600685204
1600685361
1600685673
1600687740
1600689065
1600693889
1600694961
1600695457
1600696878
1600702079
1600702206
1600704283
1600705143
1600707287
1600711052
1600712274
1600713660
1600713934
1600714848
1600715321
1600717827
1600721846
1600725498
1600728492
1600733451
1600734029
1600734519
1600734791
1600740789
1600741615
1600744086
1600747387
1600747660
1600747982
1600750022
1600751198
1600758711
1600760192
1600760332
1600769152
1600769992
1600777554
1600780487
1600783376
1600786688
1600788159
1600788437
1600793101
1600800780
1600800865
1600806795
1600808646
1600808859
1600815415
1600815483
1600816686
1600816760
1600819862
1600821683
1600825547
1600828901
1600829672
1600830999
1600831137
1600831265
1600833079
1600836348
1600837905
1600837882
1600839847
1600841547
1600851640
1600852052
1600853966
1600855986
1600856273
1600858738
1600860530
1600860917
1600862317
1600868437
1600871409
1600873903
1600874122
1600874916
1600875419
1600878628
1600885367
1600885692
1600885799
1600887000
1600888100
1600892642
1600893754
1600897233
1600898742
1600898864
1600899608
1600899863
1600899928
1600900916
1600903979
1600904389
1600908145
1600914378
1600915160
1600916394
1600924702
1600925746
1600929322
1600929862
1600935605
1600936319
1600937070
1600937887
1600940535
1600942470
1600943990
1600944510
1600947201
1600951056
1600951545
1600955494
1600961063
1600962779
1600967800
1600969443
1600975855
1600979638
1600980023
1600980367
1600981493
1600995168
1600996509
1600998476
1600999700
1601000225
1601000526
1601001226
1601002757
1601008082
1601008424
1601010172
1601012559
1601013540
1601013838
1601013996
1601016905
1601017107
1601020425
1601025810
1601026173
1601033497
1601035000
1601035880
1601035950
1601041147
1601042404
1601044289
1601046523
1601047526
1601054076
1601054464
1601055503
1601057831
1601059992
1601060477
1601061832
1601063131
1601070744
1601072277
1601072685
1601073283
1601075875
1601077238
1601077269
1601081695
1601084641
1601085612
1601095704
1601096374
1601097029
1601098756
1601099034
1601099979
1601100290
1601101916
1601102490
1601106797
1601109928
1601111679
1601112613
1601113821
1601116430
1601118424
1601119841
1601119996
1601120266
1601121126
1601121225
1601125074
1601125571
1601133496
1601134292
1601139473
1601141022
1601141862
1601142962
1601143112
1601145997
1601149982
1601151895
1601156379
1601157121
1601159850
1601160189
1601165752
1601165801
1601168430
1601171112
1601175682
1601177531
1601179291
1601179914
1601180618
1601180981
1601187799
1601193491
1601195382
1601196305
1601198007
1601198873
1601200443
1601204640
1601212630
1601215152
1601216033
1601219680
1601221301
1601222097
1601227918
1601230025
1601233878
1601236307
1601239204
1601245835
1601250578
1601257867
1601262659
1601276775
1601280080
1601282748
1601287126
1601287774
1601289601
1601290119
1601291703
1601294136
1601296716
1601298043
1601300036
1601302575
1601303063
1601304273
1601314087
1601321579
1601323975
1601325924
1601329615
1601330150
1601330648
1601337320
1601339148
1601339507
1601347519
1601348422
1601354172
1601358680
1601359506
1601368434
1601370898
1601375439
1601376700
1601377066
1601383107
1601384352
1601386270
1601391918
1601391967
1601393062
1601395340
1601396993
1601403506
1601405450
1601408559
1601412843
1601417694
1601418790
1601419697
1601419836
1601422314
1601422504
1601430180
1601430457
1601431490
1601434127
1601438666
1601441452
1601441530
1601443093
1601443395
1601444560
1601447878
1601457397
1601466266
1601468684
1601471246
1601475371
1601479559
1601480901
1601480922
1601483694
1601485437
1601487869
1601490504
1601491859
1601494730
1601497706
1601499525
1601499959
1601507246
1601509520
1601510430
1601510697
1601514345
1601518265
1601522300
1601525820
1601527383
1601530073
1601532416
1601534690
1601536587
1601536685
1601538313
1601538381
1601538795
1601546143
1601547576
1601551231
1601555444
1601556139
1601563339
1601563942
1601564997
1601565284
1601566892
1601568849
1601569873
1601570446
1601570978
1601574042
1601574114
1601575704
1601581532
1601582618
1601582741
1601587969
1601589070
1601590479
1601591102
1601597017
1601598629
1601600627
1601608325
1601609049
1601609188
1601617343
1601621467
1601622186
1601624739
1601624972
1601645360
1601645576
1601646089
1601647866
1601647992
1601648534
1601648804
1601649261
1601652373
1601653500
1601656054
1601656766
1601659873
1601661274
1601669400
1601669504
1601671800
1601671924
1601675058
1601675562
1601677330
1601684280
1601684748
1601686794
1601691087
1601691640
1601691646
1601695065
1601698003
1601698088
1601698423
1601698430
1601698542
1601699682
1601700071
1601704671
1601707248
1601708200
1601709679
1601714395
1601719988
1601720891
1601728266
1601728849
1601742497
1603066465
1603068443
1603068858
1603070682
1603077138
1603082699
1603085003
1603086098
1603088052
1603094366
1603100610
1603100956
1603100990
1603101947
1603104667
1603110303
1603110974
1603115938
1603116305
1603120631
1603120739
1603120688
1603122656
1603132650
1603134294
1603135085
1603136204
1603141542
1603142142
1603143161
1603147953
1603155257
1603160162
1603160757
1603161489
1603162163
1603162801
1603162768
1603164214
1603166965
1603167705
1603168322
1603169722
1603170721
1603173075
1603174324
1603175842
1603178602
1603183507
1603186115
1603187059
1603197635
1603198097
1603201413
1603205018
1603207809
1603212784
1603213502
1603216542
1603216673
1603217822
1603218672
1603219885
1603220338
1603222284
1603223030
1603223213
1603223721
1603227051
1603227235
1603228364
1603229800
1603232890
1603234399
1603234745
1603235303
1603236494
1603242310
1603245757
1603246912
1603247434
1603254037
1603260534
1603260826
1603268897
1603269235
1603270586
1603275974
1603275748
1603281574
1603289328
1603292865
1603293643
1603295050
1603298303
1603302042
1603308702
1603310353
1603312305
1603317194
1603321553
1603321869
1603322008
1603325893
1603336108
1603336276
1603342499
1603343591
1603347711
1603348195
1603348085
1603348938
1603352225
1603354516
1603359450
1603361913
1603362123
1603365780
1603366830
1603370331
1603373140
1603375768
1603380864
1603381601
1603382460
1603384065
1603384838
1603386940
1603389735
1603390982
1603391316
1603393391
1603394464
1603395687
1603397430
1603398422
1603399016
1603399559
1603403240
1603405965
1603407002
1603407522
1603408450
1603410124
1603409959
1603413004
1603415592
1603425601
1603426106
1603430000
1603431002
1603431742
1603439063
1603442066
1603444325
1603451870
1603453486
1603454019
1603460739
1603461880
1603462425
1603464791
1603466788
1603466612
1603469333
1603469661
1603475249
1603475403
1603480874
1603485247
1603485314
1603486725
1603487631
1603489433
1603490764
1603494804
1603498405
1603505519
1603506509
1603506974
1603523235
1603524826
1603525311
1603530446
1603534018
1603534795
1603535759
1603540065
1603540184
1603544323
1603547964
1603552761
1603556142
1603558068
1603559635
1603564134
1603566465
1603568951
1603573521
1603573877
1603574030
1603574355
1603574915
1603575036
1603576331
1603576996
1603577120
1603577520
1603578834
1603587099
1603587776
1603593597
1603594297
1603594914
1603597631
1603599470
1603609307
1603611047
1603611506
1603612511
1603613697
1603614914
1603619033
1603620171
1603624689
1603626831
1603628290
1603634540
1603639344
1603640283
1603643465
1603643887
1603648735
1603651929
1603651356
1603652472
1603657394
1603660583
1603660682
1603661518
1603661575
1603663783
1603671884
1603673524
1603673720
1603675678
1603678585
1603678420
1603680193
1603684314
1603688150
1603703296
1603705989
1603709025
1603710329
1603713253
1603715933
1603717753
1603719135
1603725581
1603725769
1603728211
1603729206
1603729723
1603733489
1603742098
1603743117
1603744302
1603748327
1603748703
1603752420
1603754981
1603759249
1603761634
1603763955
1603764002
1603765166
1603765826
1603770684
1603772896
1603773987
1603777744
1603777629
1603777913
1603778457
1603779986
1603781831
1603783092
1603787806
1603788627
1603790532
1603794921
1603795230
1603836645
1603909651
1603918620
1603919442
1603923539
1603926543
1603926886
1603928236
1603932622
1603935342
1603948028
1603949094
1603952357
1603958743
1603959170
1603962386
1603963595
1603963969
1603965743
1603970624
1603975858
1603979106
1603981381
1603981536
1603986070
1603987996
1603991921
1603993253
1603993377
1603994503
1603994533
1603995481
1604008200
1604008285
1604011043
1604011991
1604012144
1604012437
1604014407
1604014764
1604016588
1604027215
1604028406
1604029866
1604034899
1604035561
1604040233
1604041044
1604047378
1604048847
1604051777
1604055059
1604056390
1604063550
1604067217
1604067473
1604068166
1604068506
1604071064
1604081030
1604082325
1604085366
1604087690
1604091123
1604094323
1604098678
1604106742
1604107260
1604111829
1604114759
1604114894
1604117538
1604118998
1604121219
1604122554
1604123485
1604123584
1604125219
1604127034
1604136453
1604136143
1604142720
1604143032
1604143104
1604145969
1604157248
1604166605
1604170159
1604171000
1604172110
1604174764
1604176572
1604179841
1604184186
1604186157
1604187636
1604189436
1604192211
1604196680
1604197630
1604198591
1604200801
1604201957
1604202710
1604206748
1604207714
1604210741
1604212842
1604218248
1604218497
1604220609
1604222357
1604231906
1604240633
1604241469
1604246272
1604247879
1604248396
1604257080
1604258338
1604258752
1604259785
1604261709
1604263956
1604265616
1604270107
1604275005
1604280248
1604281389
1604283054
1604284498
1604284520
1604286561
1604287856
1604290928
1604297724
1604297966
1604298029
1604304846
1604305960
1604307808
1604308540
1604308678
1604309064
1604310592
1604311426
1604312844
1604319791
1604324845
1604327337
1604328004
1604332136
1604333006
1604335127
1604336665
1604337963
1604338991
1604343063
1604344252
1604345856
1604348692
1604349050
1604349552
1604349763
1604356938
1604357092
1604357520
1604361053
1604368135
1604368327
1604372170
1604464674
1604464972
1604473547
1604479367
1604489556
1604499259
1604503197
1604508170
1604508300
1604510381
1604510558
1604517321
1604524043
1604524875
1604530142
1604531849
1604533084
1604534892
1604536410
1604537363
1604539026
1604540794
1604541680
1604548760
1604550374
1604549981
1604553600
1604556536
1604558124
1604558536
1604560286
1604560684
1604562121
1604563610
1604565409
1604565972
1604569032
1604572536
1604572951
1604573050
1604573680
1604577336
1604578876
1604579307
1604583238
1604584136
1604584315
1604586828
1604587353
1604589534
1604589743
1604592389
1604593317
1604595021
1604597614
1604605023
1604605181
1604605402
1604615233
1604619961
1604620034
1604626334
1604629425
1604631937
1604634485
1604634562
1604634857
1604634861
1604636778
1604636933
1604638285
1604644364
1604644812
1604645341
1604652637
1604655433
1604656566
1604657852
1604659539
1604659819
1604662133
1604668085
1604668326
1604669967
1604673654
1604676043
1604678810
1604679060
1604682209
1604686754
1604687960
1604694115
1604694574
1604696829
1604698648
1604700244
1604701648
1604703136
1604707877
1604707937
1604708379
1604713609
1604718540
1604726337
1604726938
1604726908
1604728604
1604728954
1604733198
1604734520
1604741263
1604741860
1604743394
1604747598
1604750674
1604751151
1604751975
1604755834
1604757209
1604758862
1604760678
1604761343
1604768120
1604768719
1604770360
1604772179
1604773344
1604782198
1604786253
1604791894
1604794563
1604800787
1604801319
1604806419
1604807081
1604815200
1604817498
1604818189
1604818415
1604820238
1604823605
1604825537
1604827431
1604829080
1604837968
1604838637
1604841142
1604843727
1604844040
1604844303
1604848832
1604854437
1604855093
1604860207
1604862405
1604862443
1604863729
1604864001
1604866283
1604867431
1604868724
1604871785
1604878885
1604879548
1604878835
1604888923
1604892271
1604899953
1604902304
1604905182
1604905397
1604905663
1604908496
1604908867
1604909390
1604911633
1604912157
1604913022
1604913889
1604914096
1604914018
1604914639
1604915693
1604915948
1604916497
1604917147
1604917907
1604918238
1604921471
1604922904
1604924017
1604927737
1604928318
1604931854
1604938390
1604941947
1604943428
1604943822
1604945829
1604946923
1604950177
1604955004
1604959659
1604960511
1604965050
1604965842
1604969227
1604973674
1604974446
1604974540
1604976340
1604976494
1604977565
1604977862
1604980370
1604980743
1604981873
1604983780
1604985015
1604986639
1604988337
1604992907
1604996175
1604996231
1604997609
1605012576
1605013761
1605015174
1605015347
1605021839
1605022185
1605022846
1605031586
1605039358
1605039960
1605041483
1605043627
1605044775
1605044802
1605048140
1605049201
1605049394
1605050273
1605054336
1605054660
1605057275
1605063843
1605074096
1605074702
1605075470
1605081643
1605083463
1605086568
1605089433
1605091259
1605099776
1605100421
1605100105
1605104415
1605108337
1605110167
1605111016
1605111370
1605114597
1605115636
1605123309
1605125531
1605127590
1605128478
1605128385
1605129730
1605131776
1605133567
1605137422
1605143942
1605146748
1605149951
1605151401
1605154809
1605158167
1605159262
1605160731
1605161056
1605162571
1605163894
1605164104
1605164140
1605173010
1605179085
1605179171
1605180521
1605184673
1605185169
1605186640
1605187636
1605190986
1605191912
1605193019
1605195584
1605195934
1605210147
1605213354
1605217776
1605289729
1605305421
1605308753
1605315709
1605316760
1605319317
1605322667
1605337637
1605338265
1605342342
1605345467
1605345385
1605350613
1605354399
1605356544
1605360322
1605363202
1605368100
1605388569
1605426450
1605515924
1605615963
1605722427
1605738031
1605827074
1606019210
1606217240
1606234854
1606299547
1606318891
1606375242
1606385192
1606489796
1606575476
1606622885
1606648904
1606867485
1606890910
1606946326
1606974919
1606977460
1607038652
1607108503
1607117769
1607142131
1607159535
1607178228
1607197848
1607421243
1607446455
1607459980
1607563593
1607640277
1607640639
1607697355
1607709885
1607790891
1607888610
1608015675
1608162973
1608325439
1608326555
1608381931
1608542465
1608736115
1608753597
1608875533
1609107493
1609171232
1609227104
1609432420
1609454462
1609459764
1609468308
1609552498
1609578553
1609581050
1609612554
1609624314
1609686431
1609691035
1609717343
1609908039
1609924012
1609929928
1609959053
