960002339
960005840
960007786
960009580
960012712
960013660
960015548
960015115
960017711
960019575
960020753
960021856
960022530
960022934
960025773
960027515
960032046
960033323
960035865
960036958
960037289
960039868
960041301
960043989
960045381
960046424
960052647
960052347
960053406
960054201
960057099
960059947
960060120
960061236
960061210
960063936
960069817
960070635
960071737
960071969
960071522
960072719
960076901
960077578
960080513
960081887
960082390
960083389
960084031
960084157
960084176
960086077
960089153
960091737
960093385
960093660
960094068
960094580
960098555
960098666
960099757
960099868
960100836
960101932
960107966
960114519
960114630
960119717
960120536
960124022
960124909
960126223
960126147
960127510
960133147
960134125
960134738
960136611
960137834
960141570
960146769
960149053
960149623
960149677
960150267
960150481
960150239
960152017
960152239
960154512
960155086
960158126
960159442
960162863
960164875
960165143
960166271
960166441
960167284
960168522
960168581
960171208
960171626
960173600
960176565
960178879
960178629
960182258
960182140
960182359
960183133
960184055
960184015
960184169
960184318
960185440
960185506
960189908
960191087
960192937
960194039
960201494
960202440
960202982
960203560
960204538
960207472
960207708
960209120
960209059
960211211
960211289
960212124
960212816
960215006
960217040
960221192
960221481
960224706
960226094
960229182
960234391
960234455
960234517
960236302
960236354
960236453
960236515
960236803
960242138
960246634
960249765
960250379
960252176
960252815
960255060
960260819
960264114
960264921
960266477
960266832
960267496
960271397
960271575
960272415
960272595
960273419
960274394
960275193
960275256
960274824
960278047
960283648
960284436
960289924
960291644
960292444
960293136
960294518
960296625
960297028
960297151
960297458
960298372
960299739
960301270
960301361
960302363
960302482
960302539
960302443
960303174
960302566
960303609
960305944
960305557
960307245
960308818
960309477
960313007
960313433
960316297
960316551
960318682
960318944
960320786
960325808
960326619
960326629
960327061
960327492
960328712
960333518
960336091
960336889
960338666
960343225
960346149
960347510
960348904
960350851
960352179
960354582
960357651
960357583
960357847
960359309
960359792
960359786
960360181
960363399
960364967
960370367
960370872
960371410
960374461
960374532
960375636
960376637
960377283
960377917
960378559
960379937
960381399
960382579
960383284
960383776
960384396
960386024
960386685
960386625
960387400
960388849
960388965
960392240
960395162
960396930
960397158
960397268
960397680
960401342
960403119
960404636
960404876
960405109
960407687
960411013
960412816
960422350
960423702
960425069
960426622
960427549
960427694
960428139
960428434
960430953
960432850
960436784
960436304
960437344
960442420
960442557
960442812
960444742
960447647
960447699
960450392
960450723
960453516
960454925
960456055
960458180
960459224
960462138
960463121
960469485
960471729
960473736
960477083
960481543
960483229
960485560
960486478
960486968
960487136
960487541
960487014
960489450
960489784
960491067
960493653
960496305
960498158
960500692
960501380
960504378
960505025
960505627
960505792
960506467
960506473
960508003
960510048
960510829
960513588
960516124
960516765
960518230
960523397
960523710
960524340
960527897
960529216
960530664
960530748
960532341
960532122
960533889
960533776
960535554
960535842
960540035
960547671
960547904
960549752
960550675
960554043
960554407
960554517
960554868
960557589
960557703
960558823
960559131
960561325
960563285
960565967
960567545
960567761
960568615
960569608
960570073
960570803
960571613
960576954
960577048
960577565
960580348
960580168
960581819
960583064
960583340
960587028
960589438
960590966
960591223
960592092
960594380
960595819
960595744
960597070
960597100
960597311
960600038
960602228
960602148
960605766
960606151
960607682
960608373
960608935
960609197
960609812
960609663
960610052
960611206
960614296
960614802
960614861
960615647
960618456
960618701
960621530
960623010
960623654
960623918
960623888
960625753
960626665
960627452
960628118
960630441
960630589
960632977
960633922
960633921
960634145
960635276
960636716
960638009
960640142
960641141
960641081
960641735
960642127
960642052
960642435
960642761
960645175
960645507
960647745
960650702
960654007
960654952
960655516
960655920
960657537
960657971
960658613
960659280
960660182
960660150
960661320
960663223
960664491
960665049
960667491
960669358
960671849
960672135
960672771
960674428
960675162
960675406
960678231
960681295
960683072
960683466
960686714
960687397
960692901
960694850
960696632
960697632
960700488
960704885
960705410
960705340
960707004
960708468
960708644
960708895
960711567
960711604
960713327
960713641
960718635
960719353
960723153
960723532
960725925
960726220
960726269
960726571
960726770
960727182
960728913
960729576
960730422
960731163
960740715
960741709
960742575
960743371
960745956
960747538
960749889
960750850
960753418
960753632
960755205
960756304
960756809
960758718
960760403
960761687
960762058
960765478
960768265
960770636
960770851
960775957
960784599
960786244
960786261
960787683
960788607
960790083
960790559
960790367
960791304
960791428
960792935
960797202
960797805
960797895
960798487
960805875
960806061
960806325
960808784
960809862
960811111
960812442
960818859
960821626
960825064
960825240
960825629
960828228
960828740
960829123
960831496
960832090
960832349
960832844
960840002
960841643
960842852
960843100
960844653
960845195
960849545
960849902
960852454
960854123
960858291
960858826
960859151
960863408
960863688
960864337
960866838
960874136
960875323
960875639
960876221
960878122
960878466
960879182
960879439
960879658
960884184
960886663
960887651
960887687
960888666
960888070
960890061
960890995
960891202
960894823
960895140
960897087
960898376
960898628
960900150
960900307
960901755
960902914
960904614
960908916
960909172
960908685
960911272
960911709
960914655
960915704
960924815
960929083
960929809
960933438
960933475
960934546
960933845
960936649
960938176
960939275
960946939
960951565
960951396
960953769
960956583
960961442
960967681
960967606
960967770
960970196
960971999
960972574
960973565
960980760
960980931
960986301
960986655
960987854
960988009
960988375
960989376
960999226
960999884
961000321
961000514
961001200
961001499
961001158
961002561
961003064
961004073
961004740
961005060
961006082
961007452
961008197
961009942
961009767
961011560
961012269
961020848
961024576
961025874
961026737
961027172
961027316
961028778
961033361
961033844
961034698
961035332
961036189
961038240
961039872
961040889
961043023
961043899
961044546
961046822
961047498
961047797
961047821
961052090
961052757
961053206
961053468
961054606
961054925
961055646
961055873
961056219
961056556
961057740
961059087
961059215
961059524
961061973
961066363
961066605
961067809
961067668
961070152
961073912
961075021
961075864
961076961
961080331
961082058
961084476
961088176
961088209
961092865
961096452
961098686
961099116
961103224
961103463
961103824
961104369
961105818
961109826
961111584
961112705
961114739
961116151
961117336
961122209
961123053
961127347
961128282
961128877
961131686
961132811
961134273
961135568
961136413
961137197
961138082
961139540
961141956
961142476
961143228
961143448
961144123
961144440
961143959
961144973
961146082
961146520
961147350
961147743
961149141
961150496
961150941
961151307
961151594
961151874
961152842
961154336
961154937
961155400
961155831
961156670
961159782
961166371
961166536
961171010
961173808
961174532
961177330
961177831
961179496
961180102
961180136
961181543
961182016
961183944
961189768
961190831
961195146
961196212
961196501
961199083
961199378
961201649
961204006
961203924
961204443
961204545
961206333
961206267
961206839
961213242
961214214
961215985
961221332
961222583
961224994
961225117
961227901
961228919
961229152
961229673
961229907
961233306
961235803
961235965
961240904
961240939
961241421
961245845
961246660
961247372
961250432
961250366
961250760
961251061
961257108
961257672
961258296
961261012
961261078
961265111
961264711
961265041
961265694
961268232
961270376
961270890
961272589
961272748
961272925
961273732
961273793
961274200
961274497
961275003
961277275
961278827
961280337
961282059
961285906
961285770
961286202
961289679
961291064
961291965
961296513
961297253
961297827
961298830
961299339
961300638
961301521
961301805
961303508
961302789
961304393
961305547
961306186
961308123
961308882
961309090
961309439
961310376
961312061
961312097
961314644
961314973
961315073
961315167
961317718
961319407
961320239
961322519
961323985
961324117
961324350
961324933
961327360
961328271
961328289
961333132
961333739
961334047
961334404
961336185
961338216
961337944
961339987
961340420
961340877
961343305
961345534
961347477
961351741
961351884
961353722
961357916
961358094
961358932
961358703
961359118
961359115
961367239
961368841
961372729
961373620
961377509
961378147
961379686
961381989
961383124
961384034
961384845
961385856
961387703
961389574
961395044
961395166
961394777
961397675
961397793
961400000
961403645
961403852
961406378
961409211
961413679
961413985
961414924
961418022
961420452
961420731
961422166
961423932
961423642
961429359
961431347
961433001
961433390
961433476
961435041
961437601
961440169
961440260
961443223
961445336
961446229
961446720
961451292
961453072
961453670
961455032
961456864
961456964
961458161
961460063
961460740
961461468
961462486
961465436
961469698
961471712
961472831
961476557
961477151
961477843
961478200
961479922
961481534
961484759
961484918
961486562
961487333
961488964
961490796
961494331
961494437
961494956
961496122
961499089
961503977
961504526
961508294
961511398
961512523
961512878
961514161
961518815
961520557
961524898
961526055
961528807
961533330
961536881
961539552
961546734
961549310
961549640
961551291
961553704
961558277
961558776
961558874
961559822
961560628
961561354
961561731
961561601
961562434
961563180
961564145
961564714
961565826
961574847
961577883
961577778
961577947
961578122
961578569
961578676
961579200
961579409
961579785
961582197
961582721
961584045
961584336
961585143
961584339
961586808
961591536
961592023
961592699
961594613
961594662
961597183
961598791
961600303
961600832
961602672
961603235
961603491
961603820
961604686
961604869
961610720
961610746
961612686
961616407
961618750
961620248
961620544
961621981
961625267
961625576
961627906
961629538
961629964
961631669
961633143
961633662
961634611
961634880
961635793
961636397
961642590
961646976
961648915
961650368
961651837
961652579
961655302
961657034
961657502
961660139
961661010
961659771
961661683
961663264
961663387
961668990
961669083
961674886
961676255
961676747
961677606
961678438
961678938
961678753
961679538
961681022
961680970
961682730
961683656
961685650
961685696
961687621
961687791
961688935
961697835
961700089
961700817
961701318
961701587
961701765
961702486
961703067
961703969
961705677
961707174
961708183
961708750
961710044
961710919
961712471
961713518
961713686
961714221
961714693
961716900
961717611
961718102
961719332
961721386
961727484
961730867
961732602
961732946
961733568
961734543
961742476
961745449
961745590
961747577
961748862
961750252
961753498
961756911
961757083
961757632
961757701
961758207
961759102
961763525
961765463
961765694
961772799
961773481
961776621
961780361
961781142
961781803
961782423
961782562
961783007
961783966
961784142
961785181
961785633
961787824
961787963
961789096
961789247
961789699
961790308
961791381
961792289
961792969
961794342
961795676
961796423
961799236
961802807
961803130
961805869
961806398
961812560
961814522
961817811
961818673
961821495
961824798
961825524
961830414
961831687
961831835
961831528
961832556
961833260
961833651
961834195
961834358
961836428
961837793
961840001
961844849
961849088
961850013
961850788
961852903
961853022
961853289
961853728
961853941
961855690
961856569
961857516
961857662
961858317
961861431
961864123
961864537
961865249
961865257
961868279
961868077
961868624
961869782
961873525
961878200
961879222
961883021
961883791
961884540
961890959
961891472
961891708
961892520
961896968
961898420
961898391
961899082
961902771
961903822
961906238
961906883
961908730
961909051
961909397
961912511
961913881
961916641
961919238
961926166
961928948
961929347
961933537
961934656
961936369
961937341
961938035
961938125
961942243
961943060
961942913
961944153
961946072
961947856
961947979
961948964
961949037
961949429
961951059
961952217
961956655
961959065
961959949
961960842
961962277
961967301
961970092
961971549
961972379
961972558
961971603
961973293
961976087
961977041
961978011
961978548
961980545
961982054
961982177
961983502
961985920
961989570
961990266
961990112
961993939
961996285
961997384
961997957
961997863
961997985
961999370
962002311
962005355
962005513
962007417
962014491
962016817
962018226
962021700
962024398
962024866
962025671
962025884
962026947
962027248
962028288
962028605
962029650
962037536
962038689
962039633
962039701
962039536
962040965
962041712
962043294
962043596
962047129
962047812
962049352
962054182
962054116
962055203
962056490
962058518
962060993
962061003
962063203
962066022
962066307
962068101
962069187
962070494
962071508
962071833
962072642
962075060
962075712
962076173
962076474
962078117
962080618
962082831
962084590
962084715
962085121
962087056
962087586
962088215
962088955
962089859
962092224
962093280
962095064
962098752
962100055
962100863
962100491
962105246
962105645
962106814
962108957
962109879
962110914
962113395
962116078
962119453
962121440
962122329
962123173
962123131
962123625
962123969
962123998
962126206
962126697
962127647
962127736
962129885
962130539
962133582
962134202
962136442
962137303
962138842
962140200
962140670
962142083
962143157
962143949
962144538
962144585
962145754
962147472
962148960
962150119
962151535
962154969
962157021
962158870
962160489
962161997
962162108
962166316
962167089
962174482
962175679
962179021
962180403
962181655
962183355
962184897
962187301
962190502
962192135
962192528
962195827
962202926
962204052
962205124
962205623
962210658
962209693
962212266
962215353
962217093
962217473
962217683
962219105
962221444
962222926
962224369
962224662
962226882
962227534
962227545
962229030
962233546
962234142
962238347
962238946
962239005
962241068
962241534
962242625
962242914
962246188
962246451
962246453
962251780
962252626
962253556
962256991
962261861
962263558
962264018
962264400
962275945
962276003
962275805
962276026
962276961
962277482
962278076
962279115
962280353
962280973
962281376
962281421
962285638
962287531
962289277
962292974
962293052
962293635
962294512
962295262
962299467
962300948
962301104
962301565
962302691
962303271
962310723
962310477
962311687
962318174
962318075
962318421
962319839
962320126
962320418
962321197
962322150
962322730
962323023
962323516
962325265
962326439
962327657
962327798
962328046
962331609
962331766
962332187
962339863
962340229
962341712
962344394
962344570
962344916
962346060
962348658
962351318
962351949
962351837
962355412
962357220
962358002
962361281
962362716
962362053
962364694
962364758
962368964
962370590
962371201
962371478
962374596
962374617
962375818
962380337
962380802
962380998
962384340
962385158
962386387
962386795
962387813
962388293
962388469
962389834
962392120
962395987
962397224
962397907
962398080
962401116
962402004
962402238
962403480
962403687
962407310
962411269
962411598
962411962
962412138
962413319
962413010
962414352
962415396
962417938
962420533
962421759
962422644
962422841
962425481
962426064
962427491
962430969
962431850
962433206
962436210
962437661
962438575
962438785
962439382
962439998
962442869
962443426
962443495
962445136
962446843
962447147
962447334
962447594
962448290
962449307
962449454
962449523
962451083
962451804
962451845
962453159
962453632
962453818
962454197
962455550
962457919
962459842
962461224
962463249
962463817
962466838
962468967
962469496
962471634
962474904
962474624
962475495
962476245
962476465
962477978
962478797
962481449
962483925
962486365
962487685
962487765
962490751
962490383
962491465
962491811
962496098
962496009
962496512
962498369
962499060
962500260
962500930
962503212
962504562
962507720
962510225
962514320
962515393
962515785
962516558
962521284
962525066
962525069
962526139
962530668
962532985
962533543
962534854
962535360
962536314
962536938
962538220
962541022
962542818
962542809
962546055
962547587
962549939
962549811
962551179
962552214
962553083
962553086
962555782
962558388
962558102
962559144
962563156
962567863
962567688
962569902
962570233
962573467
962576609
962576929
962576770
962579489
962579591
962580244
962584768
962584909
962585469
962586142
962590316
962590591
962591460
962595603
962595925
962597284
962596999
962596889
962599947
962600639
962602229
962602494
962602981
962604375
962606388
962609660
962611243
962614062
962615059
962616059
962617166
962617600
962620500
962622052
962624784
962628051
962628465
962629738
962630213
962632498
962633763
962634096
962638628
962638260
962641641
962642706
962643608
962645717
962647150
962647794
962649256
962652582
962652809
962653193
962655488
962657289
962659723
962659806
962660997
962661417
962664068
962665130
962665525
962668859
962669265
962669753
962672812
962675129
962676206
962678292
962678685
962679307
962680201
962680306
962681792
962682804
962685197
962686569
962691427
962691846
962692070
962692886
962692724
962694603
962695422
962697446
962698779
962699966
962700041
962700405
962701557
962701601
962707973
962709047
962713475
962714640
962714766
962716462
962716648
962716791
962716862
962717970
962717858
962719572
962723556
962723628
962725845
962726470
962727090
962729839
962730326
962730448
962732978
962735333
962736274
962737482
962737516
962743678
962744308
962744966
962746841
962747057
962747280
962749486
962750306
962750558
962750667
962750955
962752999
962753499
962756741
962757774
962760033
962760784
962762111
962763526
962764993
962766288
962771827
962773447
962774048
962774416
962778116
962783732
962787601
962789136
